magic, rank, use_smpi, time, delta, comment
#~#, 10, 0, 0.000002, 0.000002, Set initial model
#~#, 10, 0, 0.100719, 0.100717, After MPI_Init
#~#, 10, 0, 0.104804, 0.004085, After HPL_pdinfo
#~#, 10, 0, 0.105786, 0.000982, After HPL_grid_info
