magic, rank, use_smpi, time, delta, comment
#~#, 2, 0, 0.000002, 0.000002, Set initial model
#~#, 2, 0, 0.100735, 0.100734, After MPI_Init
#~#, 2, 0, 0.104802, 0.004067, After HPL_pdinfo
#~#, 2, 0, 0.105785, 0.000983, After HPL_grid_info
