magic, rank, use_smpi, time, delta, comment
#~#, 5, 0, 0.000001, 0.000001, Set initial model
#~#, 5, 0, 0.101485, 0.101484, After MPI_Init
#~#, 5, 0, 0.104806, 0.003321, After HPL_pdinfo
#~#, 5, 0, 0.105784, 0.000978, After HPL_grid_info
