Model, N, nodes, ppn, Gflops, WallClockTime
model, 10000, 4, 4, 260.5, 28.179
model, 1250, 4, 4, 18.28, 4.869
model, 15000, 4, 4, 320.9, 44.969
model, 20000, 4, 4, 358.6, 62.074
model, 2500, 4, 4, 57.27, 7.854
model, 5000, 4, 4, 142, 14.453
s4bxi, 10000, 4, 4, 261.2, 28.403
s4bxi, 1250, 4, 4, 17.97, 4.988
s4bxi, 15000, 4, 4, 320.8, 45.045
s4bxi, 20000, 4, 4, 357.6, 62.678
s4bxi, 2500, 4, 4, 58.52, 7.66
s4bxi, 5000, 4, 4, 142.8, 14.636
smpi, 10000, 4, 4, 290.6, 9.215
smpi, 1250, 4, 4, 21.6, 3.158
smpi, 15000, 4, 4, 348.3, 12.77
smpi, 20000, 4, 4, 381.1, 16.372
smpi, 2500, 4, 4, 68.67, 4.045
smpi, 3750, 4, 4, 119.8, 4.905
smpi, 5000, 4, 4, 167.3, 5.756
smpi, 7500, 4, 4, 241.6, 7.5
smpirun, 10000, 4, 4, 275, 2.998
smpirun, 1250, 4, 4, 17.12, 0.43
smpirun, 15000, 4, 4, 339.4, 4.427
smpirun, 1875, 4, 4, 36.67, 0.614
smpirun, 20000, 4, 4, 373, 5.885
smpirun, 2500, 4, 4, 60.23, 0.803
smpirun, 3750, 4, 4, 103.9, 1.21
smpirun, 5000, 4, 4, 148, 1.575
smpirun, 7500, 4, 4, 224.2, 2.298
