magic, rank, use_smpi, time, delta, comment
#~#, 0, 0, 0.000004, 0.000004, Set initial model
#~#, 0, 0, 0.104648, 0.104645, After MPI_Init
#~#, 0, 0, 0.107391, 0.002743, After HPL_pdinfo
#~#, 0, 0, 0.108331, 0.000939, After HPL_grid_info
