magic, rank, use_smpi, time, delta, comment
#~#, 10, 0, 0.000003, 0.000003, Set initial model
#~#, 10, 1, 1.078909, 1.078906, Before pdupdate
#~#, 10, 0, 1.249286, 0.170377, Before pdupdate
#~#, 10, 1, 1.376019, 0.126734, Before pdupdate
#~#, 10, 0, 1.453840, 0.077821, Before pdupdate
#~#, 10, 1, 1.510073, 0.056232, Before pdupdate
#~#, 10, 0, 1.537342, 0.027270, Before pdupdate
