magic, rank, use_smpi, time, delta, comment
#~#, 14, 0, 0.000002, 0.000002, Set initial model
#~#, 14, 1, 1.078869, 1.078867, Before pdupdate
#~#, 14, 0, 1.249266, 0.170397, Before pdupdate
#~#, 14, 1, 1.376001, 0.126735, Before pdupdate
#~#, 14, 0, 1.453848, 0.077847, Before pdupdate
#~#, 14, 1, 1.510052, 0.056204, Before pdupdate
#~#, 14, 0, 1.537359, 0.027307, Before pdupdate
