magic, rank, use_smpi, time, delta, comment
#~#, 3, 0, 0.000003, 0.000003, Set initial model
#~#, 3, 1, 1.079144, 1.079141, Before pdupdate
#~#, 3, 0, 1.248907, 0.169763, Before pdupdate
#~#, 3, 1, 1.376169, 0.127262, Before pdupdate
#~#, 3, 0, 1.453640, 0.077471, Before pdupdate
#~#, 3, 1, 1.510184, 0.056544, Before pdupdate
#~#, 3, 0, 1.537281, 0.027097, Before pdupdate
