[0.000000] [xbt_cfg/INFO] Configuration change: Set 'smpi/cpu-threshold' to '1e-9'
[0.000000] [xbt_cfg/INFO] Configuration change: Set 'smpi/host-speed' to '10000Mf'
[0.000000] [xbt_cfg/INFO] Configuration change: Set 'surf/precision' to '1e-9'
[0.000000] [xbt_cfg/INFO] Configuration change: Set 'network/loopback-lat' to '0'
[0.000000] [xbt_cfg/INFO] Configuration change: Set 'network/loopback-bw' to '999e9'
[0.000000] [xbt_cfg/INFO] Configuration change: Set 'network/model' to 'CM02'
[0.000000] [xbt_cfg/INFO] Configuration change: Set 'smpi/os' to '0:2.2617745265427535e-06:2.703352029721588e-10;392:2.8385604119907807e-06:1.1264760290330328e-10;32712:0.0:0.0;186836:0.0:0.0;1538469:0.0:0.0'
[0.000000] [xbt_cfg/INFO] Configuration change: Set 'smpi/or' to '0:4.879281137093516e-07:2.2618415203462987e-10;392:5.779857092751072e-07:3.8094447278873e-11;32712:0.0:0.0;186836:0.0:0.0;1538469:0.0:0.0'
[0.000000] [xbt_cfg/INFO] Configuration change: Set 'smpi/ois' to '0:5.673519212129521e-07:7.174648137343064e-43;392:5.446695252027938e-07:1.9686168165027744e-11;32712:5.536713106693264e-07:5.082661224033066e-13;186836:5.49289659548938e-07:3.189291810074661e-14;1538469:4.306002121584747e-07:4.21325930847998e-14'
[0.000000] [xbt_cfg/INFO] Configuration change: Set 'smpi/bw-factor' to '0:0.2699228069054274;392:0.7647794357220394;32712:0.9664149337828888;186836:0.9243880418172589;1538469:0.9732858005841204'
[0.000000] [xbt_cfg/INFO] Configuration change: Set 'smpi/lat-factor' to '0:2.7676182391675814;392:3.9432860784637396;32712:10.117401654450653;186836:7.810638891189083;1538469:18.84747638996546'
[0.000000] [xbt_cfg/INFO] Configuration change: Set 'smpi/async-small-thresh' to '32712'
[0.000000] [xbt_cfg/INFO] Configuration change: Set 'smpi/send-is-detached-thresh' to '32712'
[0.000000] [xbt_cfg/INFO] Configuration change: Set 'smpi/iprobe' to '1.9586518031175638e-07'
[0.000000] [xbt_cfg/INFO] Configuration change: Set 'smpi/test' to '1.1523121197560569e-07'
[0.000000] [xbt_cfg/INFO] Configuration change: Set 'smpi/coll-selector' to 'ompi'
[0.000000] [smpi_coll/INFO] Switch to algorithm ompi for collective gather
[0.000000] [smpi_coll/INFO] Switch to algorithm ompi for collective allgather
[0.000000] [smpi_coll/INFO] Switch to algorithm ompi for collective allgatherv
[0.000000] [smpi_coll/INFO] Switch to algorithm ompi for collective allreduce
[0.000000] [smpi_coll/INFO] Switch to algorithm ompi for collective alltoall
[0.000000] [smpi_coll/INFO] Switch to algorithm ompi for collective alltoallv
[0.000000] [smpi_coll/INFO] Switch to algorithm ompi for collective reduce
[0.000000] [smpi_coll/INFO] Switch to algorithm ompi for collective reduce_scatter
[0.000000] [smpi_coll/INFO] Switch to algorithm ompi for collective scatter
[0.000000] [smpi_coll/INFO] Switch to algorithm ompi for collective bcast
[0.000000] [smpi_coll/INFO] Switch to algorithm ompi for collective barrier
[0.000000] [smpi_coll/INFO] Switch to algorithm ompi for collective gather
[0.000000] [smpi_coll/INFO] Switch to algorithm ompi for collective allgather
[0.000000] [smpi_coll/INFO] Switch to algorithm ompi for collective allgatherv
[0.000000] [smpi_coll/INFO] Switch to algorithm ompi for collective allreduce
[0.000000] [smpi_coll/INFO] Switch to algorithm ompi for collective alltoall
[0.000000] [smpi_coll/INFO] Switch to algorithm ompi for collective alltoallv
[0.000000] [smpi_coll/INFO] Switch to algorithm ompi for collective reduce
[0.000000] [smpi_coll/INFO] Switch to algorithm ompi for collective reduce_scatter
[0.000000] [smpi_coll/INFO] Switch to algorithm ompi for collective scatter
[0.000000] [smpi_coll/INFO] Switch to algorithm ompi for collective bcast
[0.000000] [smpi_coll/INFO] Switch to algorithm ompi for collective barrier
[amour1_CPU0:user_app:(1) 0.000000] [s4bxi_main_actor/INFO] Setup with nid = 1, model_pci = 1 ; e2e_off = 0
[amour2_CPU0:user_app:(7) 0.000000] [s4bxi_main_actor/INFO] Setup with nid = 2, model_pci = 1 ; e2e_off = 0
[amour3_CPU0:user_app:(13) 0.000000] [s4bxi_main_actor/INFO] Setup with nid = 3, model_pci = 1 ; e2e_off = 0
[amour4_CPU0:user_app:(19) 0.000000] [s4bxi_main_actor/INFO] Setup with nid = 4, model_pci = 1 ; e2e_off = 0
[amour5_CPU0:user_app:(25) 0.000000] [s4bxi_main_actor/INFO] Setup with nid = 5, model_pci = 1 ; e2e_off = 0
[amour6_CPU0:user_app:(31) 0.000000] [s4bxi_main_actor/INFO] Setup with nid = 6, model_pci = 1 ; e2e_off = 0
[amour7_CPU0:user_app:(37) 0.000000] [s4bxi_main_actor/INFO] Setup with nid = 7, model_pci = 1 ; e2e_off = 0
[amour8_CPU0:user_app:(43) 0.000000] [s4bxi_main_actor/INFO] Setup with nid = 8, model_pci = 1 ; e2e_off = 0
[amour9_CPU0:user_app:(49) 0.000000] [s4bxi_main_actor/INFO] Setup with nid = 9, model_pci = 1 ; e2e_off = 0
[amour1_CPU0:user_app:(1) 0.000000] [user_app/INFO] Init rank 0 ; local_rank 0
[amour2_CPU0:user_app:(7) 0.000000] [user_app/INFO] Init rank 1 ; local_rank 0
[amour3_CPU0:user_app:(13) 0.000000] [user_app/INFO] Init rank 2 ; local_rank 0
[amour4_CPU0:user_app:(19) 0.000000] [user_app/INFO] Init rank 3 ; local_rank 0
[amour5_CPU0:user_app:(25) 0.000000] [user_app/INFO] Init rank 4 ; local_rank 0
[amour6_CPU0:user_app:(31) 0.000000] [user_app/INFO] Init rank 5 ; local_rank 0
[amour7_CPU0:user_app:(37) 0.000000] [user_app/INFO] Init rank 6 ; local_rank 0
[amour8_CPU0:user_app:(43) 0.000000] [user_app/INFO] Init rank 7 ; local_rank 0
[amour9_CPU0:user_app:(49) 0.000000] [user_app/INFO] Init rank 8 ; local_rank 0
[amour1_NIC:nic_e2e:(6) 0.000000] [s4bxi_nic_e2e/INFO] E2E was configured with timeout = 10.000000 and retries = 5
[amour2_NIC:nic_e2e:(12) 0.000000] [s4bxi_nic_e2e/INFO] E2E was configured with timeout = 10.000000 and retries = 5
[amour3_NIC:nic_e2e:(18) 0.000000] [s4bxi_nic_e2e/INFO] E2E was configured with timeout = 10.000000 and retries = 5
[amour4_NIC:nic_e2e:(24) 0.000000] [s4bxi_nic_e2e/INFO] E2E was configured with timeout = 10.000000 and retries = 5
[amour5_NIC:nic_e2e:(30) 0.000000] [s4bxi_nic_e2e/INFO] E2E was configured with timeout = 10.000000 and retries = 5
[amour6_NIC:nic_e2e:(36) 0.000000] [s4bxi_nic_e2e/INFO] E2E was configured with timeout = 10.000000 and retries = 5
[amour7_NIC:nic_e2e:(42) 0.000000] [s4bxi_nic_e2e/INFO] E2E was configured with timeout = 10.000000 and retries = 5
[amour8_NIC:nic_e2e:(48) 0.000000] [s4bxi_nic_e2e/INFO] E2E was configured with timeout = 10.000000 and retries = 5
[amour9_NIC:nic_e2e:(54) 0.000000] [s4bxi_nic_e2e/INFO] E2E was configured with timeout = 10.000000 and retries = 5
[amour1_CPU0:user_app:(1) 0.000000] [user_app/INFO] Extracting symbols from Bull lib 0x10ce0e0 (niEtiq0so.40) and SMPI lib 0x7ff8a7f9a850
[amour2_CPU0:user_app:(7) 0.000000] [user_app/INFO] Extracting symbols from Bull lib 0x10d26e0 (niEtiq1so.40) and SMPI lib 0x7ff8a7f9a850
[amour3_CPU0:user_app:(13) 0.000000] [user_app/INFO] Extracting symbols from Bull lib 0x10d50e0 (niEtiq2so.40) and SMPI lib 0x7ff8a7f9a850
[amour4_CPU0:user_app:(19) 0.000000] [user_app/INFO] Extracting symbols from Bull lib 0x10d7a40 (niEtiq3so.40) and SMPI lib 0x7ff8a7f9a850
[amour5_CPU0:user_app:(25) 0.000000] [user_app/INFO] Extracting symbols from Bull lib 0x10da770 (niEtiq4so.40) and SMPI lib 0x7ff8a7f9a850
[amour6_CPU0:user_app:(31) 0.000000] [user_app/INFO] Extracting symbols from Bull lib 0x10dd410 (niEtiq5so.40) and SMPI lib 0x7ff8a7f9a850
[amour7_CPU0:user_app:(37) 0.000000] [user_app/INFO] Extracting symbols from Bull lib 0x10e00b0 (niEtiq6so.40) and SMPI lib 0x7ff8a7f9a850
[amour8_CPU0:user_app:(43) 0.000000] [user_app/INFO] Extracting symbols from Bull lib 0x10e2de0 (niEtiq7so.40) and SMPI lib 0x7ff8a7f9a850
[amour9_CPU0:user_app:(49) 0.000000] [user_app/INFO] Extracting symbols from Bull lib 0x10e5d40 (niEtiq8so.40) and SMPI lib 0x7ff8a7f9a850
#~#, 8, 0, 0.000001, 0.000001, Set initial model
#~#, 6, 0, 0.000002, 0.000002, Set initial model
#~#, 7, 0, 0.000002, 0.000002, Set initial model
#~#, 5, 0, 0.000002, 0.000002, Set initial model
#~#, 3, 0, 0.000003, 0.000003, Set initial model
#~#, 4, 0, 0.000003, 0.000003, Set initial model
#~#, 1, 0, 0.000003, 0.000003, Set initial model
#~#, 2, 0, 0.000003, 0.000003, Set initial model
#~#, 0, 0, 0.000006, 0.000006, Set initial model
#~#, 8, 0, 0.342692, 0.342692, After MPI_Init
#~#, 6, 0, 0.342855, 0.342853, After MPI_Init
#~#, 7, 0, 0.343022, 0.343020, After MPI_Init
#~#, 5, 0, 0.343193, 0.343191, After MPI_Init
#~#, 3, 0, 0.343354, 0.343351, After MPI_Init
#~#, 4, 0, 0.343540, 0.343538, After MPI_Init
#~#, 1, 0, 0.343706, 0.343703, After MPI_Init
#~#, 2, 0, 0.343875, 0.343872, After MPI_Init
#~#, 0, 0, 0.344037, 0.344031, After MPI_Init
#~#, 8, 0, 0.344381, 0.001689, After HPL_pdinfo
#~#, 7, 0, 0.344395, 0.001374, After HPL_pdinfo
#~#, 3, 0, 0.344396, 0.001042, After HPL_pdinfo
#~#, 5, 0, 0.344396, 0.001203, After HPL_pdinfo
#~#, 6, 0, 0.344396, 0.001541, After HPL_pdinfo
#~#, 1, 0, 0.344396, 0.000690, After HPL_pdinfo
#~#, 4, 0, 0.344396, 0.000856, After HPL_pdinfo
#~#, 2, 0, 0.344397, 0.000522, After HPL_pdinfo
#~#, 0, 0, 0.344450, 0.000413, After HPL_pdinfo
#~#, 0, 0, 0.345134, 0.000684, After HPL_grid_info
#~#, 1, 0, 0.345134, 0.000738, After HPL_grid_info
#~#, 8, 0, 0.345134, 0.000753, After HPL_grid_info
#~#, 4, 0, 0.345135, 0.000739, After HPL_grid_info
#~#, 2, 0, 0.345135, 0.000738, After HPL_grid_info
#~#, 5, 0, 0.345136, 0.000740, After HPL_grid_info
#~#, 3, 0, 0.345136, 0.000740, After HPL_grid_info
#~#, 6, 0, 0.345136, 0.000740, After HPL_grid_info
#~#, 7, 0, 0.345137, 0.000741, After HPL_grid_info
[amour8_CPU0:user_app:(43) 57.186165] [s4bxi_redefine/INFO] User code exited gracefully
[amour8_CPU0:user_app:(43) 57.186165] ../src/xbt/exception.cpp:107: [xbt_exception/ERROR] Received a ForcefulKillException at the top-level exception handler. Maybe a Java->C++ call that is not protected in a try/catch?
[amour8_CPU0:user_app:(43) 57.186165] ../src/xbt/exception.cpp:75: [xbt_exception/CRITICAL] Current backtrace:
  ->  0# 0x00007FF8A74F2ED9 in /tmp/opt/simgrid/lib64/libsimgrid.so.3.31.1
  ->  1# 0x00007FF8A6EE253C in /lib64/libstdc++.so.6
  ->  2# 0x00007FF8A6EE1559 in /lib64/libstdc++.so.6
  ->  3# __gxx_personality_v0 in /lib64/libstdc++.so.6
  ->  4# 0x00007FF8A68C2B03 in /lib64/libgcc_s.so.1
  ->  5# _Unwind_Resume in /lib64/libgcc_s.so.1
  ->  6# 0x00007FF8A74DD69A in /tmp/opt/simgrid/lib64/libsimgrid.so.3.31.1
  ->  7# s4bxi_exit in /tmp/opt/s4bxi/lib/libportals.so.1
  ->  8# main in ./xhpl_niEtiqDlEx_7.so

[pm0-nod12:3290333] *** Process received signal ***
[pm0-nod12:3290333] Signal: Aborted (6)
[pm0-nod12:3290333] Signal code:  (-6)
[pm0-nod12:3290333] [ 0] /lib64/libc.so.6(+0x37400)[0x7ff8a6524400]
[pm0-nod12:3290333] [ 1] /lib64/libc.so.6(gsignal+0x10f)[0x7ff8a652437f]
[pm0-nod12:3290333] [ 2] /lib64/libc.so.6(abort+0x127)[0x7ff8a650edb5]
[pm0-nod12:3290333] [ 3] /tmp/opt/simgrid/lib64/libsimgrid.so.3.31.1(+0x10deab)[0x7ff8a74f2eab]
[pm0-nod12:3290333] [ 4] /lib64/libstdc++.so.6(+0x9653c)[0x7ff8a6ee253c]
[pm0-nod12:3290333] [ 5] /lib64/libstdc++.so.6(+0x95559)[0x7ff8a6ee1559]
[pm0-nod12:3290333] [ 6] /lib64/libstdc++.so.6(__gxx_personality_v0+0x2a8)[0x7ff8a6ee1ed8]
[pm0-nod12:3290333] [ 7] /lib64/libgcc_s.so.1(+0x10b03)[0x7ff8a68c2b03]
[pm0-nod12:3290333] [ 8] /lib64/libgcc_s.so.1(_Unwind_Resume+0x12d)[0x7ff8a68c341d]
[pm0-nod12:3290333] [ 9] /tmp/opt/simgrid/lib64/libsimgrid.so.3.31.1(+0xf869a)[0x7ff8a74dd69a]
[pm0-nod12:3290333] [10] /tmp/opt/s4bxi/lib/libportals.so.1(s4bxi_exit+0x2e)[0x7ff8a7b041fe]
[pm0-nod12:3290333] [11] ./xhpl_niEtiqDlEx_7.so(main+0x64c)[0x7ff88270a2ac]
[pm0-nod12:3290333] [12] /tmp/opt/s4bxi/lib/libportals.so.1(_ZN15BxiUserAppActorclEv+0x184d)[0x7ff8a7aeddad]
[pm0-nod12:3290333] [13] /tmp/opt/s4bxi/lib/libportals.so.1(_ZZZN7simgrid3s4u6Engine14register_actorI15BxiUserAppActorEEvRKNSt7__cxx1112basic_stringIcSt11char_traitsIcESaIcEEEENKUlSt6vectorIS9_SaIS9_EEE_clESE_ENUlvE_clEv+0x21)[0x7ff8a7af3a81]
[pm0-nod12:3290333] [14] /tmp/opt/simgrid/lib64/libsimgrid.so.3.31.1(smx_ctx_wrapper+0x17)[0x7ff8a754e0f7]
[pm0-nod12:3290333] *** End of error message ***
./s4bxi_run_vanilla.sh: line 90: 3290333 Aborted                 (core dumped) s4bximain $PLATFORMDIR/amour/build/libamour.so ./deploy.xml ./xhpl xhpl --cfg=smpi/cpu-threshold:${S4BXI_CPU_THRESHOLD} --cfg=smpi/host-speed:$(bc <<< "10000 * ${S4BXI_CPU_FACTOR}")Mf

real	18m18.720s
user	17m27.085s
sys	0m48.216s
