_#_,960,60,0,21110
_#_,960,30,0,640
_#_,960,16,0,429
_#_,960,8,0,380
_#_,960,4,0,340
_#_,960,2,0,349
_#_,958,2,2,2310
_#_,956,4,4,2850
_#_,956,2,0,650
_#_,954,2,2,970
_#_,952,8,8,4410
_#_,952,4,0,430
_#_,952,2,0,360
_#_,950,2,2,910
_#_,948,4,4,1490
_#_,948,2,0,450
_#_,946,2,2,749
_#_,944,14,16,14700
_#_,944,8,0,480
_#_,944,4,0,369
_#_,944,2,0,349
_#_,942,2,2,850
_#_,940,4,4,1440
_#_,940,2,0,440
_#_,938,2,2,780
_#_,936,6,8,3090
_#_,936,4,0,440
_#_,936,2,0,370
_#_,934,2,2,840
_#_,932,2,4,800
_#_,930,30,30,60969
_#_,930,16,0,570
_#_,930,8,0,380
_#_,930,4,0,360
_#_,930,2,0,360
_#_,928,2,2,690
_#_,926,4,4,1720
_#_,926,2,0,470
_#_,924,2,2,630
_#_,922,8,8,4300
_#_,922,4,0,470
_#_,922,2,0,350
_#_,920,2,2,650
_#_,918,4,4,1660
_#_,918,2,0,440
_#_,916,2,2,620
_#_,914,14,16,11790
_#_,914,8,0,470
_#_,914,4,0,360
_#_,914,2,0,350
_#_,912,2,2,610
_#_,910,4,4,1700
_#_,910,2,0,460
_#_,908,2,2,630
_#_,906,6,8,3210
_#_,906,4,0,450
_#_,906,2,0,380
_#_,904,2,2,610
_#_,902,2,4,920
_#_,900,60,60,141830
_#_,900,30,0,650
_#_,900,16,0,410
_#_,900,8,0,370
_#_,900,4,0,340
_#_,900,2,0,340
_#_,898,2,2,809
_#_,896,4,4,1320
_#_,896,2,0,489
_#_,894,2,2,739
_#_,892,8,8,3600
_#_,892,4,0,460
_#_,892,2,0,370
_#_,890,2,2,750
_#_,888,4,4,1390
_#_,888,2,0,460
_#_,886,2,2,820
_#_,884,14,16,10360
_#_,884,8,0,510
_#_,884,4,0,370
_#_,884,2,0,340
_#_,882,2,2,730
_#_,880,4,4,1280
_#_,880,2,0,450
_#_,878,2,2,740
_#_,876,6,8,2931
_#_,876,4,0,460
_#_,876,2,0,370
_#_,874,2,2,770
_#_,872,2,4,760
_#_,870,30,30,39520
_#_,870,16,0,610
_#_,870,8,0,380
_#_,870,4,0,350
_#_,870,2,0,350
_#_,868,2,2,610
_#_,866,4,4,1650
_#_,866,2,0,430
_#_,864,2,2,580
_#_,862,8,8,3960
_#_,862,4,0,480
_#_,862,2,0,369
_#_,860,2,2,630
_#_,858,4,4,1610
_#_,858,2,0,470
_#_,856,2,2,620
_#_,854,14,16,11170
_#_,854,8,0,500
_#_,854,4,0,360
_#_,854,2,0,360
_#_,852,2,2,580
_#_,850,4,4,1580
_#_,850,2,0,440
_#_,848,2,2,570
_#_,846,6,8,2940
_#_,846,4,0,460
_#_,846,2,0,371
_#_,844,2,2,591
_#_,842,2,4,890
_#_,840,3631,120,16579653
_#_,840,60,0,1090
_#_,840,30,0,440
_#_,840,16,0,389
_#_,840,8,0,360
_#_,840,4,0,351
_#_,840,2,0,351
_#_,840,2,2,730
_#_,840,4,4,1330
_#_,840,2,0,480
_#_,840,2,2,580
_#_,840,8,8,3510
_#_,840,4,0,440
_#_,840,2,0,370
_#_,840,2,2,569
_#_,840,4,4,1229
_#_,840,2,0,431
_#_,840,2,2,580
_#_,840,14,16,10000
_#_,840,8,0,480
_#_,840,4,0,370
_#_,840,2,0,340
_#_,840,2,2,570
_#_,840,4,4,1200
_#_,840,2,0,420
_#_,840,2,2,560
_#_,840,6,8,2760
_#_,840,4,0,460
_#_,840,2,0,360
_#_,840,2,2,610
_#_,840,2,4,709
_#_,840,30,30,36189
_#_,840,16,0,600
_#_,840,8,0,380
_#_,840,4,0,350
_#_,840,2,0,330
_#_,840,2,2,600
_#_,840,4,4,1220
_#_,840,2,0,440
_#_,840,2,2,550
_#_,840,8,8,3380
_#_,840,4,0,410
_#_,840,2,0,360
_#_,840,2,2,610
_#_,840,4,4,1189
_#_,840,2,0,400
_#_,840,2,2,580
_#_,840,14,16,10770
_#_,840,8,0,490
_#_,840,4,0,360
_#_,840,2,0,370
_#_,840,2,2,560
_#_,840,4,4,1210
_#_,840,2,0,420
_#_,840,2,2,550
_#_,840,6,8,2730
_#_,840,4,0,420
_#_,840,2,0,360
_#_,840,2,2,570
_#_,840,2,4,680
_#_,840,60,60,128529
_#_,840,30,0,660
_#_,840,16,0,400
_#_,840,8,0,360
_#_,840,4,0,350
_#_,840,2,0,350
_#_,840,2,2,570
_#_,840,4,4,1259
_#_,840,2,0,420
_#_,840,2,2,560
_#_,840,8,8,3370
_#_,840,4,0,420
_#_,840,2,0,360
_#_,840,2,2,570
_#_,840,4,4,1200
_#_,840,2,0,420
_#_,840,2,2,570
_#_,840,14,16,10140
_#_,840,8,0,480
_#_,840,4,0,360
_#_,840,2,0,340
_#_,840,2,2,590
_#_,840,4,4,1320
_#_,840,2,0,450
_#_,840,2,2,530
_#_,840,6,8,2811
_#_,840,4,0,451
_#_,840,2,0,371
_#_,840,2,2,670
_#_,840,2,4,720
_#_,840,30,30,35950
_#_,840,16,0,610
_#_,840,8,0,380
_#_,840,4,0,340
_#_,840,2,0,340
_#_,840,2,2,570
_#_,840,4,4,1210
_#_,840,2,0,420
_#_,840,2,2,550
_#_,840,8,8,3480
_#_,840,4,0,429
_#_,840,2,0,351
_#_,840,2,2,540
_#_,840,4,4,1250
_#_,840,2,0,420
_#_,840,2,2,550
_#_,840,14,16,9980
_#_,840,8,0,510
_#_,840,4,0,370
_#_,840,2,0,350
_#_,840,2,2,550
_#_,840,4,4,1250
_#_,840,2,0,430
_#_,840,2,2,570
_#_,840,6,8,2740
_#_,840,4,0,440
_#_,840,2,0,360
_#_,840,2,2,549
_#_,840,2,4,669
_#_,840,3511,120,19681786
_#_,840,60,0,1210
_#_,840,30,0,430
_#_,840,16,0,390
_#_,840,8,0,370
_#_,840,4,0,360
_#_,840,2,0,350
_#_,840,2,2,700
_#_,840,4,4,1310
_#_,840,2,0,480
_#_,840,2,2,620
_#_,840,8,8,3390
_#_,840,4,0,540
_#_,840,2,0,370
_#_,840,2,2,570
_#_,840,4,4,1240
_#_,840,2,0,440
_#_,840,2,2,570
_#_,840,14,16,9790
_#_,840,8,0,460
_#_,840,4,0,369
_#_,840,2,0,351
_#_,840,2,2,570
_#_,840,4,4,1210
_#_,840,2,0,450
_#_,840,2,2,620
_#_,840,6,8,2710
_#_,840,4,0,470
_#_,840,2,0,360
_#_,840,2,2,580
_#_,840,2,4,700
_#_,840,30,30,35720
_#_,840,16,0,591
_#_,840,8,0,391
_#_,840,4,0,351
_#_,840,2,0,340
_#_,840,2,2,600
_#_,840,4,4,1260
_#_,840,2,0,450
_#_,840,2,2,560
_#_,840,8,8,3450
_#_,840,4,0,470
_#_,840,2,0,380
_#_,840,2,2,570
_#_,840,4,4,1210
_#_,840,2,0,420
_#_,840,2,2,600
_#_,840,14,16,9860
_#_,840,8,0,480
_#_,840,4,0,360
_#_,840,2,0,360
_#_,840,2,2,570
_#_,840,4,4,1260
_#_,840,2,0,410
_#_,840,2,2,580
_#_,840,6,8,2650
_#_,840,4,0,410
_#_,840,2,0,370
_#_,840,2,2,590
_#_,840,2,4,700
_#_,840,60,60,126959
_#_,840,30,0,660
_#_,840,16,0,400
_#_,840,8,0,370
_#_,840,4,0,370
_#_,840,2,0,350
_#_,840,2,2,580
_#_,840,4,4,1240
_#_,840,2,0,430
_#_,840,2,2,560
_#_,840,8,8,3380
_#_,840,4,0,440
_#_,840,2,0,371
_#_,840,2,2,600
_#_,840,4,4,1210
_#_,840,2,0,420
_#_,840,2,2,550
_#_,840,14,16,9750
_#_,840,8,0,470
_#_,840,4,0,370
_#_,840,2,0,350
_#_,840,2,2,570
_#_,840,4,4,1210
_#_,840,2,0,440
_#_,840,2,2,560
_#_,840,6,8,2830
_#_,840,4,0,440
_#_,840,2,0,369
_#_,840,2,2,569
_#_,840,2,4,740
_#_,840,30,30,35880
_#_,840,16,0,660
_#_,840,8,0,370
_#_,840,4,0,360
_#_,840,2,0,350
_#_,840,2,2,580
_#_,840,4,4,1200
_#_,840,2,0,420
_#_,840,2,2,550
_#_,840,8,8,3360
_#_,840,4,0,430
_#_,840,2,0,380
_#_,840,2,2,569
_#_,840,4,4,1191
_#_,840,2,0,431
_#_,840,2,2,570
_#_,840,14,16,9750
_#_,840,8,0,510
_#_,840,4,0,360
_#_,840,2,0,340
_#_,840,2,2,600
_#_,840,4,4,1240
_#_,840,2,0,430
_#_,840,2,2,590
_#_,840,6,8,2750
_#_,840,4,0,470
_#_,840,2,0,370
_#_,840,2,2,620
_#_,840,2,4,740
_#_,840,3391,120,15797707
_#_,840,60,0,1360
_#_,840,30,0,410
_#_,840,16,0,380
_#_,840,8,0,360
_#_,840,4,0,350
_#_,840,2,0,350
_#_,840,2,2,680
_#_,840,4,4,1330
_#_,840,2,0,420
_#_,840,2,2,560
_#_,840,8,8,3500
_#_,840,4,0,451
_#_,840,2,0,380
_#_,840,2,2,560
_#_,840,4,4,1190
_#_,840,2,0,430
_#_,840,2,2,590
_#_,840,14,16,9930
_#_,840,8,0,510
_#_,840,4,0,360
_#_,840,2,0,350
_#_,840,2,2,580
_#_,840,4,4,1210
_#_,840,2,0,430
_#_,840,2,2,560
_#_,840,6,8,2740
_#_,840,4,0,470
_#_,840,2,0,360
_#_,840,2,2,560
_#_,840,2,4,700
_#_,840,30,30,36110
_#_,840,16,0,590
_#_,840,8,0,380
_#_,840,4,0,350
_#_,840,2,0,360
_#_,840,2,2,560
_#_,840,4,4,1200
_#_,840,2,0,410
_#_,840,2,2,540
_#_,840,8,8,3400
_#_,840,4,0,430
_#_,840,2,0,370
_#_,840,2,2,540
_#_,840,4,4,1191
_#_,840,2,0,409
_#_,840,2,2,571
_#_,840,14,16,9860
_#_,840,8,0,470
_#_,840,4,0,360
_#_,840,2,0,360
_#_,840,2,2,560
_#_,840,4,4,1210
_#_,840,2,0,420
_#_,840,2,2,550
_#_,840,6,8,2790
_#_,840,4,0,440
_#_,840,2,0,360
_#_,840,2,2,570
_#_,840,2,4,720
_#_,840,60,60,128729
_#_,840,30,0,640
_#_,840,16,0,400
_#_,840,8,0,360
_#_,840,4,0,350
_#_,840,2,0,340
_#_,840,2,2,580
_#_,840,4,4,1220
_#_,840,2,0,440
_#_,840,2,2,550
_#_,840,8,8,3320
_#_,840,4,0,411
_#_,840,2,0,369
_#_,840,2,2,560
_#_,840,4,4,1200
_#_,840,2,0,420
_#_,840,2,2,540
_#_,840,14,16,9940
_#_,840,8,0,480
_#_,840,4,0,360
_#_,840,2,0,350
_#_,840,2,2,580
_#_,840,4,4,1200
_#_,840,2,0,420
_#_,840,2,2,540
_#_,840,6,8,2770
_#_,840,4,0,440
_#_,840,2,0,380
_#_,840,2,2,549
_#_,840,2,4,660
_#_,840,30,30,35890
_#_,840,16,0,600
_#_,840,8,0,370
_#_,840,4,0,350
_#_,840,2,0,340
_#_,840,2,2,590
_#_,840,4,4,1260
_#_,840,2,0,420
_#_,840,2,2,570
_#_,840,8,8,3430
_#_,840,4,0,440
_#_,840,2,0,380
_#_,840,2,2,540
_#_,840,4,4,1229
_#_,840,2,0,429
_#_,840,2,2,549
_#_,840,14,16,9929
_#_,840,8,0,480
_#_,840,4,0,360
_#_,840,2,0,340
_#_,840,2,2,560
_#_,840,4,4,1210
_#_,840,2,0,460
_#_,840,2,2,560
_#_,840,6,8,2780
_#_,840,4,0,440
_#_,840,2,0,360
_#_,840,2,2,570
_#_,840,2,4,720
_#_,840,3271,120,15035621
_#_,840,60,0,991
_#_,840,30,0,440
_#_,840,16,0,380
_#_,840,8,0,360
_#_,840,4,0,340
_#_,840,2,0,350
_#_,838,2,2,1110
_#_,836,4,4,1560
_#_,836,2,0,460
_#_,834,2,2,760
_#_,832,8,8,3400
_#_,832,4,0,450
_#_,832,2,0,360
_#_,830,2,2,860
_#_,828,4,4,1420
_#_,828,2,0,440
_#_,826,2,2,740
_#_,824,14,16,9700
_#_,824,8,0,491
_#_,824,4,0,369
_#_,824,2,0,389
_#_,822,2,2,680
_#_,820,4,4,1200
_#_,820,2,0,450
_#_,818,2,2,710
_#_,816,6,8,2620
_#_,816,4,0,490
_#_,816,2,0,370
_#_,814,2,2,690
_#_,812,2,4,680
_#_,810,30,30,38880
_#_,810,16,0,660
_#_,810,8,0,389
_#_,810,4,0,349
_#_,810,2,0,349
_#_,808,2,2,640
_#_,806,4,4,1560
_#_,806,2,0,450
_#_,804,2,2,570
_#_,802,8,8,3740
_#_,802,4,0,430
_#_,802,2,0,370
_#_,800,2,2,560
_#_,798,4,4,1390
_#_,798,2,0,420
_#_,796,2,2,550
_#_,794,14,16,10300
_#_,794,8,0,460
_#_,794,4,0,360
_#_,794,2,0,340
_#_,792,2,2,569
_#_,790,4,4,1491
_#_,790,2,0,449
_#_,788,2,2,540
_#_,786,6,8,2780
_#_,786,4,0,440
_#_,786,2,0,350
_#_,784,2,2,550
_#_,782,2,4,810
_#_,780,60,60,118619
_#_,780,30,0,650
_#_,780,16,0,400
_#_,780,8,0,360
_#_,780,4,0,350
_#_,780,2,0,360
_#_,778,2,2,730
_#_,776,4,4,1210
_#_,776,2,0,450
_#_,774,2,2,700
_#_,772,8,8,3200
_#_,772,4,0,430
_#_,772,2,0,370
_#_,770,2,2,670
_#_,768,4,4,1130
_#_,768,2,0,420
_#_,766,2,2,711
_#_,764,14,16,8920
_#_,764,8,0,530
_#_,764,4,0,370
_#_,764,2,0,340
_#_,762,2,2,670
_#_,760,4,4,1140
_#_,760,2,0,430
_#_,758,2,2,650
_#_,756,6,8,2520
_#_,756,4,0,440
_#_,756,2,0,380
_#_,754,2,2,650
_#_,752,2,4,640
_#_,750,30,30,33359
_#_,750,16,0,651
_#_,750,8,0,371
_#_,750,4,0,349
_#_,750,2,0,340
_#_,748,2,2,570
_#_,746,4,4,1410
_#_,746,2,0,420
_#_,744,2,2,570
_#_,742,8,8,3510
_#_,742,4,0,410
_#_,742,2,0,370
_#_,740,2,2,540
_#_,738,4,4,1490
_#_,738,2,0,400
_#_,736,2,2,580
_#_,734,14,16,9350
_#_,734,8,0,499
_#_,734,4,0,360
_#_,734,2,0,340
_#_,732,2,2,520
_#_,730,4,4,1371
_#_,730,2,0,440
_#_,728,2,2,530
_#_,726,6,8,2670
_#_,726,4,0,430
_#_,726,2,0,350
_#_,724,2,2,530
_#_,722,2,4,820
_#_,720,3151,120,12462514
_#_,720,60,0,910
_#_,720,30,0,420
_#_,720,16,0,370
_#_,720,8,0,370
_#_,720,4,0,350
_#_,720,2,0,360
_#_,720,2,2,610
_#_,720,4,4,1090
_#_,720,2,0,460
_#_,720,2,2,500
_#_,720,8,8,3040
_#_,720,4,0,470
_#_,720,2,0,360
_#_,720,2,2,550
_#_,720,4,4,1089
_#_,720,2,0,420
_#_,720,2,2,480
_#_,720,14,16,8620
_#_,720,8,0,490
_#_,720,4,0,370
_#_,720,2,0,350
_#_,720,2,2,540
_#_,720,4,4,1070
_#_,720,2,0,420
_#_,720,2,2,490
_#_,720,6,8,2380
_#_,720,4,0,430
_#_,720,2,0,360
_#_,720,2,2,480
_#_,720,2,4,650
_#_,720,30,30,31211
_#_,720,16,0,531
_#_,720,8,0,371
_#_,720,4,0,349
_#_,720,2,0,349
_#_,720,2,2,520
_#_,720,4,4,1090
_#_,720,2,0,420
_#_,720,2,2,480
_#_,720,8,8,2990
_#_,720,4,0,440
_#_,720,2,0,370
_#_,720,2,2,550
_#_,720,4,4,1060
_#_,720,2,0,430
_#_,720,2,2,500
_#_,720,14,16,8549
_#_,720,8,0,471
_#_,720,4,0,371
_#_,720,2,0,360
_#_,720,2,2,520
_#_,720,4,4,1050
_#_,720,2,0,420
_#_,720,2,2,500
_#_,720,6,8,2380
_#_,720,4,0,440
_#_,720,2,0,360
_#_,720,2,2,500
_#_,720,2,4,600
_#_,720,60,60,108869
_#_,720,30,0,680
_#_,720,16,0,390
_#_,720,8,0,370
_#_,720,4,0,360
_#_,720,2,0,350
_#_,720,2,2,520
_#_,720,4,4,1070
_#_,720,2,0,410
_#_,720,2,2,500
_#_,720,8,8,2950
_#_,720,4,0,420
_#_,720,2,0,370
_#_,720,2,2,490
_#_,720,4,4,1160
_#_,720,2,0,411
_#_,720,2,2,509
_#_,720,14,16,8470
_#_,720,8,0,460
_#_,720,4,0,360
_#_,720,2,0,350
_#_,720,2,2,500
_#_,720,4,4,1100
_#_,720,2,0,420
_#_,720,2,2,500
_#_,720,6,8,2340
_#_,720,4,0,430
_#_,720,2,0,360
_#_,720,2,2,470
_#_,720,2,4,600
_#_,720,30,30,30549
_#_,720,16,0,580
_#_,720,8,0,371
_#_,720,4,0,340
_#_,720,2,0,360
_#_,720,2,2,540
_#_,720,4,4,1040
_#_,720,2,0,430
_#_,720,2,2,480
_#_,720,8,8,2900
_#_,720,4,0,400
_#_,720,2,0,360
_#_,720,2,2,480
_#_,720,4,4,1040
_#_,720,2,0,410
_#_,720,2,2,490
_#_,720,14,16,8460
_#_,720,8,0,480
_#_,720,4,0,360
_#_,720,2,0,350
_#_,720,2,2,500
_#_,720,4,4,1069
_#_,720,2,0,429
_#_,720,2,2,480
_#_,720,6,8,2340
_#_,720,4,0,450
_#_,720,2,0,360
_#_,720,2,2,490
_#_,720,2,4,590
_#_,720,3031,120,11848797
_#_,720,60,0,830
_#_,720,30,0,410
_#_,720,16,0,370
_#_,720,8,0,350
_#_,720,4,0,350
_#_,720,2,0,340
_#_,720,2,2,760
_#_,720,4,4,1080
_#_,720,2,0,480
_#_,720,2,2,480
_#_,720,8,8,2990
_#_,720,4,0,470
_#_,720,2,0,360
_#_,720,2,2,500
_#_,720,4,4,1040
_#_,720,2,0,450
_#_,720,2,2,480
_#_,720,14,16,8460
_#_,720,8,0,450
_#_,720,4,0,360
_#_,720,2,0,350
_#_,720,2,2,509
_#_,720,4,4,1040
_#_,720,2,0,429
_#_,720,2,2,490
_#_,720,6,8,2390
_#_,720,4,0,430
_#_,720,2,0,360
_#_,720,2,2,490
_#_,720,2,4,610
_#_,720,30,30,30530
_#_,720,16,0,620
_#_,720,8,0,380
_#_,720,4,0,370
_#_,720,2,0,340
_#_,720,2,2,511
_#_,720,4,4,1071
_#_,720,2,0,411
_#_,720,2,2,470
_#_,720,8,8,2910
_#_,720,4,0,450
_#_,720,2,0,360
_#_,720,2,2,480
_#_,720,4,4,1050
_#_,720,2,0,430
_#_,720,2,2,520
_#_,720,14,16,8540
_#_,720,8,0,450
_#_,720,4,0,360
_#_,720,2,0,350
_#_,720,2,2,530
_#_,720,4,4,1111
_#_,720,2,0,420
_#_,720,2,2,529
_#_,720,6,8,2410
_#_,720,4,0,410
_#_,720,2,0,350
_#_,720,2,2,490
_#_,720,2,4,630
_#_,720,60,60,107990
_#_,720,30,0,680
_#_,720,16,0,380
_#_,720,8,0,360
_#_,720,4,0,351
_#_,720,2,0,340
_#_,720,2,2,500
_#_,720,4,4,1090
_#_,720,2,0,440
_#_,720,2,2,490
_#_,720,8,8,2970
_#_,720,4,0,420
_#_,720,2,0,360
_#_,720,2,2,500
_#_,720,4,4,1060
_#_,720,2,0,420
_#_,720,2,2,470
_#_,720,14,16,8519
_#_,720,8,0,460
_#_,720,4,0,360
_#_,720,2,0,351
_#_,720,2,2,551
_#_,720,4,4,1140
_#_,720,2,0,430
_#_,720,2,2,510
_#_,720,6,8,2330
_#_,720,4,0,430
_#_,720,2,0,360
_#_,720,2,2,490
_#_,720,2,4,600
_#_,720,30,30,30420
_#_,720,16,0,620
_#_,720,8,0,360
_#_,720,4,0,340
_#_,720,2,0,340
_#_,720,2,2,531
_#_,720,4,4,1060
_#_,720,2,0,420
_#_,720,2,2,490
_#_,720,8,8,2880
_#_,720,4,0,420
_#_,720,2,0,360
_#_,720,2,2,480
_#_,720,4,4,1020
_#_,720,2,0,440
_#_,720,2,2,500
_#_,720,14,16,8460
_#_,720,8,0,490
_#_,720,4,0,360
_#_,720,2,0,340
_#_,720,2,2,500
_#_,720,4,4,1050
_#_,720,2,0,420
_#_,720,2,2,489
_#_,720,6,8,2331
_#_,720,4,0,440
_#_,720,2,0,369
_#_,720,2,2,490
_#_,720,2,4,610
_#_,720,2911,120,11381340
_#_,720,60,0,850
_#_,720,30,0,420
_#_,720,16,0,390
_#_,720,8,0,350
_#_,720,4,0,360
_#_,720,2,0,340
_#_,720,2,2,620
_#_,720,4,4,1080
_#_,720,2,0,470
_#_,720,2,2,500
_#_,720,8,8,2950
_#_,720,4,0,460
_#_,720,2,0,360
_#_,720,2,2,490
_#_,720,4,4,1100
_#_,720,2,0,450
_#_,720,2,2,500
_#_,720,14,16,8510
_#_,720,8,0,490
_#_,720,4,0,370
_#_,720,2,0,350
_#_,720,2,2,531
_#_,720,4,4,1060
_#_,720,2,0,440
_#_,720,2,2,490
_#_,720,6,8,2340
_#_,720,4,0,440
_#_,720,2,0,370
_#_,720,2,2,490
_#_,720,2,4,610
_#_,720,30,30,30510
_#_,720,16,0,640
_#_,720,8,0,400
_#_,720,4,0,360
_#_,720,2,0,370
_#_,720,2,2,510
_#_,720,4,4,1051
_#_,720,2,0,440
_#_,720,2,2,491
_#_,720,8,8,2910
_#_,720,4,0,430
_#_,720,2,0,370
_#_,720,2,2,490
_#_,720,4,4,1070
_#_,720,2,0,440
_#_,720,2,2,490
_#_,720,14,16,8520
_#_,720,8,0,500
_#_,720,4,0,400
_#_,720,2,0,340
_#_,720,2,2,510
_#_,720,4,4,1040
_#_,720,2,0,430
_#_,720,2,2,490
_#_,720,6,8,2460
_#_,720,4,0,420
_#_,720,2,0,369
_#_,720,2,2,480
_#_,720,2,4,660
_#_,720,60,60,108330
_#_,720,30,0,670
_#_,720,16,0,390
_#_,720,8,0,350
_#_,720,4,0,350
_#_,720,2,0,350
_#_,720,2,2,531
_#_,720,4,4,1069
_#_,720,2,0,440
_#_,720,2,2,490
_#_,720,8,8,2930
_#_,720,4,0,440
_#_,720,2,0,370
_#_,720,2,2,500
_#_,720,4,4,1070
_#_,720,2,0,440
_#_,720,2,2,500
_#_,720,14,16,8480
_#_,720,8,0,440
_#_,720,4,0,380
_#_,720,2,0,350
_#_,720,2,2,580
_#_,720,4,4,1090
_#_,720,2,0,430
_#_,720,2,2,500
_#_,720,6,8,2400
_#_,720,4,0,440
_#_,720,2,0,390
_#_,720,2,2,490
_#_,720,2,4,590
_#_,720,30,30,30700
_#_,720,16,0,590
_#_,720,8,0,370
_#_,720,4,0,340
_#_,720,2,0,350
_#_,720,2,2,530
_#_,720,4,4,1060
_#_,720,2,0,410
_#_,720,2,2,490
_#_,720,8,8,2880
_#_,720,4,0,440
_#_,720,2,0,371
_#_,720,2,2,489
_#_,720,4,4,1020
_#_,720,2,0,420
_#_,720,2,2,470
_#_,720,14,16,8560
_#_,720,8,0,460
_#_,720,4,0,370
_#_,720,2,0,340
_#_,720,2,2,500
_#_,720,4,4,1080
_#_,720,2,0,420
_#_,720,2,2,540
_#_,720,6,8,2370
_#_,720,4,0,430
_#_,720,2,0,350
_#_,720,2,2,510
_#_,720,2,4,580
_#_,720,2791,120,10919652
_#_,720,60,0,880
_#_,720,30,0,410
_#_,720,16,0,370
_#_,720,8,0,360
_#_,720,4,0,370
_#_,720,2,0,350
_#_,718,2,2,870
_#_,716,4,4,1310
_#_,716,2,0,450
_#_,714,2,2,650
_#_,712,8,8,3030
_#_,712,4,0,490
_#_,712,2,0,369
_#_,710,2,2,669
_#_,708,4,4,1120
_#_,708,2,0,440
_#_,706,2,2,640
_#_,704,14,16,8380
_#_,704,8,0,460
_#_,704,4,0,370
_#_,704,2,0,360
_#_,702,2,2,650
_#_,700,4,4,1060
_#_,700,2,0,430
_#_,698,2,2,640
_#_,696,6,8,2380
_#_,696,4,0,460
_#_,696,2,0,370
_#_,694,2,2,670
_#_,692,2,4,620
_#_,690,30,30,30820
_#_,690,16,0,580
_#_,690,8,0,390
_#_,690,4,0,350
_#_,690,2,0,340
_#_,688,2,2,530
_#_,686,4,4,1350
_#_,686,2,0,450
_#_,684,2,2,500
_#_,682,8,8,3290
_#_,682,4,0,470
_#_,682,2,0,370
_#_,680,2,2,510
_#_,678,4,4,1340
_#_,678,2,0,440
_#_,676,2,2,509
_#_,674,14,16,8910
_#_,674,8,0,460
_#_,674,4,0,380
_#_,674,2,0,340
_#_,672,2,2,480
_#_,670,4,4,1300
_#_,670,2,0,430
_#_,668,2,2,510
_#_,666,6,8,2370
_#_,666,4,0,440
_#_,666,2,0,360
_#_,664,2,2,500
_#_,662,2,4,720
_#_,660,60,60,99719
_#_,660,30,0,640
_#_,660,16,0,390
_#_,660,8,0,370
_#_,660,4,0,360
_#_,660,2,0,350
_#_,658,2,2,600
_#_,656,4,4,1060
_#_,656,2,0,450
_#_,654,2,2,620
_#_,652,8,8,2660
_#_,652,4,0,430
_#_,652,2,0,370
_#_,650,2,2,600
_#_,648,4,4,1040
_#_,648,2,0,420
_#_,646,2,2,600
_#_,644,14,16,7550
_#_,644,8,0,460
_#_,644,4,0,380
_#_,644,2,0,370
_#_,642,2,2,570
_#_,640,4,4,960
_#_,640,2,0,440
_#_,638,2,2,560
_#_,636,6,8,2140
_#_,636,4,0,440
_#_,636,2,0,380
_#_,634,2,2,590
_#_,632,2,4,580
_#_,630,30,30,28559
_#_,630,16,0,590
_#_,630,8,0,380
_#_,630,4,0,360
_#_,630,2,0,350
_#_,628,2,2,520
_#_,626,4,4,1260
_#_,626,2,0,420
_#_,624,2,2,490
_#_,622,8,8,2950
_#_,622,4,0,440
_#_,622,2,0,370
_#_,620,2,2,490
_#_,618,4,4,1250
_#_,618,2,0,450
_#_,616,2,2,510
_#_,614,14,16,8189
_#_,614,8,0,491
_#_,614,4,0,369
_#_,614,2,0,340
_#_,612,2,2,460
_#_,610,4,4,1120
_#_,610,2,0,410
_#_,608,2,2,430
_#_,606,6,8,2230
_#_,606,4,0,440
_#_,606,2,0,360
_#_,604,2,2,450
_#_,602,2,4,720
_#_,600,2671,120,8678994
_#_,600,60,0,869
_#_,600,30,0,420
_#_,600,16,0,380
_#_,600,8,0,360
_#_,600,4,0,351
_#_,600,2,0,340
_#_,600,2,2,580
_#_,600,4,4,1000
_#_,600,2,0,480
_#_,600,2,2,490
_#_,600,8,8,2510
_#_,600,4,0,450
_#_,600,2,0,380
_#_,600,2,2,450
_#_,600,4,4,930
_#_,600,2,0,420
_#_,600,2,2,449
_#_,600,14,16,7211
_#_,600,8,0,500
_#_,600,4,0,371
_#_,600,2,0,360
_#_,600,2,2,490
_#_,600,4,4,950
_#_,600,2,0,440
_#_,600,2,2,450
_#_,600,6,8,2100
_#_,600,4,0,440
_#_,600,2,0,360
_#_,600,2,2,460
_#_,600,2,4,590
_#_,600,30,30,25589
_#_,600,16,0,600
_#_,600,8,0,380
_#_,600,4,0,360
_#_,600,2,0,349
_#_,600,2,2,489
_#_,600,4,4,950
_#_,600,2,0,440
_#_,600,2,2,460
_#_,600,8,8,2500
_#_,600,4,0,450
_#_,600,2,0,370
_#_,600,2,2,460
_#_,600,4,4,950
_#_,600,2,0,440
_#_,600,2,2,450
_#_,600,14,16,7160
_#_,600,8,0,440
_#_,600,4,0,370
_#_,600,2,0,350
_#_,600,2,2,460
_#_,600,4,4,940
_#_,600,2,0,409
_#_,600,2,2,460
_#_,600,6,8,1970
_#_,600,4,0,430
_#_,600,2,0,360
_#_,600,2,2,430
_#_,600,2,4,550
_#_,600,60,60,90340
_#_,600,30,0,660
_#_,600,16,0,400
_#_,600,8,0,360
_#_,600,4,0,349
_#_,600,2,0,360
_#_,600,2,2,500
_#_,600,4,4,980
_#_,600,2,0,440
_#_,600,2,2,450
_#_,600,8,8,2500
_#_,600,4,0,430
_#_,600,2,0,370
_#_,600,2,2,440
_#_,600,4,4,940
_#_,600,2,0,430
_#_,600,2,2,450
_#_,600,14,16,7159
_#_,600,8,0,440
_#_,600,4,0,371
_#_,600,2,0,360
_#_,600,2,2,471
_#_,600,4,4,960
_#_,600,2,0,410
_#_,600,2,2,480
_#_,600,6,8,2030
_#_,600,4,0,430
_#_,600,2,0,360
_#_,600,2,2,440
_#_,600,2,4,530
_#_,600,30,30,25570
_#_,600,16,0,560
_#_,600,8,0,380
_#_,600,4,0,350
_#_,600,2,0,340
_#_,600,2,2,489
_#_,600,4,4,960
_#_,600,2,0,440
_#_,600,2,2,480
_#_,600,8,8,2480
_#_,600,4,0,440
_#_,600,2,0,370
_#_,600,2,2,440
_#_,600,4,4,910
_#_,600,2,0,420
_#_,600,2,2,430
_#_,600,14,16,7170
_#_,600,8,0,460
_#_,600,4,0,370
_#_,600,2,0,350
_#_,600,2,2,470
_#_,600,4,4,940
_#_,600,2,0,420
_#_,600,2,2,480
_#_,600,6,8,2020
_#_,600,4,0,429
_#_,600,2,0,360
_#_,600,2,2,490
_#_,600,2,4,580
_#_,600,2551,120,8421315
_#_,600,60,0,1260
_#_,600,30,0,440
_#_,600,16,0,370
_#_,600,8,0,380
_#_,600,4,0,350
_#_,600,2,0,350
_#_,600,2,2,660
_#_,600,4,4,1040
_#_,600,2,0,460
_#_,600,2,2,480
_#_,600,8,8,2560
_#_,600,4,0,500
_#_,600,2,0,360
_#_,600,2,2,470
_#_,600,4,4,910
_#_,600,2,0,440
_#_,600,2,2,450
_#_,600,14,16,7310
_#_,600,8,0,480
_#_,600,4,0,380
_#_,600,2,0,370
_#_,600,2,2,460
_#_,600,4,4,930
_#_,600,2,0,420
_#_,600,2,2,431
_#_,600,6,8,2071
_#_,600,4,0,440
_#_,600,2,0,370
_#_,600,2,2,450
_#_,600,2,4,530
_#_,600,30,30,25510
_#_,600,16,0,620
_#_,600,8,0,370
_#_,600,4,0,350
_#_,600,2,0,350
_#_,600,2,2,460
_#_,600,4,4,960
_#_,600,2,0,440
_#_,600,2,2,440
_#_,600,8,8,2471
_#_,600,4,0,431
_#_,600,2,0,360
_#_,600,2,2,440
_#_,600,4,4,940
_#_,600,2,0,420
_#_,600,2,2,430
_#_,600,14,16,7140
_#_,600,8,0,480
_#_,600,4,0,370
_#_,600,2,0,350
_#_,600,2,2,460
_#_,600,4,4,950
_#_,600,2,0,440
_#_,600,2,2,440
_#_,600,6,8,2010
_#_,600,4,0,420
_#_,600,2,0,350
_#_,600,2,2,429
_#_,600,2,4,531
_#_,600,60,60,90180
_#_,600,30,0,670
_#_,600,16,0,390
_#_,600,8,0,370
_#_,600,4,0,350
_#_,600,2,0,350
_#_,600,2,2,480
_#_,600,4,4,950
_#_,600,2,0,440
_#_,600,2,2,420
_#_,600,8,8,2500
_#_,600,4,0,460
_#_,600,2,0,370
_#_,600,2,2,450
_#_,600,4,4,910
_#_,600,2,0,430
_#_,600,2,2,430
_#_,600,14,16,7120
_#_,600,8,0,460
_#_,600,4,0,360
_#_,600,2,0,350
_#_,600,2,2,440
_#_,600,4,4,930
_#_,600,2,0,410
_#_,600,2,2,440
_#_,600,6,8,2040
_#_,600,4,0,420
_#_,600,2,0,371
_#_,600,2,2,480
_#_,600,2,4,540
_#_,600,30,30,25510
_#_,600,16,0,550
_#_,600,8,0,390
_#_,600,4,0,350
_#_,600,2,0,340
_#_,600,2,2,470
_#_,600,4,4,950
_#_,600,2,0,430
_#_,600,2,2,430
_#_,600,8,8,2440
_#_,600,4,0,410
_#_,600,2,0,360
_#_,600,2,2,469
_#_,600,4,4,969
_#_,600,2,0,420
_#_,600,2,2,460
_#_,600,14,16,7110
_#_,600,8,0,460
_#_,600,4,0,370
_#_,600,2,0,360
_#_,600,2,2,440
_#_,600,4,4,910
_#_,600,2,0,410
_#_,600,2,2,430
_#_,600,6,8,2010
_#_,600,4,0,440
_#_,600,2,0,370
_#_,600,2,2,450
_#_,600,2,4,570
_#_,600,2431,120,8075018
_#_,600,60,0,789
_#_,600,30,0,420
_#_,600,16,0,389
_#_,600,8,0,360
_#_,600,4,0,360
_#_,600,2,0,360
_#_,600,2,2,560
_#_,600,4,4,1000
_#_,600,2,0,469
_#_,600,2,2,440
_#_,600,8,8,2530
_#_,600,4,0,450
_#_,600,2,0,370
_#_,600,2,2,430
_#_,600,4,4,930
_#_,600,2,0,440
_#_,600,2,2,470
_#_,600,14,16,7280
_#_,600,8,0,470
_#_,600,4,0,360
_#_,600,2,0,350
_#_,600,2,2,450
_#_,600,4,4,910
_#_,600,2,0,430
_#_,600,2,2,440
_#_,600,6,8,2040
_#_,600,4,0,420
_#_,600,2,0,360
_#_,600,2,2,440
_#_,600,2,4,540
_#_,600,30,30,25460
_#_,600,16,0,540
_#_,600,8,0,360
_#_,600,4,0,350
_#_,600,2,0,340
_#_,600,2,2,460
_#_,600,4,4,940
_#_,600,2,0,420
_#_,600,2,2,420
_#_,600,8,8,2520
_#_,600,4,0,440
_#_,600,2,0,390
_#_,600,2,2,440
_#_,600,4,4,920
_#_,600,2,0,409
_#_,600,2,2,440
_#_,600,14,16,7140
_#_,600,8,0,440
_#_,600,4,0,360
_#_,600,2,0,340
_#_,600,2,2,470
_#_,600,4,4,940
_#_,600,2,0,440
_#_,600,2,2,430
_#_,600,6,8,1980
_#_,600,4,0,420
_#_,600,2,0,370
_#_,600,2,2,420
_#_,600,2,4,520
_#_,600,60,60,90040
_#_,600,30,0,630
_#_,600,16,0,390
_#_,600,8,0,360
_#_,600,4,0,350
_#_,600,2,0,350
_#_,600,2,2,480
_#_,600,4,4,970
_#_,600,2,0,420
_#_,600,2,2,430
_#_,600,8,8,2480
_#_,600,4,0,420
_#_,600,2,0,370
_#_,600,2,2,440
_#_,600,4,4,929
_#_,600,2,0,429
_#_,600,2,2,440
_#_,600,14,16,7110
_#_,600,8,0,460
_#_,600,4,0,360
_#_,600,2,0,360
_#_,600,2,2,490
_#_,600,4,4,900
_#_,600,2,0,420
_#_,600,2,2,450
_#_,600,6,8,1990
_#_,600,4,0,420
_#_,600,2,0,360
_#_,600,2,2,440
_#_,600,2,4,530
_#_,600,30,30,25700
_#_,600,16,0,540
_#_,600,8,0,349
_#_,600,4,0,340
_#_,600,2,0,350
_#_,600,2,2,460
_#_,600,4,4,970
_#_,600,2,0,430
_#_,600,2,2,460
_#_,600,8,8,2500
_#_,600,4,0,420
_#_,600,2,0,350
_#_,600,2,2,430
_#_,600,4,4,910
_#_,600,2,0,420
_#_,600,2,2,450
_#_,600,14,16,7180
_#_,600,8,0,451
_#_,600,4,0,360
_#_,600,2,0,351
_#_,600,2,2,449
_#_,600,4,4,931
_#_,600,2,0,410
_#_,600,2,2,470
_#_,600,6,8,2000
_#_,600,4,0,430
_#_,600,2,0,370
_#_,600,2,2,440
_#_,600,2,4,520
_#_,600,2311,120,7621650
_#_,600,60,0,780
_#_,600,30,0,410
_#_,600,16,0,370
_#_,600,8,0,360
_#_,600,4,0,350
_#_,600,2,0,340
_#_,598,2,2,750
_#_,596,4,4,1010
_#_,596,2,0,480
_#_,594,2,2,560
_#_,592,8,8,2480
_#_,592,4,0,440
_#_,592,2,0,360
_#_,590,2,2,600
_#_,588,4,4,940
_#_,588,2,0,431
_#_,586,2,2,560
_#_,584,14,16,7070
_#_,584,8,0,450
_#_,584,4,0,360
_#_,584,2,0,350
_#_,582,2,2,560
_#_,580,4,4,1030
_#_,580,2,0,420
_#_,578,2,2,600
_#_,576,6,8,1920
_#_,576,4,0,430
_#_,576,2,0,350
_#_,574,2,2,540
_#_,572,2,4,549
_#_,570,30,30,25609
_#_,570,16,0,560
_#_,570,8,0,370
_#_,570,4,0,350
_#_,570,2,0,340
_#_,568,2,2,460
_#_,566,4,4,1260
_#_,566,2,0,450
_#_,564,2,2,510
_#_,562,8,8,2780
_#_,562,4,0,440
_#_,562,2,0,370
_#_,560,2,2,450
_#_,558,4,4,1110
_#_,558,2,0,430
_#_,556,2,2,450
_#_,554,14,16,7280
_#_,554,8,0,460
_#_,554,4,0,369
_#_,554,2,0,349
_#_,552,2,2,429
_#_,550,4,4,1110
_#_,550,2,0,420
_#_,548,2,2,430
_#_,546,6,8,2000
_#_,546,4,0,430
_#_,546,2,0,370
_#_,544,2,2,440
_#_,542,2,4,630
_#_,540,60,60,81289
_#_,540,30,0,660
_#_,540,16,0,390
_#_,540,8,0,390
_#_,540,4,0,360
_#_,540,2,0,340
_#_,538,2,2,550
_#_,536,4,4,900
_#_,536,2,0,430
_#_,534,2,2,530
_#_,532,8,8,2310
_#_,532,4,0,480
_#_,532,2,0,360
_#_,530,2,2,550
_#_,528,4,4,850
_#_,528,2,0,430
_#_,526,2,2,500
_#_,524,14,16,6240
_#_,524,8,0,471
_#_,524,4,0,369
_#_,524,2,0,349
_#_,522,2,2,530
_#_,520,4,4,860
_#_,520,2,0,440
_#_,518,2,2,520
_#_,516,6,8,1830
_#_,516,4,0,430
_#_,516,2,0,360
_#_,514,2,2,500
_#_,512,2,4,510
_#_,510,30,30,22900
_#_,510,16,0,620
_#_,510,8,0,370
_#_,510,4,0,350
_#_,510,2,0,350
_#_,508,2,2,440
_#_,506,4,4,1020
_#_,506,2,0,411
_#_,504,2,2,400
_#_,502,8,8,2430
_#_,502,4,0,400
_#_,502,2,0,370
_#_,500,2,2,430
_#_,498,4,4,1000
_#_,498,2,0,420
_#_,496,2,2,430
_#_,494,14,16,6380
_#_,494,8,0,520
_#_,494,4,0,370
_#_,494,2,0,350
_#_,492,2,2,410
_#_,490,4,4,1010
_#_,490,2,0,440
_#_,488,2,2,409
_#_,486,6,8,1871
_#_,486,4,0,429
_#_,486,2,0,360
_#_,484,2,2,410
_#_,482,2,4,590
_#_,480,2191,120,5735689
_#_,480,60,0,840
_#_,480,30,0,440
_#_,480,16,0,370
_#_,480,8,0,360
_#_,480,4,0,350
_#_,480,2,0,350
_#_,480,2,2,530
_#_,480,4,4,830
_#_,480,2,0,450
_#_,480,2,2,360
_#_,480,8,8,2110
_#_,480,4,0,430
_#_,480,2,0,370
_#_,480,2,2,370
_#_,480,4,4,749
_#_,480,2,0,420
_#_,480,2,2,371
_#_,480,14,16,5740
_#_,480,8,0,450
_#_,480,4,0,370
_#_,480,2,0,340
_#_,480,2,2,370
_#_,480,4,4,800
_#_,480,2,0,420
_#_,480,2,2,370
_#_,480,6,8,1650
_#_,480,4,0,430
_#_,480,2,0,350
_#_,480,2,2,380
_#_,480,2,4,470
_#_,480,30,30,20459
_#_,480,16,0,509
_#_,480,8,0,380
_#_,480,4,0,351
_#_,480,2,0,340
_#_,480,2,2,391
_#_,480,4,4,780
_#_,480,2,0,430
_#_,480,2,2,360
_#_,480,8,8,2030
_#_,480,4,0,430
_#_,480,2,0,360
_#_,480,2,2,370
_#_,480,4,4,770
_#_,480,2,0,410
_#_,480,2,2,380
_#_,480,14,16,5800
_#_,480,8,0,480
_#_,480,4,0,370
_#_,480,2,0,350
_#_,480,2,2,369
_#_,480,4,4,800
_#_,480,2,0,411
_#_,480,2,2,370
_#_,480,6,8,1620
_#_,480,4,0,430
_#_,480,2,0,370
_#_,480,2,2,360
_#_,480,2,4,440
_#_,480,60,60,71999
_#_,480,30,0,631
_#_,480,16,0,389
_#_,480,8,0,371
_#_,480,4,0,340
_#_,480,2,0,349
_#_,480,2,2,390
_#_,480,4,4,810
_#_,480,2,0,440
_#_,480,2,2,390
_#_,480,8,8,2060
_#_,480,4,0,410
_#_,480,2,0,360
_#_,480,2,2,370
_#_,480,4,4,750
_#_,480,2,0,410
_#_,480,2,2,360
_#_,480,14,16,5840
_#_,480,8,0,430
_#_,480,4,0,360
_#_,480,2,0,350
_#_,480,2,2,400
_#_,480,4,4,751
_#_,480,2,0,420
_#_,480,2,2,370
_#_,480,6,8,1650
_#_,480,4,0,430
_#_,480,2,0,370
_#_,480,2,2,370
_#_,480,2,4,460
_#_,480,30,30,20280
_#_,480,16,0,550
_#_,480,8,0,370
_#_,480,4,0,350
_#_,480,2,0,340
_#_,480,2,2,390
_#_,480,4,4,780
_#_,480,2,0,410
_#_,480,2,2,371
_#_,480,8,8,2029
_#_,480,4,0,431
_#_,480,2,0,360
_#_,480,2,2,370
_#_,480,4,4,750
_#_,480,2,0,400
_#_,480,2,2,370
_#_,480,14,16,5660
_#_,480,8,0,450
_#_,480,4,0,360
_#_,480,2,0,340
_#_,480,2,2,410
_#_,480,4,4,730
_#_,480,2,0,400
_#_,480,2,2,360
_#_,480,6,8,1610
_#_,480,4,0,430
_#_,480,2,0,370
_#_,480,2,2,369
_#_,480,2,4,440
_#_,480,2071,120,5411052
_#_,480,60,0,790
_#_,480,30,0,420
_#_,480,16,0,380
_#_,480,8,0,350
_#_,480,4,0,350
_#_,480,2,0,340
_#_,480,2,2,460
_#_,480,4,4,780
_#_,480,2,0,460
_#_,480,2,2,380
_#_,480,8,8,2000
_#_,480,4,0,450
_#_,480,2,0,370
_#_,480,2,2,370
_#_,480,4,4,760
_#_,480,2,0,460
_#_,480,2,2,390
_#_,480,14,16,5890
_#_,480,8,0,480
_#_,480,4,0,380
_#_,480,2,0,360
_#_,480,2,2,400
_#_,480,4,4,780
_#_,480,2,0,440
_#_,480,2,2,429
_#_,480,6,8,1620
_#_,480,4,0,431
_#_,480,2,0,371
_#_,480,2,2,370
_#_,480,2,4,440
_#_,480,30,30,20170
_#_,480,16,0,540
_#_,480,8,0,370
_#_,480,4,0,350
_#_,480,2,0,350
_#_,480,2,2,390
_#_,480,4,4,770
_#_,480,2,0,430
_#_,480,2,2,390
_#_,480,8,8,1990
_#_,480,4,0,420
_#_,480,2,0,360
_#_,480,2,2,391
_#_,480,4,4,749
_#_,480,2,0,420
_#_,480,2,2,370
_#_,480,14,16,5750
_#_,480,8,0,430
_#_,480,4,0,360
_#_,480,2,0,350
_#_,480,2,2,390
_#_,480,4,4,760
_#_,480,2,0,430
_#_,480,2,2,370
_#_,480,6,8,1610
_#_,480,4,0,430
_#_,480,2,0,370
_#_,480,2,2,370
_#_,480,2,4,449
_#_,480,60,60,71600
_#_,480,30,0,630
_#_,480,16,0,400
_#_,480,8,0,350
_#_,480,4,0,330
_#_,480,2,0,350
_#_,480,2,2,400
_#_,480,4,4,760
_#_,480,2,0,420
_#_,480,2,2,360
_#_,480,8,8,1990
_#_,480,4,0,410
_#_,480,2,0,360
_#_,480,2,2,389
_#_,480,4,4,769
_#_,480,2,0,500
_#_,480,2,2,410
_#_,480,14,16,5760
_#_,480,8,0,480
_#_,480,4,0,360
_#_,480,2,0,340
_#_,480,2,2,370
_#_,480,4,4,770
_#_,480,2,0,410
_#_,480,2,2,380
_#_,480,6,8,1610
_#_,480,4,0,420
_#_,480,2,0,360
_#_,480,2,2,370
_#_,480,2,4,460
_#_,480,30,30,20390
_#_,480,16,0,530
_#_,480,8,0,360
_#_,480,4,0,340
_#_,480,2,0,360
_#_,480,2,2,400
_#_,480,4,4,750
_#_,480,2,0,410
_#_,480,2,2,370
_#_,480,8,8,2090
_#_,480,4,0,420
_#_,480,2,0,360
_#_,480,2,2,390
_#_,480,4,4,750
_#_,480,2,0,420
_#_,480,2,2,360
_#_,480,14,16,5760
_#_,480,8,0,440
_#_,480,4,0,360
_#_,480,2,0,351
_#_,480,2,2,380
_#_,480,4,4,770
_#_,480,2,0,430
_#_,480,2,2,360
_#_,480,6,8,1600
_#_,480,4,0,410
_#_,480,2,0,370
_#_,480,2,2,380
_#_,480,2,4,430
_#_,480,1951,120,5093013
_#_,480,60,0,760
_#_,480,30,0,420
_#_,480,16,0,360
_#_,480,8,0,360
_#_,480,4,0,360
_#_,480,2,0,349
_#_,480,2,2,480
_#_,480,4,4,800
_#_,480,2,0,450
_#_,480,2,2,360
_#_,480,8,8,2000
_#_,480,4,0,451
_#_,480,2,0,360
_#_,480,2,2,380
_#_,480,4,4,760
_#_,480,2,0,410
_#_,480,2,2,360
_#_,480,14,16,5810
_#_,480,8,0,440
_#_,480,4,0,380
_#_,480,2,0,350
_#_,480,2,2,380
_#_,480,4,4,760
_#_,480,2,0,440
_#_,480,2,2,360
_#_,480,6,8,1610
_#_,480,4,0,420
_#_,480,2,0,370
_#_,480,2,2,380
_#_,480,2,4,471
_#_,480,30,30,20369
_#_,480,16,0,550
_#_,480,8,0,380
_#_,480,4,0,350
_#_,480,2,0,350
_#_,480,2,2,390
_#_,480,4,4,760
_#_,480,2,0,430
_#_,480,2,2,360
_#_,480,8,8,2010
_#_,480,4,0,420
_#_,480,2,0,370
_#_,480,2,2,370
_#_,480,4,4,750
_#_,480,2,0,410
_#_,480,2,2,380
_#_,480,14,16,5720
_#_,480,8,0,451
_#_,480,4,0,360
_#_,480,2,0,349
_#_,480,2,2,380
_#_,480,4,4,760
_#_,480,2,0,420
_#_,480,2,2,360
_#_,480,6,8,1630
_#_,480,4,0,420
_#_,480,2,0,360
_#_,480,2,2,380
_#_,480,2,4,450
_#_,480,60,60,72079
_#_,480,30,0,600
_#_,480,16,0,400
_#_,480,8,0,340
_#_,480,4,0,349
_#_,480,2,0,351
_#_,480,2,2,390
_#_,480,4,4,780
_#_,480,2,0,440
_#_,480,2,2,380
_#_,480,8,8,2100
_#_,480,4,0,460
_#_,480,2,0,360
_#_,480,2,2,420
_#_,480,4,4,810
_#_,480,2,0,420
_#_,480,2,2,390
_#_,480,14,16,5760
_#_,480,8,0,460
_#_,480,4,0,360
_#_,480,2,0,340
_#_,480,2,2,391
_#_,480,4,4,771
_#_,480,2,0,440
_#_,480,2,2,390
_#_,480,6,8,1630
_#_,480,4,0,420
_#_,480,2,0,370
_#_,480,2,2,370
_#_,480,2,4,440
_#_,480,30,30,20300
_#_,480,16,0,530
_#_,480,8,0,370
_#_,480,4,0,340
_#_,480,2,0,340
_#_,480,2,2,390
_#_,480,4,4,760
_#_,480,2,0,420
_#_,480,2,2,371
_#_,480,8,8,2120
_#_,480,4,0,411
_#_,480,2,0,369
_#_,480,2,2,380
_#_,480,4,4,770
_#_,480,2,0,440
_#_,480,2,2,380
_#_,480,14,16,5710
_#_,480,8,0,440
_#_,480,4,0,360
_#_,480,2,0,350
_#_,480,2,2,420
_#_,480,4,4,780
_#_,480,2,0,420
_#_,480,2,2,370
_#_,480,6,8,1620
_#_,480,4,0,420
_#_,480,2,0,360
_#_,480,2,2,369
_#_,480,2,4,440
_#_,480,1831,120,4785655
_#_,480,60,0,750
_#_,480,30,0,400
_#_,480,16,0,360
_#_,480,8,0,360
_#_,480,4,0,340
_#_,480,2,0,340
_#_,478,2,2,620
_#_,476,4,4,820
_#_,476,2,0,460
_#_,474,2,2,530
_#_,472,8,8,2040
_#_,472,4,0,480
_#_,472,2,0,390
_#_,470,2,2,550
_#_,468,4,4,830
_#_,468,2,0,430
_#_,466,2,2,500
_#_,464,14,16,5540
_#_,464,8,0,460
_#_,464,4,0,360
_#_,464,2,0,350
_#_,462,2,2,490
_#_,460,4,4,760
_#_,460,2,0,431
_#_,458,2,2,471
_#_,456,6,8,1580
_#_,456,4,0,440
_#_,456,2,0,350
_#_,454,2,2,490
_#_,452,2,4,470
_#_,450,30,30,20410
_#_,450,16,0,550
_#_,450,8,0,370
_#_,450,4,0,350
_#_,450,2,0,340
_#_,448,2,2,380
_#_,446,4,4,950
_#_,446,2,0,440
_#_,444,2,2,390
_#_,442,8,8,2220
_#_,442,4,0,429
_#_,442,2,0,371
_#_,440,2,2,391
_#_,438,4,4,940
_#_,438,2,0,410
_#_,436,2,2,370
_#_,434,14,16,5750
_#_,434,8,0,450
_#_,434,4,0,380
_#_,434,2,0,340
_#_,432,2,2,360
_#_,430,4,4,860
_#_,430,2,0,400
_#_,428,2,2,400
_#_,426,6,8,1600
_#_,426,4,0,450
_#_,426,2,0,350
_#_,424,2,2,360
_#_,422,2,4,560
_#_,420,60,60,63980
_#_,420,30,0,600
_#_,420,16,0,390
_#_,420,8,0,370
_#_,420,4,0,360
_#_,420,2,0,350
_#_,418,2,2,470
_#_,416,4,4,700
_#_,416,2,0,420
_#_,414,2,2,460
_#_,412,8,8,1790
_#_,412,4,0,430
_#_,412,2,0,360
_#_,410,2,2,451
_#_,408,4,4,729
_#_,408,2,0,440
_#_,406,2,2,460
_#_,404,14,16,4960
_#_,404,8,0,460
_#_,404,4,0,360
_#_,404,2,0,350
_#_,402,2,2,420
_#_,400,4,4,670
_#_,400,2,0,420
_#_,398,2,2,440
_#_,396,6,8,1420
_#_,396,4,0,470
_#_,396,2,0,360
_#_,394,2,2,420
_#_,392,2,4,450
_#_,390,30,30,17891
_#_,390,16,0,509
_#_,390,8,0,371
_#_,390,4,0,340
_#_,390,2,0,349
_#_,388,2,2,370
_#_,386,4,4,850
_#_,386,2,0,430
_#_,384,2,2,340
_#_,382,8,8,1910
_#_,382,4,0,440
_#_,382,2,0,370
_#_,380,2,2,350
_#_,378,4,4,840
_#_,378,2,0,410
_#_,376,2,2,350
_#_,374,14,16,5190
_#_,374,8,0,460
_#_,374,4,0,370
_#_,374,2,0,340
_#_,372,2,2,331
_#_,370,4,4,800
_#_,370,2,0,409
_#_,368,2,2,310
_#_,366,6,8,1480
_#_,366,4,0,420
_#_,366,2,0,360
_#_,364,2,2,350
_#_,362,2,4,590
_#_,360,1711,120,3022434
_#_,360,60,0,810
_#_,360,30,0,430
_#_,360,16,0,370
_#_,360,8,0,350
_#_,360,4,0,360
_#_,360,2,0,350
_#_,360,2,2,470
_#_,360,4,4,750
_#_,360,2,0,460
_#_,360,2,2,340
_#_,360,8,8,1610
_#_,360,4,0,420
_#_,360,2,0,370
_#_,360,2,2,340
_#_,360,4,4,630
_#_,360,2,0,410
_#_,360,2,2,320
_#_,360,14,16,4389
_#_,360,8,0,449
_#_,360,4,0,380
_#_,360,2,0,351
_#_,360,2,2,340
_#_,360,4,4,630
_#_,360,2,0,410
_#_,360,2,2,370
_#_,360,6,8,1300
_#_,360,4,0,420
_#_,360,2,0,370
_#_,360,2,2,330
_#_,360,2,4,380
_#_,360,30,30,15330
_#_,360,16,0,510
_#_,360,8,0,390
_#_,360,4,0,370
_#_,360,2,0,340
_#_,360,2,2,360
_#_,360,4,4,640
_#_,360,2,0,420
_#_,360,2,2,329
_#_,360,8,8,1550
_#_,360,4,0,430
_#_,360,2,0,370
_#_,360,2,2,330
_#_,360,4,4,620
_#_,360,2,0,430
_#_,360,2,2,340
_#_,360,14,16,4270
_#_,360,8,0,450
_#_,360,4,0,380
_#_,360,2,0,350
_#_,360,2,2,340
_#_,360,4,4,630
_#_,360,2,0,430
_#_,360,2,2,320
_#_,360,6,8,1291
_#_,360,4,0,431
_#_,360,2,0,360
_#_,360,2,2,320
_#_,360,2,4,380
_#_,360,60,60,53860
_#_,360,30,0,580
_#_,360,16,0,400
_#_,360,8,0,360
_#_,360,4,0,350
_#_,360,2,0,350
_#_,360,2,2,360
_#_,360,4,4,660
_#_,360,2,0,440
_#_,360,2,2,369
_#_,360,8,8,1620
_#_,360,4,0,469
_#_,360,2,0,369
_#_,360,2,2,390
_#_,360,4,4,630
_#_,360,2,0,430
_#_,360,2,2,330
_#_,360,14,16,4310
_#_,360,8,0,460
_#_,360,4,0,380
_#_,360,2,0,360
_#_,360,2,2,1800
_#_,360,4,4,650
_#_,360,2,0,440
_#_,360,2,2,350
_#_,360,6,8,1290
_#_,360,4,0,440
_#_,360,2,0,370
_#_,360,2,2,331
_#_,360,2,4,380
_#_,360,30,30,15369
_#_,360,16,0,510
_#_,360,8,0,370
_#_,360,4,0,350
_#_,360,2,0,350
_#_,360,2,2,340
_#_,360,4,4,640
_#_,360,2,0,420
_#_,360,2,2,370
_#_,360,8,8,1590
_#_,360,4,0,430
_#_,360,2,0,380
_#_,360,2,2,340
_#_,360,4,4,620
_#_,360,2,0,420
_#_,360,2,2,330
_#_,360,14,16,4400
_#_,360,8,0,429
_#_,360,4,0,371
_#_,360,2,0,340
_#_,360,2,2,340
_#_,360,4,4,640
_#_,360,2,0,420
_#_,360,2,2,330
_#_,360,6,8,1290
_#_,360,4,0,430
_#_,360,2,0,360
_#_,360,2,2,330
_#_,360,2,4,380
_#_,360,1591,120,2778015
_#_,360,60,0,810
_#_,360,30,0,450
_#_,360,16,0,380
_#_,360,8,0,360
_#_,360,4,0,360
_#_,360,2,0,360
_#_,360,2,2,370
_#_,360,4,4,680
_#_,360,2,0,440
_#_,360,2,2,320
_#_,360,8,8,1560
_#_,360,4,0,440
_#_,360,2,0,370
_#_,360,2,2,350
_#_,360,4,4,630
_#_,360,2,0,430
_#_,360,2,2,330
_#_,360,14,16,4320
_#_,360,8,0,470
_#_,360,4,0,380
_#_,360,2,0,350
_#_,360,2,2,349
_#_,360,4,4,640
_#_,360,2,0,440
_#_,360,2,2,340
_#_,360,6,8,1300
_#_,360,4,0,420
_#_,360,2,0,370
_#_,360,2,2,320
_#_,360,2,4,390
_#_,360,30,30,15320
_#_,360,16,0,490
_#_,360,8,0,390
_#_,360,4,0,340
_#_,360,2,0,350
_#_,360,2,2,360
_#_,360,4,4,640
_#_,360,2,0,440
_#_,360,2,2,329
_#_,360,8,8,1571
_#_,360,4,0,411
_#_,360,2,0,371
_#_,360,2,2,330
_#_,360,4,4,630
_#_,360,2,0,420
_#_,360,2,2,330
_#_,360,14,16,4330
_#_,360,8,0,430
_#_,360,4,0,370
_#_,360,2,0,350
_#_,360,2,2,340
_#_,360,4,4,640
_#_,360,2,0,420
_#_,360,2,2,340
_#_,360,6,8,1270
_#_,360,4,0,420
_#_,360,2,0,360
_#_,360,2,2,331
_#_,360,2,4,391
_#_,360,60,60,55599
_#_,360,30,0,590
_#_,360,16,0,410
_#_,360,8,0,370
_#_,360,4,0,350
_#_,360,2,0,350
_#_,360,2,2,340
_#_,360,4,4,680
_#_,360,2,0,430
_#_,360,2,2,340
_#_,360,8,8,1630
_#_,360,4,0,420
_#_,360,2,0,360
_#_,360,2,2,340
_#_,360,4,4,660
_#_,360,2,0,429
_#_,360,2,2,400
_#_,360,14,16,4390
_#_,360,8,0,450
_#_,360,4,0,370
_#_,360,2,0,340
_#_,360,2,2,340
_#_,360,4,4,640
_#_,360,2,0,430
_#_,360,2,2,320
_#_,360,6,8,1290
_#_,360,4,0,410
_#_,360,2,0,370
_#_,360,2,2,340
_#_,360,2,4,410
_#_,360,30,30,15371
_#_,360,16,0,491
_#_,360,8,0,369
_#_,360,4,0,340
_#_,360,2,0,349
_#_,360,2,2,320
_#_,360,4,4,640
_#_,360,2,0,410
_#_,360,2,2,330
_#_,360,8,8,1550
_#_,360,4,0,440
_#_,360,2,0,370
_#_,360,2,2,320
_#_,360,4,4,620
_#_,360,2,0,420
_#_,360,2,2,320
_#_,360,14,16,4300
_#_,360,8,0,430
_#_,360,4,0,380
_#_,360,2,0,350
_#_,360,2,2,331
_#_,360,4,4,620
_#_,360,2,0,400
_#_,360,2,2,320
_#_,360,6,8,1270
_#_,360,4,0,400
_#_,360,2,0,350
_#_,360,2,2,320
_#_,360,2,4,400
_#_,360,1471,120,2547286
_#_,360,60,0,810
_#_,360,30,0,440
_#_,360,16,0,380
_#_,360,8,0,360
_#_,360,4,0,350
_#_,360,2,0,350
_#_,360,2,2,390
_#_,360,4,4,650
_#_,360,2,0,450
_#_,360,2,2,330
_#_,360,8,8,1580
_#_,360,4,0,420
_#_,360,2,0,371
_#_,360,2,2,329
_#_,360,4,4,620
_#_,360,2,0,420
_#_,360,2,2,340
_#_,360,14,16,4360
_#_,360,8,0,440
_#_,360,4,0,380
_#_,360,2,0,350
_#_,360,2,2,350
_#_,360,4,4,620
_#_,360,2,0,430
_#_,360,2,2,330
_#_,360,6,8,1290
_#_,360,4,0,430
_#_,360,2,0,370
_#_,360,2,2,330
_#_,360,2,4,390
_#_,360,30,30,15369
_#_,360,16,0,500
_#_,360,8,0,380
_#_,360,4,0,360
_#_,360,2,0,349
_#_,360,2,2,400
_#_,360,4,4,670
_#_,360,2,0,450
_#_,360,2,2,340
_#_,360,8,8,1560
_#_,360,4,0,430
_#_,360,2,0,370
_#_,360,2,2,340
_#_,360,4,4,630
_#_,360,2,0,420
_#_,360,2,2,330
_#_,360,14,16,4460
_#_,360,8,0,500
_#_,360,4,0,360
_#_,360,2,0,360
_#_,360,2,2,360
_#_,360,4,4,640
_#_,360,2,0,440
_#_,360,2,2,330
_#_,360,6,8,1310
_#_,360,4,0,440
_#_,360,2,0,360
_#_,360,2,2,370
_#_,360,2,4,400
_#_,360,60,60,53900
_#_,360,30,0,600
_#_,360,16,0,390
_#_,360,8,0,370
_#_,360,4,0,350
_#_,360,2,0,360
_#_,360,2,2,380
_#_,360,4,4,651
_#_,360,2,0,431
_#_,360,2,2,349
_#_,360,8,8,1580
_#_,360,4,0,410
_#_,360,2,0,370
_#_,360,2,2,330
_#_,360,4,4,630
_#_,360,2,0,410
_#_,360,2,2,350
_#_,360,14,16,4370
_#_,360,8,0,450
_#_,360,4,0,360
_#_,360,2,0,370
_#_,360,2,2,330
_#_,360,4,4,640
_#_,360,2,0,410
_#_,360,2,2,320
_#_,360,6,8,1280
_#_,360,4,0,420
_#_,360,2,0,371
_#_,360,2,2,320
_#_,360,2,4,370
_#_,360,30,30,15190
_#_,360,16,0,490
_#_,360,8,0,370
_#_,360,4,0,340
_#_,360,2,0,340
_#_,360,2,2,340
_#_,360,4,4,630
_#_,360,2,0,420
_#_,360,2,2,330
_#_,360,8,8,1560
_#_,360,4,0,420
_#_,360,2,0,360
_#_,360,2,2,320
_#_,360,4,4,630
_#_,360,2,0,410
_#_,360,2,2,329
_#_,360,14,16,4280
_#_,360,8,0,440
_#_,360,4,0,360
_#_,360,2,0,340
_#_,360,2,2,350
_#_,360,4,4,620
_#_,360,2,0,410
_#_,360,2,2,330
_#_,360,6,8,1260
_#_,360,4,0,420
_#_,360,2,0,360
_#_,360,2,2,340
_#_,360,2,4,380
_#_,360,1351,120,2356198
_#_,360,60,0,800
_#_,360,30,0,440
_#_,360,16,0,370
_#_,360,8,0,360
_#_,360,4,0,360
_#_,360,2,0,340
_#_,358,2,2,540
_#_,356,4,4,700
_#_,356,2,0,430
_#_,354,2,2,390
_#_,352,8,8,1550
_#_,352,4,0,460
_#_,352,2,0,370
_#_,350,2,2,440
_#_,348,4,4,650
_#_,348,2,0,440
_#_,346,2,2,430
_#_,344,14,16,4120
_#_,344,8,0,450
_#_,344,4,0,371
_#_,344,2,0,360
_#_,342,2,2,420
_#_,340,4,4,620
_#_,340,2,0,409
_#_,338,2,2,400
_#_,336,6,8,1190
_#_,336,4,0,430
_#_,336,2,0,370
_#_,334,2,2,400
_#_,332,2,4,420
_#_,330,30,30,15110
_#_,330,16,0,500
_#_,330,8,0,370
_#_,330,4,0,350
_#_,330,2,0,340
_#_,328,2,2,370
_#_,326,4,4,820
_#_,326,2,0,430
_#_,324,2,2,320
_#_,322,8,8,1691
_#_,322,4,0,420
_#_,322,2,0,380
_#_,320,2,2,320
_#_,318,4,4,770
_#_,318,2,0,420
_#_,316,2,2,320
_#_,314,14,16,4240
_#_,314,8,0,470
_#_,314,4,0,360
_#_,314,2,0,340
_#_,312,2,2,320
_#_,310,4,4,760
_#_,310,2,0,420
_#_,308,2,2,320
_#_,306,6,8,1290
_#_,306,4,0,420
_#_,306,2,0,370
_#_,304,2,2,300
_#_,302,2,4,451
_#_,300,60,60,45130
_#_,300,30,0,610
_#_,300,16,0,400
_#_,300,8,0,360
_#_,300,4,0,340
_#_,300,2,0,340
_#_,298,2,2,420
_#_,296,4,4,720
_#_,296,2,0,410
_#_,294,2,2,380
_#_,292,8,8,1380
_#_,292,4,0,410
_#_,292,2,0,370
_#_,290,2,2,420
_#_,288,4,4,580
_#_,288,2,0,431
_#_,286,2,2,400
_#_,284,14,16,3450
_#_,284,8,0,460
_#_,284,4,0,360
_#_,284,2,0,350
_#_,282,2,2,390
_#_,280,4,4,570
_#_,280,2,0,400
_#_,278,2,2,370
_#_,276,6,8,1050
_#_,276,4,0,400
_#_,276,2,0,360
_#_,274,2,2,350
_#_,272,2,4,360
_#_,270,30,30,12500
_#_,270,16,0,540
_#_,270,8,0,360
_#_,270,4,0,340
_#_,270,2,0,340
_#_,268,2,2,351
_#_,266,4,4,780
_#_,266,2,0,430
_#_,264,2,2,320
_#_,262,8,8,1500
_#_,262,4,0,400
_#_,262,2,0,360
_#_,260,2,2,330
_#_,258,4,4,690
_#_,258,2,0,420
_#_,256,2,2,310
_#_,254,14,16,3440
_#_,254,8,0,440
_#_,254,4,0,350
_#_,254,2,0,340
_#_,252,2,2,300
_#_,250,4,4,660
_#_,250,2,0,429
_#_,248,2,2,271
_#_,246,6,8,1120
_#_,246,4,0,420
_#_,246,2,0,360
_#_,244,2,2,280
_#_,242,2,4,390
_#_,240,1231,120,1389302
_#_,240,60,0,800
_#_,240,30,0,450
_#_,240,16,0,370
_#_,240,8,0,360
_#_,240,4,0,350
_#_,240,2,0,350
_#_,240,2,2,320
_#_,240,4,4,560
_#_,240,2,0,490
_#_,240,2,2,250
_#_,240,8,8,1140
_#_,240,4,0,430
_#_,240,2,0,370
_#_,240,2,2,280
_#_,240,4,4,471
_#_,240,2,0,400
_#_,240,2,2,260
_#_,240,14,16,2960
_#_,240,8,0,450
_#_,240,4,0,370
_#_,240,2,0,350
_#_,240,2,2,270
_#_,240,4,4,480
_#_,240,2,0,420
_#_,240,2,2,250
_#_,240,6,8,950
_#_,240,4,0,440
_#_,240,2,0,360
_#_,240,2,2,250
_#_,240,2,4,320
_#_,240,30,30,10230
_#_,240,16,0,491
_#_,240,8,0,380
_#_,240,4,0,360
_#_,240,2,0,349
_#_,240,2,2,300
_#_,240,4,4,490
_#_,240,2,0,460
_#_,240,2,2,260
_#_,240,8,8,1070
_#_,240,4,0,420
_#_,240,2,0,370
_#_,240,2,2,260
_#_,240,4,4,470
_#_,240,2,0,410
_#_,240,2,2,250
_#_,240,14,16,3030
_#_,240,8,0,460
_#_,240,4,0,380
_#_,240,2,0,340
_#_,240,2,2,260
_#_,240,4,4,460
_#_,240,2,0,409
_#_,240,2,2,260
_#_,240,6,8,960
_#_,240,4,0,410
_#_,240,2,0,360
_#_,240,2,2,250
_#_,240,2,4,300
_#_,240,60,60,35700
_#_,240,30,0,550
_#_,240,16,0,380
_#_,240,8,0,350
_#_,240,4,0,350
_#_,240,2,0,340
_#_,240,2,2,270
_#_,240,4,4,480
_#_,240,2,0,420
_#_,240,2,2,240
_#_,240,8,8,1111
_#_,240,4,0,419
_#_,240,2,0,370
_#_,240,2,2,260
_#_,240,4,4,460
_#_,240,2,0,410
_#_,240,2,2,250
_#_,240,14,16,2900
_#_,240,8,0,430
_#_,240,4,0,360
_#_,240,2,0,340
_#_,240,2,2,250
_#_,240,4,4,490
_#_,240,2,0,430
_#_,240,2,2,320
_#_,240,6,8,960
_#_,240,4,0,410
_#_,240,2,0,360
_#_,240,2,2,251
_#_,240,2,4,309
_#_,240,30,30,10110
_#_,240,16,0,490
_#_,240,8,0,370
_#_,240,4,0,340
_#_,240,2,0,350
_#_,240,2,2,270
_#_,240,4,4,460
_#_,240,2,0,420
_#_,240,2,2,280
_#_,240,8,8,1080
_#_,240,4,0,400
_#_,240,2,0,370
_#_,240,2,2,250
_#_,240,4,4,460
_#_,240,2,0,410
_#_,240,2,2,249
_#_,240,14,16,2891
_#_,240,8,0,431
_#_,240,4,0,371
_#_,240,2,0,331
_#_,240,2,2,250
_#_,240,4,4,450
_#_,240,2,0,400
_#_,240,2,2,260
_#_,240,6,8,890
_#_,240,4,0,420
_#_,240,2,0,350
_#_,240,2,2,260
_#_,240,2,4,330
_#_,240,1111,120,1290073
_#_,240,60,0,810
_#_,240,30,0,430
_#_,240,16,0,360
_#_,240,8,0,360
_#_,240,4,0,360
_#_,240,2,0,350
_#_,240,2,2,271
_#_,240,4,4,480
_#_,240,2,0,460
_#_,240,2,2,250
_#_,240,8,8,1110
_#_,240,4,0,430
_#_,240,2,0,370
_#_,240,2,2,250
_#_,240,4,4,470
_#_,240,2,0,420
_#_,240,2,2,250
_#_,240,14,16,2920
_#_,240,8,0,440
_#_,240,4,0,370
_#_,240,2,0,350
_#_,240,2,2,270
_#_,240,4,4,480
_#_,240,2,0,409
_#_,240,2,2,249
_#_,240,6,8,909
_#_,240,4,0,430
_#_,240,2,0,360
_#_,240,2,2,260
_#_,240,2,4,300
_#_,240,30,30,10110
_#_,240,16,0,520
_#_,240,8,0,380
_#_,240,4,0,340
_#_,240,2,0,340
_#_,240,2,2,270
_#_,240,4,4,470
_#_,240,2,0,430
_#_,240,2,2,250
_#_,240,8,8,1110
_#_,240,4,0,440
_#_,240,2,0,370
_#_,240,2,2,260
_#_,240,4,4,471
_#_,240,2,0,420
_#_,240,2,2,250
_#_,240,14,16,2910
_#_,240,8,0,460
_#_,240,4,0,370
_#_,240,2,0,360
_#_,240,2,2,280
_#_,240,4,4,470
_#_,240,2,0,420
_#_,240,2,2,250
_#_,240,6,8,900
_#_,240,4,0,420
_#_,240,2,0,370
_#_,240,2,2,250
_#_,240,2,4,300
_#_,240,60,60,35549
_#_,240,30,0,540
_#_,240,16,0,400
_#_,240,8,0,360
_#_,240,4,0,340
_#_,240,2,0,350
_#_,240,2,2,260
_#_,240,4,4,550
_#_,240,2,0,430
_#_,240,2,2,270
_#_,240,8,8,1150
_#_,240,4,0,420
_#_,240,2,0,360
_#_,240,2,2,260
_#_,240,4,4,480
_#_,240,2,0,420
_#_,240,2,2,280
_#_,240,14,16,2929
_#_,240,8,0,420
_#_,240,4,0,360
_#_,240,2,0,351
_#_,240,2,2,249
_#_,240,4,4,470
_#_,240,2,0,420
_#_,240,2,2,250
_#_,240,6,8,900
_#_,240,4,0,410
_#_,240,2,0,360
_#_,240,2,2,250
_#_,240,2,4,300
_#_,240,30,30,10190
_#_,240,16,0,500
_#_,240,8,0,370
_#_,240,4,0,360
_#_,240,2,0,360
_#_,240,2,2,260
_#_,240,4,4,480
_#_,240,2,0,410
_#_,240,2,2,260
_#_,240,8,8,1091
_#_,240,4,0,409
_#_,240,2,0,360
_#_,240,2,2,250
_#_,240,4,4,480
_#_,240,2,0,410
_#_,240,2,2,260
_#_,240,14,16,2900
_#_,240,8,0,430
_#_,240,4,0,370
_#_,240,2,0,360
_#_,240,2,2,270
_#_,240,4,4,490
_#_,240,2,0,420
_#_,240,2,2,240
_#_,240,6,8,890
_#_,240,4,0,420
_#_,240,2,0,360
_#_,240,2,2,240
_#_,240,2,4,289
_#_,240,991,120,1150534
_#_,240,60,0,850
_#_,240,30,0,430
_#_,240,16,0,400
_#_,240,8,0,350
_#_,240,4,0,340
_#_,240,2,0,350
_#_,240,2,2,580
_#_,240,4,4,830
_#_,240,2,0,780
_#_,240,2,2,440
_#_,240,8,8,1650
_#_,240,4,0,760
_#_,240,2,0,630
_#_,240,2,2,420
_#_,240,4,4,930
_#_,240,2,0,731
_#_,240,2,2,400
_#_,240,14,16,3540
_#_,240,8,0,820
_#_,240,4,0,550
_#_,240,2,0,1860
_#_,240,2,2,440
_#_,240,4,4,720
_#_,240,2,0,710
_#_,240,2,2,430
_#_,240,6,8,1280
_#_,240,4,0,700
_#_,240,2,0,520
_#_,240,2,2,440
_#_,240,2,4,460
_#_,240,30,30,11390
_#_,240,16,0,769
_#_,240,8,0,600
_#_,240,4,0,529
_#_,240,2,0,540
_#_,240,2,2,411
_#_,240,4,4,830
_#_,240,2,0,690
_#_,240,2,2,550
_#_,240,8,8,1520
_#_,240,4,0,640
_#_,240,2,0,540
_#_,240,2,2,410
_#_,240,4,4,740
_#_,240,2,0,650
_#_,240,2,2,430
_#_,240,14,16,3550
_#_,240,8,0,670
_#_,240,4,0,570
_#_,240,2,0,570
_#_,240,2,2,529
_#_,240,4,4,780
_#_,240,2,0,711
_#_,240,2,2,420
_#_,240,6,8,1230
_#_,240,4,0,680
_#_,240,2,0,540
_#_,240,2,2,370
_#_,240,2,4,460
_#_,240,60,60,38460
_#_,240,30,0,950
_#_,240,16,0,720
_#_,240,8,0,670
_#_,240,4,0,690
_#_,240,2,0,390
_#_,240,2,2,280
_#_,240,4,4,480
_#_,240,2,0,420
_#_,240,2,2,240
_#_,240,8,8,1130
_#_,240,4,0,410
_#_,240,2,0,360
_#_,240,2,2,260
_#_,240,4,4,460
_#_,240,2,0,420
_#_,240,2,2,240
_#_,240,14,16,2950
_#_,240,8,0,440
_#_,240,4,0,370
_#_,240,2,0,350
_#_,240,2,2,250
_#_,240,4,4,480
_#_,240,2,0,420
_#_,240,2,2,240
_#_,240,6,8,1051
_#_,240,4,0,420
_#_,240,2,0,360
_#_,240,2,2,240
_#_,240,2,4,311
_#_,240,30,30,10140
_#_,240,16,0,510
_#_,240,8,0,390
_#_,240,4,0,350
_#_,240,2,0,350
_#_,240,2,2,240
_#_,240,4,4,480
_#_,240,2,0,460
_#_,240,2,2,240
_#_,240,8,8,1120
_#_,240,4,0,410
_#_,240,2,0,360
_#_,240,2,2,240
_#_,240,4,4,460
_#_,240,2,0,420
_#_,240,2,2,251
_#_,240,14,16,2880
_#_,240,8,0,420
_#_,240,4,0,360
_#_,240,2,0,340
_#_,240,2,2,260
_#_,240,4,4,460
_#_,240,2,0,420
_#_,240,2,2,250
_#_,240,6,8,890
_#_,240,4,0,430
_#_,240,2,0,360
_#_,240,2,2,240
_#_,240,2,4,300
_#_,240,871,120,1018235
_#_,240,60,0,780
_#_,240,30,0,410
_#_,240,16,0,380
_#_,240,8,0,360
_#_,240,4,0,360
_#_,240,2,0,340
_#_,238,2,2,500
_#_,236,4,4,549
_#_,236,2,0,480
_#_,234,2,2,410
_#_,232,8,8,1160
_#_,232,4,0,440
_#_,232,2,0,370
_#_,230,2,2,350
_#_,228,4,4,540
_#_,228,2,0,420
_#_,226,2,2,340
_#_,224,14,16,2740
_#_,224,8,0,450
_#_,224,4,0,370
_#_,224,2,0,360
_#_,222,2,2,360
_#_,220,4,4,490
_#_,220,2,0,440
_#_,218,2,2,340
_#_,216,6,8,880
_#_,216,4,0,440
_#_,216,2,0,369
_#_,214,2,2,311
_#_,212,2,4,340
_#_,210,30,30,9950
_#_,210,16,0,480
_#_,210,8,0,370
_#_,210,4,0,360
_#_,210,2,0,370
_#_,208,2,2,260
_#_,206,4,4,620
_#_,206,2,0,430
_#_,204,2,2,290
_#_,202,8,8,1170
_#_,202,4,0,440
_#_,202,2,0,370
_#_,200,2,2,320
_#_,198,4,4,580
_#_,198,2,0,420
_#_,196,2,2,260
_#_,194,14,16,2780
_#_,194,8,0,440
_#_,194,4,0,369
_#_,194,2,0,351
_#_,192,2,2,270
_#_,190,4,4,560
_#_,190,2,0,420
_#_,188,2,2,270
_#_,186,6,8,890
_#_,186,4,0,420
_#_,186,2,0,360
_#_,184,2,2,260
_#_,182,2,4,370
_#_,180,60,60,27970
_#_,180,30,0,570
_#_,180,16,0,400
_#_,180,8,0,340
_#_,180,4,0,340
_#_,180,2,0,351
_#_,178,2,2,309
_#_,176,4,4,440
_#_,176,2,0,430
_#_,174,2,2,360
_#_,172,8,8,930
_#_,172,4,0,440
_#_,172,2,0,360
_#_,170,2,2,330
_#_,168,4,4,420
_#_,168,2,0,430
_#_,166,2,2,290
_#_,164,14,16,2170
_#_,164,8,0,430
_#_,164,4,0,380
_#_,164,2,0,350
_#_,162,2,2,300
_#_,160,4,4,400
_#_,160,2,0,420
_#_,158,2,2,300
_#_,156,6,8,660
_#_,156,4,0,429
_#_,156,2,0,371
_#_,154,2,2,300
_#_,152,2,4,280
_#_,150,30,30,7560
_#_,150,16,0,450
_#_,150,8,0,370
_#_,150,4,0,360
_#_,150,2,0,370
_#_,148,2,2,260
_#_,146,4,4,520
_#_,146,2,0,440
_#_,144,2,2,220
_#_,142,8,8,910
_#_,142,4,0,430
_#_,142,2,0,360
_#_,140,2,2,240
_#_,138,4,4,480
_#_,138,2,0,400
_#_,136,2,2,240
_#_,134,14,16,2150
_#_,134,8,0,430
_#_,134,4,0,370
_#_,134,2,0,330
_#_,132,2,2,240
_#_,130,4,4,490
_#_,130,2,0,430
_#_,128,2,2,230
_#_,126,6,8,720
_#_,126,4,0,430
_#_,126,2,0,350
_#_,124,2,2,230
_#_,122,2,4,330
_#_,120,751,120,472907
_#_,120,60,0,790
_#_,120,30,0,420
_#_,120,16,0,370
_#_,120,8,0,360
_#_,120,4,0,350
_#_,120,2,0,350
_#_,120,2,2,300
_#_,120,4,4,400
_#_,120,2,0,420
_#_,120,2,2,200
_#_,120,8,8,720
_#_,120,4,0,420
_#_,120,2,0,370
_#_,120,2,2,210
_#_,120,4,4,340
_#_,120,2,0,440
_#_,120,2,2,200
_#_,120,14,16,1630
_#_,120,8,0,430
_#_,120,4,0,370
_#_,120,2,0,370
_#_,120,2,2,240
_#_,120,4,4,320
_#_,120,2,0,410
_#_,120,2,2,209
_#_,120,6,8,571
_#_,120,4,0,400
_#_,120,2,0,369
_#_,120,2,2,200
_#_,120,2,4,240
_#_,120,30,30,5350
_#_,120,16,0,470
_#_,120,8,0,370
_#_,120,4,0,340
_#_,120,2,0,340
_#_,120,2,2,230
_#_,120,4,4,340
_#_,120,2,0,420
_#_,120,2,2,200
_#_,120,8,8,680
_#_,120,4,0,410
_#_,120,2,0,400
_#_,120,2,2,220
_#_,120,4,4,320
_#_,120,2,0,410
_#_,120,2,2,200
_#_,120,14,16,1611
_#_,120,8,0,451
_#_,120,4,0,360
_#_,120,2,0,329
_#_,120,2,2,200
_#_,120,4,4,340
_#_,120,2,0,410
_#_,120,2,2,190
_#_,120,6,8,560
_#_,120,4,0,410
_#_,120,2,0,350
_#_,120,2,2,200
_#_,120,2,4,230
_#_,120,60,60,18360
_#_,120,30,0,490
_#_,120,16,0,380
_#_,120,8,0,370
_#_,120,4,0,350
_#_,120,2,0,340
_#_,120,2,2,200
_#_,120,4,4,340
_#_,120,2,0,420
_#_,120,2,2,200
_#_,120,8,8,660
_#_,120,4,0,420
_#_,120,2,0,370
_#_,120,2,2,210
_#_,120,4,4,330
_#_,120,2,0,410
_#_,120,2,2,210
_#_,120,14,16,1560
_#_,120,8,0,440
_#_,120,4,0,360
_#_,120,2,0,350
_#_,120,2,2,210
_#_,120,4,4,320
_#_,120,2,0,420
_#_,120,2,2,220
_#_,120,6,8,551
_#_,120,4,0,420
_#_,120,2,0,349
_#_,120,2,2,200
_#_,120,2,4,250
_#_,120,30,30,5190
_#_,120,16,0,440
_#_,120,8,0,370
_#_,120,4,0,350
_#_,120,2,0,350
_#_,120,2,2,210
_#_,120,4,4,330
_#_,120,2,0,410
_#_,120,2,2,200
_#_,120,8,8,650
_#_,120,4,0,420
_#_,120,2,0,360
_#_,120,2,2,200
_#_,120,4,4,320
_#_,120,2,0,409
_#_,120,2,2,200
_#_,120,14,16,1570
_#_,120,8,0,440
_#_,120,4,0,360
_#_,120,2,0,340
_#_,120,2,2,200
_#_,120,4,4,320
_#_,120,2,0,400
_#_,120,2,2,200
_#_,120,6,8,570
_#_,120,4,0,400
_#_,120,2,0,350
_#_,120,2,2,200
_#_,120,2,4,220
_#_,120,631,120,375938
_#_,120,60,0,810
_#_,120,30,0,420
_#_,120,16,0,370
_#_,120,8,0,370
_#_,120,4,0,360
_#_,120,2,0,360
_#_,120,2,2,240
_#_,120,4,4,380
_#_,120,2,0,450
_#_,120,2,2,200
_#_,120,8,8,740
_#_,120,4,0,429
_#_,120,2,0,371
_#_,120,2,2,209
_#_,120,4,4,320
_#_,120,2,0,420
_#_,120,2,2,210
_#_,120,14,16,1580
_#_,120,8,0,440
_#_,120,4,0,370
_#_,120,2,0,360
_#_,120,2,2,210
_#_,120,4,4,330
_#_,120,2,0,430
_#_,120,2,2,220
_#_,120,6,8,570
_#_,120,4,0,420
_#_,120,2,0,370
_#_,120,2,2,250
_#_,120,2,4,240
_#_,120,30,30,5309
_#_,120,16,0,471
_#_,120,8,0,369
_#_,120,4,0,351
_#_,120,2,0,351
_#_,120,2,2,220
_#_,120,4,4,330
_#_,120,2,0,430
_#_,120,2,2,210
_#_,120,8,8,680
_#_,120,4,0,420
_#_,120,2,0,370
_#_,120,2,2,210
_#_,120,4,4,330
_#_,120,2,0,410
_#_,120,2,2,210
_#_,120,14,16,1550
_#_,120,8,0,440
_#_,120,4,0,360
_#_,120,2,0,350
_#_,120,2,2,220
_#_,120,4,4,320
_#_,120,2,0,420
_#_,120,2,2,200
_#_,120,6,8,550
_#_,120,4,0,410
_#_,120,2,0,370
_#_,120,2,2,210
_#_,120,2,4,230
_#_,120,60,60,18420
_#_,120,30,0,550
_#_,120,16,0,400
_#_,120,8,0,360
_#_,120,4,0,350
_#_,120,2,0,350
_#_,120,2,2,230
_#_,120,4,4,330
_#_,120,2,0,420
_#_,120,2,2,211
_#_,120,8,8,649
_#_,120,4,0,409
_#_,120,2,0,360
_#_,120,2,2,210
_#_,120,4,4,320
_#_,120,2,0,410
_#_,120,2,2,220
_#_,120,14,16,1580
_#_,120,8,0,420
_#_,120,4,0,360
_#_,120,2,0,360
_#_,120,2,2,220
_#_,120,4,4,330
_#_,120,2,0,420
_#_,120,2,2,210
_#_,120,6,8,550
_#_,120,4,0,420
_#_,120,2,0,370
_#_,120,2,2,209
_#_,120,2,4,240
_#_,120,30,30,5189
_#_,120,16,0,480
_#_,120,8,0,380
_#_,120,4,0,360
_#_,120,2,0,340
_#_,120,2,2,220
_#_,120,4,4,330
_#_,120,2,0,430
_#_,120,2,2,220
_#_,120,8,8,660
_#_,120,4,0,440
_#_,120,2,0,360
_#_,120,2,2,200
_#_,120,4,4,320
_#_,120,2,0,440
_#_,120,2,2,200
_#_,120,14,16,1590
_#_,120,8,0,440
_#_,120,4,0,380
_#_,120,2,0,360
_#_,120,2,2,220
_#_,120,4,4,349
_#_,120,2,0,409
_#_,120,2,2,210
_#_,120,6,8,560
_#_,120,4,0,430
_#_,120,2,0,380
_#_,120,2,2,200
_#_,120,2,4,230
_#_,120,511,120,369978
_#_,120,60,0,750
_#_,120,30,0,420
_#_,120,16,0,380
_#_,120,8,0,360
_#_,120,4,0,350
_#_,120,2,0,350
_#_,120,2,2,240
_#_,120,4,4,369
_#_,120,2,0,440
_#_,120,2,2,209
_#_,120,8,8,669
_#_,120,4,0,471
_#_,120,2,0,369
_#_,120,2,2,200
_#_,120,4,4,350
_#_,120,2,0,440
_#_,120,2,2,210
_#_,120,14,16,1550
_#_,120,8,0,450
_#_,120,4,0,370
_#_,120,2,0,340
_#_,120,2,2,220
_#_,120,4,4,350
_#_,120,2,0,410
_#_,120,2,2,210
_#_,120,6,8,540
_#_,120,4,0,440
_#_,120,2,0,390
_#_,120,2,2,209
_#_,120,2,4,229
_#_,120,30,30,5240
_#_,120,16,0,470
_#_,120,8,0,380
_#_,120,4,0,360
_#_,120,2,0,360
_#_,120,2,2,210
_#_,120,4,4,330
_#_,120,2,0,430
_#_,120,2,2,210
_#_,120,8,8,660
_#_,120,4,0,430
_#_,120,2,0,370
_#_,120,2,2,210
_#_,120,4,4,330
_#_,120,2,0,430
_#_,120,2,2,210
_#_,120,14,16,1580
_#_,120,8,0,440
_#_,120,4,0,369
_#_,120,2,0,351
_#_,120,2,2,220
_#_,120,4,4,349
_#_,120,2,0,410
_#_,120,2,2,200
_#_,120,6,8,550
_#_,120,4,0,420
_#_,120,2,0,360
_#_,120,2,2,210
_#_,120,2,4,220
_#_,120,60,60,18310
_#_,120,30,0,540
_#_,120,16,0,390
_#_,120,8,0,360
_#_,120,4,0,360
_#_,120,2,0,350
_#_,120,2,2,200
_#_,120,4,4,350
_#_,120,2,0,450
_#_,120,2,2,211
_#_,120,8,8,649
_#_,120,4,0,440
_#_,120,2,0,369
_#_,120,2,2,210
_#_,120,4,4,340
_#_,120,2,0,400
_#_,120,2,2,210
_#_,120,14,16,1600
_#_,120,8,0,440
_#_,120,4,0,370
_#_,120,2,0,340
_#_,120,2,2,210
_#_,120,4,4,350
_#_,120,2,0,420
_#_,120,2,2,210
_#_,120,6,8,560
_#_,120,4,0,410
_#_,120,2,0,360
_#_,120,2,2,210
_#_,120,2,4,251
_#_,120,30,30,5331
_#_,120,16,0,470
_#_,120,8,0,370
_#_,120,4,0,360
_#_,120,2,0,350
_#_,120,2,2,230
_#_,120,4,4,350
_#_,120,2,0,440
_#_,120,2,2,210
_#_,120,8,8,670
_#_,120,4,0,420
_#_,120,2,0,360
_#_,120,2,2,200
_#_,120,4,4,330
_#_,120,2,0,420
_#_,120,2,2,210
_#_,120,14,16,1590
_#_,120,8,0,440
_#_,120,4,0,380
_#_,120,2,0,340
_#_,120,2,2,220
_#_,120,4,4,360
_#_,120,2,0,411
_#_,120,2,2,210
_#_,120,6,8,550
_#_,120,4,0,430
_#_,120,2,0,360
_#_,120,2,2,210
_#_,120,2,4,230
_#_,120,391,120,227099
_#_,120,60,0,760
_#_,120,30,0,420
_#_,120,16,0,370
_#_,120,8,0,360
_#_,120,4,0,350
_#_,120,2,0,350
_#_,118,2,2,320
_#_,116,4,4,390
_#_,116,2,0,440
_#_,114,2,2,260
_#_,112,8,8,620
_#_,112,4,0,420
_#_,112,2,0,360
_#_,110,2,2,340
_#_,108,4,4,380
_#_,108,2,0,430
_#_,106,2,2,280
_#_,104,14,16,1410
_#_,104,8,0,470
_#_,104,4,0,390
_#_,104,2,0,360
_#_,102,2,2,250
_#_,100,4,4,350
_#_,100,2,0,450
_#_,98,2,2,260
_#_,96,6,8,500
_#_,96,4,0,420
_#_,96,2,0,370
_#_,94,2,2,290
_#_,92,2,4,270
_#_,90,30,30,4831
_#_,90,16,0,491
_#_,90,8,0,391
_#_,90,4,0,340
_#_,90,2,0,340
_#_,88,2,2,240
_#_,86,4,4,460
_#_,86,2,0,450
_#_,84,2,2,230
_#_,82,8,8,710
_#_,82,4,0,420
_#_,82,2,0,370
_#_,80,2,2,220
_#_,78,4,4,430
_#_,78,2,0,430
_#_,76,2,2,230
_#_,74,14,16,1390
_#_,74,8,0,420
_#_,74,4,0,370
_#_,74,2,0,360
_#_,72,2,2,210
_#_,70,4,4,409
_#_,70,2,0,440
_#_,68,2,2,220
_#_,66,6,8,540
_#_,66,4,0,420
_#_,66,2,0,360
_#_,64,2,2,200
_#_,62,2,4,270
_#_,60,60,60,9520
_#_,60,30,0,520
_#_,60,16,0,410
_#_,60,8,0,350
_#_,60,4,0,360
_#_,60,2,0,360
_#_,58,2,2,250
_#_,56,4,4,300
_#_,56,2,0,420
_#_,54,2,2,230
_#_,52,8,8,450
_#_,52,4,0,450
_#_,52,2,0,400
_#_,50,2,2,220
_#_,48,4,4,240
_#_,48,2,0,429
_#_,46,2,2,240
_#_,44,14,16,710
_#_,44,8,0,440
_#_,44,4,0,360
_#_,44,2,0,360
_#_,42,2,2,250
_#_,40,4,4,240
_#_,40,2,0,420
_#_,38,2,2,220
_#_,36,6,8,350
_#_,36,4,0,420
_#_,36,2,0,370
_#_,34,2,2,210
_#_,32,2,4,190
_#_,30,30,30,2179
_#_,30,16,0,460
_#_,30,8,0,371
_#_,30,4,0,351
_#_,30,2,0,360
_#_,28,2,2,220
_#_,26,4,4,310
_#_,26,2,0,430
_#_,24,2,2,200
_#_,22,8,8,470
_#_,22,4,0,430
_#_,22,2,0,360
_#_,20,2,2,190
_#_,18,4,4,290
_#_,18,2,0,420
_#_,16,2,2,170
_#_,14,14,16,670
_#_,14,8,0,440
_#_,14,4,0,370
_#_,14,2,0,360
_#_,12,2,2,190
_#_,10,4,4,290
_#_,10,2,0,420
_#_,8,2,2,160
_#_,6,6,8,331
_#_,6,4,0,409
_#_,6,2,0,360
_#_,4,2,2,160
_#_,2,2,4,200
_#_,0,271,120,640
_#_,0,60,0,560
_#_,0,30,0,300
_#_,0,16,0,310
_#_,0,8,0,290
_#_,0,4,0,300
_#_,0,2,0,300
_#_,0,2,2,360
_#_,0,4,4,340
_#_,0,2,0,330
_#_,0,2,2,350
_#_,0,8,8,349
_#_,0,4,0,311
_#_,0,2,0,311
_#_,0,2,2,351
_#_,0,4,4,350
_#_,0,2,0,320
_#_,0,2,2,360
_#_,0,14,16,350
_#_,0,8,0,310
_#_,0,4,0,320
_#_,0,2,0,300
_#_,0,2,2,360
_#_,0,4,4,350
_#_,0,2,0,330
_#_,0,2,2,350
_#_,0,6,8,340
_#_,0,4,0,320
_#_,0,2,0,300
_#_,0,2,2,360
_#_,0,2,4,340
_#_,0,30,30,349
_#_,0,16,0,320
_#_,0,8,0,300
_#_,0,4,0,300
_#_,0,2,0,300
_#_,0,2,2,349
_#_,0,4,4,350
_#_,0,2,0,310
_#_,0,2,2,350
_#_,0,8,8,350
_#_,0,4,0,320
_#_,0,2,0,310
_#_,0,2,2,360
_#_,0,4,4,340
_#_,0,2,0,320
_#_,0,2,2,350
_#_,0,14,16,350
_#_,0,8,0,320
_#_,0,4,0,300
_#_,0,2,0,300
_#_,0,2,2,350
_#_,0,4,4,351
_#_,0,2,0,300
_#_,0,2,2,360
_#_,0,6,8,360
_#_,0,4,0,320
_#_,0,2,0,310
_#_,0,2,2,360
_#_,0,2,4,350
_#_,0,60,60,360
_#_,0,30,0,320
_#_,0,16,0,290
_#_,0,8,0,300
_#_,0,4,0,290
_#_,0,2,0,300
_#_,0,2,2,350
_#_,0,4,4,350
_#_,0,2,0,330
_#_,0,2,2,360
_#_,0,8,8,350
_#_,0,4,0,330
_#_,0,2,0,290
_#_,0,2,2,360
_#_,0,4,4,351
_#_,0,2,0,311
_#_,0,2,2,350
_#_,0,14,16,350
_#_,0,8,0,300
_#_,0,4,0,300
_#_,0,2,0,290
_#_,0,2,2,350
_#_,0,4,4,350
_#_,0,2,0,310
_#_,0,2,2,360
_#_,0,6,8,360
_#_,0,4,0,320
_#_,0,2,0,290
_#_,0,2,2,350
_#_,0,2,4,350
_#_,0,30,30,350
_#_,0,16,0,310
_#_,0,8,0,300
_#_,0,4,0,300
_#_,0,2,0,299
_#_,0,2,2,340
_#_,0,4,4,340
_#_,0,2,0,320
_#_,0,2,2,350
_#_,0,8,8,350
_#_,0,4,0,330
_#_,0,2,0,330
_#_,0,2,2,350
_#_,0,4,4,340
_#_,0,2,0,320
_#_,0,2,2,350
_#_,0,14,16,340
_#_,0,8,0,310
_#_,0,4,0,290
_#_,0,2,0,300
_#_,0,2,2,320
_#_,0,4,4,340
_#_,0,2,0,320
_#_,0,2,2,349
_#_,0,6,8,340
_#_,0,4,0,320
_#_,0,2,0,300
_#_,0,2,2,350
_#_,0,2,4,350
_#_,0,151,120,470
_#_,0,60,0,330
_#_,0,30,0,300
_#_,0,16,0,290
_#_,0,8,0,290
_#_,0,4,0,300
_#_,0,2,0,300
_#_,0,2,2,360
_#_,0,4,4,349
_#_,0,2,0,300
_#_,0,2,2,340
_#_,0,8,8,350
_#_,0,4,0,310
_#_,0,2,0,290
_#_,0,2,2,340
_#_,0,4,4,330
_#_,0,2,0,310
_#_,0,2,2,350
_#_,0,14,16,340
_#_,0,8,0,310
_#_,0,4,0,290
_#_,0,2,0,300
_#_,0,2,2,350
_#_,0,4,4,340
_#_,0,2,0,310
_#_,0,2,2,340
_#_,0,6,8,350
_#_,0,4,0,300
_#_,0,2,0,300
_#_,0,2,2,320
_#_,0,2,4,340
_#_,0,30,30,340
_#_,0,16,0,310
_#_,0,8,0,290
_#_,0,4,0,300
_#_,0,2,0,290
_#_,0,2,2,320
_#_,0,4,4,340
_#_,0,2,0,300
_#_,0,2,2,350
_#_,0,8,8,350
_#_,0,4,0,310
_#_,0,2,0,290
_#_,0,2,2,350
_#_,0,4,4,340
_#_,0,2,0,320
_#_,0,2,2,350
_#_,0,14,16,340
_#_,0,8,0,320
_#_,0,4,0,291
_#_,0,2,0,300
_#_,0,2,2,340
_#_,0,4,4,330
_#_,0,2,0,310
_#_,0,2,2,350
_#_,0,6,8,360
_#_,0,4,0,320
_#_,0,2,0,280
_#_,0,2,2,330
_#_,0,2,4,340
_#_,0,60,60,340
_#_,0,30,0,320
_#_,0,16,0,290
_#_,0,8,0,290
_#_,0,4,0,290
_#_,0,2,0,300
_#_,0,2,2,330
_#_,0,4,4,340
_#_,0,2,0,310
_#_,0,2,2,340
_#_,0,8,8,351
_#_,0,4,0,309
_#_,0,2,0,311
_#_,0,2,2,340
_#_,0,4,4,340
_#_,0,2,0,320
_#_,0,2,2,340
_#_,0,14,16,340
_#_,0,8,0,310
_#_,0,4,0,290
_#_,0,2,0,290
_#_,0,2,2,350
_#_,0,4,4,340
_#_,0,2,0,320
_#_,0,2,2,340
_#_,0,6,8,350
_#_,0,4,0,310
_#_,0,2,0,290
_#_,0,2,2,340
_#_,0,2,4,340
_#_,0,30,30,340
_#_,0,16,0,311
_#_,0,8,0,289
_#_,0,4,0,289
_#_,0,2,0,309
_#_,0,2,2,350
_#_,0,4,4,330
_#_,0,2,0,310
_#_,0,2,2,340
_#_,0,8,8,350
_#_,0,4,0,310
_#_,0,2,0,300
_#_,0,2,2,340
_#_,0,4,4,320
_#_,0,2,0,300
_#_,0,2,2,340
_#_,0,14,16,330
_#_,0,8,0,310
_#_,0,4,0,290
_#_,0,2,0,290
_#_,0,2,2,350
_#_,0,4,4,329
_#_,0,2,0,309
_#_,0,2,2,351
_#_,0,6,8,340
_#_,0,4,0,310
_#_,0,2,0,290
_#_,0,2,2,340
_#_,0,2,4,330
_#_,0,31,120,350
_#_,0,16,0,330
_#_,0,8,0,300
_#_,0,4,0,290
_#_,0,2,0,290
_#_,0,2,2,350
_#_,0,4,4,340
_#_,0,2,0,300
_#_,0,2,2,340
_#_,0,8,8,320
_#_,0,4,0,309
_#_,0,2,0,311
_#_,0,2,2,340
_#_,0,4,4,340
_#_,0,2,0,310
_#_,0,2,2,350
_#_,0,14,16,350
_#_,0,8,0,310
_#_,0,4,0,310
_#_,0,2,0,290
_#_,0,2,2,350
_#_,0,4,4,350
_#_,0,2,0,310
_#_,0,2,2,340
_#_,0,6,8,340
_#_,0,4,0,320
_#_,0,2,0,290
_#_,0,2,2,350
_#_,0,2,4,340
_#_,0,1,30,220

real	0m0.597s
user	0m0.433s
sys	0m0.123s
