magic, rank, use_smpi, time, delta, comment
#~#, 11, 1, 0.000001, 0.000001, Set initial model
#~#, 11, 1, 0.100953, 0.100952, After MPI_Init
#~#, 11, 1, 0.103627, 0.002674, After HPL_pdinfo
#~#, 11, 1, 0.104688, 0.001061, After HPL_grid_info
