magic, rank, use_smpi, time, delta, comment
#~#, 15, 0, 0.000001, 0.000001, Set initial model
#~#, 15, 1, 1.239439, 1.239438, Before pdupdate
#~#, 15, 0, 1.542054, 0.302615, Before pdupdate
#~#, 15, 1, 1.804618, 0.262564, Before pdupdate
#~#, 15, 0, 1.977443, 0.172825, Before pdupdate
#~#, 15, 1, 2.108065, 0.130622, Before pdupdate
#~#, 15, 0, 2.189365, 0.081300, Before pdupdate
#~#, 15, 1, 2.247253, 0.057888, Before pdupdate
#~#, 15, 0, 2.276301, 0.029049, Before pdupdate
