magic, rank, use_smpi, time, delta, comment
#~#, 4, 0, 0.000003, 0.000003, Set initial model
#~#, 4, 1, 1.239446, 1.239443, Before pdupdate
#~#, 4, 0, 1.544907, 0.305461, Before pdupdate
#~#, 4, 1, 1.804599, 0.259691, Before pdupdate
#~#, 4, 0, 1.977584, 0.172986, Before pdupdate
#~#, 4, 1, 2.108062, 0.130478, Before pdupdate
#~#, 4, 0, 2.189558, 0.081495, Before pdupdate
#~#, 4, 1, 2.247253, 0.057695, Before pdupdate
#~#, 4, 0, 2.276353, 0.029101, Before pdupdate
