_#_,960,840,120,4533953
_#_,960,840,120,4545724
_#_,960,840,120,4433093
_#_,960,960,120,5262795
_#_,840,960,120,4584373
_#_,840,840,120,4089182
_#_,840,840,120,4078602
_#_,840,840,120,3946051
_#_,840,840,120,3907622
_#_,840,840,120,3942822
_#_,840,60,0,11810
_#_,840,30,0,580
_#_,840,16,0,430
_#_,840,8,0,390
_#_,840,4,0,380
_#_,840,2,0,380
_#_,840,2,2,880
_#_,840,4,4,1540
_#_,840,2,0,490
_#_,840,2,2,720
_#_,840,8,8,3820
_#_,840,4,0,490
_#_,840,2,0,370
_#_,840,2,2,640
_#_,840,4,4,1360
_#_,840,2,0,440
_#_,840,2,2,620
_#_,840,14,16,10730
_#_,840,8,0,500
_#_,840,4,0,370
_#_,840,2,0,370
_#_,840,2,2,680
_#_,840,4,4,1350
_#_,840,2,0,450
_#_,840,2,2,650
_#_,840,6,8,3010
_#_,840,4,0,520
_#_,840,2,0,370
_#_,840,2,2,630
_#_,840,2,4,820
_#_,840,30,30,39681
_#_,840,16,0,630
_#_,840,8,0,410
_#_,840,4,0,370
_#_,840,2,0,380
_#_,840,2,2,660
_#_,840,4,4,1390
_#_,840,2,0,460
_#_,840,2,2,640
_#_,840,8,8,3700
_#_,840,4,0,480
_#_,840,2,0,400
_#_,840,2,2,620
_#_,840,4,4,1330
_#_,840,2,0,449
_#_,840,2,2,640
_#_,840,14,16,10860
_#_,840,8,0,520
_#_,840,4,0,390
_#_,840,2,0,370
_#_,840,2,2,630
_#_,840,4,4,1330
_#_,840,2,0,440
_#_,840,2,2,630
_#_,840,6,8,2960
_#_,840,4,0,510
_#_,840,2,0,380
_#_,840,2,2,630
_#_,840,2,4,790
_#_,840,60,60,136320
_#_,840,30,0,690
_#_,840,16,0,400
_#_,840,8,0,380
_#_,840,4,0,380
_#_,840,2,0,380
_#_,840,2,2,740
_#_,840,4,4,1400
_#_,840,2,0,480
_#_,840,2,2,640
_#_,840,8,8,3790
_#_,840,4,0,490
_#_,840,2,0,390
_#_,840,2,2,660
_#_,840,4,4,1350
_#_,840,2,0,450
_#_,840,2,2,650
_#_,840,14,16,10570
_#_,840,8,0,510
_#_,840,4,0,390
_#_,840,2,0,390
_#_,840,2,2,640
_#_,840,4,4,1340
_#_,840,2,0,440
_#_,840,2,2,630
_#_,840,6,8,2930
_#_,840,4,0,440
_#_,840,2,0,380
_#_,840,2,2,631
_#_,840,2,4,760
_#_,840,30,30,38750
_#_,840,16,0,650
_#_,840,8,0,390
_#_,840,4,0,390
_#_,840,2,0,400
_#_,840,2,2,670
_#_,840,4,4,1400
_#_,840,2,0,450
_#_,840,2,2,650
_#_,840,8,8,3680
_#_,840,4,0,450
_#_,840,2,0,370
_#_,840,2,2,629
_#_,840,4,4,1391
_#_,840,2,0,429
_#_,840,2,2,610
_#_,840,14,16,10680
_#_,840,8,0,500
_#_,840,4,0,380
_#_,840,2,0,390
_#_,840,2,2,670
_#_,840,4,4,1350
_#_,840,2,0,470
_#_,840,2,2,630
_#_,840,6,8,2990
_#_,840,4,0,440
_#_,840,2,0,380
_#_,840,2,2,680
_#_,840,2,4,749
_#_,840,720,120,3278339
_#_,840,720,120,3285140
___#_,840,840,120,447349___#_,840,840,120,435197___#_,840,840,120,419199_#_#_,720,840,120,345789_#_,720,720,120,2832738
_#_,720,720,120,2809749
_#_,720,720,120,2810618
_#_,720,720,120,2810158
_#_,720,720,120,2776939
_#_,720,60,0,1311
_#_,720,30,0,440
_#_,720,16,0,420
_#_,720,8,0,391
_#_,720,4,0,389
_#_,720,2,0,369
_#_,720,2,2,600
_#_,720,4,4,1240
_#_,720,2,0,450
_#_,720,2,2,560
_#_,720,8,8,3220
_#_,720,4,0,480
_#_,720,2,0,380
_#_,720,2,2,540
_#_,720,4,4,1240
_#_,720,2,0,440
_#_,720,2,2,591
_#_,720,14,16,9160
_#_,720,8,0,520
_#_,720,4,0,400
_#_,720,2,0,371
_#_,720,2,2,550
_#_,720,4,4,1170
_#_,720,2,0,450
_#_,720,2,2,560
_#_,720,6,8,2620
_#_,720,4,0,460
_#_,720,2,0,390
_#_,720,2,2,530
_#_,720,2,4,690
_#_,720,30,30,32949
_#_,720,16,0,660
_#_,720,8,0,400
_#_,720,4,0,380
_#_,720,2,0,380
_#_,720,2,2,540
_#_,720,4,4,1160
_#_,720,2,0,480
_#_,720,2,2,530
_#_,720,8,8,3090
_#_,720,4,0,480
_#_,720,2,0,370
_#_,720,2,2,530
_#_,720,4,4,1160
_#_,720,2,0,440
_#_,720,2,2,540
_#_,720,14,16,9120
_#_,720,8,0,509
_#_,720,4,0,391
_#_,720,2,0,371
_#_,720,2,2,520
_#_,720,4,4,1160
_#_,720,2,0,460
_#_,720,2,2,520
_#_,720,6,8,2570
_#_,720,4,0,480
_#_,720,2,0,380
_#_,720,2,2,560
_#_,720,2,4,660
_#_,720,60,60,116091
_#_,720,30,0,710
_#_,720,16,0,420
_#_,720,8,0,380
_#_,720,4,0,390
_#_,720,2,0,380
_#_,720,2,2,540
_#_,720,4,4,1170
_#_,720,2,0,480
_#_,720,2,2,530
_#_,720,8,8,3220
_#_,720,4,0,480
_#_,720,2,0,390
_#_,720,2,2,560
_#_,720,4,4,1160
_#_,720,2,0,440
_#_,720,2,2,540
_#_,720,14,16,9129
_#_,720,8,0,500
_#_,720,4,0,411
_#_,720,2,0,380
_#_,720,2,2,580
_#_,720,4,4,1160
_#_,720,2,0,460
_#_,720,2,2,510
_#_,720,6,8,2540
_#_,720,4,0,410
_#_,720,2,0,370
_#_,720,2,2,520
_#_,720,2,4,640
_#_,720,30,30,32851
_#_,720,16,0,611
_#_,720,8,0,380
_#_,720,4,0,380
_#_,720,2,0,371
_#_,720,2,2,609
_#_,720,4,4,1220
_#_,720,2,0,440
_#_,720,2,2,510
_#_,720,8,8,3210
_#_,720,4,0,480
_#_,720,2,0,380
_#_,720,2,2,530
_#_,720,4,4,1140
_#_,720,2,0,460
_#_,720,2,2,520
_#_,720,14,16,9140
_#_,720,8,0,500
_#_,720,4,0,390
_#_,720,2,0,371
_#_,720,2,2,560
_#_,720,4,4,1190
_#_,720,2,0,440
_#_,720,2,2,520
_#_,720,6,8,2550
_#_,720,4,0,440
_#_,720,2,0,380
_#_,720,2,2,530
_#_,720,2,4,640
_#_#_#_,720,720,120,2808_#_,_#_,720,720,120,2836_#_,_#_,720,720,120,2835_#_,_#_,720,720,120,2826_#_,_#_,720,720,120,2851_#_,600,600,120,1940586
_#_,600,600,120,1955995
_#_,600,600,120,1958206
_#_,600,600,120,1943096
_#_,600,600,120,1907676
_#_,600,600,120,1918845
_#_,600,60,0,1160
_#_,600,30,0,451
_#_,600,16,0,409
_#_,600,8,0,380
_#_,600,4,0,371
_#_,600,2,0,380
_#_,600,2,2,600
_#_,600,4,4,1110
_#_,600,2,0,520
_#_,600,2,2,480
_#_,600,8,8,2780
_#_,600,4,0,469
_#_,600,2,0,371
_#_,600,2,2,500
_#_,600,4,4,1000
_#_,600,2,0,430
_#_,600,2,2,490
_#_,600,14,16,7750
_#_,600,8,0,500
_#_,600,4,0,390
_#_,600,2,0,360
_#_,600,2,2,490
_#_,600,4,4,1080
_#_,600,2,0,420
_#_,600,2,2,540
_#_,600,6,8,2191
_#_,600,4,0,431
_#_,600,2,0,349
_#_,600,2,2,490
_#_,600,2,4,620
_#_,600,30,30,27480
_#_,600,16,0,610
_#_,600,8,0,410
_#_,600,4,0,380
_#_,600,2,0,370
_#_,600,2,2,500
_#_,600,4,4,1020
_#_,600,2,0,430
_#_,600,2,2,470
_#_,600,8,8,2660
_#_,600,4,0,461
_#_,600,2,0,380
_#_,600,2,2,491
_#_,600,4,4,1050
_#_,600,2,0,430
_#_,600,2,2,490
_#_,600,14,16,7700
_#_,600,8,0,460
_#_,600,4,0,390
_#_,600,2,0,370
_#_,600,2,2,520
_#_,600,4,4,1000
_#_,600,2,0,440
_#_,600,2,2,470
_#_,600,6,8,2190
_#_,600,4,0,470
_#_,600,2,0,390
_#_,600,2,2,480
_#_,600,2,4,591
_#_,600,60,60,97540
_#_,600,30,0,700
_#_,600,16,0,410
_#_,600,8,0,390
_#_,600,4,0,370
_#_,600,2,0,370
_#_,600,2,2,560
_#_,600,4,4,1030
_#_,600,2,0,410
_#_,600,2,2,480
_#_,600,8,8,2651
_#_,600,4,0,449
_#_,600,2,0,380
_#_,600,2,2,500
_#_,600,4,4,1030
_#_,600,2,0,420
_#_,600,2,2,500
_#_,600,14,16,7700
_#_,600,8,0,530
_#_,600,4,0,380
_#_,600,2,0,370
_#_,600,2,2,510
_#_,600,4,4,1050
_#_,600,2,0,470
_#_,600,2,2,480
_#_,600,6,8,2140
_#_,600,4,0,450
_#_,600,2,0,380
_#_,600,2,2,511
_#_,600,2,4,591
_#_,600,30,30,27610
_#_,600,16,0,570
_#_,600,8,0,410
_#_,600,4,0,380
_#_,600,2,0,360
_#_,600,2,2,490
_#_,600,4,4,1030
_#_,600,2,0,490
_#_,600,2,2,480
_#_,600,8,8,2720
_#_,600,4,0,450
_#_,600,2,0,380
_#_,600,2,2,511
_#_,600,4,4,1031
_#_,600,2,0,400
_#_,600,2,2,530
_#_,600,14,16,7780
_#_,600,8,0,450
_#_,600,4,0,360
_#_,600,2,0,360
_#_,600,2,2,510
_#_,600,4,4,990
_#_,600,2,0,420
_#_,600,2,2,510
_#_,600,6,8,2330
_#_,600,4,0,440
_#_,600,2,0,380
_#_,600,2,2,480
_#_,600,2,4,611
__#__#_,600,600,120,1978__#__#_,600,600,120,1967_#_,_#_,600,600,120,2020_#_,_#_,600,600,120,1968_#_,_#_,600,600,120,1994_#_,_#_,480,600,120,1601_#_,480,480,120,1258334
_#_,480,480,120,1249463
_#_,480,480,120,1248504
_#_,480,480,120,1246874
_#_,480,480,120,1251004
_#_,480,60,0,1230
_#_,480,30,0,460
_#_,480,16,0,420
_#_,480,8,0,390
_#_,480,4,0,390
_#_,480,2,0,380
_#_,480,2,2,470
_#_,480,4,4,930
_#_,480,2,0,480
_#_,480,2,2,470
_#_,480,8,8,2210
_#_,480,4,0,480
_#_,480,2,0,380
_#_,480,2,2,420
_#_,480,4,4,860
_#_,480,2,0,440
_#_,480,2,2,409
_#_,480,14,16,6181
_#_,480,8,0,470
_#_,480,4,0,370
_#_,480,2,0,360
_#_,480,2,2,410
_#_,480,4,4,840
_#_,480,2,0,500
_#_,480,2,2,400
_#_,480,6,8,1740
_#_,480,4,0,480
_#_,480,2,0,370
_#_,480,2,2,420
_#_,480,2,4,560
_#_,480,30,30,21900
_#_,480,16,0,620
_#_,480,8,0,391
_#_,480,4,0,371
_#_,480,2,0,369
_#_,480,2,2,440
_#_,480,4,4,870
_#_,480,2,0,470
_#_,480,2,2,420
_#_,480,8,8,2180
_#_,480,4,0,450
_#_,480,2,0,390
_#_,480,2,2,400
_#_,480,4,4,800
_#_,480,2,0,430
_#_,480,2,2,410
_#_,480,14,16,6180
_#_,480,8,0,530
_#_,480,4,0,360
_#_,480,2,0,360
_#_,480,2,2,429
_#_,480,4,4,820
_#_,480,2,0,440
_#_,480,2,2,400
_#_,480,6,8,1770
_#_,480,4,0,440
_#_,480,2,0,370
_#_,480,2,2,430
_#_,480,2,4,520
_#_,480,60,60,77590
_#_,480,30,0,711
_#_,480,16,0,431
_#_,480,8,0,391
_#_,480,4,0,380
_#_,480,2,0,371
_#_,480,2,2,449
_#_,480,4,4,840
_#_,480,2,0,410
_#_,480,2,2,400
_#_,480,8,8,2180
_#_,480,4,0,480
_#_,480,2,0,370
_#_,480,2,2,410
_#_,480,4,4,830
_#_,480,2,0,460
_#_,480,2,2,410
_#_,480,14,16,6210
_#_,480,8,0,450
_#_,480,4,0,370
_#_,480,2,0,360
_#_,480,2,2,400
_#_,480,4,4,840
_#_,480,2,0,429
_#_,480,2,2,410
_#_,480,6,8,1810
_#_,480,4,0,430
_#_,480,2,0,360
_#_,480,2,2,410
_#_,480,2,4,530
_#_,480,30,30,24180
_#_,480,16,0,620
_#_,480,8,0,390
_#_,480,4,0,370
_#_,480,2,0,370
_#_,480,2,2,420
_#_,480,4,4,830
_#_,480,2,0,410
_#_,480,2,2,420
_#_,480,8,8,2180
_#_,480,4,0,430
_#_,480,2,0,360
_#_,480,2,2,420
_#_,480,4,4,830
_#_,480,2,0,430
_#_,480,2,2,430
_#_,480,14,16,6100
_#_,480,8,0,480
_#_,480,4,0,380
_#_,480,2,0,360
_#_,480,2,2,400
_#_,480,4,4,860
_#_,480,2,0,430
_#_,480,2,2,420
_#_,480,6,8,1811
_#_,480,4,0,440
_#_,480,2,0,380
_#_,480,2,2,420
_#_,480,2,4,49_#_#_,_#_,480,480,120,1_#_#_,4_#_,480,480,120,_#_#_,48_#_,480,480,120_#_#_,480_#_,480,480,12_#_#_,480,_#_,480,480,1_#_#_,360,3_#_,360,480,_#_#_,360,360,120,68882_#_#_,360,360,120,68286_#_#_,360,360,120,682192
_#_,360,360,120,682212
_#_,360,360,120,691712
_#_,360,60,0,1080
_#_,360,30,0,469
_#_,360,16,0,411
_#_,360,8,0,391
_#_,360,4,0,380
_#_,360,2,0,360
_#_,360,2,2,480
_#_,360,4,4,760
_#_,360,2,0,440
_#_,360,2,2,370
_#_,360,8,8,1740
_#_,360,4,0,480
_#_,360,2,0,360
_#_,360,2,2,350
_#_,360,4,4,700
_#_,360,2,0,470
_#_,360,2,2,360
_#_,360,14,16,4731
_#_,360,8,0,520
_#_,360,4,0,389
_#_,360,2,0,360
_#_,360,2,2,391
_#_,360,4,4,730
_#_,360,2,0,440
_#_,360,2,2,350
_#_,360,6,8,1400
_#_,360,4,0,430
_#_,360,2,0,370
_#_,360,2,2,360
_#_,360,2,4,450
_#_,360,30,30,16560
_#_,360,16,0,590
_#_,360,8,0,400
_#_,360,4,0,370
_#_,360,2,0,370
_#_,360,2,2,370
_#_,360,4,4,720
_#_,360,2,0,460
_#_,360,2,2,391
_#_,360,8,8,1710
_#_,360,4,0,460
_#_,360,2,0,380
_#_,360,2,2,380
_#_,360,4,4,700
_#_,360,2,0,450
_#_,360,2,2,360
_#_,360,14,16,4700
_#_,360,8,0,470
_#_,360,4,0,370
_#_,360,2,0,380
_#_,360,2,2,390
_#_,360,4,4,700
_#_,360,2,0,430
_#_,360,2,2,371
_#_,360,6,8,1431
_#_,360,4,0,431
_#_,360,2,0,371
_#_,360,2,2,360
_#_,360,2,4,430
_#_,360,60,60,58540
_#_,360,30,0,660
_#_,360,16,0,430
_#_,360,8,0,370
_#_,360,4,0,380
_#_,360,2,0,380
_#_,360,2,2,390
_#_,360,4,4,730
_#_,360,2,0,460
_#_,360,2,2,380
_#_,360,8,8,1749
_#_,360,4,0,460
_#_,360,2,0,369
_#_,360,2,2,390
_#_,360,4,4,720
_#_,360,2,0,430
_#_,360,2,2,350
_#_,360,14,16,4740
_#_,360,8,0,460
_#_,360,4,0,380
_#_,360,2,0,360
_#_,360,2,2,370
_#_,360,4,4,680
_#_,360,2,0,420
_#_,360,2,2,350
_#_,360,6,8,1411
_#_,360,4,0,429
_#_,360,2,0,360
_#_,360,2,2,400
_#_,360,2,4,440
_#_,360,30,30,16510
_#_,360,16,0,540
_#_,360,8,0,380
_#_,360,4,0,360
_#_,360,2,0,380
_#_,360,2,2,370
_#_,360,4,4,690
_#_,360,2,0,420
_#_,360,2,2,360
_#_,360,8,8,1690
_#_,360,4,0,430
_#_,360,2,0,370
_#_,360,2,2,360
_#_,360,4,4,700
_#_,360,2,0,420
_#_,360,2,2,360
_#_,360,14,16,4660
_#_,360,8,0,460
_#_,360,4,0,380
_#_,360,2,0,360
_#_,360,2,2,380
_#_,360,4,4,710
_#_,360,2,0,420
_#_,360,2,2,360
_#_,360,6,8,1440
_#_,360,4,0,440
_#_,360,2,0,380
_#_,360,2,2,390
_#_,360,2,4,46_#_,360,240_#_,360,360,_#_#_,360,2_#_,360,360,_#_#_,360,2_#_,360,360,_#_#_,360,2_#_,360,360,_#_#_,360,2_#_,360,360,_#_#_,240,240,120,29023_#_#_,240,240,120,29180_#_#_,240,240,120,28803_#_#_,240,240,120,288971
_#_,240,240,120,288131
_#_,240,240,120,287591
_#_,240,60,0,1060
_#_,240,30,0,450
_#_,240,16,0,400
_#_,240,8,0,380
_#_,240,4,0,380
_#_,240,2,0,370
_#_,240,2,2,370
_#_,240,4,4,580
_#_,240,2,0,450
_#_,240,2,2,310
_#_,240,8,8,1270
_#_,240,4,0,470
_#_,240,2,0,380
_#_,240,2,2,270
_#_,240,4,4,500
_#_,240,2,0,400
_#_,240,2,2,291
_#_,240,14,16,3280
_#_,240,8,0,450
_#_,240,4,0,370
_#_,240,2,0,370
_#_,240,2,2,280
_#_,240,4,4,510
_#_,240,2,0,420
_#_,240,2,2,320
_#_,240,6,8,1010
_#_,240,4,0,4290
_#_,240,2,0,400
_#_,240,2,2,280
_#_,240,2,4,380
_#_,240,30,30,10960
_#_,240,16,0,500
_#_,240,8,0,380
_#_,240,4,0,380
_#_,240,2,0,360
_#_,240,2,2,280
_#_,240,4,4,530
_#_,240,2,0,430
_#_,240,2,2,270
_#_,240,8,8,1200
_#_,240,4,0,490
_#_,240,2,0,390
_#_,240,2,2,290
_#_,240,4,4,510
_#_,240,2,0,440
_#_,240,2,2,280
_#_,240,14,16,3180
_#_,240,8,0,450
_#_,240,4,0,370
_#_,240,2,0,370
_#_,240,2,2,269
_#_,240,4,4,520
_#_,240,2,0,420
_#_,240,2,2,280
_#_,240,6,8,1060
_#_,240,4,0,440
_#_,240,2,0,380
_#_,240,2,2,270
_#_,240,2,4,330
_#_,240,60,60,38880
_#_,240,30,0,580
_#_,240,16,0,390
_#_,240,8,0,380
_#_,240,4,0,380
_#_,240,2,0,370
_#_,240,2,2,290
_#_,240,4,4,540
_#_,240,2,0,420
_#_,240,2,2,260
_#_,240,8,8,1220
_#_,240,4,0,430
_#_,240,2,0,370
_#_,240,2,2,340
_#_,240,4,4,540
_#_,240,2,0,470
_#_,240,2,2,280
_#_,240,14,16,3180
_#_,240,8,0,490
_#_,240,4,0,380
_#_,240,2,0,380
_#_,240,2,2,300
_#_,240,4,4,510
_#_,240,2,0,430
_#_,240,2,2,300
_#_,240,6,8,1000
_#_,240,4,0,440
_#_,240,2,0,380
_#_,240,2,2,290
_#_,240,2,4,350
_#_,240,30,30,11200
_#_,240,16,0,540
_#_,240,8,0,390
_#_,240,4,0,370
_#_,240,2,0,370
_#_,240,2,2,280
_#_,240,4,4,560
_#_,240,2,0,460
_#_,240,2,2,290
_#_,240,8,8,1209
_#_,240,4,0,440
_#_,240,2,0,360
_#_,240,2,2,280
_#_,240,4,4,500
_#_,240,2,0,420
_#_,240,2,2,290
_#_,240,14,16,3170
_#_,240,8,0,450
_#_,240,4,0,380
_#_,240,2,0,370
_#_,240,2,2,280
_#_,240,4,4,530
_#_,240,2,0,430
_#_,240,2,2,290
_#_,240,6,8,990
_#_,240,4,0,431
_#_,240,2,0,360
_#_,240,2,2,271
_#_,240,2,4,33_#_,240,_#_,240,240,120_#_,240,_#_,240,240,120_#_#_,24_#_,240,240,120_#_#_,24_#_,240,240,120_#_#_,24_#_,240,240,120_#_#_,12_#_,120,240,12_#_#_,120,120,120,7344_#_#_,120,120,120,7346_#_#_,120,120,120,7350_#_#_,120,120,120,77520
_#_,120,120,120,73320
_#_,120,60,0,1000
_#_,120,30,0,450
_#_,120,16,0,410
_#_,120,8,0,400
_#_,120,4,0,360
_#_,120,2,0,370
_#_,120,2,2,329
_#_,120,4,4,471
_#_,120,2,0,480
_#_,120,2,2,230
_#_,120,8,8,750
_#_,120,4,0,480
_#_,120,2,0,370
_#_,120,2,2,220
_#_,120,4,4,380
_#_,120,2,0,440
_#_,120,2,2,240
_#_,120,14,16,1760
_#_,120,8,0,450
_#_,120,4,0,380
_#_,120,2,0,380
_#_,120,2,2,230
_#_,120,4,4,360
_#_,120,2,0,429
_#_,120,2,2,229
_#_,120,6,8,640
_#_,120,4,0,470
_#_,120,2,0,370
_#_,120,2,2,240
_#_,120,2,4,310
_#_,120,30,30,5650
_#_,120,16,0,540
_#_,120,8,0,390
_#_,120,4,0,380
_#_,120,2,0,360
_#_,120,2,2,230
_#_,120,4,4,370
_#_,120,2,0,420
_#_,120,2,2,240
_#_,120,8,8,720
_#_,120,4,0,431
_#_,120,2,0,380
_#_,120,2,2,240
_#_,120,4,4,380
_#_,120,2,0,430
_#_,120,2,2,220
_#_,120,14,16,1730
_#_,120,8,0,480
_#_,120,4,0,400
_#_,120,2,0,370
_#_,120,2,2,250
_#_,120,4,4,380
_#_,120,2,0,420
_#_,120,2,2,240
_#_,120,6,8,609
_#_,120,4,0,451
_#_,120,2,0,371
_#_,120,2,2,240
_#_,120,2,4,280
_#_,120,60,60,20010
_#_,120,30,0,510
_#_,120,16,0,430
_#_,120,8,0,390
_#_,120,4,0,370
_#_,120,2,0,380
_#_,120,2,2,230
_#_,120,4,4,400
_#_,120,2,0,430
_#_,120,2,2,240
_#_,120,8,8,780
_#_,120,4,0,460
_#_,120,2,0,380
_#_,120,2,2,251
_#_,120,4,4,360
_#_,120,2,0,449
_#_,120,2,2,240
_#_,120,14,16,1740
_#_,120,8,0,450
_#_,120,4,0,380
_#_,120,2,0,370
_#_,120,2,2,250
_#_,120,4,4,390
_#_,120,2,0,410
_#_,120,2,2,260
_#_,120,6,8,620
_#_,120,4,0,420
_#_,120,2,0,360
_#_,120,2,2,230
_#_,120,2,4,271
_#_,120,30,30,5661
_#_,120,16,0,500
_#_,120,8,0,380
_#_,120,4,0,380
_#_,120,2,0,370
_#_,120,2,2,230
_#_,120,4,4,400
_#_,120,2,0,460
_#_,120,2,2,230
_#_,120,8,8,730
_#_,120,4,0,450
_#_,120,2,0,370
_#_,120,2,2,240
_#_,120,4,4,380
_#_,120,2,0,410
_#_,120,2,2,240
_#_,120,14,16,1740
_#_,120,8,0,460
_#_,120,4,0,391
_#_,120,2,0,360
_#_,120,2,2,249
_#_,120,4,4,430
_#_,120,2,0,450
_#_,120,2,2,240
_#_,120,6,8,610
_
real	0m1.157s
us
real	0m1.165s
user	0m0.596s
sys	0m0.329s
	0m0.591s
sys	0m0.320s
	0m0.584s
sys	0m0.329s
20_#_,120_#_,120,120,12_#_,120,_#_,120,120,1_#_,120,4_#_,120,120,_#_,0,41,1_#_,0,1_#_,0,41,120,590
_#_,0,20,0,370
_#_,0,10,0,340
_#_,0,6,0,320
_#_,0,4,0,330
_#_,0,2,0,330
_#_,0,2,2,350
_#_,0,2,4,340
_#_,0,4,6,340
_#_,0,2,0,330
_#_,0,2,2,330
_#_,0,10,10,349
_#_,0,6,0,331
_#_,0,4,0,331
_#_,0,2,0,320
_#_,0,2,2,349
_#_,0,2,4,340
_#_,0,4,6,360
_#_,0,2,0,340
_#_,0,2,2,340
_#_,0,20,20,370
_#_,0,10,0,320
_#_,0,6,0,330
_#_,0,4,0,330
_#_,0,2,0,340
_#_,0,2,2,340
_#_,0,2,4,360
_#_,0,4,6,350
_#_,0,2,0,320
_#_,0,2,2,340
_#_,0,10,10,340
_#_,0,6,0,340
_#_,0,4,0,320
_#_,0,2,0,329
_#_,0,2,2,349
_#_,0,2,4,340
_#_,0,4,6,340
_#_,0,2,0,330
_#_,0,2,2,340
_#_,0,1,40,280

real	0m1.162s
user	0m0.628s
sys	0m0.354s
2,350
_#_,0,4,4,340
_#_,0,2,0,320
_#_,0,2,2,351
_#_,0,14,16,340
_#_,0,8,0,320
_#_,0,4,0,311
_#_,0,2,0,320
_#_,0,2,2,330
_#_,0,4,4,340
_#_,0,2,0,320
_#_,0,2,2,340
_#_,0,6,8,340
_#_,0,4,0,320
_#_,0,2,0,310
_#_,0,2,2,350
_#_,0,2,4,340
_#_,0,60,60,340
_#_,0,30,0,320
_#_,0,16,0,310
_#_,0,8,0,320
_#_,0,4,0,330
_#_,0,2,0,330
_#_,0,2,2,349
_#_,0,4,4,340
_#_,0,2,0,320
_#_,0,2,2,340
_#_,0,8,8,340
_#_,0,4,0,320
_#_,0,2,0,320
_#_,0,2,2,340
_#_,0,4,4,340
_#_,0,2,0,320
_#_,0,2,2,340
_#_,0,14,16,340
_#_,0,8,0,330
_#_,0,4,0,310
_#_,0,2,0,320
_#_,0,2,2,340
_#_,0,4,4,350
_#_,0,2,0,320
_#_,0,2,2,340
_#_,0,6,8,350
_#_,0,4,0,320
_#_,0,2,0,310
_#_,0,2,2,340
_#_,0,2,4,350
_#_,0,30,30,350
_#_,0,16,0,320
_#_,0,8,0,320
_#_,0,4,0,320
_#_,0,2,0,330
_#_,0,2,2,350
_#_,0,4,4,340
_#_,0,2,0,320
_#_,0,2,2,340
_#_,0,8,8,340
_#_,0,4,0,330
_#_,0,2,0,320
_#_,0,2,2,340
_#_,0,4,4,349
_#_,0,2,0,320
_#_,0,2,2,340
_#_,0,14,16,340
_#_,0,8,0,310
_#_,0,4,0,310
_#_,0,2,0,320
_#_,0,2,2,340
_#_,0,4,4,340
_#_,0,2,0,330
_#_,0,2,2,350
_#_,0,6,8,340
_#_,0,4,0,330
_#_,0,2,0,320
_#_,0,2,2,370
_#_,0,2,4,340

real	0m1.149s
user	0m0.629s
sys	0m0.354s
#_,10,4,4,340
_#_,10,2,0,491
_#_,8,2,2,189
_#_,6,6,8,360
_#_,6,4,0,500
_#_,6,2,0,370
_#_,4,2,2,210
_#_,2,2,4,230

real	0m1.165s
user	0m0.615s
sys	0m0.376s
0m0.354s
0m0.602
real	0m1.163s
u
real	0m1.168s
user	0m0.631s
sys	0m0.347s
