_#_,960,840,120,4512763
_#_,960,840,120,4476204
_#_,960,840,120,4512653
_#_,960,960,120,5180661
_#_,960,840,120,4686553
_#_,840,840,120,4142314
_#_,840,840,120,3954085
_#_,840,840,120,3887656
_#_,840,840,120,3928386
_#_,840,840,120,3926556
_#_,840,60,0,10300
_#_,840,30,0,560
_#_,840,16,0,430
_#_,840,8,0,390
_#_,840,4,0,380
_#_,840,2,0,370
_#_,840,2,2,849
_#_,840,4,4,1471
_#_,840,2,0,511
_#_,840,2,2,660
_#_,840,8,8,3760
_#_,840,4,0,470
_#_,840,2,0,380
_#_,840,2,2,650
_#_,840,4,4,1370
_#_,840,2,0,440
_#_,840,2,2,590
_#_,840,14,16,10820
_#_,840,8,0,540
_#_,840,4,0,391
_#_,840,2,0,369
_#_,840,2,2,650
_#_,840,4,4,1340
_#_,840,2,0,460
_#_,840,2,2,650
_#_,840,6,8,3000
_#_,840,4,0,430
_#_,840,2,0,380
_#_,840,2,2,640
_#_,840,2,4,820
_#_,840,30,30,38890
_#_,840,16,0,590
_#_,840,8,0,410
_#_,840,4,0,380
_#_,840,2,0,410
_#_,840,2,2,620
_#_,840,4,4,1360
_#_,840,2,0,500
_#_,840,2,2,650
_#_,840,8,8,3680
_#_,840,4,0,470
_#_,840,2,0,379
_#_,840,2,2,620
_#_,840,4,4,1300
_#_,840,2,0,410
_#_,840,2,2,610
_#_,840,14,16,10670
_#_,840,8,0,540
_#_,840,4,0,380
_#_,840,2,0,380
_#_,840,2,2,620
_#_,840,4,4,1320
_#_,840,2,0,430
_#_,840,2,2,620
_#_,840,6,8,2960
_#_,840,4,0,470
_#_,840,2,0,380
_#_,840,2,2,620
_#_,840,2,4,750
_#_,840,60,60,139960
_#_,840,30,0,700
_#_,840,16,0,420
_#_,840,8,0,399
_#_,840,4,0,390
_#_,840,2,0,390
_#_,840,2,2,650
_#_,840,4,4,1390
_#_,840,2,0,450
_#_,840,2,2,600
_#_,840,8,8,3670
_#_,840,4,0,450
_#_,840,2,0,380
_#_,840,2,2,610
_#_,840,4,4,1349
_#_,840,2,0,449
_#_,840,2,2,650
_#_,840,14,16,10630
_#_,840,8,0,520
_#_,840,4,0,390
_#_,840,2,0,360
_#_,840,2,2,620
_#_,840,4,4,1310
_#_,840,2,0,470
_#_,840,2,2,610
_#_,840,6,8,3010
_#_,840,4,0,460
_#_,840,2,0,380
_#_,840,2,2,611
_#_,840,2,4,750
_#_,840,30,30,38990
_#_,840,16,0,620
_#_,840,8,0,400
_#_,840,4,0,370
_#_,840,2,0,380
_#_,840,2,2,700
_#_,840,4,4,1330
_#_,840,2,0,470
_#_,840,2,2,640
_#_,840,8,8,3660
_#_,840,4,0,460
_#_,840,2,0,380
_#_,840,2,2,620
_#_,840,4,4,1320
_#_,840,2,0,480
_#_,840,2,2,610
_#_,840,14,16,10740
_#_,840,8,0,500
_#_,840,4,0,390
_#_,840,2,0,380
_#_,840,2,2,670
_#_,840,4,4,1320
_#_,840,2,0,460
_#_,840,2,2,600
_#_,840,6,8,2930
_#_,840,4,0,460
_#_,840,2,0,390
_#_,840,2,2,610
_#_,840,2,4,760_#_,840,720,120,3272579
__#_,840,720,120,3312748___#_,_#_,840,840,120,39___#_,_#_,840,840,120,39___#_,_#_,840,840,120,39__#_,8_#_,840,840,120,40__#_,720,720,120,2922139__#_,720,720,120,2801709__#_,720,720,120,2879979__#_,720,720,120,2751330
_#_,720,720,120,2778820
_#_,720,60,0,1320
_#_,720,30,0,460
_#_,720,16,0,410
_#_,720,8,0,390
_#_,720,4,0,390
_#_,720,2,0,380
_#_,720,2,2,620
_#_,720,4,4,1240
_#_,720,2,0,520
_#_,720,2,2,540
_#_,720,8,8,3230
_#_,720,4,0,480
_#_,720,2,0,380
_#_,720,2,2,530
_#_,720,4,4,1140
_#_,720,2,0,430
_#_,720,2,2,550
_#_,720,14,16,9420
_#_,720,8,0,520
_#_,720,4,0,389
_#_,720,2,0,360
_#_,720,2,2,570
_#_,720,4,4,1140
_#_,720,2,0,430
_#_,720,2,2,520
_#_,720,6,8,2550
_#_,720,4,0,450
_#_,720,2,0,380
_#_,720,2,2,550
_#_,720,2,4,700
_#_,720,30,30,32839
_#_,720,16,0,600
_#_,720,8,0,400
_#_,720,4,0,370
_#_,720,2,0,370
_#_,720,2,2,550
_#_,720,4,4,1140
_#_,720,2,0,450
_#_,720,2,2,530
_#_,720,8,8,3220
_#_,720,4,0,460
_#_,720,2,0,400
_#_,720,2,2,549
_#_,720,4,4,1140
_#_,720,2,0,430
_#_,720,2,2,540
_#_,720,14,16,9040
_#_,720,8,0,510
_#_,720,4,0,380
_#_,720,2,0,370
_#_,720,2,2,580
_#_,720,4,4,1170
_#_,720,2,0,470
_#_,720,2,2,560
_#_,720,6,8,2549
_#_,720,4,0,460
_#_,720,2,0,380
_#_,720,2,2,560
_#_,720,2,4,660
_#_,720,60,60,116409
_#_,720,30,0,691
_#_,720,16,0,420
_#_,720,8,0,389
_#_,720,4,0,371
_#_,720,2,0,371
_#_,720,2,2,560
_#_,720,4,4,1160
_#_,720,2,0,470
_#_,720,2,2,560
_#_,720,8,8,3160
_#_,720,4,0,470
_#_,720,2,0,380
_#_,720,2,2,570
_#_,720,4,4,1160
_#_,720,2,0,450
_#_,720,2,2,531
_#_,720,14,16,9130
_#_,720,8,0,500
_#_,720,4,0,380
_#_,720,2,0,380
_#_,720,2,2,590
_#_,720,4,4,1180
_#_,720,2,0,460
_#_,720,2,2,560
_#_,720,6,8,2500
_#_,720,4,0,450
_#_,720,2,0,370
_#_,720,2,2,540
_#_,720,2,4,640
_#_,720,30,30,38490
_#_,720,16,0,660
_#_,720,8,0,390
_#_,720,4,0,390
_#_,720,2,0,390
_#_,720,2,2,530
_#_,720,4,4,1160
_#_,720,2,0,450
_#_,720,2,2,540
_#_,720,8,8,3170
_#_,720,4,0,440
_#_,720,2,0,370
_#_,720,2,2,549
_#_,720,4,4,1140
_#_,720,2,0,430
_#_,720,2,2,530
_#_,720,14,16,9060
_#_,720,8,0,480
_#_,720,4,0,410
_#_,720,2,0,370
_#_,720,2,2,530
_#_,720,4,4,1130
_#_,720,2,0,440
_#_,720,2,2,580
_#_,720,6,8,2489
_#_,720,4,0,460
_#_,720,2,0,389
_#_,720,2,2,540
_#_,720,2,4,650_#__#___#_,_#_,720,720,1__#_,72_#_,_#_,720,720,1__#_#_,_#_,_#_,720,720,1__#_,72_#_,_#_,720,720,1__#_,72_#_,_#_,720,720,1__#_,720,60_#_,720,720,1__#_,600,600,120,2007393__#_,600,600,120,1966943__#_,600,600,120,1949443__#_,600,600,120,1924113
_#_,600,600,120,1961133
_#_,600,60,0,1000
_#_,600,30,0,460
_#_,600,16,0,410
_#_,600,8,0,400
_#_,600,4,0,380
_#_,600,2,0,370
_#_,600,2,2,540
_#_,600,4,4,1120
_#_,600,2,0,490
_#_,600,2,2,510
_#_,600,8,8,2800
_#_,600,4,0,480
_#_,600,2,0,380
_#_,600,2,2,480
_#_,600,4,4,1070
_#_,600,2,0,480
_#_,600,2,2,560
_#_,600,14,16,7689
_#_,600,8,0,500
_#_,600,4,0,370
_#_,600,2,0,390
_#_,600,2,2,490
_#_,600,4,4,1020
_#_,600,2,0,460
_#_,600,2,2,480
_#_,600,6,8,2180
_#_,600,4,0,460
_#_,600,2,0,400
_#_,600,2,2,490
_#_,600,2,4,609
_#_,600,30,30,27640
_#_,600,16,0,640
_#_,600,8,0,390
_#_,600,4,0,390
_#_,600,2,0,390
_#_,600,2,2,510
_#_,600,4,4,1020
_#_,600,2,0,480
_#_,600,2,2,470
_#_,600,8,8,2670
_#_,600,4,0,450
_#_,600,2,0,380
_#_,600,2,2,489
_#_,600,4,4,1020
_#_,600,2,0,450
_#_,600,2,2,470
_#_,600,14,16,7690
_#_,600,8,0,470
_#_,600,4,0,380
_#_,600,2,0,400
_#_,600,2,2,500
_#_,600,4,4,1020
_#_,600,2,0,440
_#_,600,2,2,480
_#_,600,6,8,2211
_#_,600,4,0,429
_#_,600,2,0,389
_#_,600,2,2,490
_#_,600,2,4,580
_#_,600,60,60,97700
_#_,600,30,0,660
_#_,600,16,0,420
_#_,600,8,0,380
_#_,600,4,0,380
_#_,600,2,0,380
_#_,600,2,2,520
_#_,600,4,4,1080
_#_,600,2,0,440
_#_,600,2,2,500
_#_,600,8,8,2710
_#_,600,4,0,450
_#_,600,2,0,370
_#_,600,2,2,480
_#_,600,4,4,1030
_#_,600,2,0,440
_#_,600,2,2,500
_#_,600,14,16,7709
_#_,600,8,0,489
_#_,600,4,0,391
_#_,600,2,0,369
_#_,600,2,2,490
_#_,600,4,4,1060
_#_,600,2,0,420
_#_,600,2,2,510
_#_,600,6,8,2190
_#_,600,4,0,450
_#_,600,2,0,380
_#_,600,2,2,490
_#_,600,2,4,571
_#_,600,30,30,27469
_#_,600,16,0,580
_#_,600,8,0,400
_#_,600,4,0,380
_#_,600,2,0,380
_#_,600,2,2,480
_#_,600,4,4,1050
_#_,600,2,0,440
_#_,600,2,2,520
_#_,600,8,8,2740
_#_,600,4,0,450
_#_,600,2,0,380
_#_,600,2,2,500
_#_,600,4,4,1009
_#_,600,2,0,440
_#_,600,2,2,480
_#_,600,14,16,7710
_#_,600,8,0,500
_#_,600,4,0,370
_#_,600,2,0,390
_#_,600,2,2,520
_#_,600,4,4,990
_#_,600,2,0,420
_#_,600,2,2,490
_#_,600,6,8,2169
_#_,600,4,0,431
_#_,600,2,0,369
_#_,600,2,2,471
_#_,600,2,4_#_,60_#_,600__#_,6_#_,6_#_,60_#_,600_#_,60_#_,6_#_,6_#_,600,__#_,6_#_,6_#_,6_#_,600,4_#_,6_#_,6_#_,6_#_,600,4_#_,6_#_,6_#_,6_#_,600,480,12_#_,6_#_,4_#_,480,480,120,125_#_,4_#_,480,480,120,125_#_,4_#_,480,480,120,125_#_,4_#_,480,480,120,1250385
_#_,480,480,120,1254235
_#_,480,60,0,1260
_#_,480,30,0,440
_#_,480,16,0,410
_#_,480,8,0,370
_#_,480,4,0,370
_#_,480,2,0,380
_#_,480,2,2,480
_#_,480,4,4,880
_#_,480,2,0,480
_#_,480,2,2,400
_#_,480,8,8,2250
_#_,480,4,0,480
_#_,480,2,0,380
_#_,480,2,2,420
_#_,480,4,4,880
_#_,480,2,0,460
_#_,480,2,2,400
_#_,480,14,16,6300
_#_,480,8,0,510
_#_,480,4,0,380
_#_,480,2,0,380
_#_,480,2,2,400
_#_,480,4,4,830
_#_,480,2,0,450
_#_,480,2,2,420
_#_,480,6,8,1849
_#_,480,4,0,469
_#_,480,2,0,360
_#_,480,2,2,460
_#_,480,2,4,500
_#_,480,30,30,21870
_#_,480,16,0,610
_#_,480,8,0,400
_#_,480,4,0,390
_#_,480,2,0,370
_#_,480,2,2,440
_#_,480,4,4,830
_#_,480,2,0,410
_#_,480,2,2,400
_#_,480,8,8,2220
_#_,480,4,0,480
_#_,480,2,0,400
_#_,480,2,2,400
_#_,480,4,4,840
_#_,480,2,0,410
_#_,480,2,2,390
_#_,480,14,16,6140
_#_,480,8,0,490
_#_,480,4,0,400
_#_,480,2,0,370
_#_,480,2,2,400
_#_,480,4,4,880
_#_,480,2,0,420
_#_,480,2,2,400
_#_,480,6,8,1790
_#_,480,4,0,470
_#_,480,2,0,360
_#_,480,2,2,420
_#_,480,2,4,510
_#_,480,60,60,77299
_#_,480,30,0,640
_#_,480,16,0,420
_#_,480,8,0,380
_#_,480,4,0,380
_#_,480,2,0,380
_#_,480,2,2,451
_#_,480,4,4,880
_#_,480,2,0,440
_#_,480,2,2,400
_#_,480,8,8,2180
_#_,480,4,0,460
_#_,480,2,0,390
_#_,480,2,2,400
_#_,480,4,4,870
_#_,480,2,0,420
_#_,480,2,2,400
_#_,480,14,16,6160
_#_,480,8,0,469
_#_,480,4,0,389
_#_,480,2,0,390
_#_,480,2,2,410
_#_,480,4,4,820
_#_,480,2,0,450
_#_,480,2,2,410
_#_,480,6,8,1740
_#_,480,4,0,480
_#_,480,2,0,370
_#_,480,2,2,410
_#_,480,2,4,500
_#_,480,30,30,21809
_#_,480,16,0,530
_#_,480,8,0,400
_#_,480,4,0,380
_#_,480,2,0,370
_#_,480,2,2,430
_#_,480,4,4,840
_#_,480,2,0,420
_#_,480,2,2,400
_#_,480,8,8,2180
_#_,480,4,0,460
_#_,480,2,0,380
_#_,480,2,2,400
_#_,480,4,4,851
_#_,480,2,0,420
_#_,480,2,2,430
_#_,480,14,16,6240
_#_,480,8,0,460
_#_,480,4,0,380
_#_,480,2,0,370
_#_,480,2,2,410
_#_,480,4,4,840
_#_,480,2,0,440
_#_,480,2,2,420
_#_,480,6,8,1760
_#_,480,4,0,420
_#_,480,2,0,369
_#_,480,2,2,420
_#_,480,2,_#_,480_#_,480,401,120,_#_,480,_#_,480,401,120_#_,48_#_,480,360,120,8_#_,48_#_,_#_,480,401,1_#_,48_#_,4_#_,480,401,_#_,48_#_,480,360,120,8_#_,36_#_,360,360,120,6_#_,36_#_,360,360,120,6_#_,36_#_,360,360,120,6_#_,36_#_,360,360,120,679267
_#_,360,360,120,671948
_#_,360,60,0,1010
_#_,360,30,0,440
_#_,360,16,0,400
_#_,360,8,0,380
_#_,360,4,0,370
_#_,360,2,0,360
_#_,360,2,2,450
_#_,360,4,4,750
_#_,360,2,0,460
_#_,360,2,2,371
_#_,360,8,8,1760
_#_,360,4,0,449
_#_,360,2,0,380
_#_,360,2,2,360
_#_,360,4,4,700
_#_,360,2,0,460
_#_,360,2,2,340
_#_,360,14,16,4740
_#_,360,8,0,500
_#_,360,4,0,390
_#_,360,2,0,380
_#_,360,2,2,360
_#_,360,4,4,689
_#_,360,2,0,451
_#_,360,2,2,360
_#_,360,6,8,1430
_#_,360,4,0,450
_#_,360,2,0,370
_#_,360,2,2,350
_#_,360,2,4,470
_#_,360,30,30,16420
_#_,360,16,0,500
_#_,360,8,0,380
_#_,360,4,0,370
_#_,360,2,0,370
_#_,360,2,2,350
_#_,360,4,4,689
_#_,360,2,0,429
_#_,360,2,2,350
_#_,360,8,8,1690
_#_,360,4,0,440
_#_,360,2,0,370
_#_,360,2,2,360
_#_,360,4,4,680
_#_,360,2,0,430
_#_,360,2,2,350
_#_,360,14,16,4690
_#_,360,8,0,470
_#_,360,4,0,390
_#_,360,2,0,360
_#_,360,2,2,380
_#_,360,4,4,690
_#_,360,2,0,430
_#_,360,2,2,360
_#_,360,6,8,1400
_#_,360,4,0,440
_#_,360,2,0,390
_#_,360,2,2,380
_#_,360,2,4,430
_#_,360,60,60,58340
_#_,360,30,0,640
_#_,360,16,0,411
_#_,360,8,0,370
_#_,360,4,0,390
_#_,360,2,0,370
_#_,360,2,2,380
_#_,360,4,4,710
_#_,360,2,0,450
_#_,360,2,2,350
_#_,360,8,8,1720
_#_,360,4,0,460
_#_,360,2,0,380
_#_,360,2,2,360
_#_,360,4,4,680
_#_,360,2,0,431
_#_,360,2,2,351
_#_,360,14,16,4720
_#_,360,8,0,490
_#_,360,4,0,390
_#_,360,2,0,370
_#_,360,2,2,360
_#_,360,4,4,700
_#_,360,2,0,420
_#_,360,2,2,360
_#_,360,6,8,1370
_#_,360,4,0,420
_#_,360,2,0,370
_#_,360,2,2,360
_#_,360,2,4,411
_#_,360,30,30,16700
_#_,360,16,0,530
_#_,360,8,0,400
_#_,360,4,0,380
_#_,360,2,0,370
_#_,360,2,2,360
_#_,360,4,4,710
_#_,360,2,0,420
_#_,360,2,2,350
_#_,360,8,8,1700
_#_,360,4,0,440
_#_,360,2,0,390
_#_,360,2,2,360
_#_,360,4,4,670
_#_,360,2,0,400
_#_,360,2,2,340
_#_,360,14,16,4760
_#_,360,8,0,460
_#_,360,4,0,390
_#_,360,2,0,370
_#_,360,2,2,360
_#_,360,4,4,670
_#_,360,2,0,420
_#_,360,2,2,360
_#_,360,6,8,1400
_#_,360,4,0,440
_#_,360,2,0,391
_#_,360,2,2,380
_#_,360,2,_#_#_,360,240_#_,360,28_#_,360,240,1_#_,360,28_#_,36_#_,360,240,120,4_#_,36_#_,360,240,120,4_#_,36_#_,360,240,120,4_#_,36_#_,360,240,120,4_#_,24_#_,240,240,120,2_#_,24_#_,240,240,120,2_#_,24_#_,240,240,120,2_#_,24_#_,240,240,120,288269
_#_,240,240,120,288359
_#_,240,60,0,1000
_#_,240,30,0,440
_#_,240,16,0,410
_#_,240,8,0,400
_#_,240,4,0,380
_#_,240,2,0,390
_#_,240,2,2,349
_#_,240,4,4,540
_#_,240,2,0,460
_#_,240,2,2,300
_#_,240,8,8,1210
_#_,240,4,0,450
_#_,240,2,0,390
_#_,240,2,2,270
_#_,240,4,4,540
_#_,240,2,0,410
_#_,240,2,2,280
_#_,240,14,16,3211
_#_,240,8,0,440
_#_,240,4,0,380
_#_,240,2,0,380
_#_,240,2,2,280
_#_,240,4,4,520
_#_,240,2,0,470
_#_,240,2,2,270
_#_,240,6,8,1040
_#_,240,4,0,460
_#_,240,2,0,370
_#_,240,2,2,280
_#_,240,2,4,360
_#_,240,30,30,10991
_#_,240,16,0,520
_#_,240,8,0,389
_#_,240,4,0,369
_#_,240,2,0,371
_#_,240,2,2,280
_#_,240,4,4,530
_#_,240,2,0,430
_#_,240,2,2,280
_#_,240,8,8,1200
_#_,240,4,0,450
_#_,240,2,0,380
_#_,240,2,2,270
_#_,240,4,4,510
_#_,240,2,0,410
_#_,240,2,2,269
_#_,240,14,16,3200
_#_,240,8,0,480
_#_,240,4,0,390
_#_,240,2,0,390
_#_,240,2,2,260
_#_,240,4,4,510
_#_,240,2,0,420
_#_,240,2,2,270
_#_,240,6,8,1000
_#_,240,4,0,440
_#_,240,2,0,370
_#_,240,2,2,270
_#_,240,2,4,360
_#_,240,60,60,38590
_#_,240,30,0,560
_#_,240,16,0,390
_#_,240,8,0,380
_#_,240,4,0,370
_#_,240,2,0,390
_#_,240,2,2,290
_#_,240,4,4,520
_#_,240,2,0,480
_#_,240,2,2,280
_#_,240,8,8,1190
_#_,240,4,0,480
_#_,240,2,0,390
_#_,240,2,2,280
_#_,240,4,4,520
_#_,240,2,0,450
_#_,240,2,2,270
_#_,240,14,16,3140
_#_,240,8,0,450
_#_,240,4,0,370
_#_,240,2,0,380
_#_,240,2,2,280
_#_,240,4,4,520
_#_,240,2,0,440
_#_,240,2,2,280
_#_,240,6,8,980
_#_,240,4,0,431
_#_,240,2,0,391
_#_,240,2,2,270
_#_,240,2,4,330
_#_,240,30,30,10950
_#_,240,16,0,490
_#_,240,8,0,380
_#_,240,4,0,370
_#_,240,2,0,370
_#_,240,2,2,280
_#_,240,4,4,510
_#_,240,2,0,430
_#_,240,2,2,270
_#_,240,8,8,1220
_#_,240,4,0,449
_#_,240,2,0,369
_#_,240,2,2,280
_#_,240,4,4,510
_#_,240,2,0,430
_#_,240,2,2,300
_#_,240,14,16,3250
_#_,240,8,0,450
_#_,240,4,0,400
_#_,240,2,0,370
_#_,240,2,2,270
_#_,240,4,4,530
_#_,240,2,0,410
_#_,240,2,2,269
_#_,240,6,8,990
_#_,240,4,0,450
_#_,240,2,0,380
_#_,240,2,2,280
_#_,240,2,_#_,240,120,120,144490
_#_,240,120,120,149009
_#_,24_#_,240,120,120,1_#_,24_#_,240,120,120,1_#_,24_#_,240,120,120,1_#_,24_#_,240,120,120,1_#_,12_#_,120,120,120,_#_,12_#_,120,120,120,_#_,12_#_,120,120,120,_#_,12_#_,120,120,120,73790
_#_,120,120,120,74129
_#_,120,60,0,1060
_#_,120,30,0,460
_#_,120,16,0,390
_#_,120,8,0,380
_#_,120,4,0,380
_#_,120,2,0,380
_#_,120,2,2,320
_#_,120,4,4,430
_#_,120,2,0,450
_#_,120,2,2,240
_#_,120,8,8,780
_#_,120,4,0,470
_#_,120,2,0,390
_#_,120,2,2,231
_#_,120,4,4,369
_#_,120,2,0,451
_#_,120,2,2,230
_#_,120,14,16,1780
_#_,120,8,0,520
_#_,120,4,0,390
_#_,120,2,0,380
_#_,120,2,2,230
_#_,120,4,4,350
_#_,120,2,0,420
_#_,120,2,2,220
_#_,120,6,8,620
_#_,120,4,0,460
_#_,120,2,0,380
_#_,120,2,2,231
_#_,120,2,4,290
_#_,120,30,30,5770
_#_,120,16,0,520
_#_,120,8,0,400
_#_,120,4,0,380
_#_,120,2,0,370
_#_,120,2,2,220
_#_,120,4,4,370
_#_,120,2,0,470
_#_,120,2,2,230
_#_,120,8,8,730
_#_,120,4,0,490
_#_,120,2,0,400
_#_,120,2,2,231
_#_,120,4,4,360
_#_,120,2,0,460
_#_,120,2,2,220
_#_,120,14,16,1780
_#_,120,8,0,500
_#_,120,4,0,380
_#_,120,2,0,380
_#_,120,2,2,220
_#_,120,4,4,350
_#_,120,2,0,430
_#_,120,2,2,250
_#_,120,6,8,629
_#_,120,4,0,440
_#_,120,2,0,380
_#_,120,2,2,230
_#_,120,2,4,260
_#_,120,60,60,20030
_#_,120,30,0,540
_#_,120,16,0,410
_#_,120,8,0,390
_#_,120,4,0,380
_#_,120,2,0,380
_#_,120,2,2,240
_#_,120,4,4,370
_#_,120,2,0,460
_#_,120,2,2,220
_#_,120,8,8,740
_#_,120,4,0,469
_#_,120,2,0,391
_#_,120,2,2,230
_#_,120,4,4,350
_#_,120,2,0,440
_#_,120,2,2,220
_#_,120,14,16,1710
_#_,120,8,0,480
_#_,120,4,0,390
_#_,120,2,0,380
_#_,120,2,2,230
_#_,120,4,4,350
_#_,120,2,0,430
_#_,120,2,2,220
_#_,120,6,8,610
_#_,120,4,0,490
_#_,120,2,0,390
_#_,120,2,2,230
_#_,120,2,4,260
_#_,120,30,30,5680
_#_,120,16,0,500
_#_,120,8,0,390
_#_,120,4,0,370
_#_,120,2,0,380
_#_,120,2,2,220
_#_,120,4,4,360
_#_,120,2,0,440
_#_,120,2,2,220
_#_,120,8,8,750
_#_,120,4,0,440
_#_,120,2,0,390
_#_,120,2,2,230
_#_,120,4,4,350
_#_,120,2,0,440
_#_,120,2,2,240
_#_,120,14,16,1730
_#_,120,8,0,440
_#_,120,4,0,410
_#_,120,2,0,390
_#_,120,2,2,230
_#_,120,4,4,360
_#_,120,2,0,400
_#_,120,2,2,230
_#_,120,6,8,610
_
real	0m1.147s

real	0m1.153s
user	
real	0m1.155s
user	0m0.567s
real	0m1.165s
user	0m0.564s
sys	0m0.355s
470
_#_,120,41,120,27349
_#_,120,41,120,27400
_#_,120,41,120,27430
_#_,120,41,120,27340
_#_,0,41,120,900
_#_,0,20,0,420
_#_,0,10,0,340
_#_,0,6,0,330
_#_,0,4,0,330
_#_,0,2,0,320
_#_,0,2,2,351
_#_,0,2,4,340
_#_,0,4,6,360
_#_,0,2,0,340
_#_,0,2,2,340
_#_,0,10,10,340
_#_,0,6,0,320
_#_,0,4,0,320
_#_,0,2,0,330
_#_,0,2,2,350
_#_,0,2,4,370
_#_,0,4,6,360
_#_,0,2,0,330
_#_,0,2,2,340
_#_,0,20,20,340
_#_,0,10,0,330
_#_,0,6,0,330
_#_,0,4,0,330
_#_,0,2,0,340
_#_,0,2,2,340
_#_,0,2,4,340
_#_,0,4,6,350
_#_,0,2,0,360
_#_,0,2,2,340
_#_,0,10,10,350
_#_,0,6,0,330
_#_,0,4,0,330
_#_,0,2,0,340
_#_,0,2,2,340
_#_,0,2,4,329
_#_,0,4,6,340
_#_,0,2,0,330
_#_,0,2,2,340
_#_,0,1,40,280

real	0m1.158s
user	0m0.600s
sys	0m0.366s
280
_#_,86,4,4,510
_#_,86,2,0,510
_#_,84,2,2,250
_#_,82,8,8,780
_#_,82,4,0,490
_#_,82,2,0,400
_#_,80,2,2,220
_#_,78,4,4,449
_#_,78,2,0,480
_#_,76,2,2,230
_#_,74,14,16,1560
_#_,74,8,0,510
_#_,74,4,0,410
_#_,74,2,0,380
_#_,72,2,2,230
_#_,70,4,4,450
_#_,70,2,0,500
_#_,68,2,2,210
_#_,66,6,8,569
_#_,66,4,0,500
_#_,66,2,0,400
_#_,64,2,2,251
_#_,62,2,4,320
_#_,60,60,60,10140
_#_,60,30,0,590
_#_,60,16,0,420
_#_,60,8,0,400
_#_,60,4,0,370
_#_,60,2,0,370
_#_,58,2,2,240
_#_,56,4,4,320
_#_,56,2,0,500
_#_,54,2,2,270
_#_,52,8,8,491
_#_,52,4,0,529
_#_,52,2,0,389
_#_,50,2,2,229
_#_,48,4,4,280
_#_,48,2,0,480
_#_,46,2,2,250
_#_,44,14,16,800
_#_,44,8,0,510
_#_,44,4,0,420
_#_,44,2,0,380
_#_,42,2,2,250
_#_,40,4,4,270
_#_,40,2,0,510
_#_,38,2,2,240
_#_,36,6,8,380
_#_,36,4,0,520
_#_,36,2,0,411
_#_,34,2,2,240
_#_,32,2,4,240
_#_,30,30,30,2440
_#_,30,16,0,550
_#_,30,8,0,410
_#_,30,4,0,390
_#_,30,2,0,380
_#_,28,2,2,200
_#_,26,4,4,370
_#_,26,2,0,480
_#_,24,2,2,210
_#_,22,8,8,511
_#_,22,4,0,451
_#_,22,2,0,409
_#_,20,2,2,200
_#_,18,4,4,310
_#_,18,2,0,480
_#_,16,2,2,160
_#_,14,14,16,740
_#_,14,8,0,490
_#_,14,4,0,400
_#_,14,2,0,380
_#_,12,2,2,180
_#_,10,4,4,300
_#_,10,2,0,470
_#_,8,2,2,180
_#_,6,6,8,349
_#_,6,4,0,469
_#_,6,2,0,391
_#_,4,2,2,160
_#_
real	0m1.1
real	0m1.164
real	0m1.167s
user	0m0.603s
sys	0m0.385s
ys	0m0.362s
r	0m0.619s
sys	0m0.371s
r	0m0.600s
sys	0m0.393s
