_#_,240,60,0,18260
_#_,240,30,0,700
_#_,240,16,0,410
_#_,240,8,0,370
_#_,240,4,0,360
_#_,240,2,0,350
_#_,240,2,2,1030
_#_,240,4,4,1820
_#_,240,2,0,590
_#_,240,2,2,350
_#_,240,8,8,1370
_#_,240,4,0,460
_#_,240,2,0,360
_#_,240,2,2,310
_#_,240,4,4,630
_#_,240,2,0,460
_#_,240,2,2,290
_#_,240,14,16,3020
_#_,240,8,0,440
_#_,240,4,0,370
_#_,240,2,0,350
_#_,240,2,2,310
_#_,240,4,4,530
_#_,240,2,0,520
_#_,240,2,2,290
_#_,240,6,8,980
_#_,240,4,0,520
_#_,240,2,0,370
_#_,240,2,2,300
_#_,240,2,4,350
_#_,240,30,30,10200
_#_,240,16,0,540
_#_,240,8,0,400
_#_,240,4,0,360
_#_,240,2,0,360
_#_,240,2,2,250
_#_,240,4,4,540
_#_,240,2,0,470
_#_,240,2,2,270
_#_,240,8,8,1180
_#_,240,4,0,440
_#_,240,2,0,370
_#_,240,2,2,280
_#_,240,4,4,500
_#_,240,2,0,450
_#_,240,2,2,250
_#_,240,14,16,2970
_#_,240,8,0,460
_#_,240,4,0,360
_#_,240,2,0,340
_#_,240,2,2,270
_#_,240,4,4,490
_#_,240,2,0,440
_#_,240,2,2,280
_#_,240,6,8,950
_#_,240,4,0,470
_#_,240,2,0,360
_#_,240,2,2,280
_#_,240,2,4,330
_#_,240,60,60,36250
_#_,240,30,0,640
_#_,240,16,0,390
_#_,240,8,0,350
_#_,240,4,0,350
_#_,240,2,0,350
_#_,240,2,2,270
_#_,240,4,4,500
_#_,240,2,0,430
_#_,240,2,2,510
_#_,240,8,8,1170
_#_,240,4,0,550
_#_,240,2,0,370
_#_,240,2,2,270
_#_,240,4,4,510
_#_,240,2,0,470
_#_,240,2,2,280
_#_,240,14,16,2910
_#_,240,8,0,450
_#_,240,4,0,350
_#_,240,2,0,350
_#_,240,2,2,250
_#_,240,4,4,730
_#_,240,2,0,420
_#_,240,2,2,250
_#_,240,6,8,960
_#_,240,4,0,440
_#_,240,2,0,350
_#_,240,2,2,250
_#_,240,2,4,320
_#_,240,30,30,10130
_#_,240,16,0,530
_#_,240,8,0,370
_#_,240,4,0,350
_#_,240,2,0,340
_#_,240,2,2,270
_#_,240,4,4,560
_#_,240,2,0,420
_#_,240,2,2,270
_#_,240,8,8,1100
_#_,240,4,0,420
_#_,240,2,0,340
_#_,240,2,2,250
_#_,240,4,4,510
_#_,240,2,0,430
_#_,240,2,2,270
_#_,240,14,16,2930
_#_,240,8,0,460
_#_,240,4,0,350
_#_,240,2,0,350
_#_,240,2,2,250
_#_,240,4,4,510
_#_,240,2,0,440
_#_,240,2,2,270
_#_,240,6,8,930
_#_,240,4,0,420
_#_,240,2,0,340
_#_,240,2,2,270
_#_,240,2,4,320
_#_,240,1756,120,2028361
_#_,240,60,0,980
_#_,240,30,0,440
_#_,240,16,0,390
_#_,240,8,0,380
_#_,240,4,0,360
_#_,240,2,0,370
_#_,238,2,2,1090
_#_,236,4,4,640
_#_,236,2,0,500
_#_,234,2,2,570
_#_,232,8,8,1220
_#_,232,4,0,410
_#_,232,2,0,340
_#_,230,2,2,420
_#_,228,4,4,610
_#_,228,2,0,450
_#_,226,2,2,340
_#_,224,14,16,2800
_#_,224,8,0,480
_#_,224,4,0,350
_#_,224,2,0,340
_#_,222,2,2,340
_#_,220,4,4,540
_#_,220,2,0,430
_#_,218,2,2,350
_#_,216,6,8,940
_#_,216,4,0,500
_#_,216,2,0,360
_#_,214,2,2,390
_#_,212,2,4,380
_#_,210,30,30,9850
_#_,210,16,0,490
_#_,210,8,0,360
_#_,210,4,0,350
_#_,210,2,0,340
_#_,208,2,2,310
_#_,206,4,4,760
_#_,206,2,0,450
_#_,204,2,2,320
_#_,202,8,8,1310
_#_,202,4,0,430
_#_,202,2,0,350
_#_,200,2,2,290
_#_,198,4,4,610
_#_,198,2,0,440
_#_,196,2,2,250
_#_,194,14,16,2900
_#_,194,8,0,500
_#_,194,4,0,370
_#_,194,2,0,350
_#_,192,2,2,280
_#_,190,4,4,590
_#_,190,2,0,460
_#_,188,2,2,280
_#_,186,6,8,960
_#_,186,4,0,440
_#_,186,2,0,360
_#_,184,2,2,300
_#_,182,2,4,410
_#_,180,60,60,27410
_#_,180,30,0,550
_#_,180,16,0,380
_#_,180,8,0,360
_#_,180,4,0,350
_#_,180,2,0,350
_#_,178,2,2,340
_#_,176,4,4,470
_#_,176,2,0,430
_#_,174,2,2,330
_#_,172,8,8,930
_#_,172,4,0,430
_#_,172,2,0,370
_#_,170,2,2,310
_#_,168,4,4,470
_#_,168,2,0,440
_#_,166,2,2,330
_#_,164,14,16,2220
_#_,164,8,0,520
_#_,164,4,0,360
_#_,164,2,0,350
_#_,162,2,2,280
_#_,160,4,4,430
_#_,160,2,0,450
_#_,158,2,2,330
_#_,156,6,8,720
_#_,156,4,0,430
_#_,156,2,0,350
_#_,154,2,2,290
_#_,152,2,4,340
_#_,150,30,30,7180
_#_,150,16,0,490
_#_,150,8,0,360
_#_,150,4,0,340
_#_,150,2,0,350
_#_,148,2,2,290
_#_,146,4,4,540
_#_,146,2,0,410
_#_,144,2,2,240
_#_,142,8,8,980
_#_,142,4,0,430
_#_,142,2,0,380
_#_,140,2,2,260
_#_,138,4,4,540
_#_,138,2,0,440
_#_,136,2,2,260
_#_,134,14,16,2180
_#_,134,8,0,490
_#_,134,4,0,350
_#_,134,2,0,340
_#_,132,2,2,240
_#_,130,4,4,520
_#_,130,2,0,470
_#_,128,2,2,240
_#_,126,6,8,730
_#_,126,4,0,460
_#_,126,2,0,350
_#_,124,2,2,220
_#_,122,2,4,330
_#_,120,1636,120,968461
_#_,120,60,0,940
_#_,120,30,0,450
_#_,120,16,0,380
_#_,120,8,0,370
_#_,120,4,0,350
_#_,120,2,0,350
_#_,120,2,2,340
_#_,120,4,4,430
_#_,120,2,0,440
_#_,120,2,2,220
_#_,120,8,8,710
_#_,120,4,0,430
_#_,120,2,0,370
_#_,120,2,2,210
_#_,120,4,4,360
_#_,120,2,0,390
_#_,120,2,2,210
_#_,120,14,16,1690
_#_,120,8,0,400
_#_,120,4,0,360
_#_,120,2,0,330
_#_,120,2,2,230
_#_,120,4,4,340
_#_,120,2,0,380
_#_,120,2,2,200
_#_,120,6,8,610
_#_,120,4,0,390
_#_,120,2,0,340
_#_,120,2,2,200
_#_,120,2,4,270
_#_,120,30,30,5170
_#_,120,16,0,410
_#_,120,8,0,370
_#_,120,4,0,350
_#_,120,2,0,350
_#_,120,2,2,200
_#_,120,4,4,330
_#_,120,2,0,380
_#_,120,2,2,230
_#_,120,8,8,690
_#_,120,4,0,400
_#_,120,2,0,360
_#_,120,2,2,200
_#_,120,4,4,340
_#_,120,2,0,410
_#_,120,2,2,200
_#_,120,14,16,1580
_#_,120,8,0,430
_#_,120,4,0,370
_#_,120,2,0,340
_#_,120,2,2,200
_#_,120,4,4,320
_#_,120,2,0,370
_#_,120,2,2,220
_#_,120,6,8,590
_#_,120,4,0,420
_#_,120,2,0,360
_#_,120,2,2,210
_#_,120,2,4,240
_#_,120,60,60,18100
_#_,120,30,0,440
_#_,120,16,0,370
_#_,120,8,0,360
_#_,120,4,0,350
_#_,120,2,0,350
_#_,120,2,2,220
_#_,120,4,4,350
_#_,120,2,0,370
_#_,120,2,2,220
_#_,120,8,8,690
_#_,120,4,0,380
_#_,120,2,0,350
_#_,120,2,2,220
_#_,120,4,4,360
_#_,120,2,0,380
_#_,120,2,2,220
_#_,120,14,16,1600
_#_,120,8,0,420
_#_,120,4,0,340
_#_,120,2,0,350
_#_,120,2,2,200
_#_,120,4,4,330
_#_,120,2,0,370
_#_,120,2,2,230
_#_,120,6,8,570
_#_,120,4,0,410
_#_,120,2,0,350
_#_,120,2,2,200
_#_,120,2,4,220
_#_,120,30,30,5130
_#_,120,16,0,420
_#_,120,8,0,360
_#_,120,4,0,340
_#_,120,2,0,340
_#_,120,2,2,250
_#_,120,4,4,370
_#_,120,2,0,380
_#_,120,2,2,210
_#_,120,8,8,660
_#_,120,4,0,370
_#_,120,2,0,360
_#_,120,2,2,200
_#_,120,4,4,330
_#_,120,2,0,400
_#_,120,2,2,200
_#_,120,14,16,1610
_#_,120,8,0,440
_#_,120,4,0,360
_#_,120,2,0,350
_#_,120,2,2,200
_#_,120,4,4,350
_#_,120,2,0,400
_#_,120,2,2,210
_#_,120,6,8,570
_#_,120,4,0,410
_#_,120,2,0,360
_#_,120,2,2,220
_#_,120,2,4,240
_#_,120,1516,120,905361
_#_,120,60,0,851
_#_,120,30,0,440
_#_,120,16,0,380
_#_,120,8,0,380
_#_,120,4,0,360
_#_,120,2,0,340
_#_,120,2,2,280
_#_,120,4,4,390
_#_,120,2,0,460
_#_,120,2,2,220
_#_,120,8,8,690
_#_,120,4,0,410
_#_,120,2,0,360
_#_,120,2,2,210
_#_,120,4,4,340
_#_,120,2,0,410
_#_,120,2,2,220
_#_,120,14,16,1600
_#_,120,8,0,420
_#_,120,4,0,360
_#_,120,2,0,350
_#_,120,2,2,210
_#_,120,4,4,340
_#_,120,2,0,380
_#_,120,2,2,220
_#_,120,6,8,570
_#_,120,4,0,390
_#_,120,2,0,360
_#_,120,2,2,230
_#_,120,2,4,260
_#_,120,30,30,5200
_#_,120,16,0,470
_#_,120,8,0,360
_#_,120,4,0,350
_#_,120,2,0,350
_#_,120,2,2,240
_#_,120,4,4,350
_#_,120,2,0,380
_#_,120,2,2,220
_#_,120,8,8,710
_#_,120,4,0,400
_#_,120,2,0,370
_#_,120,2,2,220
_#_,120,4,4,350
_#_,120,2,0,420
_#_,120,2,2,220
_#_,120,14,16,1650
_#_,120,8,0,460
_#_,120,4,0,390
_#_,120,2,0,370
_#_,120,2,2,210
_#_,120,4,4,330
_#_,120,2,0,390
_#_,120,2,2,200
_#_,120,6,8,560
_#_,120,4,0,380
_#_,120,2,0,340
_#_,120,2,2,220
_#_,120,2,4,250
_#_,120,60,60,18160
_#_,120,30,0,470
_#_,120,16,0,380
_#_,120,8,0,370
_#_,120,4,0,350
_#_,120,2,0,350
_#_,120,2,2,200
_#_,120,4,4,360
_#_,120,2,0,410
_#_,120,2,2,230
_#_,120,8,8,700
_#_,120,4,0,410
_#_,120,2,0,370
_#_,120,2,2,200
_#_,120,4,4,340
_#_,120,2,0,400
_#_,120,2,2,210
_#_,120,14,16,1650
_#_,120,8,0,430
_#_,120,4,0,360
_#_,120,2,0,340
_#_,120,2,2,240
_#_,120,4,4,350
_#_,120,2,0,400
_#_,120,2,2,230
_#_,120,6,8,570
_#_,120,4,0,400
_#_,120,2,0,340
_#_,120,2,2,220
_#_,120,2,4,250
_#_,120,30,30,5280
_#_,120,16,0,460
_#_,120,8,0,360
_#_,120,4,0,370
_#_,120,2,0,340
_#_,120,2,2,200
_#_,120,4,4,320
_#_,120,2,0,370
_#_,120,2,2,210
_#_,120,8,8,700
_#_,120,4,0,390
_#_,120,2,0,350
_#_,120,2,2,220
_#_,120,4,4,340
_#_,120,2,0,390
_#_,120,2,2,200
_#_,120,14,16,1550
_#_,120,8,0,410
_#_,120,4,0,350
_#_,120,2,0,350
_#_,120,2,2,220
_#_,120,4,4,340
_#_,120,2,0,400
_#_,120,2,2,200
_#_,120,6,8,550
_#_,120,4,0,400
_#_,120,2,0,350
_#_,120,2,2,200
_#_,120,2,4,250
_#_,120,1396,120,812530
_#_,120,60,0,740
_#_,120,30,0,410
_#_,120,16,0,370
_#_,120,8,0,360
_#_,120,4,0,350
_#_,120,2,0,360
_#_,120,2,2,289
_#_,120,4,4,391
_#_,120,2,0,480
_#_,120,2,2,211
_#_,120,8,8,671
_#_,120,4,0,400
_#_,120,2,0,360
_#_,120,2,2,209
_#_,120,4,4,329
_#_,120,2,0,380
_#_,120,2,2,229
_#_,120,14,16,1620
_#_,120,8,0,429
_#_,120,4,0,360
_#_,120,2,0,349
_#_,120,2,2,220
_#_,120,4,4,380
_#_,120,2,0,420
_#_,120,2,2,229
_#_,120,6,8,580
_#_,120,4,0,449
_#_,120,2,0,369
_#_,120,2,2,231
_#_,120,2,4,260
_#_,120,30,30,5211
_#_,120,16,0,480
_#_,120,8,0,349
_#_,120,4,0,351
_#_,120,2,0,340
_#_,120,2,2,209
_#_,120,4,4,351
_#_,120,2,0,420
_#_,120,2,2,220
_#_,120,8,8,691
_#_,120,4,0,449
_#_,120,2,0,360
_#_,120,2,2,210
_#_,120,4,4,340
_#_,120,2,0,380
_#_,120,2,2,210
_#_,120,14,16,1610
_#_,120,8,0,430
_#_,120,4,0,340
_#_,120,2,0,360
_#_,120,2,2,230
_#_,120,4,4,340
_#_,120,2,0,390
_#_,120,2,2,240
_#_,120,6,8,570
_#_,120,4,0,440
_#_,120,2,0,370
_#_,120,2,2,210
_#_,120,2,4,260
_#_,120,60,60,18130
_#_,120,30,0,490
_#_,120,16,0,400
_#_,120,8,0,360
_#_,120,4,0,350
_#_,120,2,0,340
_#_,120,2,2,220
_#_,120,4,4,350
_#_,120,2,0,400
_#_,120,2,2,240
_#_,120,8,8,680
_#_,120,4,0,390
_#_,120,2,0,370
_#_,120,2,2,260
_#_,120,4,4,350
_#_,120,2,0,390
_#_,120,2,2,240
_#_,120,14,16,1610
_#_,120,8,0,410
_#_,120,4,0,360
_#_,120,2,0,340
_#_,120,2,2,210
_#_,120,4,4,330
_#_,120,2,0,410
_#_,120,2,2,220
_#_,120,6,8,580
_#_,120,4,0,400
_#_,120,2,0,380
_#_,120,2,2,210
_#_,120,2,4,230
_#_,120,30,30,5150
_#_,120,16,0,450
_#_,120,8,0,380
_#_,120,4,0,350
_#_,120,2,0,350
_#_,120,2,2,220
_#_,120,4,4,350
_#_,120,2,0,380
_#_,120,2,2,220
_#_,120,8,8,690
_#_,120,4,0,440
_#_,120,2,0,390
_#_,120,2,2,230
_#_,120,4,4,340
_#_,120,2,0,400
_#_,120,2,2,2810
_#_,120,14,16,1610
_#_,120,8,0,530
_#_,120,4,0,390
_#_,120,2,0,340
_#_,120,2,2,240
_#_,120,4,4,360
_#_,120,2,0,400
_#_,120,2,2,210
_#_,120,6,8,560
_#_,120,4,0,410
_#_,120,2,0,360
_#_,120,2,2,230
_#_,120,2,4,240
_#_,120,1276,120,747270
_#_,120,60,0,790
_#_,120,30,0,430
_#_,120,16,0,390
_#_,120,8,0,360
_#_,120,4,0,350
_#_,120,2,0,350
_#_,120,2,2,260
_#_,120,4,4,400
_#_,120,2,0,450
_#_,120,2,2,210
_#_,120,8,8,680
_#_,120,4,0,440
_#_,120,2,0,350
_#_,120,2,2,220
_#_,120,4,4,350
_#_,120,2,0,410
_#_,120,2,2,240
_#_,120,14,16,1640
_#_,120,8,0,440
_#_,120,4,0,350
_#_,120,2,0,350
_#_,120,2,2,240
_#_,120,4,4,350
_#_,120,2,0,400
_#_,120,2,2,230
_#_,120,6,8,570
_#_,120,4,0,430
_#_,120,2,0,360
_#_,120,2,2,220
_#_,120,2,4,250
_#_,120,30,30,5190
_#_,120,16,0,460
_#_,120,8,0,360
_#_,120,4,0,350
_#_,120,2,0,350
_#_,120,2,2,230
_#_,120,4,4,360
_#_,120,2,0,400
_#_,120,2,2,200
_#_,120,8,8,710
_#_,120,4,0,430
_#_,120,2,0,370
_#_,120,2,2,210
_#_,120,4,4,320
_#_,120,2,0,390
_#_,120,2,2,210
_#_,120,14,16,1610
_#_,120,8,0,460
_#_,120,4,0,360
_#_,120,2,0,340
_#_,120,2,2,210
_#_,120,4,4,340
_#_,120,2,0,400
_#_,120,2,2,200
_#_,120,6,8,550
_#_,120,4,0,410
_#_,120,2,0,370
_#_,120,2,2,230
_#_,120,2,4,250
_#_,120,60,60,18060
_#_,120,30,0,540
_#_,120,16,0,410
_#_,120,8,0,350
_#_,120,4,0,350
_#_,120,2,0,350
_#_,120,2,2,220
_#_,120,4,4,370
_#_,120,2,0,410
_#_,120,2,2,220
_#_,120,8,8,700
_#_,120,4,0,410
_#_,120,2,0,350
_#_,120,2,2,210
_#_,120,4,4,340
_#_,120,2,0,380
_#_,120,2,2,220
_#_,120,14,16,1571
_#_,120,8,0,431
_#_,120,4,0,360
_#_,120,2,0,340
_#_,120,2,2,220
_#_,120,4,4,349
_#_,120,2,0,400
_#_,120,2,2,229
_#_,120,6,8,580
_#_,120,4,0,400
_#_,120,2,0,349
_#_,120,2,2,220
_#_,120,2,4,251
_#_,120,30,30,5200
_#_,120,16,0,440
_#_,120,8,0,360
_#_,120,4,0,331
_#_,120,2,0,349
_#_,120,2,2,220
_#_,120,4,4,351
_#_,120,2,0,380
_#_,120,2,2,209
_#_,120,8,8,660
_#_,120,4,0,380
_#_,120,2,0,340
_#_,120,2,2,231
_#_,120,4,4,351
_#_,120,2,0,409
_#_,120,2,2,240
_#_,120,14,16,1620
_#_,120,8,0,429
_#_,120,4,0,351
_#_,120,2,0,349
_#_,120,2,2,200
_#_,120,4,4,360
_#_,120,2,0,411
_#_,120,2,2,200
_#_,120,6,8,549
_#_,120,4,0,409
_#_,120,2,0,369
_#_,120,2,2,231
_#_,120,2,4,249
_#_,120,1156,120,679420
_#_,120,60,0,760
_#_,120,30,0,430
_#_,120,16,0,360
_#_,120,8,0,360
_#_,120,4,0,350
_#_,120,2,0,340
_#_,120,2,2,250
_#_,120,4,4,390
_#_,120,2,0,450
_#_,120,2,2,230
_#_,120,8,8,680
_#_,120,4,0,420
_#_,120,2,0,350
_#_,120,2,2,230
_#_,120,4,4,330
_#_,120,2,0,420
_#_,120,2,2,230
_#_,120,14,16,1580
_#_,120,8,0,400
_#_,120,4,0,360
_#_,120,2,0,360
_#_,120,2,2,210
_#_,120,4,4,350
_#_,120,2,0,410
_#_,120,2,2,210
_#_,120,6,8,580
_#_,120,4,0,420
_#_,120,2,0,360
_#_,120,2,2,230
_#_,120,2,4,250
_#_,120,30,30,5160
_#_,120,16,0,450
_#_,120,8,0,360
_#_,120,4,0,350
_#_,120,2,0,340
_#_,120,2,2,210
_#_,120,4,4,330
_#_,120,2,0,390
_#_,120,2,2,230
_#_,120,8,8,680
_#_,120,4,0,450
_#_,120,2,0,370
_#_,120,2,2,220
_#_,120,4,4,340
_#_,120,2,0,380
_#_,120,2,2,200
_#_,120,14,16,1600
_#_,120,8,0,430
_#_,120,4,0,350
_#_,120,2,0,350
_#_,120,2,2,230
_#_,120,4,4,360
_#_,120,2,0,410
_#_,120,2,2,230
_#_,120,6,8,570
_#_,120,4,0,400
_#_,120,2,0,350
_#_,120,2,2,220
_#_,120,2,4,250
_#_,120,60,60,18100
_#_,120,30,0,530
_#_,120,16,0,380
_#_,120,8,0,370
_#_,120,4,0,350
_#_,120,2,0,350
_#_,120,2,2,230
_#_,120,4,4,350
_#_,120,2,0,410
_#_,120,2,2,210
_#_,120,8,8,690
_#_,120,4,0,420
_#_,120,2,0,380
_#_,120,2,2,200
_#_,120,4,4,320
_#_,120,2,0,400
_#_,120,2,2,200
_#_,120,14,16,1580
_#_,120,8,0,410
_#_,120,4,0,350
_#_,120,2,0,350
_#_,120,2,2,210
_#_,120,4,4,350
_#_,120,2,0,400
_#_,120,2,2,230
_#_,120,6,8,550
_#_,120,4,0,410
_#_,120,2,0,380
_#_,120,2,2,210
_#_,120,2,4,250
_#_,120,30,30,5190
_#_,120,16,0,460
_#_,120,8,0,360
_#_,120,4,0,350
_#_,120,2,0,350
_#_,120,2,2,240
_#_,120,4,4,350
_#_,120,2,0,400
_#_,120,2,2,210
_#_,120,8,8,660
_#_,120,4,0,390
_#_,120,2,0,380
_#_,120,2,2,230
_#_,120,4,4,340
_#_,120,2,0,420
_#_,120,2,2,220
_#_,120,14,16,1570
_#_,120,8,0,430
_#_,120,4,0,350
_#_,120,2,0,340
_#_,120,2,2,210
_#_,120,4,4,350
_#_,120,2,0,400
_#_,120,2,2,220
_#_,120,6,8,550
_#_,120,4,0,410
_#_,120,2,0,350
_#_,120,2,2,230
_#_,120,2,4,260
_#_,120,1036,120,613290
_#_,120,60,0,740
_#_,120,30,0,429
_#_,120,16,0,380
_#_,120,8,0,360
_#_,120,4,0,360
_#_,120,2,0,360
_#_,120,2,2,269
_#_,120,4,4,409
_#_,120,2,0,429
_#_,120,2,2,211
_#_,120,8,8,691
_#_,120,4,0,400
_#_,120,2,0,351
_#_,120,2,2,229
_#_,120,4,4,349
_#_,120,2,0,400
_#_,120,2,2,220
_#_,120,14,16,1629
_#_,120,8,0,471
_#_,120,4,0,360
_#_,120,2,0,349
_#_,120,2,2,229
_#_,120,4,4,349
_#_,120,2,0,411
_#_,120,2,2,220
_#_,120,6,8,560
_#_,120,4,0,391
_#_,120,2,0,349
_#_,120,2,2,240
_#_,120,2,4,271
_#_,120,30,30,5171
_#_,120,16,0,469
_#_,120,8,0,371
_#_,120,4,0,351
_#_,120,2,0,351
_#_,120,2,2,211
_#_,120,4,4,360
_#_,120,2,0,420
_#_,120,2,2,200
_#_,120,8,8,680
_#_,120,4,0,411
_#_,120,2,0,351
_#_,120,2,2,211
_#_,120,4,4,340
_#_,120,2,0,420
_#_,120,2,2,231
_#_,120,14,16,1629
_#_,120,8,0,429
_#_,120,4,0,351
_#_,120,2,0,360
_#_,120,2,2,211
_#_,120,4,4,340
_#_,120,2,0,409
_#_,120,2,2,220
_#_,120,6,8,580
_#_,120,4,0,450
_#_,120,2,0,350
_#_,120,2,2,210
_#_,120,2,4,260
_#_,120,60,60,18130
_#_,120,30,0,520
_#_,120,16,0,380
_#_,120,8,0,350
_#_,120,4,0,340
_#_,120,2,0,350
_#_,120,2,2,230
_#_,120,4,4,380
_#_,120,2,0,410
_#_,120,2,2,210
_#_,120,8,8,720
_#_,120,4,0,400
_#_,120,2,0,350
_#_,120,2,2,230
_#_,120,4,4,360
_#_,120,2,0,380
_#_,120,2,2,230
_#_,120,14,16,1600
_#_,120,8,0,420
_#_,120,4,0,350
_#_,120,2,0,350
_#_,120,2,2,230
_#_,120,4,4,350
_#_,120,2,0,370
_#_,120,2,2,210
_#_,120,6,8,570
_#_,120,4,0,410
_#_,120,2,0,380
_#_,120,2,2,230
_#_,120,2,4,250
_#_,120,30,30,5190
_#_,120,16,0,480
_#_,120,8,0,380
_#_,120,4,0,360
_#_,120,2,0,350
_#_,120,2,2,240
_#_,120,4,4,370
_#_,120,2,0,420
_#_,120,2,2,200
_#_,120,8,8,690
_#_,120,4,0,410
_#_,120,2,0,350
_#_,120,2,2,230
_#_,120,4,4,360
_#_,120,2,0,430
_#_,120,2,2,210
_#_,120,14,16,1600
_#_,120,8,0,450
_#_,120,4,0,350
_#_,120,2,0,350
_#_,120,2,2,220
_#_,120,4,4,340
_#_,120,2,0,440
_#_,120,2,2,230
_#_,120,6,8,560
_#_,120,4,0,410
_#_,120,2,0,350
_#_,120,2,2,210
_#_,120,2,4,250
_#_,120,916,120,535950
_#_,120,60,0,740
_#_,120,30,0,430
_#_,120,16,0,380
_#_,120,8,0,360
_#_,120,4,0,350
_#_,120,2,0,350
_#_,120,2,2,250
_#_,120,4,4,390
_#_,120,2,0,440
_#_,120,2,2,220
_#_,120,8,8,710
_#_,120,4,0,450
_#_,120,2,0,350
_#_,120,2,2,230
_#_,120,4,4,350
_#_,120,2,0,440
_#_,120,2,2,230
_#_,120,14,16,1580
_#_,120,8,0,450
_#_,120,4,0,360
_#_,120,2,0,350
_#_,120,2,2,230
_#_,120,4,4,360
_#_,120,2,0,420
_#_,120,2,2,230
_#_,120,6,8,580
_#_,120,4,0,440
_#_,120,2,0,360
_#_,120,2,2,230
_#_,120,2,4,260
_#_,120,30,30,5190
_#_,120,16,0,500
_#_,120,8,0,370
_#_,120,4,0,2140
_#_,120,2,0,370
_#_,120,2,2,210
_#_,120,4,4,330
_#_,120,2,0,420
_#_,120,2,2,230
_#_,120,8,8,680
_#_,120,4,0,430
_#_,120,2,0,360
_#_,120,2,2,220
_#_,120,4,4,360
_#_,120,2,0,440
_#_,120,2,2,240
_#_,120,14,16,1600
_#_,120,8,0,420
_#_,120,4,0,350
_#_,120,2,0,340
_#_,120,2,2,220
_#_,120,4,4,350
_#_,120,2,0,440
_#_,120,2,2,240
_#_,120,6,8,570
_#_,120,4,0,420
_#_,120,2,0,350
_#_,120,2,2,220
_#_,120,2,4,250
_#_,120,60,60,17990
_#_,120,30,0,540
_#_,120,16,0,410
_#_,120,8,0,350
_#_,120,4,0,350
_#_,120,2,0,350
_#_,120,2,2,210
_#_,120,4,4,330
_#_,120,2,0,390
_#_,120,2,2,220
_#_,120,8,8,680
_#_,120,4,0,410
_#_,120,2,0,360
_#_,120,2,2,210
_#_,120,4,4,350
_#_,120,2,0,390
_#_,120,2,2,230
_#_,120,14,16,1600
_#_,120,8,0,420
_#_,120,4,0,380
_#_,120,2,0,360
_#_,120,2,2,230
_#_,120,4,4,350
_#_,120,2,0,400
_#_,120,2,2,230
_#_,120,6,8,570
_#_,120,4,0,430
_#_,120,2,0,350
_#_,120,2,2,240
_#_,120,2,4,250
_#_,120,30,30,5150
_#_,120,16,0,500
_#_,120,8,0,370
_#_,120,4,0,350
_#_,120,2,0,350
_#_,120,2,2,210
_#_,120,4,4,340
_#_,120,2,0,410
_#_,120,2,2,220
_#_,120,8,8,700
_#_,120,4,0,440
_#_,120,2,0,370
_#_,120,2,2,220
_#_,120,4,4,350
_#_,120,2,0,450
_#_,120,2,2,230
_#_,120,14,16,1600
_#_,120,8,0,470
_#_,120,4,0,360
_#_,120,2,0,340
_#_,120,2,2,210
_#_,120,4,4,350
_#_,120,2,0,410
_#_,120,2,2,210
_#_,120,6,8,580
_#_,120,4,0,440
_#_,120,2,0,380
_#_,120,2,2,220
_#_,120,2,4,230
_#_,120,796,120,463500
_#_,120,60,0,780
_#_,120,30,0,429
_#_,120,16,0,380
_#_,120,8,0,371
_#_,120,4,0,351
_#_,120,2,0,349
_#_,120,2,2,251
_#_,120,4,4,420
_#_,120,2,0,451
_#_,120,2,2,231
_#_,120,8,8,689
_#_,120,4,0,480
_#_,120,2,0,380
_#_,120,2,2,229
_#_,120,4,4,360
_#_,120,2,0,451
_#_,120,2,2,240
_#_,120,14,16,1591
_#_,120,8,0,429
_#_,120,4,0,360
_#_,120,2,0,349
_#_,120,2,2,200
_#_,120,4,4,331
_#_,120,2,0,400
_#_,120,2,2,200
_#_,120,6,8,570
_#_,120,4,0,430
_#_,120,2,0,360
_#_,120,2,2,240
_#_,120,2,4,250
_#_,120,30,30,5130
_#_,120,16,0,460
_#_,120,8,0,370
_#_,120,4,0,350
_#_,120,2,0,340
_#_,120,2,2,240
_#_,120,4,4,360
_#_,120,2,0,430
_#_,120,2,2,220
_#_,120,8,8,700
_#_,120,4,0,410
_#_,120,2,0,360
_#_,120,2,2,230
_#_,120,4,4,350
_#_,120,2,0,410
_#_,120,2,2,220
_#_,120,14,16,1590
_#_,120,8,0,470
_#_,120,4,0,350
_#_,120,2,0,350
_#_,120,2,2,210
_#_,120,4,4,320
_#_,120,2,0,400
_#_,120,2,2,220
_#_,120,6,8,570
_#_,120,4,0,410
_#_,120,2,0,340
_#_,120,2,2,230
_#_,120,2,4,260
_#_,120,60,60,18090
_#_,120,30,0,540
_#_,120,16,0,380
_#_,120,8,0,350
_#_,120,4,0,340
_#_,120,2,0,350
_#_,120,2,2,220
_#_,120,4,4,340
_#_,120,2,0,440
_#_,120,2,2,220
_#_,120,8,8,670
_#_,120,4,0,410
_#_,120,2,0,360
_#_,120,2,2,210
_#_,120,4,4,350
_#_,120,2,0,420
_#_,120,2,2,230
_#_,120,14,16,1570
_#_,120,8,0,440
_#_,120,4,0,360
_#_,120,2,0,350
_#_,120,2,2,230
_#_,120,4,4,370
_#_,120,2,0,440
_#_,120,2,2,220
_#_,120,6,8,590
_#_,120,4,0,460
_#_,120,2,0,360
_#_,120,2,2,230
_#_,120,2,4,240
_#_,120,30,30,5210
_#_,120,16,0,470
_#_,120,8,0,360
_#_,120,4,0,350
_#_,120,2,0,340
_#_,120,2,2,220
_#_,120,4,4,340
_#_,120,2,0,410
_#_,120,2,2,200
_#_,120,8,8,690
_#_,120,4,0,410
_#_,120,2,0,360
_#_,120,2,2,220
_#_,120,4,4,330
_#_,120,2,0,400
_#_,120,2,2,230
_#_,120,14,16,1610
_#_,120,8,0,460
_#_,120,4,0,350
_#_,120,2,0,350
_#_,120,2,2,240
_#_,120,4,4,350
_#_,120,2,0,420
_#_,120,2,2,230
_#_,120,6,8,590
_#_,120,4,0,440
_#_,120,2,0,380
_#_,120,2,2,210
_#_,120,2,4,230
_#_,120,676,120,399000
_#_,120,60,0,760
_#_,120,30,0,430
_#_,120,16,0,380
_#_,120,8,0,360
_#_,120,4,0,360
_#_,120,2,0,360
_#_,120,2,2,250
_#_,120,4,4,390
_#_,120,2,0,410
_#_,120,2,2,210
_#_,120,8,8,720
_#_,120,4,0,460
_#_,120,2,0,360
_#_,120,2,2,230
_#_,120,4,4,360
_#_,120,2,0,410
_#_,120,2,2,240
_#_,120,14,16,1610
_#_,120,8,0,440
_#_,120,4,0,360
_#_,120,2,0,350
_#_,120,2,2,230
_#_,120,4,4,350
_#_,120,2,0,410
_#_,120,2,2,230
_#_,120,6,8,600
_#_,120,4,0,430
_#_,120,2,0,350
_#_,120,2,2,230
_#_,120,2,4,260
_#_,120,30,30,5210
_#_,120,16,0,460
_#_,120,8,0,350
_#_,120,4,0,350
_#_,120,2,0,350
_#_,120,2,2,240
_#_,120,4,4,380
_#_,120,2,0,410
_#_,120,2,2,230
_#_,120,8,8,700
_#_,120,4,0,430
_#_,120,2,0,360
_#_,120,2,2,220
_#_,120,4,4,340
_#_,120,2,0,440
_#_,120,2,2,210
_#_,120,14,16,1630
_#_,120,8,0,410
_#_,120,4,0,340
_#_,120,2,0,350
_#_,120,2,2,230
_#_,120,4,4,350
_#_,120,2,0,410
_#_,120,2,2,210
_#_,120,6,8,570
_#_,120,4,0,430
_#_,120,2,0,350
_#_,120,2,2,230
_#_,120,2,4,250
_#_,120,60,60,18160
_#_,120,30,0,490
_#_,120,16,0,390
_#_,120,8,0,360
_#_,120,4,0,350
_#_,120,2,0,350
_#_,120,2,2,240
_#_,120,4,4,360
_#_,120,2,0,430
_#_,120,2,2,210
_#_,120,8,8,680
_#_,120,4,0,420
_#_,120,2,0,350
_#_,120,2,2,230
_#_,120,4,4,350
_#_,120,2,0,460
_#_,120,2,2,230
_#_,120,14,16,1630
_#_,120,8,0,460
_#_,120,4,0,340
_#_,120,2,0,360
_#_,120,2,2,230
_#_,120,4,4,340
_#_,120,2,0,380
_#_,120,2,2,240
_#_,120,6,8,580
_#_,120,4,0,420
_#_,120,2,0,370
_#_,120,2,2,230
_#_,120,2,4,270
_#_,120,30,30,5140
_#_,120,16,0,430
_#_,120,8,0,360
_#_,120,4,0,350
_#_,120,2,0,340
_#_,120,2,2,230
_#_,120,4,4,350
_#_,120,2,0,390
_#_,120,2,2,230
_#_,120,8,8,690
_#_,120,4,0,410
_#_,120,2,0,350
_#_,120,2,2,230
_#_,120,4,4,350
_#_,120,2,0,430
_#_,120,2,2,220
_#_,120,14,16,1580
_#_,120,8,0,490
_#_,120,4,0,360
_#_,120,2,0,350
_#_,120,2,2,230
_#_,120,4,4,340
_#_,120,2,0,430
_#_,120,2,2,200
_#_,120,6,8,580
_#_,120,4,0,440
_#_,120,2,0,370
_#_,120,2,2,230
_#_,120,2,4,260
_#_,120,556,120,325029
_#_,120,60,0,771
_#_,120,30,0,411
_#_,120,16,0,391
_#_,120,8,0,391
_#_,120,4,0,349
_#_,120,2,0,349
_#_,118,2,2,440
_#_,116,4,4,460
_#_,116,2,0,431
_#_,114,2,2,280
_#_,112,8,8,680
_#_,112,4,0,431
_#_,112,2,0,351
_#_,110,2,2,280
_#_,108,4,4,420
_#_,108,2,0,409
_#_,106,2,2,271
_#_,104,14,16,1440
_#_,104,8,0,440
_#_,104,4,0,380
_#_,104,2,0,349
_#_,102,2,2,289
_#_,100,4,4,360
_#_,100,2,0,431
_#_,98,2,2,260
_#_,96,6,8,510
_#_,96,4,0,450
_#_,96,2,0,350
_#_,94,2,2,270
_#_,92,2,4,280
_#_,90,30,30,4760
_#_,90,16,0,530
_#_,90,8,0,370
_#_,90,4,0,350
_#_,90,2,0,340
_#_,88,2,2,240
_#_,86,4,4,500
_#_,86,2,0,420
_#_,84,2,2,240
_#_,82,8,8,710
_#_,82,4,0,430
_#_,82,2,0,340
_#_,80,2,2,200
_#_,78,4,4,420
_#_,78,2,0,400
_#_,76,2,2,250
_#_,74,14,16,1420
_#_,74,8,0,450
_#_,74,4,0,360
_#_,74,2,0,340
_#_,72,2,2,200
_#_,70,4,4,420
_#_,70,2,0,410
_#_,68,2,2,230
_#_,66,6,8,520
_#_,66,4,0,410
_#_,66,2,0,360
_#_,64,2,2,210
_#_,62,2,4,300
_#_,60,60,60,9060
_#_,60,30,0,500
_#_,60,16,0,380
_#_,60,8,0,350
_#_,60,4,0,350
_#_,60,2,0,350
_#_,58,2,2,270
_#_,56,4,4,310
_#_,56,2,0,410
_#_,54,2,2,240
_#_,52,8,8,490
_#_,52,4,0,430
_#_,52,2,0,360
_#_,50,2,2,240
_#_,48,4,4,270
_#_,48,2,0,410
_#_,46,2,2,250
_#_,44,14,16,760
_#_,44,8,0,440
_#_,44,4,0,360
_#_,44,2,0,350
_#_,42,2,2,260
_#_,40,4,4,260
_#_,40,2,0,420
_#_,38,2,2,250
_#_,36,6,8,360
_#_,36,4,0,430
_#_,36,2,0,350
_#_,34,2,2,200
_#_,32,2,4,210
_#_,30,30,30,2130
_#_,30,16,0,500
_#_,30,8,0,400
_#_,30,4,0,350
_#_,30,2,0,350
_#_,28,2,2,220
_#_,26,4,4,360
_#_,26,2,0,420
_#_,24,2,2,190
_#_,22,8,8,490
_#_,22,4,0,440
_#_,22,2,0,350
_#_,20,2,2,180
_#_,18,4,4,320
_#_,18,2,0,430
_#_,16,2,2,160
_#_,14,14,16,660
_#_,14,8,0,480
_#_,14,4,0,350
_#_,14,2,0,350
_#_,12,2,2,200
_#_,10,4,4,310
_#_,10,2,0,430
_#_,8,2,2,180
_#_,6,6,8,340
_#_,6,4,0,440
_#_,6,2,0,340
_#_,4,2,2,170
_#_,2,2,4,200
_#_,0,436,120,760
_#_,0,60,0,540
_#_,0,30,0,310
_#_,0,16,0,320
_#_,0,8,0,290
_#_,0,4,0,300
_#_,0,2,0,300
_#_,0,2,2,340
_#_,0,4,4,330
_#_,0,2,0,300
_#_,0,2,2,340
_#_,0,8,8,350
_#_,0,4,0,320
_#_,0,2,0,330
_#_,0,2,2,330
_#_,0,4,4,340
_#_,0,2,0,320
_#_,0,2,2,320
_#_,0,14,16,330
_#_,0,8,0,300
_#_,0,4,0,290
_#_,0,2,0,300
_#_,0,2,2,310
_#_,0,4,4,320
_#_,0,2,0,300
_#_,0,2,2,340
_#_,0,6,8,340
_#_,0,4,0,300
_#_,0,2,0,290
_#_,0,2,2,320
_#_,0,2,4,320
_#_,0,30,30,350
_#_,0,16,0,320
_#_,0,8,0,320
_#_,0,4,0,300
_#_,0,2,0,310
_#_,0,2,2,320
_#_,0,4,4,340
_#_,0,2,0,320
_#_,0,2,2,320
_#_,0,8,8,330
_#_,0,4,0,330
_#_,0,2,0,300
_#_,0,2,2,320
_#_,0,4,4,310
_#_,0,2,0,310
_#_,0,2,2,330
_#_,0,14,16,340
_#_,0,8,0,320
_#_,0,4,0,300
_#_,0,2,0,310
_#_,0,2,2,320
_#_,0,4,4,320
_#_,0,2,0,300
_#_,0,2,2,320
_#_,0,6,8,320
_#_,0,4,0,300
_#_,0,2,0,300
_#_,0,2,2,330
_#_,0,2,4,340
_#_,0,60,60,330
_#_,0,30,0,300
_#_,0,16,0,300
_#_,0,8,0,290
_#_,0,4,0,300
_#_,0,2,0,290
_#_,0,2,2,320
_#_,0,4,4,310
_#_,0,2,0,300
_#_,0,2,2,320
_#_,0,8,8,310
_#_,0,4,0,300
_#_,0,2,0,300
_#_,0,2,2,320
_#_,0,4,4,340
_#_,0,2,0,320
_#_,0,2,2,330
_#_,0,14,16,320
_#_,0,8,0,320
_#_,0,4,0,330
_#_,0,2,0,310
_#_,0,2,2,310
_#_,0,4,4,320
_#_,0,2,0,1630
_#_,0,2,2,340
_#_,0,6,8,320
_#_,0,4,0,310
_#_,0,2,0,300
_#_,0,2,2,320
_#_,0,2,4,320
_#_,0,30,30,340
_#_,0,16,0,320
_#_,0,8,0,320
_#_,0,4,0,310
_#_,0,2,0,300
_#_,0,2,2,320
_#_,0,4,4,320
_#_,0,2,0,300
_#_,0,2,2,320
_#_,0,8,8,350
_#_,0,4,0,330
_#_,0,2,0,290
_#_,0,2,2,320
_#_,0,4,4,310
_#_,0,2,0,290
_#_,0,2,2,330
_#_,0,14,16,340
_#_,0,8,0,300
_#_,0,4,0,310
_#_,0,2,0,290
_#_,0,2,2,340
_#_,0,4,4,340
_#_,0,2,0,320
_#_,0,2,2,320
_#_,0,6,8,330
_#_,0,4,0,290
_#_,0,2,0,300
_#_,0,2,2,320
_#_,0,2,4,320
_#_,0,316,120,531
_#_,0,60,0,340
_#_,0,30,0,309
_#_,0,16,0,320
_#_,0,8,0,291
_#_,0,4,0,311
_#_,0,2,0,300
_#_,0,2,2,320
_#_,0,4,4,340
_#_,0,2,0,320
_#_,0,2,2,320
_#_,0,8,8,320
_#_,0,4,0,309
_#_,0,2,0,300
_#_,0,2,2,331
_#_,0,4,4,340
_#_,0,2,0,300
_#_,0,2,2,329
_#_,0,14,16,340
_#_,0,8,0,320
_#_,0,4,0,291
_#_,0,2,0,300
_#_,0,2,2,311
_#_,0,4,4,340
_#_,0,2,0,320
_#_,0,2,2,311
_#_,0,6,8,329
_#_,0,4,0,320
_#_,0,2,0,320
_#_,0,2,2,340
_#_,0,2,4,340
_#_,0,30,30,340
_#_,0,16,0,320
_#_,0,8,0,300
_#_,0,4,0,300
_#_,0,2,0,289
_#_,0,2,2,340
_#_,0,4,4,331
_#_,0,2,0,311
_#_,0,2,2,329
_#_,0,8,8,340
_#_,0,4,0,311
_#_,0,2,0,300
_#_,0,2,2,320
_#_,0,4,4,340
_#_,0,2,0,329
_#_,0,2,2,340
_#_,0,14,16,351
_#_,0,8,0,300
_#_,0,4,0,300
_#_,0,2,0,291
_#_,0,2,2,320
_#_,0,4,4,360
_#_,0,2,0,320
_#_,0,2,2,320
_#_,0,6,8,340
_#_,0,4,0,311
_#_,0,2,0,300
_#_,0,2,2,331
_#_,0,2,4,360
_#_,0,60,60,369
_#_,0,30,0,320
_#_,0,16,0,300
_#_,0,8,0,300
_#_,0,4,0,300
_#_,0,2,0,300
_#_,0,2,2,320
_#_,0,4,4,340
_#_,0,2,0,330
_#_,0,2,2,330
_#_,0,8,8,360
_#_,0,4,0,320
_#_,0,2,0,300
_#_,0,2,2,310
_#_,0,4,4,320
_#_,0,2,0,300
_#_,0,2,2,320
_#_,0,14,16,320
_#_,0,8,0,290
_#_,0,4,0,300
_#_,0,2,0,310
_#_,0,2,2,320
_#_,0,4,4,340
_#_,0,2,0,320
_#_,0,2,2,330
_#_,0,6,8,330
_#_,0,4,0,300
_#_,0,2,0,300
_#_,0,2,2,340
_#_,0,2,4,340
_#_,0,30,30,360
_#_,0,16,0,290
_#_,0,8,0,300
_#_,0,4,0,300
_#_,0,2,0,300
_#_,0,2,2,360
_#_,0,4,4,350
_#_,0,2,0,320
_#_,0,2,2,340
_#_,0,8,8,340
_#_,0,4,0,300
_#_,0,2,0,310
_#_,0,2,2,310
_#_,0,4,4,340
_#_,0,2,0,320
_#_,0,2,2,310
_#_,0,14,16,320
_#_,0,8,0,300
_#_,0,4,0,300
_#_,0,2,0,300
_#_,0,2,2,330
_#_,0,4,4,330
_#_,0,2,0,320
_#_,0,2,2,360
_#_,0,6,8,330
_#_,0,4,0,320
_#_,0,2,0,290
_#_,0,2,2,320
_#_,0,2,4,320
_#_,0,196,120,520
_#_,0,60,0,350
_#_,0,30,0,330
_#_,0,16,0,300
_#_,0,8,0,300
_#_,0,4,0,310
_#_,0,2,0,300
_#_,0,2,2,340
_#_,0,4,4,340
_#_,0,2,0,330
_#_,0,2,2,340
_#_,0,8,8,320
_#_,0,4,0,300
_#_,0,2,0,310
_#_,0,2,2,340
_#_,0,4,4,340
_#_,0,2,0,320
_#_,0,2,2,350
_#_,0,14,16,340
_#_,0,8,0,320
_#_,0,4,0,320
_#_,0,2,0,300
_#_,0,2,2,340
_#_,0,4,4,340
_#_,0,2,0,300
_#_,0,2,2,350
_#_,0,6,8,350
_#_,0,4,0,320
_#_,0,2,0,290
_#_,0,2,2,320
_#_,0,2,4,320
_#_,0,30,30,340
_#_,0,16,0,320
_#_,0,8,0,300
_#_,0,4,0,300
_#_,0,2,0,300
_#_,0,2,2,340
_#_,0,4,4,340
_#_,0,2,0,330
_#_,0,2,2,340
_#_,0,8,8,350
_#_,0,4,0,330
_#_,0,2,0,330
_#_,0,2,2,350
_#_,0,4,4,340
_#_,0,2,0,300
_#_,0,2,2,320
_#_,0,14,16,340
_#_,0,8,0,320
_#_,0,4,0,300
_#_,0,2,0,310
_#_,0,2,2,330
_#_,0,4,4,340
_#_,0,2,0,320
_#_,0,2,2,340
_#_,0,6,8,340
_#_,0,4,0,320
_#_,0,2,0,300
_#_,0,2,2,340
_#_,0,2,4,340
_#_,0,60,60,350
_#_,0,30,0,320
_#_,0,16,0,320
_#_,0,8,0,300
_#_,0,4,0,300
_#_,0,2,0,310
_#_,0,2,2,360
_#_,0,4,4,340
_#_,0,2,0,320
_#_,0,2,2,340
_#_,0,8,8,340
_#_,0,4,0,330
_#_,0,2,0,300
_#_,0,2,2,350
_#_,0,4,4,340
_#_,0,2,0,320
_#_,0,2,2,330
_#_,0,14,16,330
_#_,0,8,0,310
_#_,0,4,0,310
_#_,0,2,0,300
_#_,0,2,2,340
_#_,0,4,4,340
_#_,0,2,0,320
_#_,0,2,2,320
_#_,0,6,8,340
_#_,0,4,0,330
_#_,0,2,0,300
_#_,0,2,2,330
_#_,0,2,4,320
_#_,0,30,30,340
_#_,0,16,0,320
_#_,0,8,0,300
_#_,0,4,0,300
_#_,0,2,0,290
_#_,0,2,2,340
_#_,0,4,4,340
_#_,0,2,0,320
_#_,0,2,2,340
_#_,0,8,8,340
_#_,0,4,0,330
_#_,0,2,0,300
_#_,0,2,2,340
_#_,0,4,4,350
_#_,0,2,0,310
_#_,0,2,2,340
_#_,0,14,16,350
_#_,0,8,0,320
_#_,0,4,0,310
_#_,0,2,0,300
_#_,0,2,2,340
_#_,0,4,4,340
_#_,0,2,0,330
_#_,0,2,2,340
_#_,0,6,8,340
_#_,0,4,0,320
_#_,0,2,0,320
_#_,0,2,2,320
_#_,0,2,4,360
_#_,0,76,120,450
_#_,0,38,0,330
_#_,0,20,0,310
_#_,0,10,0,290
_#_,0,6,0,290
_#_,0,4,0,290
_#_,0,2,0,300
_#_,0,2,2,340
_#_,0,2,4,340
_#_,0,4,6,380
_#_,0,2,0,330
_#_,0,2,2,340
_#_,0,10,10,350
_#_,0,6,0,330
_#_,0,4,0,300
_#_,0,2,0,300
_#_,0,2,2,320
_#_,0,2,4,330
_#_,0,4,6,340
_#_,0,2,0,330
_#_,0,2,2,340
_#_,0,18,20,350
_#_,0,10,0,310
_#_,0,6,0,300
_#_,0,4,0,330
_#_,0,2,0,310
_#_,0,2,2,320
_#_,0,2,4,350
_#_,0,4,6,350
_#_,0,2,0,320
_#_,0,2,2,350
_#_,0,8,10,340
_#_,0,4,0,320
_#_,0,2,0,320
_#_,0,2,2,340
_#_,0,4,4,370
_#_,0,2,0,340
_#_,0,2,2,360
_#_,0,37,38,360
_#_,0,20,0,320
_#_,0,10,0,310
_#_,0,6,0,300
_#_,0,4,0,300
_#_,0,2,0,300
_#_,0,2,2,340
_#_,0,2,4,360
_#_,0,4,6,370
_#_,0,2,0,320
_#_,0,2,2,340
_#_,0,10,10,370
_#_,0,6,0,340
_#_,0,4,0,320
_#_,0,2,0,300
_#_,0,2,2,340
_#_,0,2,4,370
_#_,0,4,6,370
_#_,0,2,0,300
_#_,0,2,2,320
_#_,0,17,20,350
_#_,0,10,0,320
_#_,0,6,0,300
_#_,0,4,0,300
_#_,0,2,0,290
_#_,0,2,2,340
_#_,0,2,4,340
_#_,0,4,6,360
_#_,0,2,0,340
_#_,0,2,2,340
_#_,0,7,10,350
_#_,0,4,0,300
_#_,0,2,0,300
_#_,0,2,2,370
_#_,0,3,4,370
_#_,0,2,0,330
_#_,0,1,2,150
_#_,0,1,75,190

real	0m0.271s
user	0m0.110s
sys	0m0.113s
