[0.000000] [xbt_cfg/INFO] Configuration change: Set 'smpi/cpu-threshold' to '1e-8'
[0.000000] [xbt_cfg/INFO] Configuration change: Set 'smpi/host-speed' to '10000Mf'
[0.000000] [xbt_cfg/INFO] Configuration change: Set 'smpi/shared-malloc-blocksize' to '2097152'
[0.000000] [xbt_cfg/INFO] Configuration change: Set 'surf/precision' to '1e-9'
[0.000000] [xbt_cfg/INFO] Configuration change: Set 'network/loopback-lat' to '0'
[0.000000] [xbt_cfg/INFO] Configuration change: Set 'network/loopback-bw' to '999e9'
[0.000000] [xbt_cfg/INFO] Configuration change: Set 'network/model' to 'CM02'
[0.000000] [xbt_cfg/INFO] Configuration change: Set 'smpi/os' to '0:2.2617745265427535e-06:2.703352029721588e-10;392:2.8385604119907807e-06:1.1264760290330328e-10;32712:0.0:0.0;186836:0.0:0.0;1538469:0.0:0.0'
[0.000000] [xbt_cfg/INFO] Configuration change: Set 'smpi/or' to '0:4.879281137093516e-07:2.2618415203462987e-10;392:5.779857092751072e-07:3.8094447278873e-11;32712:0.0:0.0;186836:0.0:0.0;1538469:0.0:0.0'
[0.000000] [xbt_cfg/INFO] Configuration change: Set 'smpi/ois' to '0:5.673519212129521e-07:7.174648137343064e-43;392:5.446695252027938e-07:1.9686168165027744e-11;32712:5.536713106693264e-07:5.082661224033066e-13;186836:5.49289659548938e-07:3.189291810074661e-14;1538469:4.306002121584747e-07:4.21325930847998e-14'
[0.000000] [xbt_cfg/INFO] Configuration change: Set 'smpi/bw-factor' to '0:0.2699228069054274;392:0.7647794357220394;32712:0.9664149337828888;186836:0.9243880418172589;1538469:0.9732858005841204'
[0.000000] [xbt_cfg/INFO] Configuration change: Set 'smpi/lat-factor' to '0:2.7676182391675814;392:3.9432860784637396;32712:10.117401654450653;186836:7.810638891189083;1538469:18.84747638996546'
[0.000000] [xbt_cfg/INFO] Configuration change: Set 'smpi/async-small-thresh' to '32712'
[0.000000] [xbt_cfg/INFO] Configuration change: Set 'smpi/send-is-detached-thresh' to '32712'
[0.000000] [xbt_cfg/INFO] Configuration change: Set 'smpi/iprobe' to '1.9586518031175638e-07'
[0.000000] [xbt_cfg/INFO] Configuration change: Set 'smpi/test' to '1.1523121197560569e-07'
[0.000000] [xbt_cfg/INFO] Configuration change: Set 'smpi/coll-selector' to 'ompi'
[0.000000] [smpi_coll/INFO] Switch to algorithm ompi for collective gather
[0.000000] [smpi_coll/INFO] Switch to algorithm ompi for collective allgather
[0.000000] [smpi_coll/INFO] Switch to algorithm ompi for collective allgatherv
[0.000000] [smpi_coll/INFO] Switch to algorithm ompi for collective allreduce
[0.000000] [smpi_coll/INFO] Switch to algorithm ompi for collective alltoall
[0.000000] [smpi_coll/INFO] Switch to algorithm ompi for collective alltoallv
[0.000000] [smpi_coll/INFO] Switch to algorithm ompi for collective reduce
[0.000000] [smpi_coll/INFO] Switch to algorithm ompi for collective reduce_scatter
[0.000000] [smpi_coll/INFO] Switch to algorithm ompi for collective scatter
[0.000000] [smpi_coll/INFO] Switch to algorithm ompi for collective bcast
[0.000000] [smpi_coll/INFO] Switch to algorithm ompi for collective barrier
[0.000000] [smpi_coll/INFO] Switch to algorithm ompi for collective gather
[0.000000] [smpi_coll/INFO] Switch to algorithm ompi for collective allgather
[0.000000] [smpi_coll/INFO] Switch to algorithm ompi for collective allgatherv
[0.000000] [smpi_coll/INFO] Switch to algorithm ompi for collective allreduce
[0.000000] [smpi_coll/INFO] Switch to algorithm ompi for collective alltoall
[0.000000] [smpi_coll/INFO] Switch to algorithm ompi for collective alltoallv
[0.000000] [smpi_coll/INFO] Switch to algorithm ompi for collective reduce
[0.000000] [smpi_coll/INFO] Switch to algorithm ompi for collective reduce_scatter
[0.000000] [smpi_coll/INFO] Switch to algorithm ompi for collective scatter
[0.000000] [smpi_coll/INFO] Switch to algorithm ompi for collective bcast
[0.000000] [smpi_coll/INFO] Switch to algorithm ompi for collective barrier
[amour1_CPU0:user_app:(1) 0.000000] [s4bxi_main_actor/INFO] Setup with nid = 1, model_pci = 1 ; e2e_off = 0
[amour1_CPU1:user_app:(2) 0.000000] [s4bxi_main_actor/INFO] Setup with nid = 1, model_pci = 1 ; e2e_off = 0
[amour1_CPU2:user_app:(3) 0.000000] [s4bxi_main_actor/INFO] Setup with nid = 1, model_pci = 1 ; e2e_off = 0
[amour1_CPU3:user_app:(4) 0.000000] [s4bxi_main_actor/INFO] Setup with nid = 1, model_pci = 1 ; e2e_off = 0
[amour1_CPU4:user_app:(5) 0.000000] [s4bxi_main_actor/INFO] Setup with nid = 1, model_pci = 1 ; e2e_off = 0
[amour1_CPU5:user_app:(6) 0.000000] [s4bxi_main_actor/INFO] Setup with nid = 1, model_pci = 1 ; e2e_off = 0
[amour1_CPU6:user_app:(7) 0.000000] [s4bxi_main_actor/INFO] Setup with nid = 1, model_pci = 1 ; e2e_off = 0
[amour1_CPU7:user_app:(8) 0.000000] [s4bxi_main_actor/INFO] Setup with nid = 1, model_pci = 1 ; e2e_off = 0
[amour1_CPU8:user_app:(9) 0.000000] [s4bxi_main_actor/INFO] Setup with nid = 1, model_pci = 1 ; e2e_off = 0
[amour1_CPU9:user_app:(10) 0.000000] [s4bxi_main_actor/INFO] Setup with nid = 1, model_pci = 1 ; e2e_off = 0
[amour1_CPU10:user_app:(11) 0.000000] [s4bxi_main_actor/INFO] Setup with nid = 1, model_pci = 1 ; e2e_off = 0
[amour1_CPU11:user_app:(12) 0.000000] [s4bxi_main_actor/INFO] Setup with nid = 1, model_pci = 1 ; e2e_off = 0
[amour2_CPU0:user_app:(18) 0.000000] [s4bxi_main_actor/INFO] Setup with nid = 2, model_pci = 1 ; e2e_off = 0
[amour2_CPU1:user_app:(19) 0.000000] [s4bxi_main_actor/INFO] Setup with nid = 2, model_pci = 1 ; e2e_off = 0
[amour2_CPU2:user_app:(20) 0.000000] [s4bxi_main_actor/INFO] Setup with nid = 2, model_pci = 1 ; e2e_off = 0
[amour2_CPU3:user_app:(21) 0.000000] [s4bxi_main_actor/INFO] Setup with nid = 2, model_pci = 1 ; e2e_off = 0
[amour2_CPU4:user_app:(22) 0.000000] [s4bxi_main_actor/INFO] Setup with nid = 2, model_pci = 1 ; e2e_off = 0
[amour2_CPU5:user_app:(23) 0.000000] [s4bxi_main_actor/INFO] Setup with nid = 2, model_pci = 1 ; e2e_off = 0
[amour2_CPU6:user_app:(24) 0.000000] [s4bxi_main_actor/INFO] Setup with nid = 2, model_pci = 1 ; e2e_off = 0
[amour2_CPU7:user_app:(25) 0.000000] [s4bxi_main_actor/INFO] Setup with nid = 2, model_pci = 1 ; e2e_off = 0
[amour2_CPU8:user_app:(26) 0.000000] [s4bxi_main_actor/INFO] Setup with nid = 2, model_pci = 1 ; e2e_off = 0
[amour2_CPU9:user_app:(27) 0.000000] [s4bxi_main_actor/INFO] Setup with nid = 2, model_pci = 1 ; e2e_off = 0
[amour2_CPU10:user_app:(28) 0.000000] [s4bxi_main_actor/INFO] Setup with nid = 2, model_pci = 1 ; e2e_off = 0
[amour2_CPU11:user_app:(29) 0.000000] [s4bxi_main_actor/INFO] Setup with nid = 2, model_pci = 1 ; e2e_off = 0
[amour3_CPU0:user_app:(35) 0.000000] [s4bxi_main_actor/INFO] Setup with nid = 3, model_pci = 1 ; e2e_off = 0
[amour3_CPU1:user_app:(36) 0.000000] [s4bxi_main_actor/INFO] Setup with nid = 3, model_pci = 1 ; e2e_off = 0
[amour3_CPU2:user_app:(37) 0.000000] [s4bxi_main_actor/INFO] Setup with nid = 3, model_pci = 1 ; e2e_off = 0
[amour3_CPU3:user_app:(38) 0.000000] [s4bxi_main_actor/INFO] Setup with nid = 3, model_pci = 1 ; e2e_off = 0
[amour3_CPU4:user_app:(39) 0.000000] [s4bxi_main_actor/INFO] Setup with nid = 3, model_pci = 1 ; e2e_off = 0
[amour3_CPU5:user_app:(40) 0.000000] [s4bxi_main_actor/INFO] Setup with nid = 3, model_pci = 1 ; e2e_off = 0
[amour3_CPU6:user_app:(41) 0.000000] [s4bxi_main_actor/INFO] Setup with nid = 3, model_pci = 1 ; e2e_off = 0
[amour3_CPU7:user_app:(42) 0.000000] [s4bxi_main_actor/INFO] Setup with nid = 3, model_pci = 1 ; e2e_off = 0
[amour3_CPU8:user_app:(43) 0.000000] [s4bxi_main_actor/INFO] Setup with nid = 3, model_pci = 1 ; e2e_off = 0
[amour3_CPU9:user_app:(44) 0.000000] [s4bxi_main_actor/INFO] Setup with nid = 3, model_pci = 1 ; e2e_off = 0
[amour3_CPU10:user_app:(45) 0.000000] [s4bxi_main_actor/INFO] Setup with nid = 3, model_pci = 1 ; e2e_off = 0
[amour3_CPU11:user_app:(46) 0.000000] [s4bxi_main_actor/INFO] Setup with nid = 3, model_pci = 1 ; e2e_off = 0
[amour4_CPU0:user_app:(52) 0.000000] [s4bxi_main_actor/INFO] Setup with nid = 4, model_pci = 1 ; e2e_off = 0
[amour4_CPU1:user_app:(53) 0.000000] [s4bxi_main_actor/INFO] Setup with nid = 4, model_pci = 1 ; e2e_off = 0
[amour4_CPU2:user_app:(54) 0.000000] [s4bxi_main_actor/INFO] Setup with nid = 4, model_pci = 1 ; e2e_off = 0
[amour4_CPU3:user_app:(55) 0.000000] [s4bxi_main_actor/INFO] Setup with nid = 4, model_pci = 1 ; e2e_off = 0
[amour4_CPU4:user_app:(56) 0.000000] [s4bxi_main_actor/INFO] Setup with nid = 4, model_pci = 1 ; e2e_off = 0
[amour4_CPU5:user_app:(57) 0.000000] [s4bxi_main_actor/INFO] Setup with nid = 4, model_pci = 1 ; e2e_off = 0
[amour4_CPU6:user_app:(58) 0.000000] [s4bxi_main_actor/INFO] Setup with nid = 4, model_pci = 1 ; e2e_off = 0
[amour4_CPU7:user_app:(59) 0.000000] [s4bxi_main_actor/INFO] Setup with nid = 4, model_pci = 1 ; e2e_off = 0
[amour4_CPU8:user_app:(60) 0.000000] [s4bxi_main_actor/INFO] Setup with nid = 4, model_pci = 1 ; e2e_off = 0
[amour4_CPU9:user_app:(61) 0.000000] [s4bxi_main_actor/INFO] Setup with nid = 4, model_pci = 1 ; e2e_off = 0
[amour4_CPU10:user_app:(62) 0.000000] [s4bxi_main_actor/INFO] Setup with nid = 4, model_pci = 1 ; e2e_off = 0
[amour4_CPU11:user_app:(63) 0.000000] [s4bxi_main_actor/INFO] Setup with nid = 4, model_pci = 1 ; e2e_off = 0
[amour5_CPU0:user_app:(69) 0.000000] [s4bxi_main_actor/INFO] Setup with nid = 5, model_pci = 1 ; e2e_off = 0
[amour5_CPU1:user_app:(70) 0.000000] [s4bxi_main_actor/INFO] Setup with nid = 5, model_pci = 1 ; e2e_off = 0
[amour5_CPU2:user_app:(71) 0.000000] [s4bxi_main_actor/INFO] Setup with nid = 5, model_pci = 1 ; e2e_off = 0
[amour5_CPU3:user_app:(72) 0.000000] [s4bxi_main_actor/INFO] Setup with nid = 5, model_pci = 1 ; e2e_off = 0
[amour5_CPU4:user_app:(73) 0.000000] [s4bxi_main_actor/INFO] Setup with nid = 5, model_pci = 1 ; e2e_off = 0
[amour5_CPU5:user_app:(74) 0.000000] [s4bxi_main_actor/INFO] Setup with nid = 5, model_pci = 1 ; e2e_off = 0
[amour5_CPU6:user_app:(75) 0.000000] [s4bxi_main_actor/INFO] Setup with nid = 5, model_pci = 1 ; e2e_off = 0
[amour5_CPU7:user_app:(76) 0.000000] [s4bxi_main_actor/INFO] Setup with nid = 5, model_pci = 1 ; e2e_off = 0
[amour5_CPU8:user_app:(77) 0.000000] [s4bxi_main_actor/INFO] Setup with nid = 5, model_pci = 1 ; e2e_off = 0
[amour5_CPU9:user_app:(78) 0.000000] [s4bxi_main_actor/INFO] Setup with nid = 5, model_pci = 1 ; e2e_off = 0
[amour5_CPU10:user_app:(79) 0.000000] [s4bxi_main_actor/INFO] Setup with nid = 5, model_pci = 1 ; e2e_off = 0
[amour5_CPU11:user_app:(80) 0.000000] [s4bxi_main_actor/INFO] Setup with nid = 5, model_pci = 1 ; e2e_off = 0
[amour6_CPU0:user_app:(86) 0.000000] [s4bxi_main_actor/INFO] Setup with nid = 6, model_pci = 1 ; e2e_off = 0
[amour6_CPU1:user_app:(87) 0.000000] [s4bxi_main_actor/INFO] Setup with nid = 6, model_pci = 1 ; e2e_off = 0
[amour6_CPU2:user_app:(88) 0.000000] [s4bxi_main_actor/INFO] Setup with nid = 6, model_pci = 1 ; e2e_off = 0
[amour6_CPU3:user_app:(89) 0.000000] [s4bxi_main_actor/INFO] Setup with nid = 6, model_pci = 1 ; e2e_off = 0
[amour6_CPU4:user_app:(90) 0.000000] [s4bxi_main_actor/INFO] Setup with nid = 6, model_pci = 1 ; e2e_off = 0
[amour6_CPU5:user_app:(91) 0.000000] [s4bxi_main_actor/INFO] Setup with nid = 6, model_pci = 1 ; e2e_off = 0
[amour6_CPU6:user_app:(92) 0.000000] [s4bxi_main_actor/INFO] Setup with nid = 6, model_pci = 1 ; e2e_off = 0
[amour6_CPU7:user_app:(93) 0.000000] [s4bxi_main_actor/INFO] Setup with nid = 6, model_pci = 1 ; e2e_off = 0
[amour6_CPU8:user_app:(94) 0.000000] [s4bxi_main_actor/INFO] Setup with nid = 6, model_pci = 1 ; e2e_off = 0
[amour6_CPU9:user_app:(95) 0.000000] [s4bxi_main_actor/INFO] Setup with nid = 6, model_pci = 1 ; e2e_off = 0
[amour6_CPU10:user_app:(96) 0.000000] [s4bxi_main_actor/INFO] Setup with nid = 6, model_pci = 1 ; e2e_off = 0
[amour6_CPU11:user_app:(97) 0.000000] [s4bxi_main_actor/INFO] Setup with nid = 6, model_pci = 1 ; e2e_off = 0
[amour7_CPU0:user_app:(103) 0.000000] [s4bxi_main_actor/INFO] Setup with nid = 7, model_pci = 1 ; e2e_off = 0
[amour7_CPU1:user_app:(104) 0.000000] [s4bxi_main_actor/INFO] Setup with nid = 7, model_pci = 1 ; e2e_off = 0
[amour7_CPU2:user_app:(105) 0.000000] [s4bxi_main_actor/INFO] Setup with nid = 7, model_pci = 1 ; e2e_off = 0
[amour7_CPU3:user_app:(106) 0.000000] [s4bxi_main_actor/INFO] Setup with nid = 7, model_pci = 1 ; e2e_off = 0
[amour7_CPU4:user_app:(107) 0.000000] [s4bxi_main_actor/INFO] Setup with nid = 7, model_pci = 1 ; e2e_off = 0
[amour7_CPU5:user_app:(108) 0.000000] [s4bxi_main_actor/INFO] Setup with nid = 7, model_pci = 1 ; e2e_off = 0
[amour7_CPU6:user_app:(109) 0.000000] [s4bxi_main_actor/INFO] Setup with nid = 7, model_pci = 1 ; e2e_off = 0
[amour7_CPU7:user_app:(110) 0.000000] [s4bxi_main_actor/INFO] Setup with nid = 7, model_pci = 1 ; e2e_off = 0
[amour7_CPU8:user_app:(111) 0.000000] [s4bxi_main_actor/INFO] Setup with nid = 7, model_pci = 1 ; e2e_off = 0
[amour7_CPU9:user_app:(112) 0.000000] [s4bxi_main_actor/INFO] Setup with nid = 7, model_pci = 1 ; e2e_off = 0
[amour7_CPU10:user_app:(113) 0.000000] [s4bxi_main_actor/INFO] Setup with nid = 7, model_pci = 1 ; e2e_off = 0
[amour7_CPU11:user_app:(114) 0.000000] [s4bxi_main_actor/INFO] Setup with nid = 7, model_pci = 1 ; e2e_off = 0
[amour8_CPU0:user_app:(120) 0.000000] [s4bxi_main_actor/INFO] Setup with nid = 8, model_pci = 1 ; e2e_off = 0
[amour8_CPU1:user_app:(121) 0.000000] [s4bxi_main_actor/INFO] Setup with nid = 8, model_pci = 1 ; e2e_off = 0
[amour8_CPU2:user_app:(122) 0.000000] [s4bxi_main_actor/INFO] Setup with nid = 8, model_pci = 1 ; e2e_off = 0
[amour8_CPU3:user_app:(123) 0.000000] [s4bxi_main_actor/INFO] Setup with nid = 8, model_pci = 1 ; e2e_off = 0
[amour8_CPU4:user_app:(124) 0.000000] [s4bxi_main_actor/INFO] Setup with nid = 8, model_pci = 1 ; e2e_off = 0
[amour8_CPU5:user_app:(125) 0.000000] [s4bxi_main_actor/INFO] Setup with nid = 8, model_pci = 1 ; e2e_off = 0
[amour8_CPU6:user_app:(126) 0.000000] [s4bxi_main_actor/INFO] Setup with nid = 8, model_pci = 1 ; e2e_off = 0
[amour8_CPU7:user_app:(127) 0.000000] [s4bxi_main_actor/INFO] Setup with nid = 8, model_pci = 1 ; e2e_off = 0
[amour8_CPU8:user_app:(128) 0.000000] [s4bxi_main_actor/INFO] Setup with nid = 8, model_pci = 1 ; e2e_off = 0
[amour8_CPU9:user_app:(129) 0.000000] [s4bxi_main_actor/INFO] Setup with nid = 8, model_pci = 1 ; e2e_off = 0
[amour8_CPU10:user_app:(130) 0.000000] [s4bxi_main_actor/INFO] Setup with nid = 8, model_pci = 1 ; e2e_off = 0
[amour8_CPU11:user_app:(131) 0.000000] [s4bxi_main_actor/INFO] Setup with nid = 8, model_pci = 1 ; e2e_off = 0
[amour9_CPU0:user_app:(137) 0.000000] [s4bxi_main_actor/INFO] Setup with nid = 9, model_pci = 1 ; e2e_off = 0
[amour9_CPU1:user_app:(138) 0.000000] [s4bxi_main_actor/INFO] Setup with nid = 9, model_pci = 1 ; e2e_off = 0
[amour9_CPU2:user_app:(139) 0.000000] [s4bxi_main_actor/INFO] Setup with nid = 9, model_pci = 1 ; e2e_off = 0
[amour9_CPU3:user_app:(140) 0.000000] [s4bxi_main_actor/INFO] Setup with nid = 9, model_pci = 1 ; e2e_off = 0
[amour9_CPU4:user_app:(141) 0.000000] [s4bxi_main_actor/INFO] Setup with nid = 9, model_pci = 1 ; e2e_off = 0
[amour9_CPU5:user_app:(142) 0.000000] [s4bxi_main_actor/INFO] Setup with nid = 9, model_pci = 1 ; e2e_off = 0
[amour9_CPU6:user_app:(143) 0.000000] [s4bxi_main_actor/INFO] Setup with nid = 9, model_pci = 1 ; e2e_off = 0
[amour9_CPU7:user_app:(144) 0.000000] [s4bxi_main_actor/INFO] Setup with nid = 9, model_pci = 1 ; e2e_off = 0
[amour9_CPU8:user_app:(145) 0.000000] [s4bxi_main_actor/INFO] Setup with nid = 9, model_pci = 1 ; e2e_off = 0
[amour9_CPU9:user_app:(146) 0.000000] [s4bxi_main_actor/INFO] Setup with nid = 9, model_pci = 1 ; e2e_off = 0
[amour9_CPU10:user_app:(147) 0.000000] [s4bxi_main_actor/INFO] Setup with nid = 9, model_pci = 1 ; e2e_off = 0
[amour9_CPU11:user_app:(148) 0.000000] [s4bxi_main_actor/INFO] Setup with nid = 9, model_pci = 1 ; e2e_off = 0
[amour10_CPU0:user_app:(154) 0.000000] [s4bxi_main_actor/INFO] Setup with nid = 10, model_pci = 1 ; e2e_off = 0
[amour10_CPU1:user_app:(155) 0.000000] [s4bxi_main_actor/INFO] Setup with nid = 10, model_pci = 1 ; e2e_off = 0
[amour10_CPU2:user_app:(156) 0.000000] [s4bxi_main_actor/INFO] Setup with nid = 10, model_pci = 1 ; e2e_off = 0
[amour10_CPU3:user_app:(157) 0.000000] [s4bxi_main_actor/INFO] Setup with nid = 10, model_pci = 1 ; e2e_off = 0
[amour10_CPU4:user_app:(158) 0.000000] [s4bxi_main_actor/INFO] Setup with nid = 10, model_pci = 1 ; e2e_off = 0
[amour10_CPU5:user_app:(159) 0.000000] [s4bxi_main_actor/INFO] Setup with nid = 10, model_pci = 1 ; e2e_off = 0
[amour10_CPU6:user_app:(160) 0.000000] [s4bxi_main_actor/INFO] Setup with nid = 10, model_pci = 1 ; e2e_off = 0
[amour10_CPU7:user_app:(161) 0.000000] [s4bxi_main_actor/INFO] Setup with nid = 10, model_pci = 1 ; e2e_off = 0
[amour10_CPU8:user_app:(162) 0.000000] [s4bxi_main_actor/INFO] Setup with nid = 10, model_pci = 1 ; e2e_off = 0
[amour10_CPU9:user_app:(163) 0.000000] [s4bxi_main_actor/INFO] Setup with nid = 10, model_pci = 1 ; e2e_off = 0
[amour10_CPU10:user_app:(164) 0.000000] [s4bxi_main_actor/INFO] Setup with nid = 10, model_pci = 1 ; e2e_off = 0
[amour10_CPU11:user_app:(165) 0.000000] [s4bxi_main_actor/INFO] Setup with nid = 10, model_pci = 1 ; e2e_off = 0
[amour11_CPU0:user_app:(171) 0.000000] [s4bxi_main_actor/INFO] Setup with nid = 11, model_pci = 1 ; e2e_off = 0
[amour11_CPU1:user_app:(172) 0.000000] [s4bxi_main_actor/INFO] Setup with nid = 11, model_pci = 1 ; e2e_off = 0
[amour11_CPU2:user_app:(173) 0.000000] [s4bxi_main_actor/INFO] Setup with nid = 11, model_pci = 1 ; e2e_off = 0
[amour11_CPU3:user_app:(174) 0.000000] [s4bxi_main_actor/INFO] Setup with nid = 11, model_pci = 1 ; e2e_off = 0
[amour11_CPU4:user_app:(175) 0.000000] [s4bxi_main_actor/INFO] Setup with nid = 11, model_pci = 1 ; e2e_off = 0
[amour11_CPU5:user_app:(176) 0.000000] [s4bxi_main_actor/INFO] Setup with nid = 11, model_pci = 1 ; e2e_off = 0
[amour11_CPU6:user_app:(177) 0.000000] [s4bxi_main_actor/INFO] Setup with nid = 11, model_pci = 1 ; e2e_off = 0
[amour11_CPU7:user_app:(178) 0.000000] [s4bxi_main_actor/INFO] Setup with nid = 11, model_pci = 1 ; e2e_off = 0
[amour11_CPU8:user_app:(179) 0.000000] [s4bxi_main_actor/INFO] Setup with nid = 11, model_pci = 1 ; e2e_off = 0
[amour11_CPU9:user_app:(180) 0.000000] [s4bxi_main_actor/INFO] Setup with nid = 11, model_pci = 1 ; e2e_off = 0
[amour11_CPU10:user_app:(181) 0.000000] [s4bxi_main_actor/INFO] Setup with nid = 11, model_pci = 1 ; e2e_off = 0
[amour11_CPU11:user_app:(182) 0.000000] [s4bxi_main_actor/INFO] Setup with nid = 11, model_pci = 1 ; e2e_off = 0
[amour12_CPU0:user_app:(188) 0.000000] [s4bxi_main_actor/INFO] Setup with nid = 12, model_pci = 1 ; e2e_off = 0
[amour12_CPU1:user_app:(189) 0.000000] [s4bxi_main_actor/INFO] Setup with nid = 12, model_pci = 1 ; e2e_off = 0
[amour12_CPU2:user_app:(190) 0.000000] [s4bxi_main_actor/INFO] Setup with nid = 12, model_pci = 1 ; e2e_off = 0
[amour12_CPU3:user_app:(191) 0.000000] [s4bxi_main_actor/INFO] Setup with nid = 12, model_pci = 1 ; e2e_off = 0
[amour12_CPU4:user_app:(192) 0.000000] [s4bxi_main_actor/INFO] Setup with nid = 12, model_pci = 1 ; e2e_off = 0
[amour12_CPU5:user_app:(193) 0.000000] [s4bxi_main_actor/INFO] Setup with nid = 12, model_pci = 1 ; e2e_off = 0
[amour12_CPU6:user_app:(194) 0.000000] [s4bxi_main_actor/INFO] Setup with nid = 12, model_pci = 1 ; e2e_off = 0
[amour12_CPU7:user_app:(195) 0.000000] [s4bxi_main_actor/INFO] Setup with nid = 12, model_pci = 1 ; e2e_off = 0
[amour12_CPU8:user_app:(196) 0.000000] [s4bxi_main_actor/INFO] Setup with nid = 12, model_pci = 1 ; e2e_off = 0
[amour12_CPU9:user_app:(197) 0.000000] [s4bxi_main_actor/INFO] Setup with nid = 12, model_pci = 1 ; e2e_off = 0
[amour12_CPU10:user_app:(198) 0.000000] [s4bxi_main_actor/INFO] Setup with nid = 12, model_pci = 1 ; e2e_off = 0
[amour12_CPU11:user_app:(199) 0.000000] [s4bxi_main_actor/INFO] Setup with nid = 12, model_pci = 1 ; e2e_off = 0
[amour1_CPU0:user_app:(1) 0.000000] [user_app/INFO] Init rank 0 ; local_rank 0
[amour1_CPU1:user_app:(2) 0.000000] [user_app/INFO] Init rank 1 ; local_rank 1
[amour1_CPU2:user_app:(3) 0.000000] [user_app/INFO] Init rank 2 ; local_rank 2
[amour1_CPU3:user_app:(4) 0.000000] [user_app/INFO] Init rank 3 ; local_rank 3
[amour1_CPU4:user_app:(5) 0.000000] [user_app/INFO] Init rank 4 ; local_rank 4
[amour1_CPU5:user_app:(6) 0.000000] [user_app/INFO] Init rank 5 ; local_rank 5
[amour1_CPU6:user_app:(7) 0.000000] [user_app/INFO] Init rank 6 ; local_rank 6
[amour1_CPU7:user_app:(8) 0.000000] [user_app/INFO] Init rank 7 ; local_rank 7
[amour1_CPU8:user_app:(9) 0.000000] [user_app/INFO] Init rank 8 ; local_rank 8
[amour1_CPU9:user_app:(10) 0.000000] [user_app/INFO] Init rank 9 ; local_rank 9
[amour1_CPU10:user_app:(11) 0.000000] [user_app/INFO] Init rank 10 ; local_rank 10
[amour1_CPU11:user_app:(12) 0.000000] [user_app/INFO] Init rank 11 ; local_rank 11
[amour2_CPU0:user_app:(18) 0.000000] [user_app/INFO] Init rank 12 ; local_rank 0
[amour2_CPU1:user_app:(19) 0.000000] [user_app/INFO] Init rank 13 ; local_rank 1
[amour2_CPU2:user_app:(20) 0.000000] [user_app/INFO] Init rank 14 ; local_rank 2
[amour2_CPU3:user_app:(21) 0.000000] [user_app/INFO] Init rank 15 ; local_rank 3
[amour2_CPU4:user_app:(22) 0.000000] [user_app/INFO] Init rank 16 ; local_rank 4
[amour2_CPU5:user_app:(23) 0.000000] [user_app/INFO] Init rank 17 ; local_rank 5
[amour2_CPU6:user_app:(24) 0.000000] [user_app/INFO] Init rank 18 ; local_rank 6
[amour2_CPU7:user_app:(25) 0.000000] [user_app/INFO] Init rank 19 ; local_rank 7
[amour2_CPU8:user_app:(26) 0.000000] [user_app/INFO] Init rank 20 ; local_rank 8
[amour2_CPU9:user_app:(27) 0.000000] [user_app/INFO] Init rank 21 ; local_rank 9
[amour2_CPU10:user_app:(28) 0.000000] [user_app/INFO] Init rank 22 ; local_rank 10
[amour2_CPU11:user_app:(29) 0.000000] [user_app/INFO] Init rank 23 ; local_rank 11
[amour3_CPU0:user_app:(35) 0.000000] [user_app/INFO] Init rank 24 ; local_rank 0
[amour3_CPU1:user_app:(36) 0.000000] [user_app/INFO] Init rank 25 ; local_rank 1
[amour3_CPU2:user_app:(37) 0.000000] [user_app/INFO] Init rank 26 ; local_rank 2
[amour3_CPU3:user_app:(38) 0.000000] [user_app/INFO] Init rank 27 ; local_rank 3
[amour3_CPU4:user_app:(39) 0.000000] [user_app/INFO] Init rank 28 ; local_rank 4
[amour3_CPU5:user_app:(40) 0.000000] [user_app/INFO] Init rank 29 ; local_rank 5
[amour3_CPU6:user_app:(41) 0.000000] [user_app/INFO] Init rank 30 ; local_rank 6
[amour3_CPU7:user_app:(42) 0.000000] [user_app/INFO] Init rank 31 ; local_rank 7
[amour3_CPU8:user_app:(43) 0.000000] [user_app/INFO] Init rank 32 ; local_rank 8
[amour3_CPU9:user_app:(44) 0.000000] [user_app/INFO] Init rank 33 ; local_rank 9
[amour3_CPU10:user_app:(45) 0.000000] [user_app/INFO] Init rank 34 ; local_rank 10
[amour3_CPU11:user_app:(46) 0.000000] [user_app/INFO] Init rank 35 ; local_rank 11
[amour4_CPU0:user_app:(52) 0.000000] [user_app/INFO] Init rank 36 ; local_rank 0
[amour4_CPU1:user_app:(53) 0.000000] [user_app/INFO] Init rank 37 ; local_rank 1
[amour4_CPU2:user_app:(54) 0.000000] [user_app/INFO] Init rank 38 ; local_rank 2
[amour4_CPU3:user_app:(55) 0.000000] [user_app/INFO] Init rank 39 ; local_rank 3
[amour4_CPU4:user_app:(56) 0.000000] [user_app/INFO] Init rank 40 ; local_rank 4
[amour4_CPU5:user_app:(57) 0.000000] [user_app/INFO] Init rank 41 ; local_rank 5
[amour4_CPU6:user_app:(58) 0.000000] [user_app/INFO] Init rank 42 ; local_rank 6
[amour4_CPU7:user_app:(59) 0.000000] [user_app/INFO] Init rank 43 ; local_rank 7
[amour4_CPU8:user_app:(60) 0.000000] [user_app/INFO] Init rank 44 ; local_rank 8
[amour4_CPU9:user_app:(61) 0.000000] [user_app/INFO] Init rank 45 ; local_rank 9
[amour4_CPU10:user_app:(62) 0.000000] [user_app/INFO] Init rank 46 ; local_rank 10
[amour4_CPU11:user_app:(63) 0.000000] [user_app/INFO] Init rank 47 ; local_rank 11
[amour5_CPU0:user_app:(69) 0.000000] [user_app/INFO] Init rank 48 ; local_rank 0
[amour5_CPU1:user_app:(70) 0.000000] [user_app/INFO] Init rank 49 ; local_rank 1
[amour5_CPU2:user_app:(71) 0.000000] [user_app/INFO] Init rank 50 ; local_rank 2
[amour5_CPU3:user_app:(72) 0.000000] [user_app/INFO] Init rank 51 ; local_rank 3
[amour5_CPU4:user_app:(73) 0.000000] [user_app/INFO] Init rank 52 ; local_rank 4
[amour5_CPU5:user_app:(74) 0.000000] [user_app/INFO] Init rank 53 ; local_rank 5
[amour5_CPU6:user_app:(75) 0.000000] [user_app/INFO] Init rank 54 ; local_rank 6
[amour5_CPU7:user_app:(76) 0.000000] [user_app/INFO] Init rank 55 ; local_rank 7
[amour5_CPU8:user_app:(77) 0.000000] [user_app/INFO] Init rank 56 ; local_rank 8
[amour5_CPU9:user_app:(78) 0.000000] [user_app/INFO] Init rank 57 ; local_rank 9
[amour5_CPU10:user_app:(79) 0.000000] [user_app/INFO] Init rank 58 ; local_rank 10
[amour5_CPU11:user_app:(80) 0.000000] [user_app/INFO] Init rank 59 ; local_rank 11
[amour6_CPU0:user_app:(86) 0.000000] [user_app/INFO] Init rank 60 ; local_rank 0
[amour6_CPU1:user_app:(87) 0.000000] [user_app/INFO] Init rank 61 ; local_rank 1
[amour6_CPU2:user_app:(88) 0.000000] [user_app/INFO] Init rank 62 ; local_rank 2
[amour6_CPU3:user_app:(89) 0.000000] [user_app/INFO] Init rank 63 ; local_rank 3
[amour6_CPU4:user_app:(90) 0.000000] [user_app/INFO] Init rank 64 ; local_rank 4
[amour6_CPU5:user_app:(91) 0.000000] [user_app/INFO] Init rank 65 ; local_rank 5
[amour6_CPU6:user_app:(92) 0.000000] [user_app/INFO] Init rank 66 ; local_rank 6
[amour6_CPU7:user_app:(93) 0.000000] [user_app/INFO] Init rank 67 ; local_rank 7
[amour6_CPU8:user_app:(94) 0.000000] [user_app/INFO] Init rank 68 ; local_rank 8
[amour6_CPU9:user_app:(95) 0.000000] [user_app/INFO] Init rank 69 ; local_rank 9
[amour6_CPU10:user_app:(96) 0.000000] [user_app/INFO] Init rank 70 ; local_rank 10
[amour6_CPU11:user_app:(97) 0.000000] [user_app/INFO] Init rank 71 ; local_rank 11
[amour7_CPU0:user_app:(103) 0.000000] [user_app/INFO] Init rank 72 ; local_rank 0
[amour7_CPU1:user_app:(104) 0.000000] [user_app/INFO] Init rank 73 ; local_rank 1
[amour7_CPU2:user_app:(105) 0.000000] [user_app/INFO] Init rank 74 ; local_rank 2
[amour7_CPU3:user_app:(106) 0.000000] [user_app/INFO] Init rank 75 ; local_rank 3
[amour7_CPU4:user_app:(107) 0.000000] [user_app/INFO] Init rank 76 ; local_rank 4
[amour7_CPU5:user_app:(108) 0.000000] [user_app/INFO] Init rank 77 ; local_rank 5
[amour7_CPU6:user_app:(109) 0.000000] [user_app/INFO] Init rank 78 ; local_rank 6
[amour7_CPU7:user_app:(110) 0.000000] [user_app/INFO] Init rank 79 ; local_rank 7
[amour7_CPU8:user_app:(111) 0.000000] [user_app/INFO] Init rank 80 ; local_rank 8
[amour7_CPU9:user_app:(112) 0.000000] [user_app/INFO] Init rank 81 ; local_rank 9
[amour7_CPU10:user_app:(113) 0.000000] [user_app/INFO] Init rank 82 ; local_rank 10
[amour7_CPU11:user_app:(114) 0.000000] [user_app/INFO] Init rank 83 ; local_rank 11
[amour8_CPU0:user_app:(120) 0.000000] [user_app/INFO] Init rank 84 ; local_rank 0
[amour8_CPU1:user_app:(121) 0.000000] [user_app/INFO] Init rank 85 ; local_rank 1
[amour8_CPU2:user_app:(122) 0.000000] [user_app/INFO] Init rank 86 ; local_rank 2
[amour8_CPU3:user_app:(123) 0.000000] [user_app/INFO] Init rank 87 ; local_rank 3
[amour8_CPU4:user_app:(124) 0.000000] [user_app/INFO] Init rank 88 ; local_rank 4
[amour8_CPU5:user_app:(125) 0.000000] [user_app/INFO] Init rank 89 ; local_rank 5
[amour8_CPU6:user_app:(126) 0.000000] [user_app/INFO] Init rank 90 ; local_rank 6
[amour8_CPU7:user_app:(127) 0.000000] [user_app/INFO] Init rank 91 ; local_rank 7
[amour8_CPU8:user_app:(128) 0.000000] [user_app/INFO] Init rank 92 ; local_rank 8
[amour8_CPU9:user_app:(129) 0.000000] [user_app/INFO] Init rank 93 ; local_rank 9
[amour8_CPU10:user_app:(130) 0.000000] [user_app/INFO] Init rank 94 ; local_rank 10
[amour8_CPU11:user_app:(131) 0.000000] [user_app/INFO] Init rank 95 ; local_rank 11
[amour9_CPU0:user_app:(137) 0.000000] [user_app/INFO] Init rank 96 ; local_rank 0
[amour9_CPU1:user_app:(138) 0.000000] [user_app/INFO] Init rank 97 ; local_rank 1
[amour9_CPU2:user_app:(139) 0.000000] [user_app/INFO] Init rank 98 ; local_rank 2
[amour9_CPU3:user_app:(140) 0.000000] [user_app/INFO] Init rank 99 ; local_rank 3
[amour9_CPU4:user_app:(141) 0.000000] [user_app/INFO] Init rank 100 ; local_rank 4
[amour9_CPU5:user_app:(142) 0.000000] [user_app/INFO] Init rank 101 ; local_rank 5
[amour9_CPU6:user_app:(143) 0.000000] [user_app/INFO] Init rank 102 ; local_rank 6
[amour9_CPU7:user_app:(144) 0.000000] [user_app/INFO] Init rank 103 ; local_rank 7
[amour9_CPU8:user_app:(145) 0.000000] [user_app/INFO] Init rank 104 ; local_rank 8
[amour9_CPU9:user_app:(146) 0.000000] [user_app/INFO] Init rank 105 ; local_rank 9
[amour9_CPU10:user_app:(147) 0.000000] [user_app/INFO] Init rank 106 ; local_rank 10
[amour9_CPU11:user_app:(148) 0.000000] [user_app/INFO] Init rank 107 ; local_rank 11
[amour10_CPU0:user_app:(154) 0.000000] [user_app/INFO] Init rank 108 ; local_rank 0
[amour10_CPU1:user_app:(155) 0.000000] [user_app/INFO] Init rank 109 ; local_rank 1
[amour10_CPU2:user_app:(156) 0.000000] [user_app/INFO] Init rank 110 ; local_rank 2
[amour10_CPU3:user_app:(157) 0.000000] [user_app/INFO] Init rank 111 ; local_rank 3
[amour10_CPU4:user_app:(158) 0.000000] [user_app/INFO] Init rank 112 ; local_rank 4
[amour10_CPU5:user_app:(159) 0.000000] [user_app/INFO] Init rank 113 ; local_rank 5
[amour10_CPU6:user_app:(160) 0.000000] [user_app/INFO] Init rank 114 ; local_rank 6
[amour10_CPU7:user_app:(161) 0.000000] [user_app/INFO] Init rank 115 ; local_rank 7
[amour10_CPU8:user_app:(162) 0.000000] [user_app/INFO] Init rank 116 ; local_rank 8
[amour10_CPU9:user_app:(163) 0.000000] [user_app/INFO] Init rank 117 ; local_rank 9
[amour10_CPU10:user_app:(164) 0.000000] [user_app/INFO] Init rank 118 ; local_rank 10
[amour10_CPU11:user_app:(165) 0.000000] [user_app/INFO] Init rank 119 ; local_rank 11
[amour11_CPU0:user_app:(171) 0.000000] [user_app/INFO] Init rank 120 ; local_rank 0
[amour11_CPU1:user_app:(172) 0.000000] [user_app/INFO] Init rank 121 ; local_rank 1
[amour11_CPU2:user_app:(173) 0.000000] [user_app/INFO] Init rank 122 ; local_rank 2
[amour11_CPU3:user_app:(174) 0.000000] [user_app/INFO] Init rank 123 ; local_rank 3
[amour11_CPU4:user_app:(175) 0.000000] [user_app/INFO] Init rank 124 ; local_rank 4
[amour11_CPU5:user_app:(176) 0.000000] [user_app/INFO] Init rank 125 ; local_rank 5
[amour11_CPU6:user_app:(177) 0.000000] [user_app/INFO] Init rank 126 ; local_rank 6
[amour11_CPU7:user_app:(178) 0.000000] [user_app/INFO] Init rank 127 ; local_rank 7
[amour11_CPU8:user_app:(179) 0.000000] [user_app/INFO] Init rank 128 ; local_rank 8
[amour11_CPU9:user_app:(180) 0.000000] [user_app/INFO] Init rank 129 ; local_rank 9
[amour11_CPU10:user_app:(181) 0.000000] [user_app/INFO] Init rank 130 ; local_rank 10
[amour11_CPU11:user_app:(182) 0.000000] [user_app/INFO] Init rank 131 ; local_rank 11
[amour12_CPU0:user_app:(188) 0.000000] [user_app/INFO] Init rank 132 ; local_rank 0
[amour12_CPU1:user_app:(189) 0.000000] [user_app/INFO] Init rank 133 ; local_rank 1
[amour12_CPU2:user_app:(190) 0.000000] [user_app/INFO] Init rank 134 ; local_rank 2
[amour12_CPU3:user_app:(191) 0.000000] [user_app/INFO] Init rank 135 ; local_rank 3
[amour12_CPU4:user_app:(192) 0.000000] [user_app/INFO] Init rank 136 ; local_rank 4
[amour12_CPU5:user_app:(193) 0.000000] [user_app/INFO] Init rank 137 ; local_rank 5
[amour12_CPU6:user_app:(194) 0.000000] [user_app/INFO] Init rank 138 ; local_rank 6
[amour12_CPU7:user_app:(195) 0.000000] [user_app/INFO] Init rank 139 ; local_rank 7
[amour12_CPU8:user_app:(196) 0.000000] [user_app/INFO] Init rank 140 ; local_rank 8
[amour12_CPU9:user_app:(197) 0.000000] [user_app/INFO] Init rank 141 ; local_rank 9
[amour12_CPU10:user_app:(198) 0.000000] [user_app/INFO] Init rank 142 ; local_rank 10
[amour12_CPU11:user_app:(199) 0.000000] [user_app/INFO] Init rank 143 ; local_rank 11
[amour1_NIC:nic_e2e:(17) 0.000000] [s4bxi_nic_e2e/INFO] E2E was configured with timeout = 10.000000 and retries = 5
[amour2_NIC:nic_e2e:(34) 0.000000] [s4bxi_nic_e2e/INFO] E2E was configured with timeout = 10.000000 and retries = 5
[amour3_NIC:nic_e2e:(51) 0.000000] [s4bxi_nic_e2e/INFO] E2E was configured with timeout = 10.000000 and retries = 5
[amour4_NIC:nic_e2e:(68) 0.000000] [s4bxi_nic_e2e/INFO] E2E was configured with timeout = 10.000000 and retries = 5
[amour5_NIC:nic_e2e:(85) 0.000000] [s4bxi_nic_e2e/INFO] E2E was configured with timeout = 10.000000 and retries = 5
[amour6_NIC:nic_e2e:(102) 0.000000] [s4bxi_nic_e2e/INFO] E2E was configured with timeout = 10.000000 and retries = 5
[amour7_NIC:nic_e2e:(119) 0.000000] [s4bxi_nic_e2e/INFO] E2E was configured with timeout = 10.000000 and retries = 5
[amour8_NIC:nic_e2e:(136) 0.000000] [s4bxi_nic_e2e/INFO] E2E was configured with timeout = 10.000000 and retries = 5
[amour9_NIC:nic_e2e:(153) 0.000000] [s4bxi_nic_e2e/INFO] E2E was configured with timeout = 10.000000 and retries = 5
[amour10_NIC:nic_e2e:(170) 0.000000] [s4bxi_nic_e2e/INFO] E2E was configured with timeout = 10.000000 and retries = 5
[amour11_NIC:nic_e2e:(187) 0.000000] [s4bxi_nic_e2e/INFO] E2E was configured with timeout = 10.000000 and retries = 5
[amour12_NIC:nic_e2e:(204) 0.000000] [s4bxi_nic_e2e/INFO] E2E was configured with timeout = 10.000000 and retries = 5
[amour1_CPU0:user_app:(1) 0.000000] [user_app/INFO] Extracting symbols from Bull lib 0x2e32a60 (gBQQqb0so.40) and SMPI lib 0x7f65883e36b0
[amour1_CPU1:user_app:(2) 0.000000] [user_app/INFO] Extracting symbols from Bull lib 0x2e37a80 (gBQQqb1so.40) and SMPI lib 0x7f65883e36b0
[amour1_CPU2:user_app:(3) 0.000000] [user_app/INFO] Extracting symbols from Bull lib 0x2e3a1e0 (gBQQqb2so.40) and SMPI lib 0x7f65883e36b0
[amour1_CPU3:user_app:(4) 0.000000] [user_app/INFO] Extracting symbols from Bull lib 0x2e3c850 (gBQQqb3so.40) and SMPI lib 0x7f65883e36b0
[amour1_CPU4:user_app:(5) 0.000000] [user_app/INFO] Extracting symbols from Bull lib 0x2e3f000 (gBQQqb4so.40) and SMPI lib 0x7f65883e36b0
[amour1_CPU5:user_app:(6) 0.000000] [user_app/INFO] Extracting symbols from Bull lib 0x2e41720 (gBQQqb5so.40) and SMPI lib 0x7f65883e36b0
[amour1_CPU6:user_app:(7) 0.000000] [user_app/INFO] Extracting symbols from Bull lib 0x2e43e40 (gBQQqb6so.40) and SMPI lib 0x7f65883e36b0
[amour1_CPU7:user_app:(8) 0.000000] [user_app/INFO] Extracting symbols from Bull lib 0x2e466e0 (gBQQqb7so.40) and SMPI lib 0x7f65883e36b0
[amour1_CPU8:user_app:(9) 0.000000] [user_app/INFO] Extracting symbols from Bull lib 0x2e49670 (gBQQqb8so.40) and SMPI lib 0x7f65883e36b0
[amour1_CPU9:user_app:(10) 0.000000] [user_app/INFO] Extracting symbols from Bull lib 0x2e4c0b0 (gBQQqb9so.40) and SMPI lib 0x7f65883e36b0
[amour1_CPU10:user_app:(11) 0.000000] [user_app/INFO] Extracting symbols from Bull lib 0x2e4eac0 (gBQQq10so.40) and SMPI lib 0x7f65883e36b0
[amour1_CPU11:user_app:(12) 0.000000] [user_app/INFO] Extracting symbols from Bull lib 0x2e51530 (gBQQq11so.40) and SMPI lib 0x7f65883e36b0
[amour2_CPU0:user_app:(18) 0.000000] [user_app/INFO] Extracting symbols from Bull lib 0x2e54240 (gBQQq12so.40) and SMPI lib 0x7f65883e36b0
[amour2_CPU1:user_app:(19) 0.000000] [user_app/INFO] Extracting symbols from Bull lib 0x2e56c80 (gBQQq13so.40) and SMPI lib 0x7f65883e36b0
[amour2_CPU2:user_app:(20) 0.000000] [user_app/INFO] Extracting symbols from Bull lib 0x2e596e0 (gBQQq14so.40) and SMPI lib 0x7f65883e36b0
[amour2_CPU3:user_app:(21) 0.000000] [user_app/INFO] Extracting symbols from Bull lib 0x2e5c4d0 (gBQQq15so.40) and SMPI lib 0x7f65883e36b0
[amour2_CPU4:user_app:(22) 0.000000] [user_app/INFO] Extracting symbols from Bull lib 0x2e5f9c0 (gBQQq16so.40) and SMPI lib 0x7f65883e36b0
[amour2_CPU5:user_app:(23) 0.000000] [user_app/INFO] Extracting symbols from Bull lib 0x2e624e0 (gBQQq17so.40) and SMPI lib 0x7f65883e36b0
[amour2_CPU6:user_app:(24) 0.000000] [user_app/INFO] Extracting symbols from Bull lib 0x2e65000 (gBQQq18so.40) and SMPI lib 0x7f65883e36b0
[amour2_CPU7:user_app:(25) 0.000000] [user_app/INFO] Extracting symbols from Bull lib 0x2e67b20 (gBQQq19so.40) and SMPI lib 0x7f65883e36b0
[amour2_CPU8:user_app:(26) 0.000000] [user_app/INFO] Extracting symbols from Bull lib 0x2e6a640 (gBQQq20so.40) and SMPI lib 0x7f65883e36b0
[amour2_CPU9:user_app:(27) 0.000000] [user_app/INFO] Extracting symbols from Bull lib 0x2e6d160 (gBQQq21so.40) and SMPI lib 0x7f65883e36b0
[amour2_CPU10:user_app:(28) 0.000000] [user_app/INFO] Extracting symbols from Bull lib 0x2e6fc80 (gBQQq22so.40) and SMPI lib 0x7f65883e36b0
[amour2_CPU11:user_app:(29) 0.000000] [user_app/INFO] Extracting symbols from Bull lib 0x2e727a0 (gBQQq23so.40) and SMPI lib 0x7f65883e36b0
[amour3_CPU0:user_app:(35) 0.000000] [user_app/INFO] Extracting symbols from Bull lib 0x2e75600 (gBQQq24so.40) and SMPI lib 0x7f65883e36b0
[amour3_CPU1:user_app:(36) 0.000000] [user_app/INFO] Extracting symbols from Bull lib 0x2e78120 (gBQQq25so.40) and SMPI lib 0x7f65883e36b0
[amour3_CPU2:user_app:(37) 0.000000] [user_app/INFO] Extracting symbols from Bull lib 0x2e7ac40 (gBQQq26so.40) and SMPI lib 0x7f65883e36b0
[amour3_CPU3:user_app:(38) 0.000000] [user_app/INFO] Extracting symbols from Bull lib 0x2e7d760 (gBQQq27so.40) and SMPI lib 0x7f65883e36b0
[amour3_CPU4:user_app:(39) 0.000000] [user_app/INFO] Extracting symbols from Bull lib 0x2e80280 (gBQQq28so.40) and SMPI lib 0x7f65883e36b0
[amour3_CPU5:user_app:(40) 0.000000] [user_app/INFO] Extracting symbols from Bull lib 0x2e82da0 (gBQQq29so.40) and SMPI lib 0x7f65883e36b0
[amour3_CPU6:user_app:(41) 0.000000] [user_app/INFO] Extracting symbols from Bull lib 0x2e858c0 (gBQQq30so.40) and SMPI lib 0x7f65883e36b0
[amour3_CPU7:user_app:(42) 0.000000] [user_app/INFO] Extracting symbols from Bull lib 0x2e885f0 (gBQQq31so.40) and SMPI lib 0x7f65883e36b0
[amour3_CPU8:user_app:(43) 0.000000] [user_app/INFO] Extracting symbols from Bull lib 0x2e8c560 (gBQQq32so.40) and SMPI lib 0x7f65883e36b0
[amour3_CPU9:user_app:(44) 0.000000] [user_app/INFO] Extracting symbols from Bull lib 0x2e8f080 (gBQQq33so.40) and SMPI lib 0x7f65883e36b0
[amour3_CPU10:user_app:(45) 0.000000] [user_app/INFO] Extracting symbols from Bull lib 0x2e91ba0 (gBQQq34so.40) and SMPI lib 0x7f65883e36b0
[amour3_CPU11:user_app:(46) 0.000000] [user_app/INFO] Extracting symbols from Bull lib 0x2e946c0 (gBQQq35so.40) and SMPI lib 0x7f65883e36b0
[amour4_CPU0:user_app:(52) 0.000000] [user_app/INFO] Extracting symbols from Bull lib 0x2e97520 (gBQQq36so.40) and SMPI lib 0x7f65883e36b0
[amour4_CPU1:user_app:(53) 0.000000] [user_app/INFO] Extracting symbols from Bull lib 0x2e9a040 (gBQQq37so.40) and SMPI lib 0x7f65883e36b0
[amour4_CPU2:user_app:(54) 0.000000] [user_app/INFO] Extracting symbols from Bull lib 0x2e9cb60 (gBQQq38so.40) and SMPI lib 0x7f65883e36b0
[amour4_CPU3:user_app:(55) 0.000000] [user_app/INFO] Extracting symbols from Bull lib 0x2e9f680 (gBQQq39so.40) and SMPI lib 0x7f65883e36b0
[amour4_CPU4:user_app:(56) 0.000000] [user_app/INFO] Extracting symbols from Bull lib 0x2ea21a0 (gBQQq40so.40) and SMPI lib 0x7f65883e36b0
[amour4_CPU5:user_app:(57) 0.000000] [user_app/INFO] Extracting symbols from Bull lib 0x2ea4cc0 (gBQQq41so.40) and SMPI lib 0x7f65883e36b0
[amour4_CPU6:user_app:(58) 0.000000] [user_app/INFO] Extracting symbols from Bull lib 0x2ea77e0 (gBQQq42so.40) and SMPI lib 0x7f65883e36b0
[amour4_CPU7:user_app:(59) 0.000000] [user_app/INFO] Extracting symbols from Bull lib 0x2eaa300 (gBQQq43so.40) and SMPI lib 0x7f65883e36b0
[amour4_CPU8:user_app:(60) 0.000000] [user_app/INFO] Extracting symbols from Bull lib 0x2eace20 (gBQQq44so.40) and SMPI lib 0x7f65883e36b0
[amour4_CPU9:user_app:(61) 0.000000] [user_app/INFO] Extracting symbols from Bull lib 0x2eaf940 (gBQQq45so.40) and SMPI lib 0x7f65883e36b0
[amour4_CPU10:user_app:(62) 0.000000] [user_app/INFO] Extracting symbols from Bull lib 0x2eb2460 (gBQQq46so.40) and SMPI lib 0x7f65883e36b0
[amour4_CPU11:user_app:(63) 0.000000] [user_app/INFO] Extracting symbols from Bull lib 0x2eb4f80 (gBQQq47so.40) and SMPI lib 0x7f65883e36b0
[amour5_CPU0:user_app:(69) 0.000000] [user_app/INFO] Extracting symbols from Bull lib 0x2eb7de0 (gBQQq48so.40) and SMPI lib 0x7f65883e36b0
[amour5_CPU1:user_app:(70) 0.000000] [user_app/INFO] Extracting symbols from Bull lib 0x2eba900 (gBQQq49so.40) and SMPI lib 0x7f65883e36b0
[amour5_CPU2:user_app:(71) 0.000000] [user_app/INFO] Extracting symbols from Bull lib 0x2ebd420 (gBQQq50so.40) and SMPI lib 0x7f65883e36b0
[amour5_CPU3:user_app:(72) 0.000000] [user_app/INFO] Extracting symbols from Bull lib 0x2ebff40 (gBQQq51so.40) and SMPI lib 0x7f65883e36b0
[amour5_CPU4:user_app:(73) 0.000000] [user_app/INFO] Extracting symbols from Bull lib 0x2ec2a60 (gBQQq52so.40) and SMPI lib 0x7f65883e36b0
[amour5_CPU5:user_app:(74) 0.000000] [user_app/INFO] Extracting symbols from Bull lib 0x2ec5580 (gBQQq53so.40) and SMPI lib 0x7f65883e36b0
[amour5_CPU6:user_app:(75) 0.000000] [user_app/INFO] Extracting symbols from Bull lib 0x2ec80a0 (gBQQq54so.40) and SMPI lib 0x7f65883e36b0
[amour5_CPU7:user_app:(76) 0.000000] [user_app/INFO] Extracting symbols from Bull lib 0x2ecabc0 (gBQQq55so.40) and SMPI lib 0x7f65883e36b0
[amour5_CPU8:user_app:(77) 0.000000] [user_app/INFO] Extracting symbols from Bull lib 0x2ecd6e0 (gBQQq56so.40) and SMPI lib 0x7f65883e36b0
[amour5_CPU9:user_app:(78) 0.000000] [user_app/INFO] Extracting symbols from Bull lib 0x2ed0200 (gBQQq57so.40) and SMPI lib 0x7f65883e36b0
[amour5_CPU10:user_app:(79) 0.000000] [user_app/INFO] Extracting symbols from Bull lib 0x2ed2d20 (gBQQq58so.40) and SMPI lib 0x7f65883e36b0
[amour5_CPU11:user_app:(80) 0.000000] [user_app/INFO] Extracting symbols from Bull lib 0x2ed5840 (gBQQq59so.40) and SMPI lib 0x7f65883e36b0
[amour6_CPU0:user_app:(86) 0.000000] [user_app/INFO] Extracting symbols from Bull lib 0x2ed86a0 (gBQQq60so.40) and SMPI lib 0x7f65883e36b0
[amour6_CPU1:user_app:(87) 0.000000] [user_app/INFO] Extracting symbols from Bull lib 0x2edb1c0 (gBQQq61so.40) and SMPI lib 0x7f65883e36b0
[amour6_CPU2:user_app:(88) 0.000000] [user_app/INFO] Extracting symbols from Bull lib 0x2eddce0 (gBQQq62so.40) and SMPI lib 0x7f65883e36b0
[amour6_CPU3:user_app:(89) 0.000000] [user_app/INFO] Extracting symbols from Bull lib 0x2ee1420 (gBQQq63so.40) and SMPI lib 0x7f65883e36b0
[amour6_CPU4:user_app:(90) 0.000000] [user_app/INFO] Extracting symbols from Bull lib 0x2ee6790 (gBQQq64so.40) and SMPI lib 0x7f65883e36b0
[amour6_CPU5:user_app:(91) 0.000000] [user_app/INFO] Extracting symbols from Bull lib 0x2ee92b0 (gBQQq65so.40) and SMPI lib 0x7f65883e36b0
[amour6_CPU6:user_app:(92) 0.000000] [user_app/INFO] Extracting symbols from Bull lib 0x2eebdd0 (gBQQq66so.40) and SMPI lib 0x7f65883e36b0
[amour6_CPU7:user_app:(93) 0.000000] [user_app/INFO] Extracting symbols from Bull lib 0x2eee8f0 (gBQQq67so.40) and SMPI lib 0x7f65883e36b0
[amour6_CPU8:user_app:(94) 0.000000] [user_app/INFO] Extracting symbols from Bull lib 0x2ef1410 (gBQQq68so.40) and SMPI lib 0x7f65883e36b0
[amour6_CPU9:user_app:(95) 0.000000] [user_app/INFO] Extracting symbols from Bull lib 0x2ef3f30 (gBQQq69so.40) and SMPI lib 0x7f65883e36b0
[amour6_CPU10:user_app:(96) 0.000000] [user_app/INFO] Extracting symbols from Bull lib 0x2ef6a50 (gBQQq70so.40) and SMPI lib 0x7f65883e36b0
[amour6_CPU11:user_app:(97) 0.000000] [user_app/INFO] Extracting symbols from Bull lib 0x2ef9570 (gBQQq71so.40) and SMPI lib 0x7f65883e36b0
[amour7_CPU0:user_app:(103) 0.000000] [user_app/INFO] Extracting symbols from Bull lib 0x2efc3d0 (gBQQq72so.40) and SMPI lib 0x7f65883e36b0
[amour7_CPU1:user_app:(104) 0.000000] [user_app/INFO] Extracting symbols from Bull lib 0x2efeef0 (gBQQq73so.40) and SMPI lib 0x7f65883e36b0
[amour7_CPU2:user_app:(105) 0.000000] [user_app/INFO] Extracting symbols from Bull lib 0x2f01a10 (gBQQq74so.40) and SMPI lib 0x7f65883e36b0
[amour7_CPU3:user_app:(106) 0.000000] [user_app/INFO] Extracting symbols from Bull lib 0x2f04530 (gBQQq75so.40) and SMPI lib 0x7f65883e36b0
[amour7_CPU4:user_app:(107) 0.000000] [user_app/INFO] Extracting symbols from Bull lib 0x2f07050 (gBQQq76so.40) and SMPI lib 0x7f65883e36b0
[amour7_CPU5:user_app:(108) 0.000000] [user_app/INFO] Extracting symbols from Bull lib 0x2f09b70 (gBQQq77so.40) and SMPI lib 0x7f65883e36b0
[amour7_CPU6:user_app:(109) 0.000000] [user_app/INFO] Extracting symbols from Bull lib 0x2f0c690 (gBQQq78so.40) and SMPI lib 0x7f65883e36b0
[amour7_CPU7:user_app:(110) 0.000000] [user_app/INFO] Extracting symbols from Bull lib 0x2f0f1b0 (gBQQq79so.40) and SMPI lib 0x7f65883e36b0
[amour7_CPU8:user_app:(111) 0.000000] [user_app/INFO] Extracting symbols from Bull lib 0x2f11cd0 (gBQQq80so.40) and SMPI lib 0x7f65883e36b0
[amour7_CPU9:user_app:(112) 0.000000] [user_app/INFO] Extracting symbols from Bull lib 0x2f147f0 (gBQQq81so.40) and SMPI lib 0x7f65883e36b0
[amour7_CPU10:user_app:(113) 0.000000] [user_app/INFO] Extracting symbols from Bull lib 0x2f17310 (gBQQq82so.40) and SMPI lib 0x7f65883e36b0
[amour7_CPU11:user_app:(114) 0.000000] [user_app/INFO] Extracting symbols from Bull lib 0x2f19e30 (gBQQq83so.40) and SMPI lib 0x7f65883e36b0
[amour8_CPU0:user_app:(120) 0.000000] [user_app/INFO] Extracting symbols from Bull lib 0x2f1cc90 (gBQQq84so.40) and SMPI lib 0x7f65883e36b0
[amour8_CPU1:user_app:(121) 0.000000] [user_app/INFO] Extracting symbols from Bull lib 0x2f1f7b0 (gBQQq85so.40) and SMPI lib 0x7f65883e36b0
[amour8_CPU2:user_app:(122) 0.000000] [user_app/INFO] Extracting symbols from Bull lib 0x2f222d0 (gBQQq86so.40) and SMPI lib 0x7f65883e36b0
[amour8_CPU3:user_app:(123) 0.000000] [user_app/INFO] Extracting symbols from Bull lib 0x2f24df0 (gBQQq87so.40) and SMPI lib 0x7f65883e36b0
[amour8_CPU4:user_app:(124) 0.000000] [user_app/INFO] Extracting symbols from Bull lib 0x2f27910 (gBQQq88so.40) and SMPI lib 0x7f65883e36b0
[amour8_CPU5:user_app:(125) 0.000000] [user_app/INFO] Extracting symbols from Bull lib 0x2f2a430 (gBQQq89so.40) and SMPI lib 0x7f65883e36b0
[amour8_CPU6:user_app:(126) 0.000000] [user_app/INFO] Extracting symbols from Bull lib 0x2f2cf50 (gBQQq90so.40) and SMPI lib 0x7f65883e36b0
[amour8_CPU7:user_app:(127) 0.000000] [user_app/INFO] Extracting symbols from Bull lib 0x2f2fa70 (gBQQq91so.40) and SMPI lib 0x7f65883e36b0
[amour8_CPU8:user_app:(128) 0.000000] [user_app/INFO] Extracting symbols from Bull lib 0x2f32590 (gBQQq92so.40) and SMPI lib 0x7f65883e36b0
[amour8_CPU9:user_app:(129) 0.000000] [user_app/INFO] Extracting symbols from Bull lib 0x2f350b0 (gBQQq93so.40) and SMPI lib 0x7f65883e36b0
[amour8_CPU10:user_app:(130) 0.000000] [user_app/INFO] Extracting symbols from Bull lib 0x2f37bd0 (gBQQq94so.40) and SMPI lib 0x7f65883e36b0
[amour8_CPU11:user_app:(131) 0.000000] [user_app/INFO] Extracting symbols from Bull lib 0x2f3a6f0 (gBQQq95so.40) and SMPI lib 0x7f65883e36b0
[amour9_CPU0:user_app:(137) 0.000000] [user_app/INFO] Extracting symbols from Bull lib 0x2f3d550 (gBQQq96so.40) and SMPI lib 0x7f65883e36b0
[amour9_CPU1:user_app:(138) 0.000000] [user_app/INFO] Extracting symbols from Bull lib 0x2f40070 (gBQQq97so.40) and SMPI lib 0x7f65883e36b0
[amour9_CPU2:user_app:(139) 0.000000] [user_app/INFO] Extracting symbols from Bull lib 0x2f42b90 (gBQQq98so.40) and SMPI lib 0x7f65883e36b0
[amour9_CPU3:user_app:(140) 0.000000] [user_app/INFO] Extracting symbols from Bull lib 0x2f456b0 (gBQQq99so.40) and SMPI lib 0x7f65883e36b0
[amour9_CPU4:user_app:(141) 0.000000] [user_app/INFO] Extracting symbols from Bull lib 0x2f481f0 (gBQQ100so.40) and SMPI lib 0x7f65883e36b0
[amour9_CPU5:user_app:(142) 0.000000] [user_app/INFO] Extracting symbols from Bull lib 0x2f4ad40 (gBQQ101so.40) and SMPI lib 0x7f65883e36b0
[amour9_CPU6:user_app:(143) 0.000000] [user_app/INFO] Extracting symbols from Bull lib 0x2f4d890 (gBQQ102so.40) and SMPI lib 0x7f65883e36b0
[amour9_CPU7:user_app:(144) 0.000000] [user_app/INFO] Extracting symbols from Bull lib 0x2f503e0 (gBQQ103so.40) and SMPI lib 0x7f65883e36b0
[amour9_CPU8:user_app:(145) 0.000000] [user_app/INFO] Extracting symbols from Bull lib 0x2f52f30 (gBQQ104so.40) and SMPI lib 0x7f65883e36b0
[amour9_CPU9:user_app:(146) 0.000000] [user_app/INFO] Extracting symbols from Bull lib 0x2f55a80 (gBQQ105so.40) and SMPI lib 0x7f65883e36b0
[amour9_CPU10:user_app:(147) 0.000000] [user_app/INFO] Extracting symbols from Bull lib 0x2f585d0 (gBQQ106so.40) and SMPI lib 0x7f65883e36b0
[amour9_CPU11:user_app:(148) 0.000000] [user_app/INFO] Extracting symbols from Bull lib 0x2f5b120 (gBQQ107so.40) and SMPI lib 0x7f65883e36b0
[amour10_CPU0:user_app:(154) 0.000000] [user_app/INFO] Extracting symbols from Bull lib 0x2f5dfb0 (gBQQ108so.40) and SMPI lib 0x7f65883e36b0
[amour10_CPU1:user_app:(155) 0.000000] [user_app/INFO] Extracting symbols from Bull lib 0x2f60b00 (gBQQ109so.40) and SMPI lib 0x7f65883e36b0
[amour10_CPU2:user_app:(156) 0.000000] [user_app/INFO] Extracting symbols from Bull lib 0x2f63650 (gBQQ110so.40) and SMPI lib 0x7f65883e36b0
[amour10_CPU3:user_app:(157) 0.000000] [user_app/INFO] Extracting symbols from Bull lib 0x2f661a0 (gBQQ111so.40) and SMPI lib 0x7f65883e36b0
[amour10_CPU4:user_app:(158) 0.000000] [user_app/INFO] Extracting symbols from Bull lib 0x2f68cf0 (gBQQ112so.40) and SMPI lib 0x7f65883e36b0
[amour10_CPU5:user_app:(159) 0.000000] [user_app/INFO] Extracting symbols from Bull lib 0x2f6b840 (gBQQ113so.40) and SMPI lib 0x7f65883e36b0
[amour10_CPU6:user_app:(160) 0.000000] [user_app/INFO] Extracting symbols from Bull lib 0x2f6e390 (gBQQ114so.40) and SMPI lib 0x7f65883e36b0
[amour10_CPU7:user_app:(161) 0.000000] [user_app/INFO] Extracting symbols from Bull lib 0x2f70ee0 (gBQQ115so.40) and SMPI lib 0x7f65883e36b0
[amour10_CPU8:user_app:(162) 0.000000] [user_app/INFO] Extracting symbols from Bull lib 0x2f73a30 (gBQQ116so.40) and SMPI lib 0x7f65883e36b0
[amour10_CPU9:user_app:(163) 0.000000] [user_app/INFO] Extracting symbols from Bull lib 0x2f76580 (gBQQ117so.40) and SMPI lib 0x7f65883e36b0
[amour10_CPU10:user_app:(164) 0.000000] [user_app/INFO] Extracting symbols from Bull lib 0x2f790d0 (gBQQ118so.40) and SMPI lib 0x7f65883e36b0
[amour10_CPU11:user_app:(165) 0.000000] [user_app/INFO] Extracting symbols from Bull lib 0x2f7bc20 (gBQQ119so.40) and SMPI lib 0x7f65883e36b0
[amour11_CPU0:user_app:(171) 0.000000] [user_app/INFO] Extracting symbols from Bull lib 0x2f7eab0 (gBQQ120so.40) and SMPI lib 0x7f65883e36b0
[amour11_CPU1:user_app:(172) 0.000000] [user_app/INFO] Extracting symbols from Bull lib 0x2f81600 (gBQQ121so.40) and SMPI lib 0x7f65883e36b0
[amour11_CPU2:user_app:(173) 0.000000] [user_app/INFO] Extracting symbols from Bull lib 0x2f84150 (gBQQ122so.40) and SMPI lib 0x7f65883e36b0
[amour11_CPU3:user_app:(174) 0.000000] [user_app/INFO] Extracting symbols from Bull lib 0x2f86ca0 (gBQQ123so.40) and SMPI lib 0x7f65883e36b0
[amour11_CPU4:user_app:(175) 0.000000] [user_app/INFO] Extracting symbols from Bull lib 0x2f897f0 (gBQQ124so.40) and SMPI lib 0x7f65883e36b0
[amour11_CPU5:user_app:(176) 0.000000] [user_app/INFO] Extracting symbols from Bull lib 0x2f8c340 (gBQQ125so.40) and SMPI lib 0x7f65883e36b0
[amour11_CPU6:user_app:(177) 0.000000] [user_app/INFO] Extracting symbols from Bull lib 0x2f8ee90 (gBQQ126so.40) and SMPI lib 0x7f65883e36b0
[amour11_CPU7:user_app:(178) 0.000000] [user_app/INFO] Extracting symbols from Bull lib 0x2f92a00 (gBQQ127so.40) and SMPI lib 0x7f65883e36b0
[amour11_CPU8:user_app:(179) 0.000000] [user_app/INFO] Extracting symbols from Bull lib 0x2f97d80 (gBQQ128so.40) and SMPI lib 0x7f65883e36b0
[amour11_CPU9:user_app:(180) 0.000000] [user_app/INFO] Extracting symbols from Bull lib 0x2f9a8d0 (gBQQ129so.40) and SMPI lib 0x7f65883e36b0
[amour11_CPU10:user_app:(181) 0.000000] [user_app/INFO] Extracting symbols from Bull lib 0x2f9d420 (gBQQ130so.40) and SMPI lib 0x7f65883e36b0
[amour11_CPU11:user_app:(182) 0.000000] [user_app/INFO] Extracting symbols from Bull lib 0x2f9ff70 (gBQQ131so.40) and SMPI lib 0x7f65883e36b0
[amour12_CPU0:user_app:(188) 0.000000] [user_app/INFO] Extracting symbols from Bull lib 0x2fa2e00 (gBQQ132so.40) and SMPI lib 0x7f65883e36b0
[amour12_CPU1:user_app:(189) 0.000000] [user_app/INFO] Extracting symbols from Bull lib 0x2fa5950 (gBQQ133so.40) and SMPI lib 0x7f65883e36b0
[amour12_CPU2:user_app:(190) 0.000000] [user_app/INFO] Extracting symbols from Bull lib 0x2fa84a0 (gBQQ134so.40) and SMPI lib 0x7f65883e36b0
[amour12_CPU3:user_app:(191) 0.000000] [user_app/INFO] Extracting symbols from Bull lib 0x2faaff0 (gBQQ135so.40) and SMPI lib 0x7f65883e36b0
[amour12_CPU4:user_app:(192) 0.000000] [user_app/INFO] Extracting symbols from Bull lib 0x2fadb40 (gBQQ136so.40) and SMPI lib 0x7f65883e36b0
[amour12_CPU5:user_app:(193) 0.000000] [user_app/INFO] Extracting symbols from Bull lib 0x2fb0690 (gBQQ137so.40) and SMPI lib 0x7f65883e36b0
[amour12_CPU6:user_app:(194) 0.000000] [user_app/INFO] Extracting symbols from Bull lib 0x2fb31e0 (gBQQ138so.40) and SMPI lib 0x7f65883e36b0
[amour12_CPU7:user_app:(195) 0.000000] [user_app/INFO] Extracting symbols from Bull lib 0x2fb5d30 (gBQQ139so.40) and SMPI lib 0x7f65883e36b0
[amour12_CPU8:user_app:(196) 0.000000] [user_app/INFO] Extracting symbols from Bull lib 0x2fb8880 (gBQQ140so.40) and SMPI lib 0x7f65883e36b0
[amour12_CPU9:user_app:(197) 0.000000] [user_app/INFO] Extracting symbols from Bull lib 0x2fbb3d0 (gBQQ141so.40) and SMPI lib 0x7f65883e36b0
[amour12_CPU10:user_app:(198) 0.000000] [user_app/INFO] Extracting symbols from Bull lib 0x2fbdf20 (gBQQ142so.40) and SMPI lib 0x7f65883e36b0
[amour12_CPU11:user_app:(199) 0.000000] [user_app/INFO] Extracting symbols from Bull lib 0x2fc0a70 (gBQQ143so.40) and SMPI lib 0x7f65883e36b0
[amour1_NIC:nic_e2e:(17) 14.761592] [s4bxi_nic_e2e/INFO] Retried 0 times, gave up 0 times
[amour2_NIC:nic_e2e:(34) 14.761592] [s4bxi_nic_e2e/INFO] Retried 0 times, gave up 0 times
[amour3_NIC:nic_e2e:(51) 14.761592] [s4bxi_nic_e2e/INFO] Retried 0 times, gave up 0 times
[amour4_NIC:nic_e2e:(68) 14.761592] [s4bxi_nic_e2e/INFO] Retried 0 times, gave up 0 times
[amour10_NIC:nic_e2e:(170) 14.761592] [s4bxi_nic_e2e/INFO] Retried 0 times, gave up 0 times
[amour5_NIC:nic_e2e:(85) 14.761592] [s4bxi_nic_e2e/INFO] Retried 0 times, gave up 0 times
[amour6_NIC:nic_e2e:(102) 14.761592] [s4bxi_nic_e2e/INFO] Retried 0 times, gave up 0 times
[amour7_NIC:nic_e2e:(119) 14.761592] [s4bxi_nic_e2e/INFO] Retried 0 times, gave up 0 times
[amour8_NIC:nic_e2e:(136) 14.761592] [s4bxi_nic_e2e/INFO] Retried 0 times, gave up 0 times
[amour9_NIC:nic_e2e:(153) 14.761592] [s4bxi_nic_e2e/INFO] Retried 0 times, gave up 0 times
[amour11_NIC:nic_e2e:(187) 14.761592] [s4bxi_nic_e2e/INFO] Retried 0 times, gave up 0 times
[amour12_NIC:nic_e2e:(204) 14.761592] [s4bxi_nic_e2e/INFO] Retried 0 times, gave up 0 times

real	5m21.956s
user	3m55.413s
sys	0m31.732s
