[0.000000] [xbt_cfg/INFO] Configuration change: Set 'smpi/cpu-threshold' to '1e-9'
[0.000000] [xbt_cfg/INFO] Configuration change: Set 'smpi/host-speed' to '10000Mf'
[0.000000] [xbt_cfg/INFO] Configuration change: Set 'surf/precision' to '1e-9'
[0.000000] [xbt_cfg/INFO] Configuration change: Set 'network/loopback-lat' to '0'
[0.000000] [xbt_cfg/INFO] Configuration change: Set 'network/loopback-bw' to '999e9'
[0.000000] [xbt_cfg/INFO] Configuration change: Set 'network/model' to 'CM02'
[0.000000] [xbt_cfg/INFO] Configuration change: Set 'smpi/os' to '0:2.2617745265427535e-06:2.703352029721588e-10;392:2.8385604119907807e-06:1.1264760290330328e-10;32712:0.0:0.0;186836:0.0:0.0;1538469:0.0:0.0'
[0.000000] [xbt_cfg/INFO] Configuration change: Set 'smpi/or' to '0:4.879281137093516e-07:2.2618415203462987e-10;392:5.779857092751072e-07:3.8094447278873e-11;32712:0.0:0.0;186836:0.0:0.0;1538469:0.0:0.0'
[0.000000] [xbt_cfg/INFO] Configuration change: Set 'smpi/ois' to '0:5.673519212129521e-07:7.174648137343064e-43;392:5.446695252027938e-07:1.9686168165027744e-11;32712:5.536713106693264e-07:5.082661224033066e-13;186836:5.49289659548938e-07:3.189291810074661e-14;1538469:4.306002121584747e-07:4.21325930847998e-14'
[0.000000] [xbt_cfg/INFO] Configuration change: Set 'smpi/bw-factor' to '0:0.2699228069054274;392:0.7647794357220394;32712:0.9664149337828888;186836:0.9243880418172589;1538469:0.9732858005841204'
[0.000000] [xbt_cfg/INFO] Configuration change: Set 'smpi/lat-factor' to '0:2.7676182391675814;392:3.9432860784637396;32712:10.117401654450653;186836:7.810638891189083;1538469:18.84747638996546'
[0.000000] [xbt_cfg/INFO] Configuration change: Set 'smpi/async-small-thresh' to '32712'
[0.000000] [xbt_cfg/INFO] Configuration change: Set 'smpi/send-is-detached-thresh' to '32712'
[0.000000] [xbt_cfg/INFO] Configuration change: Set 'smpi/iprobe' to '1.9586518031175638e-07'
[0.000000] [xbt_cfg/INFO] Configuration change: Set 'smpi/test' to '1.1523121197560569e-07'
[0.000000] [xbt_cfg/INFO] Configuration change: Set 'smpi/coll-selector' to 'ompi'
[0.000000] [smpi_coll/INFO] Switch to algorithm ompi for collective gather
[0.000000] [smpi_coll/INFO] Switch to algorithm ompi for collective allgather
[0.000000] [smpi_coll/INFO] Switch to algorithm ompi for collective allgatherv
[0.000000] [smpi_coll/INFO] Switch to algorithm ompi for collective allreduce
[0.000000] [smpi_coll/INFO] Switch to algorithm ompi for collective alltoall
[0.000000] [smpi_coll/INFO] Switch to algorithm ompi for collective alltoallv
[0.000000] [smpi_coll/INFO] Switch to algorithm ompi for collective reduce
[0.000000] [smpi_coll/INFO] Switch to algorithm ompi for collective reduce_scatter
[0.000000] [smpi_coll/INFO] Switch to algorithm ompi for collective scatter
[0.000000] [smpi_coll/INFO] Switch to algorithm ompi for collective bcast
[0.000000] [smpi_coll/INFO] Switch to algorithm ompi for collective barrier
[0.000000] [smpi_coll/INFO] Switch to algorithm ompi for collective gather
[0.000000] [smpi_coll/INFO] Switch to algorithm ompi for collective allgather
[0.000000] [smpi_coll/INFO] Switch to algorithm ompi for collective allgatherv
[0.000000] [smpi_coll/INFO] Switch to algorithm ompi for collective allreduce
[0.000000] [smpi_coll/INFO] Switch to algorithm ompi for collective alltoall
[0.000000] [smpi_coll/INFO] Switch to algorithm ompi for collective alltoallv
[0.000000] [smpi_coll/INFO] Switch to algorithm ompi for collective reduce
[0.000000] [smpi_coll/INFO] Switch to algorithm ompi for collective reduce_scatter
[0.000000] [smpi_coll/INFO] Switch to algorithm ompi for collective scatter
[0.000000] [smpi_coll/INFO] Switch to algorithm ompi for collective bcast
[0.000000] [smpi_coll/INFO] Switch to algorithm ompi for collective barrier
[amour1_CPU0:user_app:(1) 0.000000] [s4bxi_main_actor/INFO] Setup with nid = 1, model_pci = 1 ; e2e_off = 0
[amour1_CPU1:user_app:(2) 0.000000] [s4bxi_main_actor/INFO] Setup with nid = 1, model_pci = 1 ; e2e_off = 0
[amour1_CPU2:user_app:(3) 0.000000] [s4bxi_main_actor/INFO] Setup with nid = 1, model_pci = 1 ; e2e_off = 0
[amour1_CPU3:user_app:(4) 0.000000] [s4bxi_main_actor/INFO] Setup with nid = 1, model_pci = 1 ; e2e_off = 0
[amour2_CPU0:user_app:(10) 0.000000] [s4bxi_main_actor/INFO] Setup with nid = 2, model_pci = 1 ; e2e_off = 0
[amour2_CPU1:user_app:(11) 0.000000] [s4bxi_main_actor/INFO] Setup with nid = 2, model_pci = 1 ; e2e_off = 0
[amour2_CPU2:user_app:(12) 0.000000] [s4bxi_main_actor/INFO] Setup with nid = 2, model_pci = 1 ; e2e_off = 0
[amour2_CPU3:user_app:(13) 0.000000] [s4bxi_main_actor/INFO] Setup with nid = 2, model_pci = 1 ; e2e_off = 0
[amour3_CPU0:user_app:(19) 0.000000] [s4bxi_main_actor/INFO] Setup with nid = 3, model_pci = 1 ; e2e_off = 0
[amour3_CPU1:user_app:(20) 0.000000] [s4bxi_main_actor/INFO] Setup with nid = 3, model_pci = 1 ; e2e_off = 0
[amour3_CPU2:user_app:(21) 0.000000] [s4bxi_main_actor/INFO] Setup with nid = 3, model_pci = 1 ; e2e_off = 0
[amour3_CPU3:user_app:(22) 0.000000] [s4bxi_main_actor/INFO] Setup with nid = 3, model_pci = 1 ; e2e_off = 0
[amour4_CPU0:user_app:(28) 0.000000] [s4bxi_main_actor/INFO] Setup with nid = 4, model_pci = 1 ; e2e_off = 0
[amour4_CPU1:user_app:(29) 0.000000] [s4bxi_main_actor/INFO] Setup with nid = 4, model_pci = 1 ; e2e_off = 0
[amour4_CPU2:user_app:(30) 0.000000] [s4bxi_main_actor/INFO] Setup with nid = 4, model_pci = 1 ; e2e_off = 0
[amour4_CPU3:user_app:(31) 0.000000] [s4bxi_main_actor/INFO] Setup with nid = 4, model_pci = 1 ; e2e_off = 0
[amour1_CPU0:user_app:(1) 0.000000] [user_app/INFO] Init rank 0 ; local_rank 0
[amour1_CPU1:user_app:(2) 0.000000] [user_app/INFO] Init rank 1 ; local_rank 1
[amour1_CPU2:user_app:(3) 0.000000] [user_app/INFO] Init rank 2 ; local_rank 2
[amour1_CPU3:user_app:(4) 0.000000] [user_app/INFO] Init rank 3 ; local_rank 3
[amour2_CPU0:user_app:(10) 0.000000] [user_app/INFO] Init rank 4 ; local_rank 0
[amour2_CPU1:user_app:(11) 0.000000] [user_app/INFO] Init rank 5 ; local_rank 1
[amour2_CPU2:user_app:(12) 0.000000] [user_app/INFO] Init rank 6 ; local_rank 2
[amour2_CPU3:user_app:(13) 0.000000] [user_app/INFO] Init rank 7 ; local_rank 3
[amour3_CPU0:user_app:(19) 0.000000] [user_app/INFO] Init rank 8 ; local_rank 0
[amour3_CPU1:user_app:(20) 0.000000] [user_app/INFO] Init rank 9 ; local_rank 1
[amour3_CPU2:user_app:(21) 0.000000] [user_app/INFO] Init rank 10 ; local_rank 2
[amour3_CPU3:user_app:(22) 0.000000] [user_app/INFO] Init rank 11 ; local_rank 3
[amour4_CPU0:user_app:(28) 0.000000] [user_app/INFO] Init rank 12 ; local_rank 0
[amour4_CPU1:user_app:(29) 0.000000] [user_app/INFO] Init rank 13 ; local_rank 1
[amour4_CPU2:user_app:(30) 0.000000] [user_app/INFO] Init rank 14 ; local_rank 2
[amour4_CPU3:user_app:(31) 0.000000] [user_app/INFO] Init rank 15 ; local_rank 3
[amour1_NIC:nic_e2e:(9) 0.000000] [s4bxi_nic_e2e/INFO] E2E was configured with timeout = 10.000000 and retries = 5
[amour2_NIC:nic_e2e:(18) 0.000000] [s4bxi_nic_e2e/INFO] E2E was configured with timeout = 10.000000 and retries = 5
[amour3_NIC:nic_e2e:(27) 0.000000] [s4bxi_nic_e2e/INFO] E2E was configured with timeout = 10.000000 and retries = 5
[amour4_NIC:nic_e2e:(36) 0.000000] [s4bxi_nic_e2e/INFO] E2E was configured with timeout = 10.000000 and retries = 5
[amour1_CPU0:user_app:(1) 0.000000] [user_app/INFO] Extracting symbols from Bull lib 0x13d2e40 (hPyiBX0so.40) and SMPI lib 0x7fa6ef42c850
[amour1_CPU1:user_app:(2) 0.000000] [user_app/INFO] Extracting symbols from Bull lib 0x13d7380 (hPyiBX1so.40) and SMPI lib 0x7fa6ef42c850
[amour1_CPU2:user_app:(3) 0.000000] [user_app/INFO] Extracting symbols from Bull lib 0x13d9d40 (hPyiBX2so.40) and SMPI lib 0x7fa6ef42c850
[amour1_CPU3:user_app:(4) 0.000000] [user_app/INFO] Extracting symbols from Bull lib 0x13dc660 (hPyiBX3so.40) and SMPI lib 0x7fa6ef42c850
[amour2_CPU0:user_app:(10) 0.000000] [user_app/INFO] Extracting symbols from Bull lib 0x13df120 (hPyiBX4so.40) and SMPI lib 0x7fa6ef42c850
[amour2_CPU1:user_app:(11) 0.000000] [user_app/INFO] Extracting symbols from Bull lib 0x13e1a80 (hPyiBX5so.40) and SMPI lib 0x7fa6ef42c850
[amour2_CPU2:user_app:(12) 0.000000] [user_app/INFO] Extracting symbols from Bull lib 0x13e43e0 (hPyiBX6so.40) and SMPI lib 0x7fa6ef42c850
[amour2_CPU3:user_app:(13) 0.000000] [user_app/INFO] Extracting symbols from Bull lib 0x13e6dd0 (hPyiBX7so.40) and SMPI lib 0x7fa6ef42c850
[amour3_CPU0:user_app:(19) 0.000000] [user_app/INFO] Extracting symbols from Bull lib 0x13e9a30 (hPyiBX8so.40) and SMPI lib 0x7fa6ef42c850
[amour3_CPU1:user_app:(20) 0.000000] [user_app/INFO] Extracting symbols from Bull lib 0x13ec410 (hPyiBX9so.40) and SMPI lib 0x7fa6ef42c850
[amour3_CPU2:user_app:(21) 0.000000] [user_app/INFO] Extracting symbols from Bull lib 0x13eedf0 (hPyiB10so.40) and SMPI lib 0x7fa6ef42c850
[amour3_CPU3:user_app:(22) 0.000000] [user_app/INFO] Extracting symbols from Bull lib 0x13f1860 (hPyiB11so.40) and SMPI lib 0x7fa6ef42c850
[amour4_CPU0:user_app:(28) 0.000000] [user_app/INFO] Extracting symbols from Bull lib 0x13f4310 (hPyiB12so.40) and SMPI lib 0x7fa6ef42c850
[amour4_CPU1:user_app:(29) 0.000000] [user_app/INFO] Extracting symbols from Bull lib 0x13f6d80 (hPyiB13so.40) and SMPI lib 0x7fa6ef42c850
[amour4_CPU2:user_app:(30) 0.000000] [user_app/INFO] Extracting symbols from Bull lib 0x13f97f0 (hPyiB14so.40) and SMPI lib 0x7fa6ef42c850
[amour4_CPU3:user_app:(31) 0.000000] [user_app/INFO] Extracting symbols from Bull lib 0x13fc2e0 (hPyiB15so.40) and SMPI lib 0x7fa6ef42c850
#~#, 15, 0, 0.000001, 0.000001, Set initial model
#~#, 14, 0, 0.000002, 0.000002, Set initial model
#~#, 13, 0, 0.000002, 0.000002, Set initial model
#~#, 1, 0, 0.000003, 0.000003, Set initial model
#~#, 12, 0, 0.000003, 0.000003, Set initial model
#~#, 5, 0, 0.000003, 0.000003, Set initial model
#~#, 7, 0, 0.000003, 0.000003, Set initial model
#~#, 11, 0, 0.000003, 0.000003, Set initial model
#~#, 3, 0, 0.000003, 0.000003, Set initial model
#~#, 8, 0, 0.000003, 0.000003, Set initial model
#~#, 2, 0, 0.000003, 0.000003, Set initial model
#~#, 6, 0, 0.000003, 0.000003, Set initial model
#~#, 10, 0, 0.000003, 0.000003, Set initial model
#~#, 4, 0, 0.000003, 0.000003, Set initial model
#~#, 9, 0, 0.000003, 0.000003, Set initial model
#~#, 0, 0, 0.000007, 0.000007, Set initial model
#~#, 15, 0, 0.807504, 0.807503, After MPI_Init
#~#, 14, 0, 0.807713, 0.807711, After MPI_Init
#~#, 13, 0, 0.807919, 0.807917, After MPI_Init
#~#, 1, 0, 0.808130, 0.808127, After MPI_Init
#~#, 12, 0, 0.808343, 0.808341, After MPI_Init
#~#, 5, 0, 0.808556, 0.808553, After MPI_Init
#~#, 7, 0, 0.808777, 0.808774, After MPI_Init
#~#, 11, 0, 0.808989, 0.808986, After MPI_Init
#~#, 3, 0, 0.809203, 0.809200, After MPI_Init
#~#, 8, 0, 0.809411, 0.809408, After MPI_Init
#~#, 2, 0, 0.809628, 0.809625, After MPI_Init
#~#, 6, 0, 0.809843, 0.809840, After MPI_Init
#~#, 10, 0, 0.810041, 0.810038, After MPI_Init
#~#, 4, 0, 0.810249, 0.810246, After MPI_Init
#~#, 9, 0, 0.810475, 0.810472, After MPI_Init
#~#, 0, 0, 0.810705, 0.810698, After MPI_Init
#~#, 12, 0, 0.811031, 0.002688, After HPL_pdinfo
#~#, 8, 0, 0.811033, 0.001622, After HPL_pdinfo
#~#, 4, 0, 0.811033, 0.000784, After HPL_pdinfo
#~#, 9, 0, 0.811034, 0.000559, After HPL_pdinfo
#~#, 5, 0, 0.811037, 0.002481, After HPL_pdinfo
#~#, 6, 0, 0.811038, 0.001195, After HPL_pdinfo
#~#, 13, 0, 0.811040, 0.003121, After HPL_pdinfo
#~#, 2, 0, 0.811041, 0.001413, After HPL_pdinfo
#~#, 10, 0, 0.811045, 0.001004, After HPL_pdinfo
#~#, 1, 0, 0.811049, 0.002918, After HPL_pdinfo
#~#, 11, 0, 0.811050, 0.002061, After HPL_pdinfo
#~#, 3, 0, 0.811053, 0.001849, After HPL_pdinfo
#~#, 7, 0, 0.811053, 0.002276, After HPL_pdinfo
#~#, 14, 0, 0.811062, 0.003349, After HPL_pdinfo
#~#, 15, 0, 0.811080, 0.003577, After HPL_pdinfo
#~#, 0, 0, 0.811089, 0.000384, After HPL_pdinfo
#~#, 1, 0, 0.811757, 0.000708, After HPL_grid_info
#~#, 9, 0, 0.811758, 0.000724, After HPL_grid_info
#~#, 5, 0, 0.811758, 0.000721, After HPL_grid_info
#~#, 2, 0, 0.811759, 0.000718, After HPL_grid_info
#~#, 13, 0, 0.811759, 0.000719, After HPL_grid_info
#~#, 10, 0, 0.811760, 0.000715, After HPL_grid_info
#~#, 6, 0, 0.811760, 0.000722, After HPL_grid_info
#~#, 3, 0, 0.811761, 0.000708, After HPL_grid_info
#~#, 0, 0, 0.811761, 0.000672, After HPL_grid_info
#~#, 14, 0, 0.811762, 0.000699, After HPL_grid_info
#~#, 7, 0, 0.811762, 0.000710, After HPL_grid_info
#~#, 11, 0, 0.811763, 0.000713, After HPL_grid_info
#~#, 8, 0, 0.811763, 0.000730, After HPL_grid_info
#~#, 4, 0, 0.811763, 0.000730, After HPL_grid_info
#~#, 15, 0, 0.811764, 0.000683, After HPL_grid_info
#~#, 12, 0, 0.811764, 0.000733, After HPL_grid_info
[amour1_CPU3:user_app:(4) 0.854044] [s4bxi_redefine/INFO] User code exited gracefully
[amour1_CPU3:user_app:(4) 0.854044] ../src/xbt/exception.cpp:107: [xbt_exception/ERROR] Received a ForcefulKillException at the top-level exception handler. Maybe a Java->C++ call that is not protected in a try/catch?
[amour1_CPU3:user_app:(4) 0.854044] ../src/xbt/exception.cpp:75: [xbt_exception/CRITICAL] Current backtrace:
  ->  0# 0x00007FA6EE984ED9 in /tmp/opt/simgrid/lib64/libsimgrid.so.3.31.1
  ->  1# 0x00007FA6EE37453C in /lib64/libstdc++.so.6
  ->  2# 0x00007FA6EE373559 in /lib64/libstdc++.so.6
  ->  3# __gxx_personality_v0 in /lib64/libstdc++.so.6
  ->  4# 0x00007FA6EDD54B03 in /lib64/libgcc_s.so.1
  ->  5# _Unwind_Resume in /lib64/libgcc_s.so.1
  ->  6# 0x00007FA6EE96F69A in /tmp/opt/simgrid/lib64/libsimgrid.so.3.31.1
  ->  7# s4bxi_exit in /tmp/opt/s4bxi/lib/libportals.so.1
  ->  8# main in ./xhpl_hPyiBXDxeQ_3.so

[pm0-nod12:1867300] *** Process received signal ***
[pm0-nod12:1867300] Signal: Aborted (6)
[pm0-nod12:1867300] Signal code:  (-6)
[pm0-nod12:1867300] [ 0] /lib64/libc.so.6(+0x37400)[0x7fa6ed9b6400]
[pm0-nod12:1867300] [ 1] /lib64/libc.so.6(gsignal+0x10f)[0x7fa6ed9b637f]
[pm0-nod12:1867300] [ 2] /lib64/libc.so.6(abort+0x127)[0x7fa6ed9a0db5]
[pm0-nod12:1867300] [ 3] /tmp/opt/simgrid/lib64/libsimgrid.so.3.31.1(+0x10deab)[0x7fa6ee984eab]
[pm0-nod12:1867300] [ 4] /lib64/libstdc++.so.6(+0x9653c)[0x7fa6ee37453c]
[pm0-nod12:1867300] [ 5] /lib64/libstdc++.so.6(+0x95559)[0x7fa6ee373559]
[pm0-nod12:1867300] [ 6] /lib64/libstdc++.so.6(__gxx_personality_v0+0x2a8)[0x7fa6ee373ed8]
[pm0-nod12:1867300] [ 7] /lib64/libgcc_s.so.1(+0x10b03)[0x7fa6edd54b03]
[pm0-nod12:1867300] [ 8] /lib64/libgcc_s.so.1(_Unwind_Resume+0x12d)[0x7fa6edd5541d]
[pm0-nod12:1867300] [ 9] /tmp/opt/simgrid/lib64/libsimgrid.so.3.31.1(+0xf869a)[0x7fa6ee96f69a]
[pm0-nod12:1867300] [10] /tmp/opt/s4bxi/lib/libportals.so.1(s4bxi_exit+0x2e)[0x7fa6eef961fe]
[pm0-nod12:1867300] [11] ./xhpl_hPyiBXDxeQ_3.so(main+0x64c)[0x7fa6d6ba62ac]
[pm0-nod12:1867300] [12] /tmp/opt/s4bxi/lib/libportals.so.1(_ZN15BxiUserAppActorclEv+0x184d)[0x7fa6eef7fdad]
[pm0-nod12:1867300] [13] /tmp/opt/s4bxi/lib/libportals.so.1(_ZZZN7simgrid3s4u6Engine14register_actorI15BxiUserAppActorEEvRKNSt7__cxx1112basic_stringIcSt11char_traitsIcESaIcEEEENKUlSt6vectorIS9_SaIS9_EEE_clESE_ENUlvE_clEv+0x21)[0x7fa6eef85a81]
[pm0-nod12:1867300] [14] /tmp/opt/simgrid/lib64/libsimgrid.so.3.31.1(smx_ctx_wrapper+0x17)[0x7fa6ee9e00f7]
[pm0-nod12:1867300] *** End of error message ***
./s4bxi_run_vanilla.sh: line 90: 1867300 Aborted                 (core dumped) s4bximain $PLATFORMDIR/amour/build/libamour.so ./deploy.xml ./xhpl xhpl --cfg=smpi/cpu-threshold:${S4BXI_CPU_THRESHOLD} --cfg=smpi/host-speed:$(bc <<< "10000 * ${S4BXI_CPU_FACTOR}")Mf

real	0m7.951s
user	0m2.791s
sys	0m4.395s
