_#_,240,316,120,366308
_#_,240,240,120,275439
_#_,240,240,120,275308
_#_,240,240,120,271058
_#_,120,240,120,141000
_#_,120,240,120,137849
_#_,120,60,0,7800
_#_,120,30,0,500
_#_,120,16,0,380
_#_,120,8,0,350
_#_,120,4,0,350
_#_,120,2,0,340
_#_,120,2,2,451
_#_,120,4,4,520
_#_,120,2,0,510
_#_,120,2,2,260
_#_,120,8,8,800
_#_,120,4,0,440
_#_,120,2,0,360
_#_,120,2,2,260
_#_,120,4,4,400
_#_,120,2,0,420
_#_,120,2,2,200
_#_,120,14,16,1620
_#_,120,8,0,440
_#_,120,4,0,371
_#_,120,2,0,351
_#_,120,2,2,200
_#_,120,4,4,330
_#_,120,2,0,420
_#_,120,2,2,210
_#_,120,6,8,640
_#_,120,4,0,420
_#_,120,2,0,350
_#_,120,2,2,210
_#_,120,2,4,280
_#_,120,30,30,5129
_#_,120,16,0,460
_#_,120,8,0,360
_#_,120,4,0,351
_#_,120,2,0,349
_#_,120,2,2,210
_#_,120,4,4,330
_#_,120,2,0,410
_#_,120,2,2,200
_#_,120,8,8,790
_#_,120,4,0,460
_#_,120,2,0,370
_#_,120,2,2,200
_#_,120,4,4,351
_#_,120,2,0,411
_#_,120,2,2,209
_#_,120,14,16,1620
_#_,120,8,0,460
_#_,120,4,0,370
_#_,120,2,0,350
_#_,120,2,2,220
_#_,120,4,4,320
_#_,120,2,0,400
_#_,120,2,2,210
_#_,120,6,8,600
_#_,120,4,0,410
_#_,120,2,0,370
_#_,120,2,2,220
_#_,120,2,4,240
_#_,120,60,60,18109
_#_,120,30,0,530
_#_,120,16,0,410
_#_,120,8,0,350
_#_,120,4,0,350
_#_,120,2,0,350
_#_,120,2,2,230
_#_,120,4,4,340
_#_,120,2,0,400
_#_,120,2,2,200
_#_,120,8,8,730
_#_,120,4,0,410
_#_,120,2,0,350
_#_,120,2,2,200
_#_,120,4,4,329
_#_,120,2,0,400
_#_,120,2,2,210
_#_,120,14,16,1590
_#_,120,8,0,430
_#_,120,4,0,360
_#_,120,2,0,340
_#_,120,2,2,200
_#_,120,4,4,320
_#_,120,2,0,400
_#_,120,2,2,210
_#_,120,6,8,570
_#_,120,4,0,430
_#_,120,2,0,370
_#_,120,2,2,209
_#_,120,2,4,209
_#_,120,30,30,5160
_#_,120,16,0,460
_#_,120,8,0,370
_#_,120,4,0,360
_#_,120,2,0,350
_#_,120,2,2,210
_#_,120,4,4,330
_#_,120,2,0,390
_#_,120,2,2,200
_#_,120,8,8,670
_#_,120,4,0,420
_#_,120,2,0,360
_#_,120,2,2,200
_#_,120,4,4,329
_#_,120,2,0,411
_#_,120,2,2,220
_#_,120,14,16,1590
_#_,120,8,0,430
_#_,120,4,0,360
_#_,120,2,0,340
_#_,120,2,2,210
_#_,120,4,4,330
_#_,120,2,0,390
_#_,120,2,2,220
_#_,120,6,8,570
_#_,120,4,0,420
_#_,120,2,0,370
_#_,120,2,2,200
_#_,120,2,4,210_#_,120,120,120,68620
__#_,120,120,120,68320__#_,120,120,120,68049__#_,120,120,120,68480__#_,120,120,120,67869__#_,0,120,120,159_#_#_,0,120,120,620
_#_,0,60,0,370
_#_,0,30,0,300
_#_,0,16,0,300
_#_,0,8,0,300
_#_,0,4,0,300
_#_,0,2,0,300
_#_,0,2,2,320
_#_,0,4,4,320
_#_,0,2,0,300
_#_,0,2,2,320
_#_,0,8,8,340
_#_,0,4,0,300
_#_,0,2,0,290
_#_,0,2,2,320
_#_,0,4,4,310
_#_,0,2,0,300
_#_,0,2,2,320
_#_,0,14,16,320
_#_,0,8,0,289
_#_,0,4,0,289
_#_,0,2,0,300
_#_,0,2,2,340
_#_,0,4,4,350
_#_,0,2,0,300
_#_,0,2,2,310
_#_,0,6,8,320
_#_,0,4,0,290
_#_,0,2,0,290
_#_,0,2,2,330
_#_,0,2,4,330
_#_,0,30,30,340
_#_,0,16,0,289
_#_,0,8,0,280
_#_,0,4,0,300
_#_,0,2,0,291
_#_,0,2,2,320
_#_,0,4,4,330
_#_,0,2,0,310
_#_,0,2,2,310
_#_,0,8,8,330
_#_,0,4,0,320
_#_,0,2,0,300
_#_,0,2,2,320
_#_,0,4,4,320
_#_,0,2,0,290
_#_,0,2,2,309
_#_,0,14,16,320
_#_,0,8,0,291
_#_,0,4,0,289
_#_,0,2,0,300
_#_,0,2,2,350
_#_,0,4,4,340
_#_,0,2,0,290
_#_,0,2,2,310
_#_,0,6,8,320
_#_,0,4,0,300
_#_,0,2,0,290
_#_,0,2,2,320
_#_,0,2,4,330
_#_,0,60,60,340
_#_,0,30,0,300
_#_,0,16,0,280
_#_,0,8,0,289
_#_,0,4,0,300
_#_,0,2,0,309
_#_,0,2,2,330
_#_,0,4,4,310
_#_,0,2,0,300
_#_,0,2,2,320
_#_,0,8,8,310
_#_,0,4,0,290
_#_,0,2,0,300
_#_,0,2,2,340
_#_,0,4,4,330
_#_,0,2,0,290
_#_,0,2,2,320
_#_,0,14,16,331
_#_,0,8,0,289
_#_,0,4,0,300
_#_,0,2,0,300
_#_,0,2,2,310
_#_,0,4,4,320
_#_,0,2,0,300
_#_,0,2,2,340
_#_,0,6,8,330
_#_,0,4,0,310
_#_,0,2,0,300
_#_,0,2,2,320
_#_,0,2,4,330
_#_,0,30,30,340
_#_,0,16,0,311
_#_,0,8,0,300
_#_,0,4,0,300
_#_,0,2,0,289
_#_,0,2,2,320
_#_,0,4,4,320
_#_,0,2,0,290
_#_,0,2,2,330
_#_,0,8,8,330
_#_,0,4,0,290
_#_,0,2,0,300
_#_,0,2,2,310
_#_,0,4,4,320
_#_,0,2,0,290
_#_,0,2,2,320
_#_,0,14,16,340
_#_,0,8,0,300
_#_,0,4,0,300
_#_,0,2,0,291
_#_,0,2,2,330
_#_,0,4,4,350
_#_,0,2,0,300
_#_,0,2,2,310
_#_,0,6,8,320
_#_,0,4,0,290
_#_,0,2,0,290
_#_,0,2,
real	0m0.360s
user	0m0.086s
sys	0m0.199s
0.075s
sys	0m0.209s
,6,8,320
_#_,6,4,0,420
_#_,6,2,0,360
_#_,4,2,2,170
_#_,2,2,4,211

real	0m0.351s
user	0m0.094s
sys	0m0.189s
,2,0,370
_#_,120,2,
real	0m0.358s
user	0m0.091s
sys	0m0.202s
0m0.090s
sys	0m0.202s
_#__#_,0,120,120,_#_,_#_,0,120,120_#_,0,76,120,600
_#_,0,38,0,349
_#_,0,20,0,289
_#_,0,10,0,300
_#_,0,6,0,289
_#_,0,4,0,289
_#_,0,2,0,280
_#_,0,2,2,330
_#_,0,2,4,320
_#_,0,4,6,340
_#_,0,2,0,300
_#_,0,2,2,320
_#_,0,10,10,320
_#_,0,6,0,290
_#_,0,4,0,290
_#_,0,2,0,290
_#_,0,2,2,310
_#_,0,2,4,309
_#_,0,4,6,320
_#_,0,2,0,289
_#_,0,2,2,320
_#_,0,18,20,350
_#_,0,10,0,310
_#_,0,6,0,290
_#_,0,4,0,290
_#_,0,2,0,290
_#_,0,2,2,340
_#_,0,2,4,340
_#_,0,4,6,320
_#_,0,2,0,300
_#_,0,2,2,320
_#_,0,8,10,320
_#_,0,4,0,289
_#_,0,2,0,280
_#_,0,2,2,320
_#_,0,4,4,340
_#_,0,2,0,310
_#_,0,2,2,320
_#_,0,37,38,340
_#_,0,20,0,290
_#_,0,10,0,290
_#_,0,6,0,290
_#_,0,4,0,300
_#_,0,2,0,290
_#_,0,2,2,320
_#_,0,2,4,330
_#_,0,4,6,331
_#_,0,2,0,291
_#_,0,2,2,311
_#_,0,10,10,320
_#_,0,6,0,290
_#_,0,4,0,290
_#_,0,2,0,280
_#_,0,2,2,320
_#_,0,2,4,320
_#_,0,4,6,310
_#_,0,2,0,300
_#_,0,2,2,330
_#_,0,17,20,320
_#_,0,10,0,310
_#_,0,6,0,290
_#_,0,4,0,290
_#_,0,2,0,290
_#_,0,2,2,320
_#_,0,2,4,849
_#_,0,4,6,370
_#_,0,2,0,330
_#_,0,2,2,320
_#_,0,7,10,320
_#_,0,4,0,300
_#_,0,2,0,300
_#_,0,2,2,330
_#_,0,3,4,330
_#_,0,2,0,290
_#_,0,1,2,170
_#_,0,1,75,200

real	0m0.353s
user	0m0.091s
sys	0m0.201s
_,0,2,0,290
_#_,0,2,2,350
_#_,0,4,4,340
_#_,0,2,0,310
_#_,0,2,2,320
_#_,0,6,8,320
_#_,0,4,0,300
_#_,0,2,0,290
_#_,0,2,2,320
_#_,0,2,4,329
_#_,0,30,30,340
_#_,0,16,0,310
_#_,0,8,0,300
_#_,0,4,0,290
_#_,0,2,0,290
_#_,0,2,2,320
_#_,0,4,4,350
_#_,0,2,0,320
_#_,0,2,2,310
_#_,0,8,8,320
_#_,0,4,0,290
_#_,0,2,0,290
_#_,0,2,2,330
_#_,0,4,4,320
_#_,0,2,0,300
_#_,0,2,2,340
_#_,0,14,16,330
_#_,0,8,0,290
_#_,0,4,0,300
_#_,0,2,0,300
_#_,0,2,2,330
_#_,0,4,4,330
_#_,0,2,0,290
_#_,0,2,2,340
_#_,0,6,8,340
_#_,0,4,0,310
_#_,0,2,0,290
_#_,0,2,2,320
_#_,0,2,4,320

real	0m0.362s
user	0m0.090s
sys	0m0.196s
