magic, rank, use_smpi, time, delta, comment
#~#, 11, 1, 0.000001, 0.000001, Set initial model
#~#, 11, 1, 0.101931, 0.101930, After MPI_Init
#~#, 11, 1, 0.102448, 0.000517, After HPL_pdinfo
#~#, 11, 1, 0.103498, 0.001050, After HPL_grid_info
