magic, rank, use_smpi, time, delta, comment
#~#, 5, 1, 0.000001, 0.000001, Set initial model
#~#, 5, 1, 0.100644, 0.100643, After MPI_Init
#~#, 5, 1, 0.102447, 0.001802, After HPL_pdinfo
#~#, 5, 1, 0.103493, 0.001046, After HPL_grid_info
