magic, rank, use_smpi, time, delta, comment
#~#, 0, 0, 0.000003, 0.000003, Set initial model
#~#, 0, 0, 0.097241, 0.097238, After MPI_Init
#~#, 0, 0, 0.098228, 0.000987, After HPL_pdinfo
#~#, 0, 0, 0.099094, 0.000866, After HPL_grid_info
