magic, rank, use_smpi, time, delta, comment
#~#, 14, 0, 0.000001, 0.000001, Set initial model
#~#, 14, 0, 0.096738, 0.096736, After MPI_Init
#~#, 14, 0, 0.098159, 0.001421, After HPL_pdinfo
#~#, 14, 0, 0.099095, 0.000935, After HPL_grid_info
