[0.000000] [xbt_cfg/INFO] Configuration change: Set 'smpi/privatization' to '1'
[0.000000] [xbt_cfg/INFO] Configuration change: Set 'smpi/np' to '16'
[0.000000] [xbt_cfg/INFO] Configuration change: Set 'smpi/hostfile' to './hosts.txt'
[0.000000] [xbt_cfg/INFO] Configuration change: Set 'surf/precision' to '1e-9'
[0.000000] [xbt_cfg/INFO] Configuration change: Set 'network/model' to 'SMPI'
[0.000000] [xbt_cfg/INFO] Configuration change: Set 'smpi/privatization' to 'dlopen'
[0.000000] [xbt_cfg/INFO] Configuration change: Set 'smpi/display-timing' to 'yes'
[0.000000] [xbt_cfg/INFO] Configuration change: Set 'smpi/host-speed' to '10000Mf'
[0.000000] [xbt_cfg/INFO] Configuration change: Set 'smpi/tmpdir' to '/tmp'
[0.354025] [smpi_utils/INFO] Simulated time: 0.354025 seconds. 

The simulation took 3.53944 seconds (after parsing and platform setup)
2.9325 seconds were actual computation of the application
[0.354025] [smpi_utils/INFO] More than 75% of the time was spent inside the application code.
You may want to use sampling functions or trace replay to reduce this.

real	0m3.612s
user	0m3.489s
sys	0m0.118s
