magic, rank, use_smpi, time, delta, comment
#~#, 13, 1, 0.000001, 0.000001, Set initial model
#~#, 13, 1, 0.094194, 0.094192, After MPI_Init
#~#, 13, 1, 0.098046, 0.003852, After HPL_pdinfo
#~#, 13, 1, 0.099090, 0.001044, After HPL_grid_info
