Model, N, nodes, ppn, Gflops, WallClockTime
modelChange, 10000, 2, 1, 52.26, 5.244
modelChange, 1250, 2, 1, 16.25, 0.842
modelChange, 15000, 2, 1, 54.52, 8.137
modelChange, 20000, 2, 1, 55.9, 10.961
modelChange, 2500, 2, 1, 31.45, 1.4
modelChange, 30000, 2, 1, 56.97, 17.963
modelChange, 3750, 2, 1, 39.85, 2.02
modelChange, 40000, 2, 1, 57.65, 24.432
modelChange, 50000, 2, 1, 57.98, 32.776
modelChange, 5000, 2, 1, 44.66, 2.6
modelChange, 7500, 2, 1, 49.7, 3.859
s4bxi, 10000, 2, 1, 52.19, 5.213
s4bxi, 1250, 2, 1, 16.27, 0.855
s4bxi, 15000, 2, 1, 54.53, 8.126
s4bxi, 20000, 2, 1, 55.92, 11.013
s4bxi, 2500, 2, 1, 31.47, 1.409
s4bxi, 30000, 2, 1, 57.01, 17.782
s4bxi, 3750, 2, 1, 39.79, 2.02
s4bxi, 40000, 2, 1, 57.65, 24.637
s4bxi, 50000, 2, 1, 57.97, 32.301
s4bxi, 5000, 2, 1, 44.92, 2.593
s4bxi, 7500, 2, 1, 49.79, 3.879
smpi, 10000, 2, 1, 52.43, 2.367
smpi, 1250, 2, 1, 17.86, 0.57
smpi, 15000, 2, 1, 54.6, 3.442
smpi, 20000, 2, 1, 55.97, 4.437
smpi, 2500, 2, 1, 32.8, 0.81
smpi, 30000, 2, 1, 57.04, 6.619
smpi, 3750, 2, 1, 40.69, 1.073
smpi, 40000, 2, 1, 57.66, 8.669
smpi, 50000, 2, 1, 57.98, 11.084
smpi, 5000, 2, 1, 45.45, 1.343
smpi, 7500, 2, 1, 50.17, 1.854
smpirun, 10000, 2, 1, 52.5, 1.217
smpirun, 1250, 2, 1, 18.55, 0.167
smpirun, 15000, 2, 1, 54.68, 1.82
smpirun, 1875, 2, 1, 27.35, 0.25
smpirun, 20000, 2, 1, 55.98, 2.401
smpirun, 2500, 2, 1, 33.56, 0.313
smpirun, 30000, 2, 1, 57.04, 3.658
smpirun, 3750, 2, 1, 41.26, 0.469
smpirun, 40000, 2, 1, 57.68, 4.878
smpirun, 50000, 2, 1, 58.01, 6.24
smpirun, 5000, 2, 1, 45.44, 0.62
smpirun, 7500, 2, 1, 50.17, 0.902
