[0.000000] [xbt_cfg/INFO] Configuration change: Set 'smpi/cpu-threshold' to '1e-8'
[0.000000] [xbt_cfg/INFO] Configuration change: Set 'smpi/host-speed' to '10000Mf'
[0.000000] [xbt_cfg/INFO] Configuration change: Set 'smpi/shared-malloc-blocksize' to '196608.0000'
[0.000000] [xbt_cfg/INFO] Configuration change: Set 'smpi/display-timing' to 'yes'
[0.000000] [xbt_cfg/INFO] Configuration change: Set 'surf/precision' to '1e-9'
[0.000000] [xbt_cfg/INFO] Configuration change: Set 'network/loopback-lat' to '0'
[0.000000] [xbt_cfg/INFO] Configuration change: Set 'network/loopback-bw' to '999e9'
[0.000000] [xbt_cfg/INFO] Configuration change: Set 'network/model' to 'CM02'
[0.000000] [xbt_cfg/INFO] Configuration change: Set 'smpi/coll-selector' to 'ompi'
[0.000000] [xbt_cfg/INFO] Configuration change: Set 'smpi/host-speed' to '10000.000000Mf'
[0.000000] [xbt_cfg/INFO] Configuration change: Set 'smpi/cpu-threshold' to '0.000000'
[0.000000] [xbt_cfg/INFO] Configuration change: Set 'smpi/simulate-computation' to 'yes'
[0.000000] [smpi_coll/INFO] Switch to algorithm ompi for collective gather
[0.000000] [smpi_coll/INFO] Switch to algorithm ompi for collective allgather
[0.000000] [smpi_coll/INFO] Switch to algorithm ompi for collective allgatherv
[0.000000] [smpi_coll/INFO] Switch to algorithm ompi for collective allreduce
[0.000000] [smpi_coll/INFO] Switch to algorithm ompi for collective alltoall
[0.000000] [smpi_coll/INFO] Switch to algorithm ompi for collective alltoallv
[0.000000] [smpi_coll/INFO] Switch to algorithm ompi for collective reduce
[0.000000] [smpi_coll/INFO] Switch to algorithm ompi for collective reduce_scatter
[0.000000] [smpi_coll/INFO] Switch to algorithm ompi for collective scatter
[0.000000] [smpi_coll/INFO] Switch to algorithm ompi for collective bcast
[0.000000] [smpi_coll/INFO] Switch to algorithm ompi for collective barrier
[0.000000] [smpi_coll/INFO] Switch to algorithm ompi for collective gather
[0.000000] [smpi_coll/INFO] Switch to algorithm ompi for collective allgather
[0.000000] [smpi_coll/INFO] Switch to algorithm ompi for collective allgatherv
[0.000000] [smpi_coll/INFO] Switch to algorithm ompi for collective allreduce
[0.000000] [smpi_coll/INFO] Switch to algorithm ompi for collective alltoall
[0.000000] [smpi_coll/INFO] Switch to algorithm ompi for collective alltoallv
[0.000000] [smpi_coll/INFO] Switch to algorithm ompi for collective reduce
[0.000000] [smpi_coll/INFO] Switch to algorithm ompi for collective reduce_scatter
[0.000000] [smpi_coll/INFO] Switch to algorithm ompi for collective scatter
[0.000000] [smpi_coll/INFO] Switch to algorithm ompi for collective bcast
[0.000000] [smpi_coll/INFO] Switch to algorithm ompi for collective barrier
[amour1_CPU0:user_app:(1) 0.000000] [s4bxi_main_actor/INFO] Setup with nid = 1, model_pci = 1 ; e2e_off = 0
[amour1_CPU1:user_app:(2) 0.000000] [s4bxi_main_actor/INFO] Setup with nid = 1, model_pci = 1 ; e2e_off = 0
[amour1_CPU2:user_app:(3) 0.000000] [s4bxi_main_actor/INFO] Setup with nid = 1, model_pci = 1 ; e2e_off = 0
[amour1_CPU3:user_app:(4) 0.000000] [s4bxi_main_actor/INFO] Setup with nid = 1, model_pci = 1 ; e2e_off = 0
[amour2_CPU0:user_app:(10) 0.000000] [s4bxi_main_actor/INFO] Setup with nid = 2, model_pci = 1 ; e2e_off = 0
[amour2_CPU1:user_app:(11) 0.000000] [s4bxi_main_actor/INFO] Setup with nid = 2, model_pci = 1 ; e2e_off = 0
[amour2_CPU2:user_app:(12) 0.000000] [s4bxi_main_actor/INFO] Setup with nid = 2, model_pci = 1 ; e2e_off = 0
[amour2_CPU3:user_app:(13) 0.000000] [s4bxi_main_actor/INFO] Setup with nid = 2, model_pci = 1 ; e2e_off = 0
[amour3_CPU0:user_app:(19) 0.000000] [s4bxi_main_actor/INFO] Setup with nid = 3, model_pci = 1 ; e2e_off = 0
[amour3_CPU1:user_app:(20) 0.000000] [s4bxi_main_actor/INFO] Setup with nid = 3, model_pci = 1 ; e2e_off = 0
[amour3_CPU2:user_app:(21) 0.000000] [s4bxi_main_actor/INFO] Setup with nid = 3, model_pci = 1 ; e2e_off = 0
[amour3_CPU3:user_app:(22) 0.000000] [s4bxi_main_actor/INFO] Setup with nid = 3, model_pci = 1 ; e2e_off = 0
[amour4_CPU0:user_app:(28) 0.000000] [s4bxi_main_actor/INFO] Setup with nid = 4, model_pci = 1 ; e2e_off = 0
[amour4_CPU1:user_app:(29) 0.000000] [s4bxi_main_actor/INFO] Setup with nid = 4, model_pci = 1 ; e2e_off = 0
[amour4_CPU2:user_app:(30) 0.000000] [s4bxi_main_actor/INFO] Setup with nid = 4, model_pci = 1 ; e2e_off = 0
[amour4_CPU3:user_app:(31) 0.000000] [s4bxi_main_actor/INFO] Setup with nid = 4, model_pci = 1 ; e2e_off = 0
[amour5_CPU0:user_app:(37) 0.000000] [s4bxi_main_actor/INFO] Setup with nid = 5, model_pci = 1 ; e2e_off = 0
[amour5_CPU1:user_app:(38) 0.000000] [s4bxi_main_actor/INFO] Setup with nid = 5, model_pci = 1 ; e2e_off = 0
[amour5_CPU2:user_app:(39) 0.000000] [s4bxi_main_actor/INFO] Setup with nid = 5, model_pci = 1 ; e2e_off = 0
[amour5_CPU3:user_app:(40) 0.000000] [s4bxi_main_actor/INFO] Setup with nid = 5, model_pci = 1 ; e2e_off = 0
[amour6_CPU0:user_app:(46) 0.000000] [s4bxi_main_actor/INFO] Setup with nid = 6, model_pci = 1 ; e2e_off = 0
[amour6_CPU1:user_app:(47) 0.000000] [s4bxi_main_actor/INFO] Setup with nid = 6, model_pci = 1 ; e2e_off = 0
[amour6_CPU2:user_app:(48) 0.000000] [s4bxi_main_actor/INFO] Setup with nid = 6, model_pci = 1 ; e2e_off = 0
[amour6_CPU3:user_app:(49) 0.000000] [s4bxi_main_actor/INFO] Setup with nid = 6, model_pci = 1 ; e2e_off = 0
[amour7_CPU0:user_app:(55) 0.000000] [s4bxi_main_actor/INFO] Setup with nid = 7, model_pci = 1 ; e2e_off = 0
[amour7_CPU1:user_app:(56) 0.000000] [s4bxi_main_actor/INFO] Setup with nid = 7, model_pci = 1 ; e2e_off = 0
[amour7_CPU2:user_app:(57) 0.000000] [s4bxi_main_actor/INFO] Setup with nid = 7, model_pci = 1 ; e2e_off = 0
[amour7_CPU3:user_app:(58) 0.000000] [s4bxi_main_actor/INFO] Setup with nid = 7, model_pci = 1 ; e2e_off = 0
[amour8_CPU0:user_app:(64) 0.000000] [s4bxi_main_actor/INFO] Setup with nid = 8, model_pci = 1 ; e2e_off = 0
[amour8_CPU1:user_app:(65) 0.000000] [s4bxi_main_actor/INFO] Setup with nid = 8, model_pci = 1 ; e2e_off = 0
[amour8_CPU2:user_app:(66) 0.000000] [s4bxi_main_actor/INFO] Setup with nid = 8, model_pci = 1 ; e2e_off = 0
[amour8_CPU3:user_app:(67) 0.000000] [s4bxi_main_actor/INFO] Setup with nid = 8, model_pci = 1 ; e2e_off = 0
[amour1_CPU0:user_app:(1) 0.000000] [user_app/INFO] Init rank 0 ; local_rank 0
[amour1_CPU1:user_app:(2) 0.000000] [user_app/INFO] Init rank 1 ; local_rank 1
[amour1_CPU2:user_app:(3) 0.000000] [user_app/INFO] Init rank 2 ; local_rank 2
[amour1_CPU3:user_app:(4) 0.000000] [user_app/INFO] Init rank 3 ; local_rank 3
[amour2_CPU0:user_app:(10) 0.000000] [user_app/INFO] Init rank 4 ; local_rank 0
[amour2_CPU1:user_app:(11) 0.000000] [user_app/INFO] Init rank 5 ; local_rank 1
[amour2_CPU2:user_app:(12) 0.000000] [user_app/INFO] Init rank 6 ; local_rank 2
[amour2_CPU3:user_app:(13) 0.000000] [user_app/INFO] Init rank 7 ; local_rank 3
[amour3_CPU0:user_app:(19) 0.000000] [user_app/INFO] Init rank 8 ; local_rank 0
[amour3_CPU1:user_app:(20) 0.000000] [user_app/INFO] Init rank 9 ; local_rank 1
[amour3_CPU2:user_app:(21) 0.000000] [user_app/INFO] Init rank 10 ; local_rank 2
[amour3_CPU3:user_app:(22) 0.000000] [user_app/INFO] Init rank 11 ; local_rank 3
[amour4_CPU0:user_app:(28) 0.000000] [user_app/INFO] Init rank 12 ; local_rank 0
[amour4_CPU1:user_app:(29) 0.000000] [user_app/INFO] Init rank 13 ; local_rank 1
[amour4_CPU2:user_app:(30) 0.000000] [user_app/INFO] Init rank 14 ; local_rank 2
[amour4_CPU3:user_app:(31) 0.000000] [user_app/INFO] Init rank 15 ; local_rank 3
[amour5_CPU0:user_app:(37) 0.000000] [user_app/INFO] Init rank 16 ; local_rank 0
[amour5_CPU1:user_app:(38) 0.000000] [user_app/INFO] Init rank 17 ; local_rank 1
[amour5_CPU2:user_app:(39) 0.000000] [user_app/INFO] Init rank 18 ; local_rank 2
[amour5_CPU3:user_app:(40) 0.000000] [user_app/INFO] Init rank 19 ; local_rank 3
[amour6_CPU0:user_app:(46) 0.000000] [user_app/INFO] Init rank 20 ; local_rank 0
[amour6_CPU1:user_app:(47) 0.000000] [user_app/INFO] Init rank 21 ; local_rank 1
[amour6_CPU2:user_app:(48) 0.000000] [user_app/INFO] Init rank 22 ; local_rank 2
[amour6_CPU3:user_app:(49) 0.000000] [user_app/INFO] Init rank 23 ; local_rank 3
[amour7_CPU0:user_app:(55) 0.000000] [user_app/INFO] Init rank 24 ; local_rank 0
[amour7_CPU1:user_app:(56) 0.000000] [user_app/INFO] Init rank 25 ; local_rank 1
[amour7_CPU2:user_app:(57) 0.000000] [user_app/INFO] Init rank 26 ; local_rank 2
[amour7_CPU3:user_app:(58) 0.000000] [user_app/INFO] Init rank 27 ; local_rank 3
[amour8_CPU0:user_app:(64) 0.000000] [user_app/INFO] Init rank 28 ; local_rank 0
[amour8_CPU1:user_app:(65) 0.000000] [user_app/INFO] Init rank 29 ; local_rank 1
[amour8_CPU2:user_app:(66) 0.000000] [user_app/INFO] Init rank 30 ; local_rank 2
[amour8_CPU3:user_app:(67) 0.000000] [user_app/INFO] Init rank 31 ; local_rank 3
[amour1_NIC:nic_e2e:(9) 0.000000] [s4bxi_nic_e2e/INFO] E2E was configured with timeout = 10.000000 and retries = 5
[amour2_NIC:nic_e2e:(18) 0.000000] [s4bxi_nic_e2e/INFO] E2E was configured with timeout = 10.000000 and retries = 5
[amour3_NIC:nic_e2e:(27) 0.000000] [s4bxi_nic_e2e/INFO] E2E was configured with timeout = 10.000000 and retries = 5
[amour4_NIC:nic_e2e:(36) 0.000000] [s4bxi_nic_e2e/INFO] E2E was configured with timeout = 10.000000 and retries = 5
[amour5_NIC:nic_e2e:(45) 0.000000] [s4bxi_nic_e2e/INFO] E2E was configured with timeout = 10.000000 and retries = 5
[amour6_NIC:nic_e2e:(54) 0.000000] [s4bxi_nic_e2e/INFO] E2E was configured with timeout = 10.000000 and retries = 5
[amour7_NIC:nic_e2e:(63) 0.000000] [s4bxi_nic_e2e/INFO] E2E was configured with timeout = 10.000000 and retries = 5
[amour8_NIC:nic_e2e:(72) 0.000000] [s4bxi_nic_e2e/INFO] E2E was configured with timeout = 10.000000 and retries = 5
[amour1_CPU0:user_app:(1) 0.000000] [user_app/INFO] Extracting symbols from Bull lib 0x2b14d80 (EPQvzh0so.40) and SMPI lib 0x7f71a7e5e850
[amour1_CPU1:user_app:(2) 0.000000] [user_app/INFO] Extracting symbols from Bull lib 0x2b191b0 (EPQvzh1so.40) and SMPI lib 0x7f71a7e5e850
[amour1_CPU2:user_app:(3) 0.000000] [user_app/INFO] Extracting symbols from Bull lib 0x2b1baa0 (EPQvzh2so.40) and SMPI lib 0x7f71a7e5e850
[amour1_CPU3:user_app:(4) 0.000000] [user_app/INFO] Extracting symbols from Bull lib 0x2b1e3d0 (EPQvzh3so.40) and SMPI lib 0x7f71a7e5e850
[amour2_CPU0:user_app:(10) 0.000000] [user_app/INFO] Extracting symbols from Bull lib 0x2b20ea0 (EPQvzh4so.40) and SMPI lib 0x7f71a7e5e850
[amour2_CPU1:user_app:(11) 0.000000] [user_app/INFO] Extracting symbols from Bull lib 0x2b23810 (EPQvzh5so.40) and SMPI lib 0x7f71a7e5e850
[amour2_CPU2:user_app:(12) 0.000000] [user_app/INFO] Extracting symbols from Bull lib 0x2b26180 (EPQvzh6so.40) and SMPI lib 0x7f71a7e5e850
[amour2_CPU3:user_app:(13) 0.000000] [user_app/INFO] Extracting symbols from Bull lib 0x2b28b80 (EPQvzh7so.40) and SMPI lib 0x7f71a7e5e850
[amour3_CPU0:user_app:(19) 0.000000] [user_app/INFO] Extracting symbols from Bull lib 0x2b2b7f0 (EPQvzh8so.40) and SMPI lib 0x7f71a7e5e850
[amour3_CPU1:user_app:(20) 0.000000] [user_app/INFO] Extracting symbols from Bull lib 0x2b2e1e0 (EPQvzh9so.40) and SMPI lib 0x7f71a7e5e850
[amour3_CPU2:user_app:(21) 0.000000] [user_app/INFO] Extracting symbols from Bull lib 0x2b30bd0 (EPQvz10so.40) and SMPI lib 0x7f71a7e5e850
[amour3_CPU3:user_app:(22) 0.000000] [user_app/INFO] Extracting symbols from Bull lib 0x2b33650 (EPQvz11so.40) and SMPI lib 0x7f71a7e5e850
[amour4_CPU0:user_app:(28) 0.000000] [user_app/INFO] Extracting symbols from Bull lib 0x2b36110 (EPQvz12so.40) and SMPI lib 0x7f71a7e5e850
[amour4_CPU1:user_app:(29) 0.000000] [user_app/INFO] Extracting symbols from Bull lib 0x2b38b90 (EPQvz13so.40) and SMPI lib 0x7f71a7e5e850
[amour4_CPU2:user_app:(30) 0.000000] [user_app/INFO] Extracting symbols from Bull lib 0x2b3b610 (EPQvz14so.40) and SMPI lib 0x7f71a7e5e850
[amour4_CPU3:user_app:(31) 0.000000] [user_app/INFO] Extracting symbols from Bull lib 0x2b3e110 (EPQvz15so.40) and SMPI lib 0x7f71a7e5e850
[amour5_CPU0:user_app:(37) 0.000000] [user_app/INFO] Extracting symbols from Bull lib 0x2b41500 (EPQvz16so.40) and SMPI lib 0x7f71a7e5e850
[amour5_CPU1:user_app:(38) 0.000000] [user_app/INFO] Extracting symbols from Bull lib 0x2b43f80 (EPQvz17so.40) and SMPI lib 0x7f71a7e5e850
[amour5_CPU2:user_app:(39) 0.000000] [user_app/INFO] Extracting symbols from Bull lib 0x2b46a00 (EPQvz18so.40) and SMPI lib 0x7f71a7e5e850
[amour5_CPU3:user_app:(40) 0.000000] [user_app/INFO] Extracting symbols from Bull lib 0x2b49480 (EPQvz19so.40) and SMPI lib 0x7f71a7e5e850
[amour6_CPU0:user_app:(46) 0.000000] [user_app/INFO] Extracting symbols from Bull lib 0x2b4c240 (EPQvz20so.40) and SMPI lib 0x7f71a7e5e850
[amour6_CPU1:user_app:(47) 0.000000] [user_app/INFO] Extracting symbols from Bull lib 0x2b4ecc0 (EPQvz21so.40) and SMPI lib 0x7f71a7e5e850
[amour6_CPU2:user_app:(48) 0.000000] [user_app/INFO] Extracting symbols from Bull lib 0x2b51740 (EPQvz22so.40) and SMPI lib 0x7f71a7e5e850
[amour6_CPU3:user_app:(49) 0.000000] [user_app/INFO] Extracting symbols from Bull lib 0x2b541c0 (EPQvz23so.40) and SMPI lib 0x7f71a7e5e850
[amour7_CPU0:user_app:(55) 0.000000] [user_app/INFO] Extracting symbols from Bull lib 0x2b56f80 (EPQvz24so.40) and SMPI lib 0x7f71a7e5e850
[amour7_CPU1:user_app:(56) 0.000000] [user_app/INFO] Extracting symbols from Bull lib 0x2b59a00 (EPQvz25so.40) and SMPI lib 0x7f71a7e5e850
[amour7_CPU2:user_app:(57) 0.000000] [user_app/INFO] Extracting symbols from Bull lib 0x2b5c480 (EPQvz26so.40) and SMPI lib 0x7f71a7e5e850
[amour7_CPU3:user_app:(58) 0.000000] [user_app/INFO] Extracting symbols from Bull lib 0x2b5ef00 (EPQvz27so.40) and SMPI lib 0x7f71a7e5e850
[amour8_CPU0:user_app:(64) 0.000000] [user_app/INFO] Extracting symbols from Bull lib 0x2b61cc0 (EPQvz28so.40) and SMPI lib 0x7f71a7e5e850
[amour8_CPU1:user_app:(65) 0.000000] [user_app/INFO] Extracting symbols from Bull lib 0x2b64740 (EPQvz29so.40) and SMPI lib 0x7f71a7e5e850
[amour8_CPU2:user_app:(66) 0.000000] [user_app/INFO] Extracting symbols from Bull lib 0x2b671c0 (EPQvz30so.40) and SMPI lib 0x7f71a7e5e850
[amour8_CPU3:user_app:(67) 0.000000] [user_app/INFO] Extracting symbols from Bull lib 0x2b69e50 (EPQvz31so.40) and SMPI lib 0x7f71a7e5e850
#~#, 31, 1, 0.000001, 0.000001, Set initial model
#~#, 30, 1, 0.000002, 0.000002, Set initial model
#~#, 29, 1, 0.000002, 0.000002, Set initial model
#~#, 23, 1, 0.000002, 0.000002, Set initial model
#~#, 26, 1, 0.000002, 0.000002, Set initial model
#~#, 9, 1, 0.000002, 0.000002, Set initial model
#~#, 27, 1, 0.000002, 0.000002, Set initial model
#~#, 6, 1, 0.000002, 0.000002, Set initial model
#~#, 12, 1, 0.000002, 0.000002, Set initial model
#~#, 28, 1, 0.000002, 0.000002, Set initial model
#~#, 7, 1, 0.000002, 0.000002, Set initial model
#~#, 20, 1, 0.000002, 0.000002, Set initial model
#~#, 21, 1, 0.000002, 0.000002, Set initial model
#~#, 19, 1, 0.000002, 0.000002, Set initial model
#~#, 22, 1, 0.000002, 0.000002, Set initial model
#~#, 2, 1, 0.000002, 0.000002, Set initial model
#~#, 25, 1, 0.000002, 0.000002, Set initial model
#~#, 3, 1, 0.000002, 0.000002, Set initial model
#~#, 15, 1, 0.000002, 0.000002, Set initial model
#~#, 13, 1, 0.000003, 0.000003, Set initial model
#~#, 5, 1, 0.000003, 0.000003, Set initial model
#~#, 11, 1, 0.000003, 0.000003, Set initial model
#~#, 1, 1, 0.000003, 0.000003, Set initial model
#~#, 10, 1, 0.000003, 0.000003, Set initial model
#~#, 4, 1, 0.000003, 0.000003, Set initial model
#~#, 18, 1, 0.000003, 0.000003, Set initial model
#~#, 17, 1, 0.000003, 0.000003, Set initial model
#~#, 8, 1, 0.000003, 0.000003, Set initial model
#~#, 14, 1, 0.000003, 0.000003, Set initial model
#~#, 16, 1, 0.000003, 0.000003, Set initial model
#~#, 24, 1, 0.000003, 0.000003, Set initial model
#~#, 0, 1, 0.000006, 0.000006, Set initial model
#~#, 0, 0, 0.059716, 0.059711, Time most of the app
#~#, 1, 0, 0.059717, 0.059714, Time most of the app
#~#, 2, 0, 0.059717, 0.059714, Time most of the app
#~#, 16, 0, 0.059717, 0.059714, Time most of the app
#~#, 4, 0, 0.059717, 0.059714, Time most of the app
#~#, 3, 0, 0.059717, 0.059715, Time most of the app
#~#, 8, 0, 0.059717, 0.059715, Time most of the app
#~#, 17, 0, 0.059717, 0.059715, Time most of the app
#~#, 5, 0, 0.059718, 0.059715, Time most of the app
#~#, 9, 0, 0.059718, 0.059715, Time most of the app
#~#, 10, 0, 0.059718, 0.059715, Time most of the app
#~#, 18, 0, 0.059718, 0.059715, Time most of the app
#~#, 6, 0, 0.059718, 0.059715, Time most of the app
#~#, 19, 0, 0.059718, 0.059715, Time most of the app
#~#, 7, 0, 0.059718, 0.059716, Time most of the app
#~#, 11, 0, 0.059718, 0.059716, Time most of the app
#~#, 12, 0, 0.059718, 0.059716, Time most of the app
#~#, 20, 0, 0.059718, 0.059716, Time most of the app
#~#, 24, 0, 0.059718, 0.059716, Time most of the app
#~#, 21, 0, 0.059719, 0.059716, Time most of the app
#~#, 26, 0, 0.059719, 0.059717, Time most of the app
#~#, 22, 0, 0.059719, 0.059716, Time most of the app
#~#, 13, 0, 0.059719, 0.059716, Time most of the app
#~#, 25, 0, 0.059719, 0.059716, Time most of the app
#~#, 14, 0, 0.059719, 0.059716, Time most of the app
#~#, 23, 0, 0.059719, 0.059717, Time most of the app
#~#, 27, 0, 0.059719, 0.059717, Time most of the app
#~#, 15, 0, 0.059719, 0.059717, Time most of the app
#~#, 28, 0, 0.059720, 0.059717, Time most of the app
#~#, 30, 0, 0.059720, 0.059718, Time most of the app
#~#, 29, 0, 0.059720, 0.059718, Time most of the app
#~#, 31, 0, 0.059721, 0.059720, Time most of the app
[amour5:00037] *** An error occurred in MPI_Recv
[amour5:00037] *** reported by process [3456,16]
[amour5:00037] *** on communicator MPI COMMUNICATOR 5 SPLIT FROM 3
[amour5:00037] *** MPI_ERR_TRUNCATE: message truncated
[amour5:00037] *** MPI_ERRORS_ARE_FATAL (processes in this communicator will now abort,
[amour5:00037] ***    and potentially your MPI job)
[amour5_CPU0:user_app:(37) 0.068302] /dev/shm/simu/s4bxi/src/actors/BxiUserAppActor.cpp:350: [user_app/CRITICAL] Segmentation fault.
Backtrace (displayed in actor user_app):
  ->  0# xbt_backtrace_display_current in /dev/shm/opt/simgrid/lib64/libsimgrid.so.3.32
  ->  1# app_signal_handler(int, siginfo_t*, void*) in /dev/shm/opt/s4bxi/lib/libportals.so.1
  ->  2# 0x00007F71A63DA400 in /lib64/libc.so.6


real	0m5.972s
user	0m2.733s
sys	0m3.206s
