[0.000000] [xbt_cfg/INFO] Configuration change: Set 'smpi/cpu-threshold' to '1e-8'
[0.000000] [xbt_cfg/INFO] Configuration change: Set 'smpi/host-speed' to '10000Mf'
[0.000000] [xbt_cfg/INFO] Configuration change: Set 'smpi/shared-malloc-blocksize' to '1048576.0000'
[0.000000] [xbt_cfg/INFO] Configuration change: Set 'smpi/display-timing' to 'yes'
[0.000000] [xbt_cfg/INFO] Configuration change: Set 'surf/precision' to '1e-9'
[0.000000] [xbt_cfg/INFO] Configuration change: Set 'network/loopback-lat' to '0'
[0.000000] [xbt_cfg/INFO] Configuration change: Set 'network/loopback-bw' to '999e9'
[0.000000] [xbt_cfg/INFO] Configuration change: Set 'network/model' to 'CM02'
[0.000000] [xbt_cfg/INFO] Configuration change: Set 'smpi/coll-selector' to 'ompi'
[0.000000] [xbt_cfg/INFO] Configuration change: Set 'smpi/host-speed' to '10000.000000Mf'
[0.000000] [xbt_cfg/INFO] Configuration change: Set 'smpi/cpu-threshold' to '0.000000'
[0.000000] [xbt_cfg/INFO] Configuration change: Set 'smpi/simulate-computation' to 'yes'
[0.000000] [smpi_coll/INFO] Switch to algorithm ompi for collective gather
[0.000000] [smpi_coll/INFO] Switch to algorithm ompi for collective allgather
[0.000000] [smpi_coll/INFO] Switch to algorithm ompi for collective allgatherv
[0.000000] [smpi_coll/INFO] Switch to algorithm ompi for collective allreduce
[0.000000] [smpi_coll/INFO] Switch to algorithm ompi for collective alltoall
[0.000000] [smpi_coll/INFO] Switch to algorithm ompi for collective alltoallv
[0.000000] [smpi_coll/INFO] Switch to algorithm ompi for collective reduce
[0.000000] [smpi_coll/INFO] Switch to algorithm ompi for collective reduce_scatter
[0.000000] [smpi_coll/INFO] Switch to algorithm ompi for collective scatter
[0.000000] [smpi_coll/INFO] Switch to algorithm ompi for collective bcast
[0.000000] [smpi_coll/INFO] Switch to algorithm ompi for collective barrier
[0.000000] [smpi_coll/INFO] Switch to algorithm ompi for collective gather
[0.000000] [smpi_coll/INFO] Switch to algorithm ompi for collective allgather
[0.000000] [smpi_coll/INFO] Switch to algorithm ompi for collective allgatherv
[0.000000] [smpi_coll/INFO] Switch to algorithm ompi for collective allreduce
[0.000000] [smpi_coll/INFO] Switch to algorithm ompi for collective alltoall
[0.000000] [smpi_coll/INFO] Switch to algorithm ompi for collective alltoallv
[0.000000] [smpi_coll/INFO] Switch to algorithm ompi for collective reduce
[0.000000] [smpi_coll/INFO] Switch to algorithm ompi for collective reduce_scatter
[0.000000] [smpi_coll/INFO] Switch to algorithm ompi for collective scatter
[0.000000] [smpi_coll/INFO] Switch to algorithm ompi for collective bcast
[0.000000] [smpi_coll/INFO] Switch to algorithm ompi for collective barrier
[amour1_CPU0:user_app:(1) 0.000000] [s4bxi_main_actor/INFO] Setup with nid = 1, model_pci = 1 ; e2e_off = 0
[amour1_CPU1:user_app:(2) 0.000000] [s4bxi_main_actor/INFO] Setup with nid = 1, model_pci = 1 ; e2e_off = 0
[amour1_CPU2:user_app:(3) 0.000000] [s4bxi_main_actor/INFO] Setup with nid = 1, model_pci = 1 ; e2e_off = 0
[amour1_CPU3:user_app:(4) 0.000000] [s4bxi_main_actor/INFO] Setup with nid = 1, model_pci = 1 ; e2e_off = 0
[amour2_CPU0:user_app:(10) 0.000000] [s4bxi_main_actor/INFO] Setup with nid = 2, model_pci = 1 ; e2e_off = 0
[amour2_CPU1:user_app:(11) 0.000000] [s4bxi_main_actor/INFO] Setup with nid = 2, model_pci = 1 ; e2e_off = 0
[amour2_CPU2:user_app:(12) 0.000000] [s4bxi_main_actor/INFO] Setup with nid = 2, model_pci = 1 ; e2e_off = 0
[amour2_CPU3:user_app:(13) 0.000000] [s4bxi_main_actor/INFO] Setup with nid = 2, model_pci = 1 ; e2e_off = 0
[amour3_CPU0:user_app:(19) 0.000000] [s4bxi_main_actor/INFO] Setup with nid = 3, model_pci = 1 ; e2e_off = 0
[amour3_CPU1:user_app:(20) 0.000000] [s4bxi_main_actor/INFO] Setup with nid = 3, model_pci = 1 ; e2e_off = 0
[amour3_CPU2:user_app:(21) 0.000000] [s4bxi_main_actor/INFO] Setup with nid = 3, model_pci = 1 ; e2e_off = 0
[amour3_CPU3:user_app:(22) 0.000000] [s4bxi_main_actor/INFO] Setup with nid = 3, model_pci = 1 ; e2e_off = 0
[amour4_CPU0:user_app:(28) 0.000000] [s4bxi_main_actor/INFO] Setup with nid = 4, model_pci = 1 ; e2e_off = 0
[amour4_CPU1:user_app:(29) 0.000000] [s4bxi_main_actor/INFO] Setup with nid = 4, model_pci = 1 ; e2e_off = 0
[amour4_CPU2:user_app:(30) 0.000000] [s4bxi_main_actor/INFO] Setup with nid = 4, model_pci = 1 ; e2e_off = 0
[amour4_CPU3:user_app:(31) 0.000000] [s4bxi_main_actor/INFO] Setup with nid = 4, model_pci = 1 ; e2e_off = 0
[amour5_CPU0:user_app:(37) 0.000000] [s4bxi_main_actor/INFO] Setup with nid = 5, model_pci = 1 ; e2e_off = 0
[amour5_CPU1:user_app:(38) 0.000000] [s4bxi_main_actor/INFO] Setup with nid = 5, model_pci = 1 ; e2e_off = 0
[amour5_CPU2:user_app:(39) 0.000000] [s4bxi_main_actor/INFO] Setup with nid = 5, model_pci = 1 ; e2e_off = 0
[amour5_CPU3:user_app:(40) 0.000000] [s4bxi_main_actor/INFO] Setup with nid = 5, model_pci = 1 ; e2e_off = 0
[amour6_CPU0:user_app:(46) 0.000000] [s4bxi_main_actor/INFO] Setup with nid = 6, model_pci = 1 ; e2e_off = 0
[amour6_CPU1:user_app:(47) 0.000000] [s4bxi_main_actor/INFO] Setup with nid = 6, model_pci = 1 ; e2e_off = 0
[amour6_CPU2:user_app:(48) 0.000000] [s4bxi_main_actor/INFO] Setup with nid = 6, model_pci = 1 ; e2e_off = 0
[amour6_CPU3:user_app:(49) 0.000000] [s4bxi_main_actor/INFO] Setup with nid = 6, model_pci = 1 ; e2e_off = 0
[amour7_CPU0:user_app:(55) 0.000000] [s4bxi_main_actor/INFO] Setup with nid = 7, model_pci = 1 ; e2e_off = 0
[amour7_CPU1:user_app:(56) 0.000000] [s4bxi_main_actor/INFO] Setup with nid = 7, model_pci = 1 ; e2e_off = 0
[amour7_CPU2:user_app:(57) 0.000000] [s4bxi_main_actor/INFO] Setup with nid = 7, model_pci = 1 ; e2e_off = 0
[amour7_CPU3:user_app:(58) 0.000000] [s4bxi_main_actor/INFO] Setup with nid = 7, model_pci = 1 ; e2e_off = 0
[amour8_CPU0:user_app:(64) 0.000000] [s4bxi_main_actor/INFO] Setup with nid = 8, model_pci = 1 ; e2e_off = 0
[amour8_CPU1:user_app:(65) 0.000000] [s4bxi_main_actor/INFO] Setup with nid = 8, model_pci = 1 ; e2e_off = 0
[amour8_CPU2:user_app:(66) 0.000000] [s4bxi_main_actor/INFO] Setup with nid = 8, model_pci = 1 ; e2e_off = 0
[amour8_CPU3:user_app:(67) 0.000000] [s4bxi_main_actor/INFO] Setup with nid = 8, model_pci = 1 ; e2e_off = 0
[amour1_CPU0:user_app:(1) 0.000000] [user_app/INFO] Init rank 0 ; local_rank 0
[amour1_CPU1:user_app:(2) 0.000000] [user_app/INFO] Init rank 1 ; local_rank 1
[amour1_CPU2:user_app:(3) 0.000000] [user_app/INFO] Init rank 2 ; local_rank 2
[amour1_CPU3:user_app:(4) 0.000000] [user_app/INFO] Init rank 3 ; local_rank 3
[amour2_CPU0:user_app:(10) 0.000000] [user_app/INFO] Init rank 4 ; local_rank 0
[amour2_CPU1:user_app:(11) 0.000000] [user_app/INFO] Init rank 5 ; local_rank 1
[amour2_CPU2:user_app:(12) 0.000000] [user_app/INFO] Init rank 6 ; local_rank 2
[amour2_CPU3:user_app:(13) 0.000000] [user_app/INFO] Init rank 7 ; local_rank 3
[amour3_CPU0:user_app:(19) 0.000000] [user_app/INFO] Init rank 8 ; local_rank 0
[amour3_CPU1:user_app:(20) 0.000000] [user_app/INFO] Init rank 9 ; local_rank 1
[amour3_CPU2:user_app:(21) 0.000000] [user_app/INFO] Init rank 10 ; local_rank 2
[amour3_CPU3:user_app:(22) 0.000000] [user_app/INFO] Init rank 11 ; local_rank 3
[amour4_CPU0:user_app:(28) 0.000000] [user_app/INFO] Init rank 12 ; local_rank 0
[amour4_CPU1:user_app:(29) 0.000000] [user_app/INFO] Init rank 13 ; local_rank 1
[amour4_CPU2:user_app:(30) 0.000000] [user_app/INFO] Init rank 14 ; local_rank 2
[amour4_CPU3:user_app:(31) 0.000000] [user_app/INFO] Init rank 15 ; local_rank 3
[amour5_CPU0:user_app:(37) 0.000000] [user_app/INFO] Init rank 16 ; local_rank 0
[amour5_CPU1:user_app:(38) 0.000000] [user_app/INFO] Init rank 17 ; local_rank 1
[amour5_CPU2:user_app:(39) 0.000000] [user_app/INFO] Init rank 18 ; local_rank 2
[amour5_CPU3:user_app:(40) 0.000000] [user_app/INFO] Init rank 19 ; local_rank 3
[amour6_CPU0:user_app:(46) 0.000000] [user_app/INFO] Init rank 20 ; local_rank 0
[amour6_CPU1:user_app:(47) 0.000000] [user_app/INFO] Init rank 21 ; local_rank 1
[amour6_CPU2:user_app:(48) 0.000000] [user_app/INFO] Init rank 22 ; local_rank 2
[amour6_CPU3:user_app:(49) 0.000000] [user_app/INFO] Init rank 23 ; local_rank 3
[amour7_CPU0:user_app:(55) 0.000000] [user_app/INFO] Init rank 24 ; local_rank 0
[amour7_CPU1:user_app:(56) 0.000000] [user_app/INFO] Init rank 25 ; local_rank 1
[amour7_CPU2:user_app:(57) 0.000000] [user_app/INFO] Init rank 26 ; local_rank 2
[amour7_CPU3:user_app:(58) 0.000000] [user_app/INFO] Init rank 27 ; local_rank 3
[amour8_CPU0:user_app:(64) 0.000000] [user_app/INFO] Init rank 28 ; local_rank 0
[amour8_CPU1:user_app:(65) 0.000000] [user_app/INFO] Init rank 29 ; local_rank 1
[amour8_CPU2:user_app:(66) 0.000000] [user_app/INFO] Init rank 30 ; local_rank 2
[amour8_CPU3:user_app:(67) 0.000000] [user_app/INFO] Init rank 31 ; local_rank 3
[amour1_NIC:nic_e2e:(9) 0.000000] [s4bxi_nic_e2e/INFO] E2E was configured with timeout = 10.000000 and retries = 5
[amour2_NIC:nic_e2e:(18) 0.000000] [s4bxi_nic_e2e/INFO] E2E was configured with timeout = 10.000000 and retries = 5
[amour3_NIC:nic_e2e:(27) 0.000000] [s4bxi_nic_e2e/INFO] E2E was configured with timeout = 10.000000 and retries = 5
[amour4_NIC:nic_e2e:(36) 0.000000] [s4bxi_nic_e2e/INFO] E2E was configured with timeout = 10.000000 and retries = 5
[amour5_NIC:nic_e2e:(45) 0.000000] [s4bxi_nic_e2e/INFO] E2E was configured with timeout = 10.000000 and retries = 5
[amour6_NIC:nic_e2e:(54) 0.000000] [s4bxi_nic_e2e/INFO] E2E was configured with timeout = 10.000000 and retries = 5
[amour7_NIC:nic_e2e:(63) 0.000000] [s4bxi_nic_e2e/INFO] E2E was configured with timeout = 10.000000 and retries = 5
[amour8_NIC:nic_e2e:(72) 0.000000] [s4bxi_nic_e2e/INFO] E2E was configured with timeout = 10.000000 and retries = 5
[amour1_CPU0:user_app:(1) 0.000000] [user_app/INFO] Extracting symbols from Bull lib 0x154cd80 (FQkUTQ0so.40) and SMPI lib 0x7fe2bfdb8850
[amour1_CPU1:user_app:(2) 0.000000] [user_app/INFO] Extracting symbols from Bull lib 0x15511b0 (FQkUTQ1so.40) and SMPI lib 0x7fe2bfdb8850
[amour1_CPU2:user_app:(3) 0.000000] [user_app/INFO] Extracting symbols from Bull lib 0x1553aa0 (FQkUTQ2so.40) and SMPI lib 0x7fe2bfdb8850
[amour1_CPU3:user_app:(4) 0.000000] [user_app/INFO] Extracting symbols from Bull lib 0x15563d0 (FQkUTQ3so.40) and SMPI lib 0x7fe2bfdb8850
[amour2_CPU0:user_app:(10) 0.000000] [user_app/INFO] Extracting symbols from Bull lib 0x1558ea0 (FQkUTQ4so.40) and SMPI lib 0x7fe2bfdb8850
[amour2_CPU1:user_app:(11) 0.000000] [user_app/INFO] Extracting symbols from Bull lib 0x155b810 (FQkUTQ5so.40) and SMPI lib 0x7fe2bfdb8850
[amour2_CPU2:user_app:(12) 0.000000] [user_app/INFO] Extracting symbols from Bull lib 0x155e180 (FQkUTQ6so.40) and SMPI lib 0x7fe2bfdb8850
[amour2_CPU3:user_app:(13) 0.000000] [user_app/INFO] Extracting symbols from Bull lib 0x1560b80 (FQkUTQ7so.40) and SMPI lib 0x7fe2bfdb8850
[amour3_CPU0:user_app:(19) 0.000000] [user_app/INFO] Extracting symbols from Bull lib 0x15637f0 (FQkUTQ8so.40) and SMPI lib 0x7fe2bfdb8850
[amour3_CPU1:user_app:(20) 0.000000] [user_app/INFO] Extracting symbols from Bull lib 0x15661e0 (FQkUTQ9so.40) and SMPI lib 0x7fe2bfdb8850
[amour3_CPU2:user_app:(21) 0.000000] [user_app/INFO] Extracting symbols from Bull lib 0x1568bd0 (FQkUT10so.40) and SMPI lib 0x7fe2bfdb8850
[amour3_CPU3:user_app:(22) 0.000000] [user_app/INFO] Extracting symbols from Bull lib 0x156b650 (FQkUT11so.40) and SMPI lib 0x7fe2bfdb8850
[amour4_CPU0:user_app:(28) 0.000000] [user_app/INFO] Extracting symbols from Bull lib 0x156e110 (FQkUT12so.40) and SMPI lib 0x7fe2bfdb8850
[amour4_CPU1:user_app:(29) 0.000000] [user_app/INFO] Extracting symbols from Bull lib 0x1570b90 (FQkUT13so.40) and SMPI lib 0x7fe2bfdb8850
[amour4_CPU2:user_app:(30) 0.000000] [user_app/INFO] Extracting symbols from Bull lib 0x1573610 (FQkUT14so.40) and SMPI lib 0x7fe2bfdb8850
[amour4_CPU3:user_app:(31) 0.000000] [user_app/INFO] Extracting symbols from Bull lib 0x1576110 (FQkUT15so.40) and SMPI lib 0x7fe2bfdb8850
[amour5_CPU0:user_app:(37) 0.000000] [user_app/INFO] Extracting symbols from Bull lib 0x1579500 (FQkUT16so.40) and SMPI lib 0x7fe2bfdb8850
[amour5_CPU1:user_app:(38) 0.000000] [user_app/INFO] Extracting symbols from Bull lib 0x157bf80 (FQkUT17so.40) and SMPI lib 0x7fe2bfdb8850
[amour5_CPU2:user_app:(39) 0.000000] [user_app/INFO] Extracting symbols from Bull lib 0x157ea00 (FQkUT18so.40) and SMPI lib 0x7fe2bfdb8850
[amour5_CPU3:user_app:(40) 0.000000] [user_app/INFO] Extracting symbols from Bull lib 0x1581480 (FQkUT19so.40) and SMPI lib 0x7fe2bfdb8850
[amour6_CPU0:user_app:(46) 0.000000] [user_app/INFO] Extracting symbols from Bull lib 0x1584240 (FQkUT20so.40) and SMPI lib 0x7fe2bfdb8850
[amour6_CPU1:user_app:(47) 0.000000] [user_app/INFO] Extracting symbols from Bull lib 0x1586cc0 (FQkUT21so.40) and SMPI lib 0x7fe2bfdb8850
[amour6_CPU2:user_app:(48) 0.000000] [user_app/INFO] Extracting symbols from Bull lib 0x1589740 (FQkUT22so.40) and SMPI lib 0x7fe2bfdb8850
[amour6_CPU3:user_app:(49) 0.000000] [user_app/INFO] Extracting symbols from Bull lib 0x158c1c0 (FQkUT23so.40) and SMPI lib 0x7fe2bfdb8850
[amour7_CPU0:user_app:(55) 0.000000] [user_app/INFO] Extracting symbols from Bull lib 0x158ef80 (FQkUT24so.40) and SMPI lib 0x7fe2bfdb8850
[amour7_CPU1:user_app:(56) 0.000000] [user_app/INFO] Extracting symbols from Bull lib 0x1591a00 (FQkUT25so.40) and SMPI lib 0x7fe2bfdb8850
[amour7_CPU2:user_app:(57) 0.000000] [user_app/INFO] Extracting symbols from Bull lib 0x1594480 (FQkUT26so.40) and SMPI lib 0x7fe2bfdb8850
[amour7_CPU3:user_app:(58) 0.000000] [user_app/INFO] Extracting symbols from Bull lib 0x1596f00 (FQkUT27so.40) and SMPI lib 0x7fe2bfdb8850
[amour8_CPU0:user_app:(64) 0.000000] [user_app/INFO] Extracting symbols from Bull lib 0x1599cc0 (FQkUT28so.40) and SMPI lib 0x7fe2bfdb8850
[amour8_CPU1:user_app:(65) 0.000000] [user_app/INFO] Extracting symbols from Bull lib 0x159c740 (FQkUT29so.40) and SMPI lib 0x7fe2bfdb8850
[amour8_CPU2:user_app:(66) 0.000000] [user_app/INFO] Extracting symbols from Bull lib 0x159f1c0 (FQkUT30so.40) and SMPI lib 0x7fe2bfdb8850
[amour8_CPU3:user_app:(67) 0.000000] [user_app/INFO] Extracting symbols from Bull lib 0x15a1e50 (FQkUT31so.40) and SMPI lib 0x7fe2bfdb8850
#~#, 31, 1, 0.000001, 0.000001, Set initial model
#~#, 29, 1, 0.000002, 0.000002, Set initial model
#~#, 30, 1, 0.000002, 0.000002, Set initial model
#~#, 28, 1, 0.000002, 0.000002, Set initial model
#~#, 21, 1, 0.000002, 0.000002, Set initial model
#~#, 16, 1, 0.000002, 0.000002, Set initial model
#~#, 2, 1, 0.000002, 0.000002, Set initial model
#~#, 9, 1, 0.000002, 0.000002, Set initial model
#~#, 25, 1, 0.000002, 0.000002, Set initial model
#~#, 10, 1, 0.000002, 0.000002, Set initial model
#~#, 17, 1, 0.000002, 0.000002, Set initial model
#~#, 8, 1, 0.000002, 0.000002, Set initial model
#~#, 5, 1, 0.000002, 0.000002, Set initial model
#~#, 7, 1, 0.000002, 0.000002, Set initial model
#~#, 19, 1, 0.000002, 0.000002, Set initial model
#~#, 6, 1, 0.000002, 0.000002, Set initial model
#~#, 18, 1, 0.000002, 0.000002, Set initial model
#~#, 27, 1, 0.000002, 0.000002, Set initial model
#~#, 3, 1, 0.000002, 0.000002, Set initial model
#~#, 15, 1, 0.000002, 0.000002, Set initial model
#~#, 14, 1, 0.000002, 0.000002, Set initial model
#~#, 20, 1, 0.000003, 0.000003, Set initial model
#~#, 11, 1, 0.000003, 0.000003, Set initial model
#~#, 12, 1, 0.000003, 0.000003, Set initial model
#~#, 13, 1, 0.000003, 0.000003, Set initial model
#~#, 26, 1, 0.000003, 0.000003, Set initial model
#~#, 23, 1, 0.000003, 0.000003, Set initial model
#~#, 24, 1, 0.000003, 0.000003, Set initial model
#~#, 1, 1, 0.000003, 0.000003, Set initial model
#~#, 4, 1, 0.000003, 0.000003, Set initial model
#~#, 22, 1, 0.000003, 0.000003, Set initial model
#~#, 0, 1, 0.000007, 0.000007, Set initial model
#~#, 0, 0, 0.066621, 0.066614, Time most of the app
#~#, 1, 0, 0.066621, 0.066618, Time most of the app
#~#, 2, 0, 0.066621, 0.066619, Time most of the app
#~#, 3, 0, 0.066622, 0.066619, Time most of the app
#~#, 8, 0, 0.066622, 0.066619, Time most of the app
#~#, 4, 0, 0.066622, 0.066619, Time most of the app
#~#, 16, 0, 0.066622, 0.066620, Time most of the app
#~#, 9, 0, 0.066622, 0.066620, Time most of the app
#~#, 6, 0, 0.066622, 0.066620, Time most of the app
#~#, 5, 0, 0.066622, 0.066620, Time most of the app
#~#, 10, 0, 0.066622, 0.066620, Time most of the app
#~#, 18, 0, 0.066623, 0.066620, Time most of the app
#~#, 7, 0, 0.066623, 0.066620, Time most of the app
#~#, 17, 0, 0.066623, 0.066620, Time most of the app
#~#, 11, 0, 0.066623, 0.066620, Time most of the app
#~#, 12, 0, 0.066623, 0.066620, Time most of the app
#~#, 24, 0, 0.066623, 0.066620, Time most of the app
#~#, 19, 0, 0.066623, 0.066621, Time most of the app
#~#, 20, 0, 0.066623, 0.066621, Time most of the app
#~#, 22, 0, 0.066623, 0.066621, Time most of the app
#~#, 25, 0, 0.066623, 0.066621, Time most of the app
#~#, 13, 0, 0.066623, 0.066621, Time most of the app
#~#, 26, 0, 0.066624, 0.066621, Time most of the app
#~#, 14, 0, 0.066624, 0.066621, Time most of the app
#~#, 21, 0, 0.066624, 0.066622, Time most of the app
#~#, 23, 0, 0.066624, 0.066621, Time most of the app
#~#, 27, 0, 0.066624, 0.066622, Time most of the app
#~#, 15, 0, 0.066624, 0.066622, Time most of the app
#~#, 28, 0, 0.066625, 0.066623, Time most of the app
#~#, 30, 0, 0.066625, 0.066623, Time most of the app
#~#, 29, 0, 0.066625, 0.066623, Time most of the app
#~#, 31, 0, 0.066626, 0.066625, Time most of the app
#~#, 15, 1, 1.855744, 1.789120, Time pdgesv
#~#, 11, 1, 1.855777, 1.789154, Time pdgesv
#~#, 10, 1, 1.855808, 1.789186, Time pdgesv
#~#, 7, 1, 1.855814, 1.789192, Time pdgesv
#~#, 6, 1, 1.855845, 1.789223, Time pdgesv
#~#, 3, 1, 1.855852, 1.789231, Time pdgesv
#~#, 31, 1, 1.855862, 1.789236, Time pdgesv
#~#, 27, 1, 1.855869, 1.789245, Time pdgesv
#~#, 5, 1, 1.855876, 1.789253, Time pdgesv
#~#, 23, 1, 1.855876, 1.789252, Time pdgesv
#~#, 19, 1, 1.855881, 1.789258, Time pdgesv
#~#, 2, 1, 1.855883, 1.789262, Time pdgesv
#~#, 30, 1, 1.855890, 1.789264, Time pdgesv
#~#, 26, 1, 1.855901, 1.789277, Time pdgesv
#~#, 22, 1, 1.855908, 1.789284, Time pdgesv
#~#, 1, 1, 1.855912, 1.789291, Time pdgesv
#~#, 18, 1, 1.855916, 1.789293, Time pdgesv
#~#, 14, 1, 1.855918, 1.789294, Time pdgesv
#~#, 29, 1, 1.855919, 1.789293, Time pdgesv
#~#, 25, 1, 1.855929, 1.789306, Time pdgesv
#~#, 21, 1, 1.855934, 1.789311, Time pdgesv
#~#, 17, 1, 1.855944, 1.789321, Time pdgesv
#~#, 13, 1, 1.855950, 1.789327, Time pdgesv
#~#, 9, 1, 1.855952, 1.789330, Time pdgesv
#~#, 0, 1, 1.855954, 1.789333, Time pdgesv
#~#, 4, 1, 1.855957, 1.789336, Time pdgesv
#~#, 12, 1, 1.855958, 1.789335, Time pdgesv
#~#, 8, 1, 1.855959, 1.789337, Time pdgesv
#~#, 16, 1, 1.855961, 1.789339, Time pdgesv
#~#, 20, 1, 1.855962, 1.789338, Time pdgesv
#~#, 24, 1, 1.855963, 1.789340, Time pdgesv
#~#, 28, 1, 1.855966, 1.789342, Time pdgesv
[amour1_NIC:nic_e2e:(9) 1.856813] [s4bxi_nic_e2e/INFO] Retried 0 times, gave up 0 times
[amour2_NIC:nic_e2e:(18) 1.856813] [s4bxi_nic_e2e/INFO] Retried 0 times, gave up 0 times
[amour3_NIC:nic_e2e:(27) 1.856813] [s4bxi_nic_e2e/INFO] Retried 0 times, gave up 0 times
[amour4_NIC:nic_e2e:(36) 1.856813] [s4bxi_nic_e2e/INFO] Retried 0 times, gave up 0 times
[amour5_NIC:nic_e2e:(45) 1.856813] [s4bxi_nic_e2e/INFO] Retried 0 times, gave up 0 times
[amour6_NIC:nic_e2e:(54) 1.856813] [s4bxi_nic_e2e/INFO] Retried 0 times, gave up 0 times
[amour7_NIC:nic_e2e:(63) 1.856813] [s4bxi_nic_e2e/INFO] Retried 0 times, gave up 0 times
[amour8_NIC:nic_e2e:(72) 1.856813] [s4bxi_nic_e2e/INFO] Retried 0 times, gave up 0 times
[1.856813] [user_app/INFO] Spent 0.352864s initializing and 161.397921s in user application

real	2m44.179s
user	2m31.428s
sys	0m12.351s
