[0.000000] [xbt_cfg/INFO] Configuration change: Set 'smpi/privatization' to '1'
[0.000000] [xbt_cfg/INFO] Configuration change: Set 'smpi/np' to '72'
[0.000000] [xbt_cfg/INFO] Configuration change: Set 'smpi/hostfile' to './hosts.txt'
[0.000000] [xbt_cfg/INFO] Configuration change: Set 'surf/precision' to '1e-9'
[0.000000] [xbt_cfg/INFO] Configuration change: Set 'network/model' to 'SMPI'
[0.000000] [xbt_cfg/INFO] Configuration change: Set 'smpi/privatization' to 'dlopen'
[0.000000] [xbt_cfg/INFO] Configuration change: Set 'smpi/display-timing' to 'yes'
[0.000000] [xbt_cfg/INFO] Configuration change: Set 'smpi/shared-malloc-blocksize' to '2097152'
[0.000000] [xbt_cfg/INFO] Configuration change: Set 'smpi/host-speed' to '10000Mf'
[0.000000] [xbt_cfg/INFO] Configuration change: Set 'smpi/tmpdir' to '/tmp'
[0.000000] [xbt_cfg/INFO] Configuration change: Set 'smpi/async-small-thresh' to '32712'
[0.000000] [xbt_cfg/INFO] Configuration change: Set 'smpi/bw-factor' to '0:0.2699228069054274;392:0.7647794357220394;32712:0.9664149337828888;186836:0.9243880418172589;1538469:0.9732858005841204'
[0.000000] [xbt_cfg/INFO] Configuration change: Set 'smpi/iprobe' to '1.9586518031175638e-07'
[0.000000] [xbt_cfg/INFO] Configuration change: Set 'smpi/lat-factor' to '0:2.7676182391675814;392:3.9432860784637396;32712:10.117401654450653;186836:7.810638891189083;1538469:18.84747638996546'
[0.000000] [xbt_cfg/INFO] Configuration change: Set 'smpi/ois' to '0:5.673519212129521e-07:7.174648137343064e-43;392:5.446695252027938e-07:1.9686168165027744e-11;32712:5.536713106693264e-07:5.082661224033066e-13;186836:5.49289659548938e-07:3.189291810074661e-14;1538469:4.306002121584747e-07:4.21325930847998e-14'
[0.000000] [xbt_cfg/INFO] Configuration change: Set 'smpi/or' to '0:4.879281137093516e-07:2.2618415203462987e-10;392:5.779857092751072e-07:3.8094447278873e-11;32712:0.0:0.0;186836:0.0:0.0;1538469:0.0:0.0'
[0.000000] [xbt_cfg/INFO] Configuration change: Set 'smpi/os' to '0:2.2617745265427535e-06:2.703352029721588e-10;392:2.8385604119907807e-06:1.1264760290330328e-10;32712:0.0:0.0;186836:0.0:0.0;1538469:0.0:0.0'
[0.000000] [xbt_cfg/INFO] Configuration change: Set 'smpi/send-is-detached-thresh' to '32712'
[0.000000] [xbt_cfg/INFO] Configuration change: Set 'smpi/test' to '1.1523121197560569e-07'
[12.701465] [smpi_utils/INFO] Simulated time: 12.7015 seconds. 

The simulation took 50.1295 seconds (after parsing and platform setup)
7.31693 seconds were actual computation of the application

real	0m50.148s
user	0m45.440s
sys	0m4.598s
