magic, rank, use_smpi, time, delta, comment
#~#, 1, 1, 0.000002, 0.000002, Set initial model
#~#, 1, 1, 0.110335, 0.110334, After MPI_Init
#~#, 1, 1, 0.114039, 0.003704, After HPL_pdinfo
#~#, 1, 1, 0.115091, 0.001052, After HPL_grid_info
