magic, rank, use_smpi, time, delta, comment
#~#, 6, 1, 0.000002, 0.000002, Set initial model
#~#, 6, 1, 0.110617, 0.110615, After MPI_Init
#~#, 6, 1, 0.114041, 0.003424, After HPL_pdinfo
#~#, 6, 1, 0.115094, 0.001054, After HPL_grid_info
