magic, rank, use_smpi, time, delta, comment
#~#, 10, 0, 0.000001, 0.000001, Set initial model
#~#, 10, 0, 0.095694, 0.095692, After MPI_Init
#~#, 10, 0, 0.098949, 0.003256, After HPL_pdinfo
#~#, 10, 0, 0.099880, 0.000930, After HPL_grid_info
