magic, rank, use_smpi, time, delta, comment
#~#, 0, 1, 0.000003, 0.000003, Set initial model
#~#, 0, 1, 0.102387, 0.102383, After MPI_Init
#~#, 0, 1, 0.105492, 0.003106, After HPL_pdinfo
#~#, 0, 1, 0.106545, 0.001053, After HPL_grid_info
