magic, rank, use_smpi, time, delta, comment
#~#, 11, 1, 0.000001, 0.000001, Set initial model
#~#, 11, 1, 0.103837, 0.103836, After MPI_Init
#~#, 11, 1, 0.106645, 0.002807, After HPL_pdinfo
#~#, 11, 1, 0.107638, 0.000993, After HPL_grid_info
