magic, rank, use_smpi, time, delta, comment
#~#, 0, 0, 0.000005, 0.000005, Set initial model
#~#, 0, 0, 0.102173, 0.102168, After MPI_Init
#~#, 0, 0, 0.103328, 0.001155, After HPL_pdinfo
#~#, 0, 0, 0.104249, 0.000921, After HPL_grid_info
