magic, rank, use_smpi, time, delta, comment
#~#, 14, 0, 0.000002, 0.000002, Set initial model
#~#, 14, 0, 0.101181, 0.101179, After MPI_Init
#~#, 14, 0, 0.103255, 0.002074, After HPL_pdinfo
#~#, 14, 0, 0.104249, 0.000993, After HPL_grid_info
