magic, rank, use_smpi, time, delta, comment
#~#, 2, 0, 0.000002, 0.000002, Set initial model
#~#, 2, 0, 0.099936, 0.099934, After MPI_Init
#~#, 2, 0, 0.103242, 0.003306, After HPL_pdinfo
#~#, 2, 0, 0.104246, 0.001004, After HPL_grid_info
