Model, N, nodes, ppn, Gflops, WallClockTime
s4bxi, 10000, 10, 5, 392.4, 269.609
s4bxi, 1250, 10, 5, 11.08, 35.129
s4bxi, 15000, 10, 5, 611.7, 447.517
s4bxi, 20000, 10, 5, 784, 619.393
s4bxi, 2500, 10, 5, 41.29, 65.087
s4bxi, 40000, 10, 5, 1125, 1494.474
s4bxi, 50000, 10, 5, 1198, 2050.388
s4bxi, 5000, 10, 5, 140.8, 130.488
s4bxi, 7500, 10, 5, 266.3, 200.357
smpi, 10000, 10, 5, 389.8, 25.585
smpi, 1250, 10, 5, 10.08, 9.689
smpi, 15000, 10, 5, 607.7, 34.549
smpi, 20000, 10, 5, 776.8, 42.686
smpi, 2500, 10, 5, 36.46, 11.919
smpi, 30000, 10, 5, 999.7, 61.033
smpi, 40000, 10, 5, 1127, 80.65299999999999
smpi, 50000, 10, 5, 1203, 97.375
smpi, 5000, 10, 5, 131.6, 16.589
smpi, 7500, 10, 5, 254.6, 21.054
smpirun, 10000, 10, 5, 513.2, 13.053
smpirun, 1250, 10, 5, 18.14, 1.558
smpirun, 15000, 10, 5, 737.6, 19.58
smpirun, 1875, 10, 5, 38.66, 2.327
smpirun, 20000, 10, 5, 894.2, 25.992
smpirun, 2500, 10, 5, 65.37, 3.138
smpirun, 30000, 10, 5, 1078, 39.631
smpirun, 3750, 10, 5, 131.7, 4.795
smpirun, 40000, 10, 5, 1180, 52.854
smpirun, 50000, 10, 5, 1243, 67.245
smpirun, 5000, 10, 5, 208, 6.43
smpirun, 7500, 10, 5, 368.3, 9.817
