[0.000000] [xbt_cfg/INFO] Configuration change: Set 'smpi/cpu-threshold' to '1e-8'
[0.000000] [xbt_cfg/INFO] Configuration change: Set 'smpi/host-speed' to '10000Mf'
[0.000000] [xbt_cfg/INFO] Configuration change: Set 'smpi/shared-malloc-blocksize' to '4194304.0000'
[0.000000] [xbt_cfg/INFO] Configuration change: Set 'smpi/display-timing' to 'yes'
[0.000000] [xbt_cfg/INFO] Configuration change: Set 'surf/precision' to '1e-9'
[0.000000] [xbt_cfg/INFO] Configuration change: Set 'network/loopback-lat' to '0'
[0.000000] [xbt_cfg/INFO] Configuration change: Set 'network/loopback-bw' to '999e9'
[0.000000] [xbt_cfg/INFO] Configuration change: Set 'network/model' to 'CM02'
[0.000000] [xbt_cfg/INFO] Configuration change: Set 'smpi/coll-selector' to 'ompi'
[0.000000] [xbt_cfg/INFO] Configuration change: Set 'smpi/host-speed' to '10000.000000Mf'
[0.000000] [xbt_cfg/INFO] Configuration change: Set 'smpi/cpu-threshold' to '0.000000'
[0.000000] [xbt_cfg/INFO] Configuration change: Set 'smpi/simulate-computation' to 'yes'
[0.000000] [smpi_coll/INFO] Switch to algorithm ompi for collective gather
[0.000000] [smpi_coll/INFO] Switch to algorithm ompi for collective allgather
[0.000000] [smpi_coll/INFO] Switch to algorithm ompi for collective allgatherv
[0.000000] [smpi_coll/INFO] Switch to algorithm ompi for collective allreduce
[0.000000] [smpi_coll/INFO] Switch to algorithm ompi for collective alltoall
[0.000000] [smpi_coll/INFO] Switch to algorithm ompi for collective alltoallv
[0.000000] [smpi_coll/INFO] Switch to algorithm ompi for collective reduce
[0.000000] [smpi_coll/INFO] Switch to algorithm ompi for collective reduce_scatter
[0.000000] [smpi_coll/INFO] Switch to algorithm ompi for collective scatter
[0.000000] [smpi_coll/INFO] Switch to algorithm ompi for collective bcast
[0.000000] [smpi_coll/INFO] Switch to algorithm ompi for collective barrier
[0.000000] [smpi_coll/INFO] Switch to algorithm ompi for collective gather
[0.000000] [smpi_coll/INFO] Switch to algorithm ompi for collective allgather
[0.000000] [smpi_coll/INFO] Switch to algorithm ompi for collective allgatherv
[0.000000] [smpi_coll/INFO] Switch to algorithm ompi for collective allreduce
[0.000000] [smpi_coll/INFO] Switch to algorithm ompi for collective alltoall
[0.000000] [smpi_coll/INFO] Switch to algorithm ompi for collective alltoallv
[0.000000] [smpi_coll/INFO] Switch to algorithm ompi for collective reduce
[0.000000] [smpi_coll/INFO] Switch to algorithm ompi for collective reduce_scatter
[0.000000] [smpi_coll/INFO] Switch to algorithm ompi for collective scatter
[0.000000] [smpi_coll/INFO] Switch to algorithm ompi for collective bcast
[0.000000] [smpi_coll/INFO] Switch to algorithm ompi for collective barrier
[amour1_CPU0:user_app:(1) 0.000000] [s4bxi_main_actor/INFO] Setup with nid = 1, model_pci = 1 ; e2e_off = 0
[amour1_CPU1:user_app:(2) 0.000000] [s4bxi_main_actor/INFO] Setup with nid = 1, model_pci = 1 ; e2e_off = 0
[amour1_CPU2:user_app:(3) 0.000000] [s4bxi_main_actor/INFO] Setup with nid = 1, model_pci = 1 ; e2e_off = 0
[amour1_CPU3:user_app:(4) 0.000000] [s4bxi_main_actor/INFO] Setup with nid = 1, model_pci = 1 ; e2e_off = 0
[amour1_CPU4:user_app:(5) 0.000000] [s4bxi_main_actor/INFO] Setup with nid = 1, model_pci = 1 ; e2e_off = 0
[amour1_CPU5:user_app:(6) 0.000000] [s4bxi_main_actor/INFO] Setup with nid = 1, model_pci = 1 ; e2e_off = 0
[amour1_CPU6:user_app:(7) 0.000000] [s4bxi_main_actor/INFO] Setup with nid = 1, model_pci = 1 ; e2e_off = 0
[amour2_CPU0:user_app:(13) 0.000000] [s4bxi_main_actor/INFO] Setup with nid = 2, model_pci = 1 ; e2e_off = 0
[amour2_CPU1:user_app:(14) 0.000000] [s4bxi_main_actor/INFO] Setup with nid = 2, model_pci = 1 ; e2e_off = 0
[amour2_CPU2:user_app:(15) 0.000000] [s4bxi_main_actor/INFO] Setup with nid = 2, model_pci = 1 ; e2e_off = 0
[amour2_CPU3:user_app:(16) 0.000000] [s4bxi_main_actor/INFO] Setup with nid = 2, model_pci = 1 ; e2e_off = 0
[amour2_CPU4:user_app:(17) 0.000000] [s4bxi_main_actor/INFO] Setup with nid = 2, model_pci = 1 ; e2e_off = 0
[amour2_CPU5:user_app:(18) 0.000000] [s4bxi_main_actor/INFO] Setup with nid = 2, model_pci = 1 ; e2e_off = 0
[amour2_CPU6:user_app:(19) 0.000000] [s4bxi_main_actor/INFO] Setup with nid = 2, model_pci = 1 ; e2e_off = 0
[amour3_CPU0:user_app:(25) 0.000000] [s4bxi_main_actor/INFO] Setup with nid = 3, model_pci = 1 ; e2e_off = 0
[amour3_CPU1:user_app:(26) 0.000000] [s4bxi_main_actor/INFO] Setup with nid = 3, model_pci = 1 ; e2e_off = 0
[amour3_CPU2:user_app:(27) 0.000000] [s4bxi_main_actor/INFO] Setup with nid = 3, model_pci = 1 ; e2e_off = 0
[amour3_CPU3:user_app:(28) 0.000000] [s4bxi_main_actor/INFO] Setup with nid = 3, model_pci = 1 ; e2e_off = 0
[amour3_CPU4:user_app:(29) 0.000000] [s4bxi_main_actor/INFO] Setup with nid = 3, model_pci = 1 ; e2e_off = 0
[amour3_CPU5:user_app:(30) 0.000000] [s4bxi_main_actor/INFO] Setup with nid = 3, model_pci = 1 ; e2e_off = 0
[amour3_CPU6:user_app:(31) 0.000000] [s4bxi_main_actor/INFO] Setup with nid = 3, model_pci = 1 ; e2e_off = 0
[amour4_CPU0:user_app:(37) 0.000000] [s4bxi_main_actor/INFO] Setup with nid = 4, model_pci = 1 ; e2e_off = 0
[amour4_CPU1:user_app:(38) 0.000000] [s4bxi_main_actor/INFO] Setup with nid = 4, model_pci = 1 ; e2e_off = 0
[amour4_CPU2:user_app:(39) 0.000000] [s4bxi_main_actor/INFO] Setup with nid = 4, model_pci = 1 ; e2e_off = 0
[amour4_CPU3:user_app:(40) 0.000000] [s4bxi_main_actor/INFO] Setup with nid = 4, model_pci = 1 ; e2e_off = 0
[amour4_CPU4:user_app:(41) 0.000000] [s4bxi_main_actor/INFO] Setup with nid = 4, model_pci = 1 ; e2e_off = 0
[amour4_CPU5:user_app:(42) 0.000000] [s4bxi_main_actor/INFO] Setup with nid = 4, model_pci = 1 ; e2e_off = 0
[amour4_CPU6:user_app:(43) 0.000000] [s4bxi_main_actor/INFO] Setup with nid = 4, model_pci = 1 ; e2e_off = 0
[amour5_CPU0:user_app:(49) 0.000000] [s4bxi_main_actor/INFO] Setup with nid = 5, model_pci = 1 ; e2e_off = 0
[amour5_CPU1:user_app:(50) 0.000000] [s4bxi_main_actor/INFO] Setup with nid = 5, model_pci = 1 ; e2e_off = 0
[amour5_CPU2:user_app:(51) 0.000000] [s4bxi_main_actor/INFO] Setup with nid = 5, model_pci = 1 ; e2e_off = 0
[amour5_CPU3:user_app:(52) 0.000000] [s4bxi_main_actor/INFO] Setup with nid = 5, model_pci = 1 ; e2e_off = 0
[amour5_CPU4:user_app:(53) 0.000000] [s4bxi_main_actor/INFO] Setup with nid = 5, model_pci = 1 ; e2e_off = 0
[amour5_CPU5:user_app:(54) 0.000000] [s4bxi_main_actor/INFO] Setup with nid = 5, model_pci = 1 ; e2e_off = 0
[amour5_CPU6:user_app:(55) 0.000000] [s4bxi_main_actor/INFO] Setup with nid = 5, model_pci = 1 ; e2e_off = 0
[amour6_CPU0:user_app:(61) 0.000000] [s4bxi_main_actor/INFO] Setup with nid = 6, model_pci = 1 ; e2e_off = 0
[amour6_CPU1:user_app:(62) 0.000000] [s4bxi_main_actor/INFO] Setup with nid = 6, model_pci = 1 ; e2e_off = 0
[amour6_CPU2:user_app:(63) 0.000000] [s4bxi_main_actor/INFO] Setup with nid = 6, model_pci = 1 ; e2e_off = 0
[amour6_CPU3:user_app:(64) 0.000000] [s4bxi_main_actor/INFO] Setup with nid = 6, model_pci = 1 ; e2e_off = 0
[amour6_CPU4:user_app:(65) 0.000000] [s4bxi_main_actor/INFO] Setup with nid = 6, model_pci = 1 ; e2e_off = 0
[amour6_CPU5:user_app:(66) 0.000000] [s4bxi_main_actor/INFO] Setup with nid = 6, model_pci = 1 ; e2e_off = 0
[amour6_CPU6:user_app:(67) 0.000000] [s4bxi_main_actor/INFO] Setup with nid = 6, model_pci = 1 ; e2e_off = 0
[amour7_CPU0:user_app:(73) 0.000000] [s4bxi_main_actor/INFO] Setup with nid = 7, model_pci = 1 ; e2e_off = 0
[amour7_CPU1:user_app:(74) 0.000000] [s4bxi_main_actor/INFO] Setup with nid = 7, model_pci = 1 ; e2e_off = 0
[amour7_CPU2:user_app:(75) 0.000000] [s4bxi_main_actor/INFO] Setup with nid = 7, model_pci = 1 ; e2e_off = 0
[amour7_CPU3:user_app:(76) 0.000000] [s4bxi_main_actor/INFO] Setup with nid = 7, model_pci = 1 ; e2e_off = 0
[amour7_CPU4:user_app:(77) 0.000000] [s4bxi_main_actor/INFO] Setup with nid = 7, model_pci = 1 ; e2e_off = 0
[amour7_CPU5:user_app:(78) 0.000000] [s4bxi_main_actor/INFO] Setup with nid = 7, model_pci = 1 ; e2e_off = 0
[amour7_CPU6:user_app:(79) 0.000000] [s4bxi_main_actor/INFO] Setup with nid = 7, model_pci = 1 ; e2e_off = 0
[amour8_CPU0:user_app:(85) 0.000000] [s4bxi_main_actor/INFO] Setup with nid = 8, model_pci = 1 ; e2e_off = 0
[amour8_CPU1:user_app:(86) 0.000000] [s4bxi_main_actor/INFO] Setup with nid = 8, model_pci = 1 ; e2e_off = 0
[amour8_CPU2:user_app:(87) 0.000000] [s4bxi_main_actor/INFO] Setup with nid = 8, model_pci = 1 ; e2e_off = 0
[amour8_CPU3:user_app:(88) 0.000000] [s4bxi_main_actor/INFO] Setup with nid = 8, model_pci = 1 ; e2e_off = 0
[amour8_CPU4:user_app:(89) 0.000000] [s4bxi_main_actor/INFO] Setup with nid = 8, model_pci = 1 ; e2e_off = 0
[amour8_CPU5:user_app:(90) 0.000000] [s4bxi_main_actor/INFO] Setup with nid = 8, model_pci = 1 ; e2e_off = 0
[amour8_CPU6:user_app:(91) 0.000000] [s4bxi_main_actor/INFO] Setup with nid = 8, model_pci = 1 ; e2e_off = 0
[amour9_CPU0:user_app:(97) 0.000000] [s4bxi_main_actor/INFO] Setup with nid = 9, model_pci = 1 ; e2e_off = 0
[amour9_CPU1:user_app:(98) 0.000000] [s4bxi_main_actor/INFO] Setup with nid = 9, model_pci = 1 ; e2e_off = 0
[amour9_CPU2:user_app:(99) 0.000000] [s4bxi_main_actor/INFO] Setup with nid = 9, model_pci = 1 ; e2e_off = 0
[amour9_CPU3:user_app:(100) 0.000000] [s4bxi_main_actor/INFO] Setup with nid = 9, model_pci = 1 ; e2e_off = 0
[amour9_CPU4:user_app:(101) 0.000000] [s4bxi_main_actor/INFO] Setup with nid = 9, model_pci = 1 ; e2e_off = 0
[amour9_CPU5:user_app:(102) 0.000000] [s4bxi_main_actor/INFO] Setup with nid = 9, model_pci = 1 ; e2e_off = 0
[amour9_CPU6:user_app:(103) 0.000000] [s4bxi_main_actor/INFO] Setup with nid = 9, model_pci = 1 ; e2e_off = 0
[amour10_CPU0:user_app:(109) 0.000000] [s4bxi_main_actor/INFO] Setup with nid = 10, model_pci = 1 ; e2e_off = 0
[amour10_CPU1:user_app:(110) 0.000000] [s4bxi_main_actor/INFO] Setup with nid = 10, model_pci = 1 ; e2e_off = 0
[amour10_CPU2:user_app:(111) 0.000000] [s4bxi_main_actor/INFO] Setup with nid = 10, model_pci = 1 ; e2e_off = 0
[amour10_CPU3:user_app:(112) 0.000000] [s4bxi_main_actor/INFO] Setup with nid = 10, model_pci = 1 ; e2e_off = 0
[amour10_CPU4:user_app:(113) 0.000000] [s4bxi_main_actor/INFO] Setup with nid = 10, model_pci = 1 ; e2e_off = 0
[amour10_CPU5:user_app:(114) 0.000000] [s4bxi_main_actor/INFO] Setup with nid = 10, model_pci = 1 ; e2e_off = 0
[amour10_CPU6:user_app:(115) 0.000000] [s4bxi_main_actor/INFO] Setup with nid = 10, model_pci = 1 ; e2e_off = 0
[amour11_CPU0:user_app:(121) 0.000000] [s4bxi_main_actor/INFO] Setup with nid = 11, model_pci = 1 ; e2e_off = 0
[amour11_CPU1:user_app:(122) 0.000000] [s4bxi_main_actor/INFO] Setup with nid = 11, model_pci = 1 ; e2e_off = 0
[amour11_CPU2:user_app:(123) 0.000000] [s4bxi_main_actor/INFO] Setup with nid = 11, model_pci = 1 ; e2e_off = 0
[amour11_CPU3:user_app:(124) 0.000000] [s4bxi_main_actor/INFO] Setup with nid = 11, model_pci = 1 ; e2e_off = 0
[amour11_CPU4:user_app:(125) 0.000000] [s4bxi_main_actor/INFO] Setup with nid = 11, model_pci = 1 ; e2e_off = 0
[amour11_CPU5:user_app:(126) 0.000000] [s4bxi_main_actor/INFO] Setup with nid = 11, model_pci = 1 ; e2e_off = 0
[amour11_CPU6:user_app:(127) 0.000000] [s4bxi_main_actor/INFO] Setup with nid = 11, model_pci = 1 ; e2e_off = 0
[amour12_CPU0:user_app:(133) 0.000000] [s4bxi_main_actor/INFO] Setup with nid = 12, model_pci = 1 ; e2e_off = 0
[amour12_CPU1:user_app:(134) 0.000000] [s4bxi_main_actor/INFO] Setup with nid = 12, model_pci = 1 ; e2e_off = 0
[amour12_CPU2:user_app:(135) 0.000000] [s4bxi_main_actor/INFO] Setup with nid = 12, model_pci = 1 ; e2e_off = 0
[amour12_CPU3:user_app:(136) 0.000000] [s4bxi_main_actor/INFO] Setup with nid = 12, model_pci = 1 ; e2e_off = 0
[amour12_CPU4:user_app:(137) 0.000000] [s4bxi_main_actor/INFO] Setup with nid = 12, model_pci = 1 ; e2e_off = 0
[amour12_CPU5:user_app:(138) 0.000000] [s4bxi_main_actor/INFO] Setup with nid = 12, model_pci = 1 ; e2e_off = 0
[amour12_CPU6:user_app:(139) 0.000000] [s4bxi_main_actor/INFO] Setup with nid = 12, model_pci = 1 ; e2e_off = 0
[amour13_CPU0:user_app:(145) 0.000000] [s4bxi_main_actor/INFO] Setup with nid = 13, model_pci = 1 ; e2e_off = 0
[amour13_CPU1:user_app:(146) 0.000000] [s4bxi_main_actor/INFO] Setup with nid = 13, model_pci = 1 ; e2e_off = 0
[amour13_CPU2:user_app:(147) 0.000000] [s4bxi_main_actor/INFO] Setup with nid = 13, model_pci = 1 ; e2e_off = 0
[amour13_CPU3:user_app:(148) 0.000000] [s4bxi_main_actor/INFO] Setup with nid = 13, model_pci = 1 ; e2e_off = 0
[amour13_CPU4:user_app:(149) 0.000000] [s4bxi_main_actor/INFO] Setup with nid = 13, model_pci = 1 ; e2e_off = 0
[amour13_CPU5:user_app:(150) 0.000000] [s4bxi_main_actor/INFO] Setup with nid = 13, model_pci = 1 ; e2e_off = 0
[amour13_CPU6:user_app:(151) 0.000000] [s4bxi_main_actor/INFO] Setup with nid = 13, model_pci = 1 ; e2e_off = 0
[amour14_CPU0:user_app:(157) 0.000000] [s4bxi_main_actor/INFO] Setup with nid = 14, model_pci = 1 ; e2e_off = 0
[amour14_CPU1:user_app:(158) 0.000000] [s4bxi_main_actor/INFO] Setup with nid = 14, model_pci = 1 ; e2e_off = 0
[amour14_CPU2:user_app:(159) 0.000000] [s4bxi_main_actor/INFO] Setup with nid = 14, model_pci = 1 ; e2e_off = 0
[amour14_CPU3:user_app:(160) 0.000000] [s4bxi_main_actor/INFO] Setup with nid = 14, model_pci = 1 ; e2e_off = 0
[amour14_CPU4:user_app:(161) 0.000000] [s4bxi_main_actor/INFO] Setup with nid = 14, model_pci = 1 ; e2e_off = 0
[amour14_CPU5:user_app:(162) 0.000000] [s4bxi_main_actor/INFO] Setup with nid = 14, model_pci = 1 ; e2e_off = 0
[amour14_CPU6:user_app:(163) 0.000000] [s4bxi_main_actor/INFO] Setup with nid = 14, model_pci = 1 ; e2e_off = 0
[amour1_CPU0:user_app:(1) 0.000000] [user_app/INFO] Init rank 0 ; local_rank 0
[amour1_CPU1:user_app:(2) 0.000000] [user_app/INFO] Init rank 1 ; local_rank 1
[amour1_CPU2:user_app:(3) 0.000000] [user_app/INFO] Init rank 2 ; local_rank 2
[amour1_CPU3:user_app:(4) 0.000000] [user_app/INFO] Init rank 3 ; local_rank 3
[amour1_CPU4:user_app:(5) 0.000000] [user_app/INFO] Init rank 4 ; local_rank 4
[amour1_CPU5:user_app:(6) 0.000000] [user_app/INFO] Init rank 5 ; local_rank 5
[amour1_CPU6:user_app:(7) 0.000000] [user_app/INFO] Init rank 6 ; local_rank 6
[amour2_CPU0:user_app:(13) 0.000000] [user_app/INFO] Init rank 7 ; local_rank 0
[amour2_CPU1:user_app:(14) 0.000000] [user_app/INFO] Init rank 8 ; local_rank 1
[amour2_CPU2:user_app:(15) 0.000000] [user_app/INFO] Init rank 9 ; local_rank 2
[amour2_CPU3:user_app:(16) 0.000000] [user_app/INFO] Init rank 10 ; local_rank 3
[amour2_CPU4:user_app:(17) 0.000000] [user_app/INFO] Init rank 11 ; local_rank 4
[amour2_CPU5:user_app:(18) 0.000000] [user_app/INFO] Init rank 12 ; local_rank 5
[amour2_CPU6:user_app:(19) 0.000000] [user_app/INFO] Init rank 13 ; local_rank 6
[amour3_CPU0:user_app:(25) 0.000000] [user_app/INFO] Init rank 14 ; local_rank 0
[amour3_CPU1:user_app:(26) 0.000000] [user_app/INFO] Init rank 15 ; local_rank 1
[amour3_CPU2:user_app:(27) 0.000000] [user_app/INFO] Init rank 16 ; local_rank 2
[amour3_CPU3:user_app:(28) 0.000000] [user_app/INFO] Init rank 17 ; local_rank 3
[amour3_CPU4:user_app:(29) 0.000000] [user_app/INFO] Init rank 18 ; local_rank 4
[amour3_CPU5:user_app:(30) 0.000000] [user_app/INFO] Init rank 19 ; local_rank 5
[amour3_CPU6:user_app:(31) 0.000000] [user_app/INFO] Init rank 20 ; local_rank 6
[amour4_CPU0:user_app:(37) 0.000000] [user_app/INFO] Init rank 21 ; local_rank 0
[amour4_CPU1:user_app:(38) 0.000000] [user_app/INFO] Init rank 22 ; local_rank 1
[amour4_CPU2:user_app:(39) 0.000000] [user_app/INFO] Init rank 23 ; local_rank 2
[amour4_CPU3:user_app:(40) 0.000000] [user_app/INFO] Init rank 24 ; local_rank 3
[amour4_CPU4:user_app:(41) 0.000000] [user_app/INFO] Init rank 25 ; local_rank 4
[amour4_CPU5:user_app:(42) 0.000000] [user_app/INFO] Init rank 26 ; local_rank 5
[amour4_CPU6:user_app:(43) 0.000000] [user_app/INFO] Init rank 27 ; local_rank 6
[amour5_CPU0:user_app:(49) 0.000000] [user_app/INFO] Init rank 28 ; local_rank 0
[amour5_CPU1:user_app:(50) 0.000000] [user_app/INFO] Init rank 29 ; local_rank 1
[amour5_CPU2:user_app:(51) 0.000000] [user_app/INFO] Init rank 30 ; local_rank 2
[amour5_CPU3:user_app:(52) 0.000000] [user_app/INFO] Init rank 31 ; local_rank 3
[amour5_CPU4:user_app:(53) 0.000000] [user_app/INFO] Init rank 32 ; local_rank 4
[amour5_CPU5:user_app:(54) 0.000000] [user_app/INFO] Init rank 33 ; local_rank 5
[amour5_CPU6:user_app:(55) 0.000000] [user_app/INFO] Init rank 34 ; local_rank 6
[amour6_CPU0:user_app:(61) 0.000000] [user_app/INFO] Init rank 35 ; local_rank 0
[amour6_CPU1:user_app:(62) 0.000000] [user_app/INFO] Init rank 36 ; local_rank 1
[amour6_CPU2:user_app:(63) 0.000000] [user_app/INFO] Init rank 37 ; local_rank 2
[amour6_CPU3:user_app:(64) 0.000000] [user_app/INFO] Init rank 38 ; local_rank 3
[amour6_CPU4:user_app:(65) 0.000000] [user_app/INFO] Init rank 39 ; local_rank 4
[amour6_CPU5:user_app:(66) 0.000000] [user_app/INFO] Init rank 40 ; local_rank 5
[amour6_CPU6:user_app:(67) 0.000000] [user_app/INFO] Init rank 41 ; local_rank 6
[amour7_CPU0:user_app:(73) 0.000000] [user_app/INFO] Init rank 42 ; local_rank 0
[amour7_CPU1:user_app:(74) 0.000000] [user_app/INFO] Init rank 43 ; local_rank 1
[amour7_CPU2:user_app:(75) 0.000000] [user_app/INFO] Init rank 44 ; local_rank 2
[amour7_CPU3:user_app:(76) 0.000000] [user_app/INFO] Init rank 45 ; local_rank 3
[amour7_CPU4:user_app:(77) 0.000000] [user_app/INFO] Init rank 46 ; local_rank 4
[amour7_CPU5:user_app:(78) 0.000000] [user_app/INFO] Init rank 47 ; local_rank 5
[amour7_CPU6:user_app:(79) 0.000000] [user_app/INFO] Init rank 48 ; local_rank 6
[amour8_CPU0:user_app:(85) 0.000000] [user_app/INFO] Init rank 49 ; local_rank 0
[amour8_CPU1:user_app:(86) 0.000000] [user_app/INFO] Init rank 50 ; local_rank 1
[amour8_CPU2:user_app:(87) 0.000000] [user_app/INFO] Init rank 51 ; local_rank 2
[amour8_CPU3:user_app:(88) 0.000000] [user_app/INFO] Init rank 52 ; local_rank 3
[amour8_CPU4:user_app:(89) 0.000000] [user_app/INFO] Init rank 53 ; local_rank 4
[amour8_CPU5:user_app:(90) 0.000000] [user_app/INFO] Init rank 54 ; local_rank 5
[amour8_CPU6:user_app:(91) 0.000000] [user_app/INFO] Init rank 55 ; local_rank 6
[amour9_CPU0:user_app:(97) 0.000000] [user_app/INFO] Init rank 56 ; local_rank 0
[amour9_CPU1:user_app:(98) 0.000000] [user_app/INFO] Init rank 57 ; local_rank 1
[amour9_CPU2:user_app:(99) 0.000000] [user_app/INFO] Init rank 58 ; local_rank 2
[amour9_CPU3:user_app:(100) 0.000000] [user_app/INFO] Init rank 59 ; local_rank 3
[amour9_CPU4:user_app:(101) 0.000000] [user_app/INFO] Init rank 60 ; local_rank 4
[amour9_CPU5:user_app:(102) 0.000000] [user_app/INFO] Init rank 61 ; local_rank 5
[amour9_CPU6:user_app:(103) 0.000000] [user_app/INFO] Init rank 62 ; local_rank 6
[amour10_CPU0:user_app:(109) 0.000000] [user_app/INFO] Init rank 63 ; local_rank 0
[amour10_CPU1:user_app:(110) 0.000000] [user_app/INFO] Init rank 64 ; local_rank 1
[amour10_CPU2:user_app:(111) 0.000000] [user_app/INFO] Init rank 65 ; local_rank 2
[amour10_CPU3:user_app:(112) 0.000000] [user_app/INFO] Init rank 66 ; local_rank 3
[amour10_CPU4:user_app:(113) 0.000000] [user_app/INFO] Init rank 67 ; local_rank 4
[amour10_CPU5:user_app:(114) 0.000000] [user_app/INFO] Init rank 68 ; local_rank 5
[amour10_CPU6:user_app:(115) 0.000000] [user_app/INFO] Init rank 69 ; local_rank 6
[amour11_CPU0:user_app:(121) 0.000000] [user_app/INFO] Init rank 70 ; local_rank 0
[amour11_CPU1:user_app:(122) 0.000000] [user_app/INFO] Init rank 71 ; local_rank 1
[amour11_CPU2:user_app:(123) 0.000000] [user_app/INFO] Init rank 72 ; local_rank 2
[amour11_CPU3:user_app:(124) 0.000000] [user_app/INFO] Init rank 73 ; local_rank 3
[amour11_CPU4:user_app:(125) 0.000000] [user_app/INFO] Init rank 74 ; local_rank 4
[amour11_CPU5:user_app:(126) 0.000000] [user_app/INFO] Init rank 75 ; local_rank 5
[amour11_CPU6:user_app:(127) 0.000000] [user_app/INFO] Init rank 76 ; local_rank 6
[amour12_CPU0:user_app:(133) 0.000000] [user_app/INFO] Init rank 77 ; local_rank 0
[amour12_CPU1:user_app:(134) 0.000000] [user_app/INFO] Init rank 78 ; local_rank 1
[amour12_CPU2:user_app:(135) 0.000000] [user_app/INFO] Init rank 79 ; local_rank 2
[amour12_CPU3:user_app:(136) 0.000000] [user_app/INFO] Init rank 80 ; local_rank 3
[amour12_CPU4:user_app:(137) 0.000000] [user_app/INFO] Init rank 81 ; local_rank 4
[amour12_CPU5:user_app:(138) 0.000000] [user_app/INFO] Init rank 82 ; local_rank 5
[amour12_CPU6:user_app:(139) 0.000000] [user_app/INFO] Init rank 83 ; local_rank 6
[amour13_CPU0:user_app:(145) 0.000000] [user_app/INFO] Init rank 84 ; local_rank 0
[amour13_CPU1:user_app:(146) 0.000000] [user_app/INFO] Init rank 85 ; local_rank 1
[amour13_CPU2:user_app:(147) 0.000000] [user_app/INFO] Init rank 86 ; local_rank 2
[amour13_CPU3:user_app:(148) 0.000000] [user_app/INFO] Init rank 87 ; local_rank 3
[amour13_CPU4:user_app:(149) 0.000000] [user_app/INFO] Init rank 88 ; local_rank 4
[amour13_CPU5:user_app:(150) 0.000000] [user_app/INFO] Init rank 89 ; local_rank 5
[amour13_CPU6:user_app:(151) 0.000000] [user_app/INFO] Init rank 90 ; local_rank 6
[amour14_CPU0:user_app:(157) 0.000000] [user_app/INFO] Init rank 91 ; local_rank 0
[amour14_CPU1:user_app:(158) 0.000000] [user_app/INFO] Init rank 92 ; local_rank 1
[amour14_CPU2:user_app:(159) 0.000000] [user_app/INFO] Init rank 93 ; local_rank 2
[amour14_CPU3:user_app:(160) 0.000000] [user_app/INFO] Init rank 94 ; local_rank 3
[amour14_CPU4:user_app:(161) 0.000000] [user_app/INFO] Init rank 95 ; local_rank 4
[amour14_CPU5:user_app:(162) 0.000000] [user_app/INFO] Init rank 96 ; local_rank 5
[amour14_CPU6:user_app:(163) 0.000000] [user_app/INFO] Init rank 97 ; local_rank 6
[amour1_NIC:nic_e2e:(12) 0.000000] [s4bxi_nic_e2e/INFO] E2E was configured with timeout = 10.000000 and retries = 5
[amour2_NIC:nic_e2e:(24) 0.000000] [s4bxi_nic_e2e/INFO] E2E was configured with timeout = 10.000000 and retries = 5
[amour3_NIC:nic_e2e:(36) 0.000000] [s4bxi_nic_e2e/INFO] E2E was configured with timeout = 10.000000 and retries = 5
[amour4_NIC:nic_e2e:(48) 0.000000] [s4bxi_nic_e2e/INFO] E2E was configured with timeout = 10.000000 and retries = 5
[amour5_NIC:nic_e2e:(60) 0.000000] [s4bxi_nic_e2e/INFO] E2E was configured with timeout = 10.000000 and retries = 5
[amour6_NIC:nic_e2e:(72) 0.000000] [s4bxi_nic_e2e/INFO] E2E was configured with timeout = 10.000000 and retries = 5
[amour7_NIC:nic_e2e:(84) 0.000000] [s4bxi_nic_e2e/INFO] E2E was configured with timeout = 10.000000 and retries = 5
[amour8_NIC:nic_e2e:(96) 0.000000] [s4bxi_nic_e2e/INFO] E2E was configured with timeout = 10.000000 and retries = 5
[amour9_NIC:nic_e2e:(108) 0.000000] [s4bxi_nic_e2e/INFO] E2E was configured with timeout = 10.000000 and retries = 5
[amour10_NIC:nic_e2e:(120) 0.000000] [s4bxi_nic_e2e/INFO] E2E was configured with timeout = 10.000000 and retries = 5
[amour11_NIC:nic_e2e:(132) 0.000000] [s4bxi_nic_e2e/INFO] E2E was configured with timeout = 10.000000 and retries = 5
[amour12_NIC:nic_e2e:(144) 0.000000] [s4bxi_nic_e2e/INFO] E2E was configured with timeout = 10.000000 and retries = 5
[amour13_NIC:nic_e2e:(156) 0.000000] [s4bxi_nic_e2e/INFO] E2E was configured with timeout = 10.000000 and retries = 5
[amour14_NIC:nic_e2e:(168) 0.000000] [s4bxi_nic_e2e/INFO] E2E was configured with timeout = 10.000000 and retries = 5
[amour1_CPU0:user_app:(1) 0.000000] [user_app/INFO] Extracting symbols from Bull lib 0x1b154c0 (WTOUgK0so.40) and SMPI lib 0x7f198b8b1850
[amour1_CPU1:user_app:(2) 0.000000] [user_app/INFO] Extracting symbols from Bull lib 0x1b198f0 (WTOUgK1so.40) and SMPI lib 0x7f198b8b1850
[amour1_CPU2:user_app:(3) 0.000000] [user_app/INFO] Extracting symbols from Bull lib 0x1b1c1a0 (WTOUgK2so.40) and SMPI lib 0x7f198b8b1850
[amour1_CPU3:user_app:(4) 0.000000] [user_app/INFO] Extracting symbols from Bull lib 0x1b1e9b0 (WTOUgK3so.40) and SMPI lib 0x7f198b8b1850
[amour1_CPU4:user_app:(5) 0.000000] [user_app/INFO] Extracting symbols from Bull lib 0x1b21290 (WTOUgK4so.40) and SMPI lib 0x7f198b8b1850
[amour1_CPU5:user_app:(6) 0.000000] [user_app/INFO] Extracting symbols from Bull lib 0x1b23ae0 (WTOUgK5so.40) and SMPI lib 0x7f198b8b1850
[amour1_CPU6:user_app:(7) 0.000000] [user_app/INFO] Extracting symbols from Bull lib 0x1b26330 (WTOUgK6so.40) and SMPI lib 0x7f198b8b1850
[amour2_CPU0:user_app:(13) 0.000000] [user_app/INFO] Extracting symbols from Bull lib 0x1b28c10 (WTOUgK7so.40) and SMPI lib 0x7f198b8b1850
[amour2_CPU1:user_app:(14) 0.000000] [user_app/INFO] Extracting symbols from Bull lib 0x1b2b740 (WTOUgK8so.40) and SMPI lib 0x7f198b8b1850
[amour2_CPU2:user_app:(15) 0.000000] [user_app/INFO] Extracting symbols from Bull lib 0x1b2e090 (WTOUgK9so.40) and SMPI lib 0x7f198b8b1850
[amour2_CPU3:user_app:(16) 0.000000] [user_app/INFO] Extracting symbols from Bull lib 0x1b30a80 (WTOUg10so.40) and SMPI lib 0x7f198b8b1850
[amour2_CPU4:user_app:(17) 0.000000] [user_app/INFO] Extracting symbols from Bull lib 0x1b33500 (WTOUg11so.40) and SMPI lib 0x7f198b8b1850
[amour2_CPU5:user_app:(18) 0.000000] [user_app/INFO] Extracting symbols from Bull lib 0x1b35f80 (WTOUg12so.40) and SMPI lib 0x7f198b8b1850
[amour2_CPU6:user_app:(19) 0.000000] [user_app/INFO] Extracting symbols from Bull lib 0x1b38a00 (WTOUg13so.40) and SMPI lib 0x7f198b8b1850
[amour3_CPU0:user_app:(25) 0.000000] [user_app/INFO] Extracting symbols from Bull lib 0x1b3b4c0 (WTOUg14so.40) and SMPI lib 0x7f198b8b1850
[amour3_CPU1:user_app:(26) 0.000000] [user_app/INFO] Extracting symbols from Bull lib 0x1b3dfc0 (WTOUg15so.40) and SMPI lib 0x7f198b8b1850
[amour3_CPU2:user_app:(27) 0.000000] [user_app/INFO] Extracting symbols from Bull lib 0x1b41070 (WTOUg16so.40) and SMPI lib 0x7f198b8b1850
[amour3_CPU3:user_app:(28) 0.000000] [user_app/INFO] Extracting symbols from Bull lib 0x1b43af0 (WTOUg17so.40) and SMPI lib 0x7f198b8b1850
[amour3_CPU4:user_app:(29) 0.000000] [user_app/INFO] Extracting symbols from Bull lib 0x1b46570 (WTOUg18so.40) and SMPI lib 0x7f198b8b1850
[amour3_CPU5:user_app:(30) 0.000000] [user_app/INFO] Extracting symbols from Bull lib 0x1b48ff0 (WTOUg19so.40) and SMPI lib 0x7f198b8b1850
[amour3_CPU6:user_app:(31) 0.000000] [user_app/INFO] Extracting symbols from Bull lib 0x1b4ba70 (WTOUg20so.40) and SMPI lib 0x7f198b8b1850
[amour4_CPU0:user_app:(37) 0.000000] [user_app/INFO] Extracting symbols from Bull lib 0x1b4e530 (WTOUg21so.40) and SMPI lib 0x7f198b8b1850
[amour4_CPU1:user_app:(38) 0.000000] [user_app/INFO] Extracting symbols from Bull lib 0x1b50fb0 (WTOUg22so.40) and SMPI lib 0x7f198b8b1850
[amour4_CPU2:user_app:(39) 0.000000] [user_app/INFO] Extracting symbols from Bull lib 0x1b53a30 (WTOUg23so.40) and SMPI lib 0x7f198b8b1850
[amour4_CPU3:user_app:(40) 0.000000] [user_app/INFO] Extracting symbols from Bull lib 0x1b564b0 (WTOUg24so.40) and SMPI lib 0x7f198b8b1850
[amour4_CPU4:user_app:(41) 0.000000] [user_app/INFO] Extracting symbols from Bull lib 0x1b58f30 (WTOUg25so.40) and SMPI lib 0x7f198b8b1850
[amour4_CPU5:user_app:(42) 0.000000] [user_app/INFO] Extracting symbols from Bull lib 0x1b5b9b0 (WTOUg26so.40) and SMPI lib 0x7f198b8b1850
[amour4_CPU6:user_app:(43) 0.000000] [user_app/INFO] Extracting symbols from Bull lib 0x1b5e430 (WTOUg27so.40) and SMPI lib 0x7f198b8b1850
[amour5_CPU0:user_app:(49) 0.000000] [user_app/INFO] Extracting symbols from Bull lib 0x1b611f0 (WTOUg28so.40) and SMPI lib 0x7f198b8b1850
[amour5_CPU1:user_app:(50) 0.000000] [user_app/INFO] Extracting symbols from Bull lib 0x1b63c70 (WTOUg29so.40) and SMPI lib 0x7f198b8b1850
[amour5_CPU2:user_app:(51) 0.000000] [user_app/INFO] Extracting symbols from Bull lib 0x1b666f0 (WTOUg30so.40) and SMPI lib 0x7f198b8b1850
[amour5_CPU3:user_app:(52) 0.000000] [user_app/INFO] Extracting symbols from Bull lib 0x1b69380 (WTOUg31so.40) and SMPI lib 0x7f198b8b1850
[amour5_CPU4:user_app:(53) 0.000000] [user_app/INFO] Extracting symbols from Bull lib 0x1b6c620 (WTOUg32so.40) and SMPI lib 0x7f198b8b1850
[amour5_CPU5:user_app:(54) 0.000000] [user_app/INFO] Extracting symbols from Bull lib 0x1b6f0a0 (WTOUg33so.40) and SMPI lib 0x7f198b8b1850
[amour5_CPU6:user_app:(55) 0.000000] [user_app/INFO] Extracting symbols from Bull lib 0x1b71b20 (WTOUg34so.40) and SMPI lib 0x7f198b8b1850
[amour6_CPU0:user_app:(61) 0.000000] [user_app/INFO] Extracting symbols from Bull lib 0x1b748e0 (WTOUg35so.40) and SMPI lib 0x7f198b8b1850
[amour6_CPU1:user_app:(62) 0.000000] [user_app/INFO] Extracting symbols from Bull lib 0x1b77360 (WTOUg36so.40) and SMPI lib 0x7f198b8b1850
[amour6_CPU2:user_app:(63) 0.000000] [user_app/INFO] Extracting symbols from Bull lib 0x1b79de0 (WTOUg37so.40) and SMPI lib 0x7f198b8b1850
[amour6_CPU3:user_app:(64) 0.000000] [user_app/INFO] Extracting symbols from Bull lib 0x1b7c860 (WTOUg38so.40) and SMPI lib 0x7f198b8b1850
[amour6_CPU4:user_app:(65) 0.000000] [user_app/INFO] Extracting symbols from Bull lib 0x1b7f2e0 (WTOUg39so.40) and SMPI lib 0x7f198b8b1850
[amour6_CPU5:user_app:(66) 0.000000] [user_app/INFO] Extracting symbols from Bull lib 0x1b81d60 (WTOUg40so.40) and SMPI lib 0x7f198b8b1850
[amour6_CPU6:user_app:(67) 0.000000] [user_app/INFO] Extracting symbols from Bull lib 0x1b847e0 (WTOUg41so.40) and SMPI lib 0x7f198b8b1850
[amour7_CPU0:user_app:(73) 0.000000] [user_app/INFO] Extracting symbols from Bull lib 0x1b875a0 (WTOUg42so.40) and SMPI lib 0x7f198b8b1850
[amour7_CPU1:user_app:(74) 0.000000] [user_app/INFO] Extracting symbols from Bull lib 0x1b8a020 (WTOUg43so.40) and SMPI lib 0x7f198b8b1850
[amour7_CPU2:user_app:(75) 0.000000] [user_app/INFO] Extracting symbols from Bull lib 0x1b8caa0 (WTOUg44so.40) and SMPI lib 0x7f198b8b1850
[amour7_CPU3:user_app:(76) 0.000000] [user_app/INFO] Extracting symbols from Bull lib 0x1b8f520 (WTOUg45so.40) and SMPI lib 0x7f198b8b1850
[amour7_CPU4:user_app:(77) 0.000000] [user_app/INFO] Extracting symbols from Bull lib 0x1b91fa0 (WTOUg46so.40) and SMPI lib 0x7f198b8b1850
[amour7_CPU5:user_app:(78) 0.000000] [user_app/INFO] Extracting symbols from Bull lib 0x1b94a20 (WTOUg47so.40) and SMPI lib 0x7f198b8b1850
[amour7_CPU6:user_app:(79) 0.000000] [user_app/INFO] Extracting symbols from Bull lib 0x1b974a0 (WTOUg48so.40) and SMPI lib 0x7f198b8b1850
[amour8_CPU0:user_app:(85) 0.000000] [user_app/INFO] Extracting symbols from Bull lib 0x1b9a260 (WTOUg49so.40) and SMPI lib 0x7f198b8b1850
[amour8_CPU1:user_app:(86) 0.000000] [user_app/INFO] Extracting symbols from Bull lib 0x1b9cce0 (WTOUg50so.40) and SMPI lib 0x7f198b8b1850
[amour8_CPU2:user_app:(87) 0.000000] [user_app/INFO] Extracting symbols from Bull lib 0x1b9f760 (WTOUg51so.40) and SMPI lib 0x7f198b8b1850
[amour8_CPU3:user_app:(88) 0.000000] [user_app/INFO] Extracting symbols from Bull lib 0x1ba21e0 (WTOUg52so.40) and SMPI lib 0x7f198b8b1850
[amour8_CPU4:user_app:(89) 0.000000] [user_app/INFO] Extracting symbols from Bull lib 0x1ba4c60 (WTOUg53so.40) and SMPI lib 0x7f198b8b1850
[amour8_CPU5:user_app:(90) 0.000000] [user_app/INFO] Extracting symbols from Bull lib 0x1ba76e0 (WTOUg54so.40) and SMPI lib 0x7f198b8b1850
[amour8_CPU6:user_app:(91) 0.000000] [user_app/INFO] Extracting symbols from Bull lib 0x1baa160 (WTOUg55so.40) and SMPI lib 0x7f198b8b1850
[amour9_CPU0:user_app:(97) 0.000000] [user_app/INFO] Extracting symbols from Bull lib 0x1bacf20 (WTOUg56so.40) and SMPI lib 0x7f198b8b1850
[amour9_CPU1:user_app:(98) 0.000000] [user_app/INFO] Extracting symbols from Bull lib 0x1baf9a0 (WTOUg57so.40) and SMPI lib 0x7f198b8b1850
[amour9_CPU2:user_app:(99) 0.000000] [user_app/INFO] Extracting symbols from Bull lib 0x1bb2420 (WTOUg58so.40) and SMPI lib 0x7f198b8b1850
[amour9_CPU3:user_app:(100) 0.000000] [user_app/INFO] Extracting symbols from Bull lib 0x1bb4ea0 (WTOUg59so.40) and SMPI lib 0x7f198b8b1850
[amour9_CPU4:user_app:(101) 0.000000] [user_app/INFO] Extracting symbols from Bull lib 0x1bb7920 (WTOUg60so.40) and SMPI lib 0x7f198b8b1850
[amour9_CPU5:user_app:(102) 0.000000] [user_app/INFO] Extracting symbols from Bull lib 0x1bba3a0 (WTOUg61so.40) and SMPI lib 0x7f198b8b1850
[amour9_CPU6:user_app:(103) 0.000000] [user_app/INFO] Extracting symbols from Bull lib 0x1bbce20 (WTOUg62so.40) and SMPI lib 0x7f198b8b1850
[amour10_CPU0:user_app:(109) 0.000000] [user_app/INFO] Extracting symbols from Bull lib 0x1bbfff0 (WTOUg63so.40) and SMPI lib 0x7f198b8b1850
[amour10_CPU1:user_app:(110) 0.000000] [user_app/INFO] Extracting symbols from Bull lib 0x1bc42a0 (WTOUg64so.40) and SMPI lib 0x7f198b8b1850
[amour10_CPU2:user_app:(111) 0.000000] [user_app/INFO] Extracting symbols from Bull lib 0x1bc6d20 (WTOUg65so.40) and SMPI lib 0x7f198b8b1850
[amour10_CPU3:user_app:(112) 0.000000] [user_app/INFO] Extracting symbols from Bull lib 0x1bc97a0 (WTOUg66so.40) and SMPI lib 0x7f198b8b1850
[amour10_CPU4:user_app:(113) 0.000000] [user_app/INFO] Extracting symbols from Bull lib 0x1bcc220 (WTOUg67so.40) and SMPI lib 0x7f198b8b1850
[amour10_CPU5:user_app:(114) 0.000000] [user_app/INFO] Extracting symbols from Bull lib 0x1bceca0 (WTOUg68so.40) and SMPI lib 0x7f198b8b1850
[amour10_CPU6:user_app:(115) 0.000000] [user_app/INFO] Extracting symbols from Bull lib 0x1bd1720 (WTOUg69so.40) and SMPI lib 0x7f198b8b1850
[amour11_CPU0:user_app:(121) 0.000000] [user_app/INFO] Extracting symbols from Bull lib 0x1bd44e0 (WTOUg70so.40) and SMPI lib 0x7f198b8b1850
[amour11_CPU1:user_app:(122) 0.000000] [user_app/INFO] Extracting symbols from Bull lib 0x1bd6f60 (WTOUg71so.40) and SMPI lib 0x7f198b8b1850
[amour11_CPU2:user_app:(123) 0.000000] [user_app/INFO] Extracting symbols from Bull lib 0x1bd99e0 (WTOUg72so.40) and SMPI lib 0x7f198b8b1850
[amour11_CPU3:user_app:(124) 0.000000] [user_app/INFO] Extracting symbols from Bull lib 0x1bdc460 (WTOUg73so.40) and SMPI lib 0x7f198b8b1850
[amour11_CPU4:user_app:(125) 0.000000] [user_app/INFO] Extracting symbols from Bull lib 0x1bdeee0 (WTOUg74so.40) and SMPI lib 0x7f198b8b1850
[amour11_CPU5:user_app:(126) 0.000000] [user_app/INFO] Extracting symbols from Bull lib 0x1be1960 (WTOUg75so.40) and SMPI lib 0x7f198b8b1850
[amour11_CPU6:user_app:(127) 0.000000] [user_app/INFO] Extracting symbols from Bull lib 0x1be43e0 (WTOUg76so.40) and SMPI lib 0x7f198b8b1850
[amour12_CPU0:user_app:(133) 0.000000] [user_app/INFO] Extracting symbols from Bull lib 0x1be71a0 (WTOUg77so.40) and SMPI lib 0x7f198b8b1850
[amour12_CPU1:user_app:(134) 0.000000] [user_app/INFO] Extracting symbols from Bull lib 0x1be9c20 (WTOUg78so.40) and SMPI lib 0x7f198b8b1850
[amour12_CPU2:user_app:(135) 0.000000] [user_app/INFO] Extracting symbols from Bull lib 0x1bec6a0 (WTOUg79so.40) and SMPI lib 0x7f198b8b1850
[amour12_CPU3:user_app:(136) 0.000000] [user_app/INFO] Extracting symbols from Bull lib 0x1bef120 (WTOUg80so.40) and SMPI lib 0x7f198b8b1850
[amour12_CPU4:user_app:(137) 0.000000] [user_app/INFO] Extracting symbols from Bull lib 0x1bf1ba0 (WTOUg81so.40) and SMPI lib 0x7f198b8b1850
[amour12_CPU5:user_app:(138) 0.000000] [user_app/INFO] Extracting symbols from Bull lib 0x1bf4620 (WTOUg82so.40) and SMPI lib 0x7f198b8b1850
[amour12_CPU6:user_app:(139) 0.000000] [user_app/INFO] Extracting symbols from Bull lib 0x1bf70a0 (WTOUg83so.40) and SMPI lib 0x7f198b8b1850
[amour13_CPU0:user_app:(145) 0.000000] [user_app/INFO] Extracting symbols from Bull lib 0x1bf9e60 (WTOUg84so.40) and SMPI lib 0x7f198b8b1850
[amour13_CPU1:user_app:(146) 0.000000] [user_app/INFO] Extracting symbols from Bull lib 0x1bfc8e0 (WTOUg85so.40) and SMPI lib 0x7f198b8b1850
[amour13_CPU2:user_app:(147) 0.000000] [user_app/INFO] Extracting symbols from Bull lib 0x1bff360 (WTOUg86so.40) and SMPI lib 0x7f198b8b1850
[amour13_CPU3:user_app:(148) 0.000000] [user_app/INFO] Extracting symbols from Bull lib 0x1c01de0 (WTOUg87so.40) and SMPI lib 0x7f198b8b1850
[amour13_CPU4:user_app:(149) 0.000000] [user_app/INFO] Extracting symbols from Bull lib 0x1c04860 (WTOUg88so.40) and SMPI lib 0x7f198b8b1850
[amour13_CPU5:user_app:(150) 0.000000] [user_app/INFO] Extracting symbols from Bull lib 0x1c072e0 (WTOUg89so.40) and SMPI lib 0x7f198b8b1850
[amour13_CPU6:user_app:(151) 0.000000] [user_app/INFO] Extracting symbols from Bull lib 0x1c09d60 (WTOUg90so.40) and SMPI lib 0x7f198b8b1850
[amour14_CPU0:user_app:(157) 0.000000] [user_app/INFO] Extracting symbols from Bull lib 0x1c0cb20 (WTOUg91so.40) and SMPI lib 0x7f198b8b1850
[amour14_CPU1:user_app:(158) 0.000000] [user_app/INFO] Extracting symbols from Bull lib 0x1c0f5a0 (WTOUg92so.40) and SMPI lib 0x7f198b8b1850
[amour14_CPU2:user_app:(159) 0.000000] [user_app/INFO] Extracting symbols from Bull lib 0x1c12020 (WTOUg93so.40) and SMPI lib 0x7f198b8b1850
[amour14_CPU3:user_app:(160) 0.000000] [user_app/INFO] Extracting symbols from Bull lib 0x1c14aa0 (WTOUg94so.40) and SMPI lib 0x7f198b8b1850
[amour14_CPU4:user_app:(161) 0.000000] [user_app/INFO] Extracting symbols from Bull lib 0x1c17520 (WTOUg95so.40) and SMPI lib 0x7f198b8b1850
[amour14_CPU5:user_app:(162) 0.000000] [user_app/INFO] Extracting symbols from Bull lib 0x1c19fa0 (WTOUg96so.40) and SMPI lib 0x7f198b8b1850
[amour14_CPU6:user_app:(163) 0.000000] [user_app/INFO] Extracting symbols from Bull lib 0x1c1ca20 (WTOUg97so.40) and SMPI lib 0x7f198b8b1850
[amour1_NIC:nic_e2e:(12) 22.622323] [s4bxi_nic_e2e/INFO] Retried 0 times, gave up 0 times
[amour2_NIC:nic_e2e:(24) 22.622323] [s4bxi_nic_e2e/INFO] Retried 0 times, gave up 0 times
[amour3_NIC:nic_e2e:(36) 22.622323] [s4bxi_nic_e2e/INFO] Retried 0 times, gave up 0 times
[amour4_NIC:nic_e2e:(48) 22.622323] [s4bxi_nic_e2e/INFO] Retried 0 times, gave up 0 times
[amour5_NIC:nic_e2e:(60) 22.622323] [s4bxi_nic_e2e/INFO] Retried 0 times, gave up 0 times
[amour6_NIC:nic_e2e:(72) 22.622323] [s4bxi_nic_e2e/INFO] Retried 0 times, gave up 0 times
[amour7_NIC:nic_e2e:(84) 22.622323] [s4bxi_nic_e2e/INFO] Retried 0 times, gave up 0 times
[amour8_NIC:nic_e2e:(96) 22.622323] [s4bxi_nic_e2e/INFO] Retried 0 times, gave up 0 times
[amour9_NIC:nic_e2e:(108) 22.622323] [s4bxi_nic_e2e/INFO] Retried 0 times, gave up 0 times
[amour10_NIC:nic_e2e:(120) 22.622323] [s4bxi_nic_e2e/INFO] Retried 0 times, gave up 0 times
[amour11_NIC:nic_e2e:(132) 22.622323] [s4bxi_nic_e2e/INFO] Retried 0 times, gave up 0 times
[amour12_NIC:nic_e2e:(144) 22.622323] [s4bxi_nic_e2e/INFO] Retried 0 times, gave up 0 times
[amour13_NIC:nic_e2e:(156) 22.622323] [s4bxi_nic_e2e/INFO] Retried 0 times, gave up 0 times
[amour14_NIC:nic_e2e:(168) 22.622323] [s4bxi_nic_e2e/INFO] Retried 0 times, gave up 0 times
[22.622323] [user_app/INFO] Spent 1.787836s initializing and 2691.910473s in user application

real	45m7.944s
user	42m19.232s
sys	2m41.505s
