[0.000000] [xbt_cfg/INFO] Configuration change: Set 'smpi/cpu-threshold' to '1e-8'
[0.000000] [xbt_cfg/INFO] Configuration change: Set 'smpi/host-speed' to '10000Mf'
[0.000000] [xbt_cfg/INFO] Configuration change: Set 'smpi/shared-malloc-blocksize' to '131072.0000'
[0.000000] [xbt_cfg/INFO] Configuration change: Set 'smpi/display-timing' to 'yes'
[0.000000] [xbt_cfg/INFO] Configuration change: Set 'surf/precision' to '1e-9'
[0.000000] [xbt_cfg/INFO] Configuration change: Set 'network/loopback-lat' to '0'
[0.000000] [xbt_cfg/INFO] Configuration change: Set 'network/loopback-bw' to '999e9'
[0.000000] [xbt_cfg/INFO] Configuration change: Set 'network/model' to 'CM02'
[0.000000] [xbt_cfg/INFO] Configuration change: Set 'smpi/coll-selector' to 'ompi'
[0.000000] [xbt_cfg/INFO] Configuration change: Set 'smpi/host-speed' to '10000.000000Mf'
[0.000000] [xbt_cfg/INFO] Configuration change: Set 'smpi/cpu-threshold' to '0.000000'
[0.000000] [xbt_cfg/INFO] Configuration change: Set 'smpi/simulate-computation' to 'yes'
[0.000000] [smpi_coll/INFO] Switch to algorithm ompi for collective gather
[0.000000] [smpi_coll/INFO] Switch to algorithm ompi for collective allgather
[0.000000] [smpi_coll/INFO] Switch to algorithm ompi for collective allgatherv
[0.000000] [smpi_coll/INFO] Switch to algorithm ompi for collective allreduce
[0.000000] [smpi_coll/INFO] Switch to algorithm ompi for collective alltoall
[0.000000] [smpi_coll/INFO] Switch to algorithm ompi for collective alltoallv
[0.000000] [smpi_coll/INFO] Switch to algorithm ompi for collective reduce
[0.000000] [smpi_coll/INFO] Switch to algorithm ompi for collective reduce_scatter
[0.000000] [smpi_coll/INFO] Switch to algorithm ompi for collective scatter
[0.000000] [smpi_coll/INFO] Switch to algorithm ompi for collective bcast
[0.000000] [smpi_coll/INFO] Switch to algorithm ompi for collective barrier
[0.000000] [smpi_coll/INFO] Switch to algorithm ompi for collective gather
[0.000000] [smpi_coll/INFO] Switch to algorithm ompi for collective allgather
[0.000000] [smpi_coll/INFO] Switch to algorithm ompi for collective allgatherv
[0.000000] [smpi_coll/INFO] Switch to algorithm ompi for collective allreduce
[0.000000] [smpi_coll/INFO] Switch to algorithm ompi for collective alltoall
[0.000000] [smpi_coll/INFO] Switch to algorithm ompi for collective alltoallv
[0.000000] [smpi_coll/INFO] Switch to algorithm ompi for collective reduce
[0.000000] [smpi_coll/INFO] Switch to algorithm ompi for collective reduce_scatter
[0.000000] [smpi_coll/INFO] Switch to algorithm ompi for collective scatter
[0.000000] [smpi_coll/INFO] Switch to algorithm ompi for collective bcast
[0.000000] [smpi_coll/INFO] Switch to algorithm ompi for collective barrier
[amour1_CPU0:user_app:(1) 0.000000] [s4bxi_main_actor/INFO] Setup with nid = 1, model_pci = 1 ; e2e_off = 0
[amour1_CPU1:user_app:(2) 0.000000] [s4bxi_main_actor/INFO] Setup with nid = 1, model_pci = 1 ; e2e_off = 0
[amour1_CPU2:user_app:(3) 0.000000] [s4bxi_main_actor/INFO] Setup with nid = 1, model_pci = 1 ; e2e_off = 0
[amour1_CPU3:user_app:(4) 0.000000] [s4bxi_main_actor/INFO] Setup with nid = 1, model_pci = 1 ; e2e_off = 0
[amour2_CPU0:user_app:(10) 0.000000] [s4bxi_main_actor/INFO] Setup with nid = 2, model_pci = 1 ; e2e_off = 0
[amour2_CPU1:user_app:(11) 0.000000] [s4bxi_main_actor/INFO] Setup with nid = 2, model_pci = 1 ; e2e_off = 0
[amour2_CPU2:user_app:(12) 0.000000] [s4bxi_main_actor/INFO] Setup with nid = 2, model_pci = 1 ; e2e_off = 0
[amour2_CPU3:user_app:(13) 0.000000] [s4bxi_main_actor/INFO] Setup with nid = 2, model_pci = 1 ; e2e_off = 0
[amour3_CPU0:user_app:(19) 0.000000] [s4bxi_main_actor/INFO] Setup with nid = 3, model_pci = 1 ; e2e_off = 0
[amour3_CPU1:user_app:(20) 0.000000] [s4bxi_main_actor/INFO] Setup with nid = 3, model_pci = 1 ; e2e_off = 0
[amour3_CPU2:user_app:(21) 0.000000] [s4bxi_main_actor/INFO] Setup with nid = 3, model_pci = 1 ; e2e_off = 0
[amour3_CPU3:user_app:(22) 0.000000] [s4bxi_main_actor/INFO] Setup with nid = 3, model_pci = 1 ; e2e_off = 0
[amour4_CPU0:user_app:(28) 0.000000] [s4bxi_main_actor/INFO] Setup with nid = 4, model_pci = 1 ; e2e_off = 0
[amour4_CPU1:user_app:(29) 0.000000] [s4bxi_main_actor/INFO] Setup with nid = 4, model_pci = 1 ; e2e_off = 0
[amour4_CPU2:user_app:(30) 0.000000] [s4bxi_main_actor/INFO] Setup with nid = 4, model_pci = 1 ; e2e_off = 0
[amour4_CPU3:user_app:(31) 0.000000] [s4bxi_main_actor/INFO] Setup with nid = 4, model_pci = 1 ; e2e_off = 0
[amour5_CPU0:user_app:(37) 0.000000] [s4bxi_main_actor/INFO] Setup with nid = 5, model_pci = 1 ; e2e_off = 0
[amour5_CPU1:user_app:(38) 0.000000] [s4bxi_main_actor/INFO] Setup with nid = 5, model_pci = 1 ; e2e_off = 0
[amour5_CPU2:user_app:(39) 0.000000] [s4bxi_main_actor/INFO] Setup with nid = 5, model_pci = 1 ; e2e_off = 0
[amour5_CPU3:user_app:(40) 0.000000] [s4bxi_main_actor/INFO] Setup with nid = 5, model_pci = 1 ; e2e_off = 0
[amour6_CPU0:user_app:(46) 0.000000] [s4bxi_main_actor/INFO] Setup with nid = 6, model_pci = 1 ; e2e_off = 0
[amour6_CPU1:user_app:(47) 0.000000] [s4bxi_main_actor/INFO] Setup with nid = 6, model_pci = 1 ; e2e_off = 0
[amour6_CPU2:user_app:(48) 0.000000] [s4bxi_main_actor/INFO] Setup with nid = 6, model_pci = 1 ; e2e_off = 0
[amour6_CPU3:user_app:(49) 0.000000] [s4bxi_main_actor/INFO] Setup with nid = 6, model_pci = 1 ; e2e_off = 0
[amour7_CPU0:user_app:(55) 0.000000] [s4bxi_main_actor/INFO] Setup with nid = 7, model_pci = 1 ; e2e_off = 0
[amour7_CPU1:user_app:(56) 0.000000] [s4bxi_main_actor/INFO] Setup with nid = 7, model_pci = 1 ; e2e_off = 0
[amour7_CPU2:user_app:(57) 0.000000] [s4bxi_main_actor/INFO] Setup with nid = 7, model_pci = 1 ; e2e_off = 0
[amour7_CPU3:user_app:(58) 0.000000] [s4bxi_main_actor/INFO] Setup with nid = 7, model_pci = 1 ; e2e_off = 0
[amour8_CPU0:user_app:(64) 0.000000] [s4bxi_main_actor/INFO] Setup with nid = 8, model_pci = 1 ; e2e_off = 0
[amour8_CPU1:user_app:(65) 0.000000] [s4bxi_main_actor/INFO] Setup with nid = 8, model_pci = 1 ; e2e_off = 0
[amour8_CPU2:user_app:(66) 0.000000] [s4bxi_main_actor/INFO] Setup with nid = 8, model_pci = 1 ; e2e_off = 0
[amour8_CPU3:user_app:(67) 0.000000] [s4bxi_main_actor/INFO] Setup with nid = 8, model_pci = 1 ; e2e_off = 0
[amour1_CPU0:user_app:(1) 0.000000] [user_app/INFO] Init rank 0 ; local_rank 0
[amour1_CPU1:user_app:(2) 0.000000] [user_app/INFO] Init rank 1 ; local_rank 1
[amour1_CPU2:user_app:(3) 0.000000] [user_app/INFO] Init rank 2 ; local_rank 2
[amour1_CPU3:user_app:(4) 0.000000] [user_app/INFO] Init rank 3 ; local_rank 3
[amour2_CPU0:user_app:(10) 0.000000] [user_app/INFO] Init rank 4 ; local_rank 0
[amour2_CPU1:user_app:(11) 0.000000] [user_app/INFO] Init rank 5 ; local_rank 1
[amour2_CPU2:user_app:(12) 0.000000] [user_app/INFO] Init rank 6 ; local_rank 2
[amour2_CPU3:user_app:(13) 0.000000] [user_app/INFO] Init rank 7 ; local_rank 3
[amour3_CPU0:user_app:(19) 0.000000] [user_app/INFO] Init rank 8 ; local_rank 0
[amour3_CPU1:user_app:(20) 0.000000] [user_app/INFO] Init rank 9 ; local_rank 1
[amour3_CPU2:user_app:(21) 0.000000] [user_app/INFO] Init rank 10 ; local_rank 2
[amour3_CPU3:user_app:(22) 0.000000] [user_app/INFO] Init rank 11 ; local_rank 3
[amour4_CPU0:user_app:(28) 0.000000] [user_app/INFO] Init rank 12 ; local_rank 0
[amour4_CPU1:user_app:(29) 0.000000] [user_app/INFO] Init rank 13 ; local_rank 1
[amour4_CPU2:user_app:(30) 0.000000] [user_app/INFO] Init rank 14 ; local_rank 2
[amour4_CPU3:user_app:(31) 0.000000] [user_app/INFO] Init rank 15 ; local_rank 3
[amour5_CPU0:user_app:(37) 0.000000] [user_app/INFO] Init rank 16 ; local_rank 0
[amour5_CPU1:user_app:(38) 0.000000] [user_app/INFO] Init rank 17 ; local_rank 1
[amour5_CPU2:user_app:(39) 0.000000] [user_app/INFO] Init rank 18 ; local_rank 2
[amour5_CPU3:user_app:(40) 0.000000] [user_app/INFO] Init rank 19 ; local_rank 3
[amour6_CPU0:user_app:(46) 0.000000] [user_app/INFO] Init rank 20 ; local_rank 0
[amour6_CPU1:user_app:(47) 0.000000] [user_app/INFO] Init rank 21 ; local_rank 1
[amour6_CPU2:user_app:(48) 0.000000] [user_app/INFO] Init rank 22 ; local_rank 2
[amour6_CPU3:user_app:(49) 0.000000] [user_app/INFO] Init rank 23 ; local_rank 3
[amour7_CPU0:user_app:(55) 0.000000] [user_app/INFO] Init rank 24 ; local_rank 0
[amour7_CPU1:user_app:(56) 0.000000] [user_app/INFO] Init rank 25 ; local_rank 1
[amour7_CPU2:user_app:(57) 0.000000] [user_app/INFO] Init rank 26 ; local_rank 2
[amour7_CPU3:user_app:(58) 0.000000] [user_app/INFO] Init rank 27 ; local_rank 3
[amour8_CPU0:user_app:(64) 0.000000] [user_app/INFO] Init rank 28 ; local_rank 0
[amour8_CPU1:user_app:(65) 0.000000] [user_app/INFO] Init rank 29 ; local_rank 1
[amour8_CPU2:user_app:(66) 0.000000] [user_app/INFO] Init rank 30 ; local_rank 2
[amour8_CPU3:user_app:(67) 0.000000] [user_app/INFO] Init rank 31 ; local_rank 3
[amour1_NIC:nic_e2e:(9) 0.000000] [s4bxi_nic_e2e/INFO] E2E was configured with timeout = 10.000000 and retries = 5
[amour2_NIC:nic_e2e:(18) 0.000000] [s4bxi_nic_e2e/INFO] E2E was configured with timeout = 10.000000 and retries = 5
[amour3_NIC:nic_e2e:(27) 0.000000] [s4bxi_nic_e2e/INFO] E2E was configured with timeout = 10.000000 and retries = 5
[amour4_NIC:nic_e2e:(36) 0.000000] [s4bxi_nic_e2e/INFO] E2E was configured with timeout = 10.000000 and retries = 5
[amour5_NIC:nic_e2e:(45) 0.000000] [s4bxi_nic_e2e/INFO] E2E was configured with timeout = 10.000000 and retries = 5
[amour6_NIC:nic_e2e:(54) 0.000000] [s4bxi_nic_e2e/INFO] E2E was configured with timeout = 10.000000 and retries = 5
[amour7_NIC:nic_e2e:(63) 0.000000] [s4bxi_nic_e2e/INFO] E2E was configured with timeout = 10.000000 and retries = 5
[amour8_NIC:nic_e2e:(72) 0.000000] [s4bxi_nic_e2e/INFO] E2E was configured with timeout = 10.000000 and retries = 5
[amour1_CPU0:user_app:(1) 0.000000] [user_app/INFO] Extracting symbols from Bull lib 0x1a5ad80 (reuECV0so.40) and SMPI lib 0x7fec2fc62850
[amour1_CPU1:user_app:(2) 0.000000] [user_app/INFO] Extracting symbols from Bull lib 0x1a5f1b0 (reuECV1so.40) and SMPI lib 0x7fec2fc62850
[amour1_CPU2:user_app:(3) 0.000000] [user_app/INFO] Extracting symbols from Bull lib 0x1a61aa0 (reuECV2so.40) and SMPI lib 0x7fec2fc62850
[amour1_CPU3:user_app:(4) 0.000000] [user_app/INFO] Extracting symbols from Bull lib 0x1a643d0 (reuECV3so.40) and SMPI lib 0x7fec2fc62850
[amour2_CPU0:user_app:(10) 0.000000] [user_app/INFO] Extracting symbols from Bull lib 0x1a66ea0 (reuECV4so.40) and SMPI lib 0x7fec2fc62850
[amour2_CPU1:user_app:(11) 0.000000] [user_app/INFO] Extracting symbols from Bull lib 0x1a69810 (reuECV5so.40) and SMPI lib 0x7fec2fc62850
[amour2_CPU2:user_app:(12) 0.000000] [user_app/INFO] Extracting symbols from Bull lib 0x1a6c180 (reuECV6so.40) and SMPI lib 0x7fec2fc62850
[amour2_CPU3:user_app:(13) 0.000000] [user_app/INFO] Extracting symbols from Bull lib 0x1a6eb80 (reuECV7so.40) and SMPI lib 0x7fec2fc62850
[amour3_CPU0:user_app:(19) 0.000000] [user_app/INFO] Extracting symbols from Bull lib 0x1a717f0 (reuECV8so.40) and SMPI lib 0x7fec2fc62850
[amour3_CPU1:user_app:(20) 0.000000] [user_app/INFO] Extracting symbols from Bull lib 0x1a741e0 (reuECV9so.40) and SMPI lib 0x7fec2fc62850
[amour3_CPU2:user_app:(21) 0.000000] [user_app/INFO] Extracting symbols from Bull lib 0x1a76bd0 (reuEC10so.40) and SMPI lib 0x7fec2fc62850
[amour3_CPU3:user_app:(22) 0.000000] [user_app/INFO] Extracting symbols from Bull lib 0x1a79650 (reuEC11so.40) and SMPI lib 0x7fec2fc62850
[amour4_CPU0:user_app:(28) 0.000000] [user_app/INFO] Extracting symbols from Bull lib 0x1a7c110 (reuEC12so.40) and SMPI lib 0x7fec2fc62850
[amour4_CPU1:user_app:(29) 0.000000] [user_app/INFO] Extracting symbols from Bull lib 0x1a7eb90 (reuEC13so.40) and SMPI lib 0x7fec2fc62850
[amour4_CPU2:user_app:(30) 0.000000] [user_app/INFO] Extracting symbols from Bull lib 0x1a81610 (reuEC14so.40) and SMPI lib 0x7fec2fc62850
[amour4_CPU3:user_app:(31) 0.000000] [user_app/INFO] Extracting symbols from Bull lib 0x1a84110 (reuEC15so.40) and SMPI lib 0x7fec2fc62850
[amour5_CPU0:user_app:(37) 0.000000] [user_app/INFO] Extracting symbols from Bull lib 0x1a87500 (reuEC16so.40) and SMPI lib 0x7fec2fc62850
[amour5_CPU1:user_app:(38) 0.000000] [user_app/INFO] Extracting symbols from Bull lib 0x1a89f80 (reuEC17so.40) and SMPI lib 0x7fec2fc62850
[amour5_CPU2:user_app:(39) 0.000000] [user_app/INFO] Extracting symbols from Bull lib 0x1a8ca00 (reuEC18so.40) and SMPI lib 0x7fec2fc62850
[amour5_CPU3:user_app:(40) 0.000000] [user_app/INFO] Extracting symbols from Bull lib 0x1a8f480 (reuEC19so.40) and SMPI lib 0x7fec2fc62850
[amour6_CPU0:user_app:(46) 0.000000] [user_app/INFO] Extracting symbols from Bull lib 0x1a92240 (reuEC20so.40) and SMPI lib 0x7fec2fc62850
[amour6_CPU1:user_app:(47) 0.000000] [user_app/INFO] Extracting symbols from Bull lib 0x1a94cc0 (reuEC21so.40) and SMPI lib 0x7fec2fc62850
[amour6_CPU2:user_app:(48) 0.000000] [user_app/INFO] Extracting symbols from Bull lib 0x1a97740 (reuEC22so.40) and SMPI lib 0x7fec2fc62850
[amour6_CPU3:user_app:(49) 0.000000] [user_app/INFO] Extracting symbols from Bull lib 0x1a9a1c0 (reuEC23so.40) and SMPI lib 0x7fec2fc62850
[amour7_CPU0:user_app:(55) 0.000000] [user_app/INFO] Extracting symbols from Bull lib 0x1a9cf80 (reuEC24so.40) and SMPI lib 0x7fec2fc62850
[amour7_CPU1:user_app:(56) 0.000000] [user_app/INFO] Extracting symbols from Bull lib 0x1a9fa00 (reuEC25so.40) and SMPI lib 0x7fec2fc62850
[amour7_CPU2:user_app:(57) 0.000000] [user_app/INFO] Extracting symbols from Bull lib 0x1aa2480 (reuEC26so.40) and SMPI lib 0x7fec2fc62850
[amour7_CPU3:user_app:(58) 0.000000] [user_app/INFO] Extracting symbols from Bull lib 0x1aa4f00 (reuEC27so.40) and SMPI lib 0x7fec2fc62850
[amour8_CPU0:user_app:(64) 0.000000] [user_app/INFO] Extracting symbols from Bull lib 0x1aa7cc0 (reuEC28so.40) and SMPI lib 0x7fec2fc62850
[amour8_CPU1:user_app:(65) 0.000000] [user_app/INFO] Extracting symbols from Bull lib 0x1aaa740 (reuEC29so.40) and SMPI lib 0x7fec2fc62850
[amour8_CPU2:user_app:(66) 0.000000] [user_app/INFO] Extracting symbols from Bull lib 0x1aad1c0 (reuEC30so.40) and SMPI lib 0x7fec2fc62850
[amour8_CPU3:user_app:(67) 0.000000] [user_app/INFO] Extracting symbols from Bull lib 0x1aafe50 (reuEC31so.40) and SMPI lib 0x7fec2fc62850
[amour1_NIC:nic_e2e:(9) 0.162761] [s4bxi_nic_e2e/INFO] Retried 0 times, gave up 0 times
[amour2_NIC:nic_e2e:(18) 0.162761] [s4bxi_nic_e2e/INFO] Retried 0 times, gave up 0 times
[amour3_NIC:nic_e2e:(27) 0.162761] [s4bxi_nic_e2e/INFO] Retried 0 times, gave up 0 times
[amour4_NIC:nic_e2e:(36) 0.162761] [s4bxi_nic_e2e/INFO] Retried 0 times, gave up 0 times
[amour5_NIC:nic_e2e:(45) 0.162761] [s4bxi_nic_e2e/INFO] Retried 0 times, gave up 0 times
[amour6_NIC:nic_e2e:(54) 0.162761] [s4bxi_nic_e2e/INFO] Retried 0 times, gave up 0 times
[amour7_NIC:nic_e2e:(63) 0.162761] [s4bxi_nic_e2e/INFO] Retried 0 times, gave up 0 times
[amour8_NIC:nic_e2e:(72) 0.162761] [s4bxi_nic_e2e/INFO] Retried 0 times, gave up 0 times
[0.162761] [user_app/INFO] Spent 0.352056s initializing and 17.174626s in user application

real	0m19.711s
user	0m15.545s
sys	0m4.100s
