[0.000000] [xbt_cfg/INFO] Configuration change: Set 'smpi/cpu-threshold' to '1e-8'
[0.000000] [xbt_cfg/INFO] Configuration change: Set 'smpi/host-speed' to '10000Mf'
[0.000000] [xbt_cfg/INFO] Configuration change: Set 'smpi/shared-malloc-blocksize' to '131072.0000'
[0.000000] [xbt_cfg/INFO] Configuration change: Set 'smpi/display-timing' to 'yes'
[0.000000] [xbt_cfg/INFO] Configuration change: Set 'surf/precision' to '1e-9'
[0.000000] [xbt_cfg/INFO] Configuration change: Set 'network/loopback-lat' to '0'
[0.000000] [xbt_cfg/INFO] Configuration change: Set 'network/loopback-bw' to '999e9'
[0.000000] [xbt_cfg/INFO] Configuration change: Set 'network/model' to 'CM02'
[0.000000] [xbt_cfg/INFO] Configuration change: Set 'smpi/coll-selector' to 'ompi'
[0.000000] [xbt_cfg/INFO] Configuration change: Set 'smpi/host-speed' to '10000.000000Mf'
[0.000000] [xbt_cfg/INFO] Configuration change: Set 'smpi/cpu-threshold' to '0.000000'
[0.000000] [xbt_cfg/INFO] Configuration change: Set 'smpi/simulate-computation' to 'yes'
[0.000000] [smpi_coll/INFO] Switch to algorithm ompi for collective gather
[0.000000] [smpi_coll/INFO] Switch to algorithm ompi for collective allgather
[0.000000] [smpi_coll/INFO] Switch to algorithm ompi for collective allgatherv
[0.000000] [smpi_coll/INFO] Switch to algorithm ompi for collective allreduce
[0.000000] [smpi_coll/INFO] Switch to algorithm ompi for collective alltoall
[0.000000] [smpi_coll/INFO] Switch to algorithm ompi for collective alltoallv
[0.000000] [smpi_coll/INFO] Switch to algorithm ompi for collective reduce
[0.000000] [smpi_coll/INFO] Switch to algorithm ompi for collective reduce_scatter
[0.000000] [smpi_coll/INFO] Switch to algorithm ompi for collective scatter
[0.000000] [smpi_coll/INFO] Switch to algorithm ompi for collective bcast
[0.000000] [smpi_coll/INFO] Switch to algorithm ompi for collective barrier
[0.000000] [smpi_coll/INFO] Switch to algorithm ompi for collective gather
[0.000000] [smpi_coll/INFO] Switch to algorithm ompi for collective allgather
[0.000000] [smpi_coll/INFO] Switch to algorithm ompi for collective allgatherv
[0.000000] [smpi_coll/INFO] Switch to algorithm ompi for collective allreduce
[0.000000] [smpi_coll/INFO] Switch to algorithm ompi for collective alltoall
[0.000000] [smpi_coll/INFO] Switch to algorithm ompi for collective alltoallv
[0.000000] [smpi_coll/INFO] Switch to algorithm ompi for collective reduce
[0.000000] [smpi_coll/INFO] Switch to algorithm ompi for collective reduce_scatter
[0.000000] [smpi_coll/INFO] Switch to algorithm ompi for collective scatter
[0.000000] [smpi_coll/INFO] Switch to algorithm ompi for collective bcast
[0.000000] [smpi_coll/INFO] Switch to algorithm ompi for collective barrier
[amour1_CPU0:user_app:(1) 0.000000] [s4bxi_main_actor/INFO] Setup with nid = 1, model_pci = 1 ; e2e_off = 0
[amour1_CPU1:user_app:(2) 0.000000] [s4bxi_main_actor/INFO] Setup with nid = 1, model_pci = 1 ; e2e_off = 0
[amour2_CPU0:user_app:(8) 0.000000] [s4bxi_main_actor/INFO] Setup with nid = 2, model_pci = 1 ; e2e_off = 0
[amour2_CPU1:user_app:(9) 0.000000] [s4bxi_main_actor/INFO] Setup with nid = 2, model_pci = 1 ; e2e_off = 0
[amour3_CPU0:user_app:(15) 0.000000] [s4bxi_main_actor/INFO] Setup with nid = 3, model_pci = 1 ; e2e_off = 0
[amour3_CPU1:user_app:(16) 0.000000] [s4bxi_main_actor/INFO] Setup with nid = 3, model_pci = 1 ; e2e_off = 0
[amour4_CPU0:user_app:(22) 0.000000] [s4bxi_main_actor/INFO] Setup with nid = 4, model_pci = 1 ; e2e_off = 0
[amour4_CPU1:user_app:(23) 0.000000] [s4bxi_main_actor/INFO] Setup with nid = 4, model_pci = 1 ; e2e_off = 0
[amour1_CPU0:user_app:(1) 0.000000] [user_app/INFO] Init rank 0 ; local_rank 0
[amour1_CPU1:user_app:(2) 0.000000] [user_app/INFO] Init rank 1 ; local_rank 1
[amour2_CPU0:user_app:(8) 0.000000] [user_app/INFO] Init rank 2 ; local_rank 0
[amour2_CPU1:user_app:(9) 0.000000] [user_app/INFO] Init rank 3 ; local_rank 1
[amour3_CPU0:user_app:(15) 0.000000] [user_app/INFO] Init rank 4 ; local_rank 0
[amour3_CPU1:user_app:(16) 0.000000] [user_app/INFO] Init rank 5 ; local_rank 1
[amour4_CPU0:user_app:(22) 0.000000] [user_app/INFO] Init rank 6 ; local_rank 0
[amour4_CPU1:user_app:(23) 0.000000] [user_app/INFO] Init rank 7 ; local_rank 1
[amour1_NIC:nic_e2e:(7) 0.000000] [s4bxi_nic_e2e/INFO] E2E was configured with timeout = 10.000000 and retries = 5
[amour2_NIC:nic_e2e:(14) 0.000000] [s4bxi_nic_e2e/INFO] E2E was configured with timeout = 10.000000 and retries = 5
[amour3_NIC:nic_e2e:(21) 0.000000] [s4bxi_nic_e2e/INFO] E2E was configured with timeout = 10.000000 and retries = 5
[amour4_NIC:nic_e2e:(28) 0.000000] [s4bxi_nic_e2e/INFO] E2E was configured with timeout = 10.000000 and retries = 5
[amour1_CPU0:user_app:(1) 0.000000] [user_app/INFO] Extracting symbols from Bull lib 0x1edb400 (MneIam0so.40) and SMPI lib 0x7f16d07ac850
[amour1_CPU1:user_app:(2) 0.000000] [user_app/INFO] Extracting symbols from Bull lib 0x1edf9d0 (MneIam1so.40) and SMPI lib 0x7f16d07ac850
[amour2_CPU0:user_app:(8) 0.000000] [user_app/INFO] Extracting symbols from Bull lib 0x1ee23e0 (MneIam2so.40) and SMPI lib 0x7f16d07ac850
[amour2_CPU1:user_app:(9) 0.000000] [user_app/INFO] Extracting symbols from Bull lib 0x1ee4d10 (MneIam3so.40) and SMPI lib 0x7f16d07ac850
[amour3_CPU0:user_app:(15) 0.000000] [user_app/INFO] Extracting symbols from Bull lib 0x1ee7750 (MneIam4so.40) and SMPI lib 0x7f16d07ac850
[amour3_CPU1:user_app:(16) 0.000000] [user_app/INFO] Extracting symbols from Bull lib 0x1eea0c0 (MneIam5so.40) and SMPI lib 0x7f16d07ac850
[amour4_CPU0:user_app:(22) 0.000000] [user_app/INFO] Extracting symbols from Bull lib 0x1eeca70 (MneIam6so.40) and SMPI lib 0x7f16d07ac850
[amour4_CPU1:user_app:(23) 0.000000] [user_app/INFO] Extracting symbols from Bull lib 0x1eef470 (MneIam7so.40) and SMPI lib 0x7f16d07ac850
[amour1_NIC:nic_e2e:(7) 0.134167] [s4bxi_nic_e2e/INFO] Retried 0 times, gave up 0 times
[amour2_NIC:nic_e2e:(14) 0.134167] [s4bxi_nic_e2e/INFO] Retried 0 times, gave up 0 times
[amour3_NIC:nic_e2e:(21) 0.134167] [s4bxi_nic_e2e/INFO] Retried 0 times, gave up 0 times
[amour4_NIC:nic_e2e:(28) 0.134167] [s4bxi_nic_e2e/INFO] Retried 0 times, gave up 0 times
[0.134167] [user_app/INFO] Spent 0.084371s initializing and 4.254266s in user application

real	0m4.854s
user	0m3.898s
sys	0m0.932s
