[0.000000] [xbt_cfg/INFO] Configuration change: Set 'smpi/cpu-threshold' to '1e-8'
[0.000000] [xbt_cfg/INFO] Configuration change: Set 'smpi/host-speed' to '10000Mf'
[0.000000] [xbt_cfg/INFO] Configuration change: Set 'smpi/shared-malloc-blocksize' to '786432.0000'
[0.000000] [xbt_cfg/INFO] Configuration change: Set 'smpi/display-timing' to 'yes'
[0.000000] [xbt_cfg/INFO] Configuration change: Set 'surf/precision' to '1e-9'
[0.000000] [xbt_cfg/INFO] Configuration change: Set 'network/loopback-lat' to '0'
[0.000000] [xbt_cfg/INFO] Configuration change: Set 'network/loopback-bw' to '999e9'
[0.000000] [xbt_cfg/INFO] Configuration change: Set 'network/model' to 'CM02'
[0.000000] [xbt_cfg/INFO] Configuration change: Set 'smpi/coll-selector' to 'ompi'
[0.000000] [xbt_cfg/INFO] Configuration change: Set 'smpi/host-speed' to '10000.000000Mf'
[0.000000] [xbt_cfg/INFO] Configuration change: Set 'smpi/cpu-threshold' to '0.000000'
[0.000000] [xbt_cfg/INFO] Configuration change: Set 'smpi/simulate-computation' to 'yes'
[0.000000] [smpi_coll/INFO] Switch to algorithm ompi for collective gather
[0.000000] [smpi_coll/INFO] Switch to algorithm ompi for collective allgather
[0.000000] [smpi_coll/INFO] Switch to algorithm ompi for collective allgatherv
[0.000000] [smpi_coll/INFO] Switch to algorithm ompi for collective allreduce
[0.000000] [smpi_coll/INFO] Switch to algorithm ompi for collective alltoall
[0.000000] [smpi_coll/INFO] Switch to algorithm ompi for collective alltoallv
[0.000000] [smpi_coll/INFO] Switch to algorithm ompi for collective reduce
[0.000000] [smpi_coll/INFO] Switch to algorithm ompi for collective reduce_scatter
[0.000000] [smpi_coll/INFO] Switch to algorithm ompi for collective scatter
[0.000000] [smpi_coll/INFO] Switch to algorithm ompi for collective bcast
[0.000000] [smpi_coll/INFO] Switch to algorithm ompi for collective barrier
[0.000000] [smpi_coll/INFO] Switch to algorithm ompi for collective gather
[0.000000] [smpi_coll/INFO] Switch to algorithm ompi for collective allgather
[0.000000] [smpi_coll/INFO] Switch to algorithm ompi for collective allgatherv
[0.000000] [smpi_coll/INFO] Switch to algorithm ompi for collective allreduce
[0.000000] [smpi_coll/INFO] Switch to algorithm ompi for collective alltoall
[0.000000] [smpi_coll/INFO] Switch to algorithm ompi for collective alltoallv
[0.000000] [smpi_coll/INFO] Switch to algorithm ompi for collective reduce
[0.000000] [smpi_coll/INFO] Switch to algorithm ompi for collective reduce_scatter
[0.000000] [smpi_coll/INFO] Switch to algorithm ompi for collective scatter
[0.000000] [smpi_coll/INFO] Switch to algorithm ompi for collective bcast
[0.000000] [smpi_coll/INFO] Switch to algorithm ompi for collective barrier
[amour1_CPU0:user_app:(1) 0.000000] [s4bxi_main_actor/INFO] Setup with nid = 1, model_pci = 1 ; e2e_off = 0
[amour1_CPU1:user_app:(2) 0.000000] [s4bxi_main_actor/INFO] Setup with nid = 1, model_pci = 1 ; e2e_off = 0
[amour1_CPU2:user_app:(3) 0.000000] [s4bxi_main_actor/INFO] Setup with nid = 1, model_pci = 1 ; e2e_off = 0
[amour1_CPU3:user_app:(4) 0.000000] [s4bxi_main_actor/INFO] Setup with nid = 1, model_pci = 1 ; e2e_off = 0
[amour1_CPU4:user_app:(5) 0.000000] [s4bxi_main_actor/INFO] Setup with nid = 1, model_pci = 1 ; e2e_off = 0
[amour1_CPU5:user_app:(6) 0.000000] [s4bxi_main_actor/INFO] Setup with nid = 1, model_pci = 1 ; e2e_off = 0
[amour1_CPU6:user_app:(7) 0.000000] [s4bxi_main_actor/INFO] Setup with nid = 1, model_pci = 1 ; e2e_off = 0
[amour1_CPU7:user_app:(8) 0.000000] [s4bxi_main_actor/INFO] Setup with nid = 1, model_pci = 1 ; e2e_off = 0
[amour2_CPU0:user_app:(14) 0.000000] [s4bxi_main_actor/INFO] Setup with nid = 2, model_pci = 1 ; e2e_off = 0
[amour2_CPU1:user_app:(15) 0.000000] [s4bxi_main_actor/INFO] Setup with nid = 2, model_pci = 1 ; e2e_off = 0
[amour2_CPU2:user_app:(16) 0.000000] [s4bxi_main_actor/INFO] Setup with nid = 2, model_pci = 1 ; e2e_off = 0
[amour2_CPU3:user_app:(17) 0.000000] [s4bxi_main_actor/INFO] Setup with nid = 2, model_pci = 1 ; e2e_off = 0
[amour2_CPU4:user_app:(18) 0.000000] [s4bxi_main_actor/INFO] Setup with nid = 2, model_pci = 1 ; e2e_off = 0
[amour2_CPU5:user_app:(19) 0.000000] [s4bxi_main_actor/INFO] Setup with nid = 2, model_pci = 1 ; e2e_off = 0
[amour2_CPU6:user_app:(20) 0.000000] [s4bxi_main_actor/INFO] Setup with nid = 2, model_pci = 1 ; e2e_off = 0
[amour2_CPU7:user_app:(21) 0.000000] [s4bxi_main_actor/INFO] Setup with nid = 2, model_pci = 1 ; e2e_off = 0
[amour3_CPU0:user_app:(27) 0.000000] [s4bxi_main_actor/INFO] Setup with nid = 3, model_pci = 1 ; e2e_off = 0
[amour3_CPU1:user_app:(28) 0.000000] [s4bxi_main_actor/INFO] Setup with nid = 3, model_pci = 1 ; e2e_off = 0
[amour3_CPU2:user_app:(29) 0.000000] [s4bxi_main_actor/INFO] Setup with nid = 3, model_pci = 1 ; e2e_off = 0
[amour3_CPU3:user_app:(30) 0.000000] [s4bxi_main_actor/INFO] Setup with nid = 3, model_pci = 1 ; e2e_off = 0
[amour3_CPU4:user_app:(31) 0.000000] [s4bxi_main_actor/INFO] Setup with nid = 3, model_pci = 1 ; e2e_off = 0
[amour3_CPU5:user_app:(32) 0.000000] [s4bxi_main_actor/INFO] Setup with nid = 3, model_pci = 1 ; e2e_off = 0
[amour3_CPU6:user_app:(33) 0.000000] [s4bxi_main_actor/INFO] Setup with nid = 3, model_pci = 1 ; e2e_off = 0
[amour3_CPU7:user_app:(34) 0.000000] [s4bxi_main_actor/INFO] Setup with nid = 3, model_pci = 1 ; e2e_off = 0
[amour4_CPU0:user_app:(40) 0.000000] [s4bxi_main_actor/INFO] Setup with nid = 4, model_pci = 1 ; e2e_off = 0
[amour4_CPU1:user_app:(41) 0.000000] [s4bxi_main_actor/INFO] Setup with nid = 4, model_pci = 1 ; e2e_off = 0
[amour4_CPU2:user_app:(42) 0.000000] [s4bxi_main_actor/INFO] Setup with nid = 4, model_pci = 1 ; e2e_off = 0
[amour4_CPU3:user_app:(43) 0.000000] [s4bxi_main_actor/INFO] Setup with nid = 4, model_pci = 1 ; e2e_off = 0
[amour4_CPU4:user_app:(44) 0.000000] [s4bxi_main_actor/INFO] Setup with nid = 4, model_pci = 1 ; e2e_off = 0
[amour4_CPU5:user_app:(45) 0.000000] [s4bxi_main_actor/INFO] Setup with nid = 4, model_pci = 1 ; e2e_off = 0
[amour4_CPU6:user_app:(46) 0.000000] [s4bxi_main_actor/INFO] Setup with nid = 4, model_pci = 1 ; e2e_off = 0
[amour4_CPU7:user_app:(47) 0.000000] [s4bxi_main_actor/INFO] Setup with nid = 4, model_pci = 1 ; e2e_off = 0
[amour5_CPU0:user_app:(53) 0.000000] [s4bxi_main_actor/INFO] Setup with nid = 5, model_pci = 1 ; e2e_off = 0
[amour5_CPU1:user_app:(54) 0.000000] [s4bxi_main_actor/INFO] Setup with nid = 5, model_pci = 1 ; e2e_off = 0
[amour5_CPU2:user_app:(55) 0.000000] [s4bxi_main_actor/INFO] Setup with nid = 5, model_pci = 1 ; e2e_off = 0
[amour5_CPU3:user_app:(56) 0.000000] [s4bxi_main_actor/INFO] Setup with nid = 5, model_pci = 1 ; e2e_off = 0
[amour5_CPU4:user_app:(57) 0.000000] [s4bxi_main_actor/INFO] Setup with nid = 5, model_pci = 1 ; e2e_off = 0
[amour5_CPU5:user_app:(58) 0.000000] [s4bxi_main_actor/INFO] Setup with nid = 5, model_pci = 1 ; e2e_off = 0
[amour5_CPU6:user_app:(59) 0.000000] [s4bxi_main_actor/INFO] Setup with nid = 5, model_pci = 1 ; e2e_off = 0
[amour5_CPU7:user_app:(60) 0.000000] [s4bxi_main_actor/INFO] Setup with nid = 5, model_pci = 1 ; e2e_off = 0
[amour6_CPU0:user_app:(66) 0.000000] [s4bxi_main_actor/INFO] Setup with nid = 6, model_pci = 1 ; e2e_off = 0
[amour6_CPU1:user_app:(67) 0.000000] [s4bxi_main_actor/INFO] Setup with nid = 6, model_pci = 1 ; e2e_off = 0
[amour6_CPU2:user_app:(68) 0.000000] [s4bxi_main_actor/INFO] Setup with nid = 6, model_pci = 1 ; e2e_off = 0
[amour6_CPU3:user_app:(69) 0.000000] [s4bxi_main_actor/INFO] Setup with nid = 6, model_pci = 1 ; e2e_off = 0
[amour6_CPU4:user_app:(70) 0.000000] [s4bxi_main_actor/INFO] Setup with nid = 6, model_pci = 1 ; e2e_off = 0
[amour6_CPU5:user_app:(71) 0.000000] [s4bxi_main_actor/INFO] Setup with nid = 6, model_pci = 1 ; e2e_off = 0
[amour6_CPU6:user_app:(72) 0.000000] [s4bxi_main_actor/INFO] Setup with nid = 6, model_pci = 1 ; e2e_off = 0
[amour6_CPU7:user_app:(73) 0.000000] [s4bxi_main_actor/INFO] Setup with nid = 6, model_pci = 1 ; e2e_off = 0
[amour7_CPU0:user_app:(79) 0.000000] [s4bxi_main_actor/INFO] Setup with nid = 7, model_pci = 1 ; e2e_off = 0
[amour7_CPU1:user_app:(80) 0.000000] [s4bxi_main_actor/INFO] Setup with nid = 7, model_pci = 1 ; e2e_off = 0
[amour7_CPU2:user_app:(81) 0.000000] [s4bxi_main_actor/INFO] Setup with nid = 7, model_pci = 1 ; e2e_off = 0
[amour7_CPU3:user_app:(82) 0.000000] [s4bxi_main_actor/INFO] Setup with nid = 7, model_pci = 1 ; e2e_off = 0
[amour7_CPU4:user_app:(83) 0.000000] [s4bxi_main_actor/INFO] Setup with nid = 7, model_pci = 1 ; e2e_off = 0
[amour7_CPU5:user_app:(84) 0.000000] [s4bxi_main_actor/INFO] Setup with nid = 7, model_pci = 1 ; e2e_off = 0
[amour7_CPU6:user_app:(85) 0.000000] [s4bxi_main_actor/INFO] Setup with nid = 7, model_pci = 1 ; e2e_off = 0
[amour7_CPU7:user_app:(86) 0.000000] [s4bxi_main_actor/INFO] Setup with nid = 7, model_pci = 1 ; e2e_off = 0
[amour8_CPU0:user_app:(92) 0.000000] [s4bxi_main_actor/INFO] Setup with nid = 8, model_pci = 1 ; e2e_off = 0
[amour8_CPU1:user_app:(93) 0.000000] [s4bxi_main_actor/INFO] Setup with nid = 8, model_pci = 1 ; e2e_off = 0
[amour8_CPU2:user_app:(94) 0.000000] [s4bxi_main_actor/INFO] Setup with nid = 8, model_pci = 1 ; e2e_off = 0
[amour8_CPU3:user_app:(95) 0.000000] [s4bxi_main_actor/INFO] Setup with nid = 8, model_pci = 1 ; e2e_off = 0
[amour8_CPU4:user_app:(96) 0.000000] [s4bxi_main_actor/INFO] Setup with nid = 8, model_pci = 1 ; e2e_off = 0
[amour8_CPU5:user_app:(97) 0.000000] [s4bxi_main_actor/INFO] Setup with nid = 8, model_pci = 1 ; e2e_off = 0
[amour8_CPU6:user_app:(98) 0.000000] [s4bxi_main_actor/INFO] Setup with nid = 8, model_pci = 1 ; e2e_off = 0
[amour8_CPU7:user_app:(99) 0.000000] [s4bxi_main_actor/INFO] Setup with nid = 8, model_pci = 1 ; e2e_off = 0
[amour9_CPU0:user_app:(105) 0.000000] [s4bxi_main_actor/INFO] Setup with nid = 9, model_pci = 1 ; e2e_off = 0
[amour9_CPU1:user_app:(106) 0.000000] [s4bxi_main_actor/INFO] Setup with nid = 9, model_pci = 1 ; e2e_off = 0
[amour9_CPU2:user_app:(107) 0.000000] [s4bxi_main_actor/INFO] Setup with nid = 9, model_pci = 1 ; e2e_off = 0
[amour9_CPU3:user_app:(108) 0.000000] [s4bxi_main_actor/INFO] Setup with nid = 9, model_pci = 1 ; e2e_off = 0
[amour9_CPU4:user_app:(109) 0.000000] [s4bxi_main_actor/INFO] Setup with nid = 9, model_pci = 1 ; e2e_off = 0
[amour9_CPU5:user_app:(110) 0.000000] [s4bxi_main_actor/INFO] Setup with nid = 9, model_pci = 1 ; e2e_off = 0
[amour9_CPU6:user_app:(111) 0.000000] [s4bxi_main_actor/INFO] Setup with nid = 9, model_pci = 1 ; e2e_off = 0
[amour9_CPU7:user_app:(112) 0.000000] [s4bxi_main_actor/INFO] Setup with nid = 9, model_pci = 1 ; e2e_off = 0
[amour10_CPU0:user_app:(118) 0.000000] [s4bxi_main_actor/INFO] Setup with nid = 10, model_pci = 1 ; e2e_off = 0
[amour10_CPU1:user_app:(119) 0.000000] [s4bxi_main_actor/INFO] Setup with nid = 10, model_pci = 1 ; e2e_off = 0
[amour10_CPU2:user_app:(120) 0.000000] [s4bxi_main_actor/INFO] Setup with nid = 10, model_pci = 1 ; e2e_off = 0
[amour10_CPU3:user_app:(121) 0.000000] [s4bxi_main_actor/INFO] Setup with nid = 10, model_pci = 1 ; e2e_off = 0
[amour10_CPU4:user_app:(122) 0.000000] [s4bxi_main_actor/INFO] Setup with nid = 10, model_pci = 1 ; e2e_off = 0
[amour10_CPU5:user_app:(123) 0.000000] [s4bxi_main_actor/INFO] Setup with nid = 10, model_pci = 1 ; e2e_off = 0
[amour10_CPU6:user_app:(124) 0.000000] [s4bxi_main_actor/INFO] Setup with nid = 10, model_pci = 1 ; e2e_off = 0
[amour10_CPU7:user_app:(125) 0.000000] [s4bxi_main_actor/INFO] Setup with nid = 10, model_pci = 1 ; e2e_off = 0
[amour11_CPU0:user_app:(131) 0.000000] [s4bxi_main_actor/INFO] Setup with nid = 11, model_pci = 1 ; e2e_off = 0
[amour11_CPU1:user_app:(132) 0.000000] [s4bxi_main_actor/INFO] Setup with nid = 11, model_pci = 1 ; e2e_off = 0
[amour11_CPU2:user_app:(133) 0.000000] [s4bxi_main_actor/INFO] Setup with nid = 11, model_pci = 1 ; e2e_off = 0
[amour11_CPU3:user_app:(134) 0.000000] [s4bxi_main_actor/INFO] Setup with nid = 11, model_pci = 1 ; e2e_off = 0
[amour11_CPU4:user_app:(135) 0.000000] [s4bxi_main_actor/INFO] Setup with nid = 11, model_pci = 1 ; e2e_off = 0
[amour11_CPU5:user_app:(136) 0.000000] [s4bxi_main_actor/INFO] Setup with nid = 11, model_pci = 1 ; e2e_off = 0
[amour11_CPU6:user_app:(137) 0.000000] [s4bxi_main_actor/INFO] Setup with nid = 11, model_pci = 1 ; e2e_off = 0
[amour11_CPU7:user_app:(138) 0.000000] [s4bxi_main_actor/INFO] Setup with nid = 11, model_pci = 1 ; e2e_off = 0
[amour12_CPU0:user_app:(144) 0.000000] [s4bxi_main_actor/INFO] Setup with nid = 12, model_pci = 1 ; e2e_off = 0
[amour12_CPU1:user_app:(145) 0.000000] [s4bxi_main_actor/INFO] Setup with nid = 12, model_pci = 1 ; e2e_off = 0
[amour12_CPU2:user_app:(146) 0.000000] [s4bxi_main_actor/INFO] Setup with nid = 12, model_pci = 1 ; e2e_off = 0
[amour12_CPU3:user_app:(147) 0.000000] [s4bxi_main_actor/INFO] Setup with nid = 12, model_pci = 1 ; e2e_off = 0
[amour12_CPU4:user_app:(148) 0.000000] [s4bxi_main_actor/INFO] Setup with nid = 12, model_pci = 1 ; e2e_off = 0
[amour12_CPU5:user_app:(149) 0.000000] [s4bxi_main_actor/INFO] Setup with nid = 12, model_pci = 1 ; e2e_off = 0
[amour12_CPU6:user_app:(150) 0.000000] [s4bxi_main_actor/INFO] Setup with nid = 12, model_pci = 1 ; e2e_off = 0
[amour12_CPU7:user_app:(151) 0.000000] [s4bxi_main_actor/INFO] Setup with nid = 12, model_pci = 1 ; e2e_off = 0
[amour13_CPU0:user_app:(157) 0.000000] [s4bxi_main_actor/INFO] Setup with nid = 13, model_pci = 1 ; e2e_off = 0
[amour13_CPU1:user_app:(158) 0.000000] [s4bxi_main_actor/INFO] Setup with nid = 13, model_pci = 1 ; e2e_off = 0
[amour13_CPU2:user_app:(159) 0.000000] [s4bxi_main_actor/INFO] Setup with nid = 13, model_pci = 1 ; e2e_off = 0
[amour13_CPU3:user_app:(160) 0.000000] [s4bxi_main_actor/INFO] Setup with nid = 13, model_pci = 1 ; e2e_off = 0
[amour13_CPU4:user_app:(161) 0.000000] [s4bxi_main_actor/INFO] Setup with nid = 13, model_pci = 1 ; e2e_off = 0
[amour13_CPU5:user_app:(162) 0.000000] [s4bxi_main_actor/INFO] Setup with nid = 13, model_pci = 1 ; e2e_off = 0
[amour13_CPU6:user_app:(163) 0.000000] [s4bxi_main_actor/INFO] Setup with nid = 13, model_pci = 1 ; e2e_off = 0
[amour13_CPU7:user_app:(164) 0.000000] [s4bxi_main_actor/INFO] Setup with nid = 13, model_pci = 1 ; e2e_off = 0
[amour14_CPU0:user_app:(170) 0.000000] [s4bxi_main_actor/INFO] Setup with nid = 14, model_pci = 1 ; e2e_off = 0
[amour14_CPU1:user_app:(171) 0.000000] [s4bxi_main_actor/INFO] Setup with nid = 14, model_pci = 1 ; e2e_off = 0
[amour14_CPU2:user_app:(172) 0.000000] [s4bxi_main_actor/INFO] Setup with nid = 14, model_pci = 1 ; e2e_off = 0
[amour14_CPU3:user_app:(173) 0.000000] [s4bxi_main_actor/INFO] Setup with nid = 14, model_pci = 1 ; e2e_off = 0
[amour14_CPU4:user_app:(174) 0.000000] [s4bxi_main_actor/INFO] Setup with nid = 14, model_pci = 1 ; e2e_off = 0
[amour14_CPU5:user_app:(175) 0.000000] [s4bxi_main_actor/INFO] Setup with nid = 14, model_pci = 1 ; e2e_off = 0
[amour14_CPU6:user_app:(176) 0.000000] [s4bxi_main_actor/INFO] Setup with nid = 14, model_pci = 1 ; e2e_off = 0
[amour14_CPU7:user_app:(177) 0.000000] [s4bxi_main_actor/INFO] Setup with nid = 14, model_pci = 1 ; e2e_off = 0
[amour15_CPU0:user_app:(183) 0.000000] [s4bxi_main_actor/INFO] Setup with nid = 15, model_pci = 1 ; e2e_off = 0
[amour15_CPU1:user_app:(184) 0.000000] [s4bxi_main_actor/INFO] Setup with nid = 15, model_pci = 1 ; e2e_off = 0
[amour15_CPU2:user_app:(185) 0.000000] [s4bxi_main_actor/INFO] Setup with nid = 15, model_pci = 1 ; e2e_off = 0
[amour15_CPU3:user_app:(186) 0.000000] [s4bxi_main_actor/INFO] Setup with nid = 15, model_pci = 1 ; e2e_off = 0
[amour15_CPU4:user_app:(187) 0.000000] [s4bxi_main_actor/INFO] Setup with nid = 15, model_pci = 1 ; e2e_off = 0
[amour15_CPU5:user_app:(188) 0.000000] [s4bxi_main_actor/INFO] Setup with nid = 15, model_pci = 1 ; e2e_off = 0
[amour15_CPU6:user_app:(189) 0.000000] [s4bxi_main_actor/INFO] Setup with nid = 15, model_pci = 1 ; e2e_off = 0
[amour15_CPU7:user_app:(190) 0.000000] [s4bxi_main_actor/INFO] Setup with nid = 15, model_pci = 1 ; e2e_off = 0
[amour16_CPU0:user_app:(196) 0.000000] [s4bxi_main_actor/INFO] Setup with nid = 16, model_pci = 1 ; e2e_off = 0
[amour16_CPU1:user_app:(197) 0.000000] [s4bxi_main_actor/INFO] Setup with nid = 16, model_pci = 1 ; e2e_off = 0
[amour16_CPU2:user_app:(198) 0.000000] [s4bxi_main_actor/INFO] Setup with nid = 16, model_pci = 1 ; e2e_off = 0
[amour16_CPU3:user_app:(199) 0.000000] [s4bxi_main_actor/INFO] Setup with nid = 16, model_pci = 1 ; e2e_off = 0
[amour16_CPU4:user_app:(200) 0.000000] [s4bxi_main_actor/INFO] Setup with nid = 16, model_pci = 1 ; e2e_off = 0
[amour16_CPU5:user_app:(201) 0.000000] [s4bxi_main_actor/INFO] Setup with nid = 16, model_pci = 1 ; e2e_off = 0
[amour16_CPU6:user_app:(202) 0.000000] [s4bxi_main_actor/INFO] Setup with nid = 16, model_pci = 1 ; e2e_off = 0
[amour16_CPU7:user_app:(203) 0.000000] [s4bxi_main_actor/INFO] Setup with nid = 16, model_pci = 1 ; e2e_off = 0
[amour1_CPU0:user_app:(1) 0.000000] [user_app/INFO] Init rank 0 ; local_rank 0
[amour1_CPU1:user_app:(2) 0.000000] [user_app/INFO] Init rank 1 ; local_rank 1
[amour1_CPU2:user_app:(3) 0.000000] [user_app/INFO] Init rank 2 ; local_rank 2
[amour1_CPU3:user_app:(4) 0.000000] [user_app/INFO] Init rank 3 ; local_rank 3
[amour1_CPU4:user_app:(5) 0.000000] [user_app/INFO] Init rank 4 ; local_rank 4
[amour1_CPU5:user_app:(6) 0.000000] [user_app/INFO] Init rank 5 ; local_rank 5
[amour1_CPU6:user_app:(7) 0.000000] [user_app/INFO] Init rank 6 ; local_rank 6
[amour1_CPU7:user_app:(8) 0.000000] [user_app/INFO] Init rank 7 ; local_rank 7
[amour2_CPU0:user_app:(14) 0.000000] [user_app/INFO] Init rank 8 ; local_rank 0
[amour2_CPU1:user_app:(15) 0.000000] [user_app/INFO] Init rank 9 ; local_rank 1
[amour2_CPU2:user_app:(16) 0.000000] [user_app/INFO] Init rank 10 ; local_rank 2
[amour2_CPU3:user_app:(17) 0.000000] [user_app/INFO] Init rank 11 ; local_rank 3
[amour2_CPU4:user_app:(18) 0.000000] [user_app/INFO] Init rank 12 ; local_rank 4
[amour2_CPU5:user_app:(19) 0.000000] [user_app/INFO] Init rank 13 ; local_rank 5
[amour2_CPU6:user_app:(20) 0.000000] [user_app/INFO] Init rank 14 ; local_rank 6
[amour2_CPU7:user_app:(21) 0.000000] [user_app/INFO] Init rank 15 ; local_rank 7
[amour3_CPU0:user_app:(27) 0.000000] [user_app/INFO] Init rank 16 ; local_rank 0
[amour3_CPU1:user_app:(28) 0.000000] [user_app/INFO] Init rank 17 ; local_rank 1
[amour3_CPU2:user_app:(29) 0.000000] [user_app/INFO] Init rank 18 ; local_rank 2
[amour3_CPU3:user_app:(30) 0.000000] [user_app/INFO] Init rank 19 ; local_rank 3
[amour3_CPU4:user_app:(31) 0.000000] [user_app/INFO] Init rank 20 ; local_rank 4
[amour3_CPU5:user_app:(32) 0.000000] [user_app/INFO] Init rank 21 ; local_rank 5
[amour3_CPU6:user_app:(33) 0.000000] [user_app/INFO] Init rank 22 ; local_rank 6
[amour3_CPU7:user_app:(34) 0.000000] [user_app/INFO] Init rank 23 ; local_rank 7
[amour4_CPU0:user_app:(40) 0.000000] [user_app/INFO] Init rank 24 ; local_rank 0
[amour4_CPU1:user_app:(41) 0.000000] [user_app/INFO] Init rank 25 ; local_rank 1
[amour4_CPU2:user_app:(42) 0.000000] [user_app/INFO] Init rank 26 ; local_rank 2
[amour4_CPU3:user_app:(43) 0.000000] [user_app/INFO] Init rank 27 ; local_rank 3
[amour4_CPU4:user_app:(44) 0.000000] [user_app/INFO] Init rank 28 ; local_rank 4
[amour4_CPU5:user_app:(45) 0.000000] [user_app/INFO] Init rank 29 ; local_rank 5
[amour4_CPU6:user_app:(46) 0.000000] [user_app/INFO] Init rank 30 ; local_rank 6
[amour4_CPU7:user_app:(47) 0.000000] [user_app/INFO] Init rank 31 ; local_rank 7
[amour5_CPU0:user_app:(53) 0.000000] [user_app/INFO] Init rank 32 ; local_rank 0
[amour5_CPU1:user_app:(54) 0.000000] [user_app/INFO] Init rank 33 ; local_rank 1
[amour5_CPU2:user_app:(55) 0.000000] [user_app/INFO] Init rank 34 ; local_rank 2
[amour5_CPU3:user_app:(56) 0.000000] [user_app/INFO] Init rank 35 ; local_rank 3
[amour5_CPU4:user_app:(57) 0.000000] [user_app/INFO] Init rank 36 ; local_rank 4
[amour5_CPU5:user_app:(58) 0.000000] [user_app/INFO] Init rank 37 ; local_rank 5
[amour5_CPU6:user_app:(59) 0.000000] [user_app/INFO] Init rank 38 ; local_rank 6
[amour5_CPU7:user_app:(60) 0.000000] [user_app/INFO] Init rank 39 ; local_rank 7
[amour6_CPU0:user_app:(66) 0.000000] [user_app/INFO] Init rank 40 ; local_rank 0
[amour6_CPU1:user_app:(67) 0.000000] [user_app/INFO] Init rank 41 ; local_rank 1
[amour6_CPU2:user_app:(68) 0.000000] [user_app/INFO] Init rank 42 ; local_rank 2
[amour6_CPU3:user_app:(69) 0.000000] [user_app/INFO] Init rank 43 ; local_rank 3
[amour6_CPU4:user_app:(70) 0.000000] [user_app/INFO] Init rank 44 ; local_rank 4
[amour6_CPU5:user_app:(71) 0.000000] [user_app/INFO] Init rank 45 ; local_rank 5
[amour6_CPU6:user_app:(72) 0.000000] [user_app/INFO] Init rank 46 ; local_rank 6
[amour6_CPU7:user_app:(73) 0.000000] [user_app/INFO] Init rank 47 ; local_rank 7
[amour7_CPU0:user_app:(79) 0.000000] [user_app/INFO] Init rank 48 ; local_rank 0
[amour7_CPU1:user_app:(80) 0.000000] [user_app/INFO] Init rank 49 ; local_rank 1
[amour7_CPU2:user_app:(81) 0.000000] [user_app/INFO] Init rank 50 ; local_rank 2
[amour7_CPU3:user_app:(82) 0.000000] [user_app/INFO] Init rank 51 ; local_rank 3
[amour7_CPU4:user_app:(83) 0.000000] [user_app/INFO] Init rank 52 ; local_rank 4
[amour7_CPU5:user_app:(84) 0.000000] [user_app/INFO] Init rank 53 ; local_rank 5
[amour7_CPU6:user_app:(85) 0.000000] [user_app/INFO] Init rank 54 ; local_rank 6
[amour7_CPU7:user_app:(86) 0.000000] [user_app/INFO] Init rank 55 ; local_rank 7
[amour8_CPU0:user_app:(92) 0.000000] [user_app/INFO] Init rank 56 ; local_rank 0
[amour8_CPU1:user_app:(93) 0.000000] [user_app/INFO] Init rank 57 ; local_rank 1
[amour8_CPU2:user_app:(94) 0.000000] [user_app/INFO] Init rank 58 ; local_rank 2
[amour8_CPU3:user_app:(95) 0.000000] [user_app/INFO] Init rank 59 ; local_rank 3
[amour8_CPU4:user_app:(96) 0.000000] [user_app/INFO] Init rank 60 ; local_rank 4
[amour8_CPU5:user_app:(97) 0.000000] [user_app/INFO] Init rank 61 ; local_rank 5
[amour8_CPU6:user_app:(98) 0.000000] [user_app/INFO] Init rank 62 ; local_rank 6
[amour8_CPU7:user_app:(99) 0.000000] [user_app/INFO] Init rank 63 ; local_rank 7
[amour9_CPU0:user_app:(105) 0.000000] [user_app/INFO] Init rank 64 ; local_rank 0
[amour9_CPU1:user_app:(106) 0.000000] [user_app/INFO] Init rank 65 ; local_rank 1
[amour9_CPU2:user_app:(107) 0.000000] [user_app/INFO] Init rank 66 ; local_rank 2
[amour9_CPU3:user_app:(108) 0.000000] [user_app/INFO] Init rank 67 ; local_rank 3
[amour9_CPU4:user_app:(109) 0.000000] [user_app/INFO] Init rank 68 ; local_rank 4
[amour9_CPU5:user_app:(110) 0.000000] [user_app/INFO] Init rank 69 ; local_rank 5
[amour9_CPU6:user_app:(111) 0.000000] [user_app/INFO] Init rank 70 ; local_rank 6
[amour9_CPU7:user_app:(112) 0.000000] [user_app/INFO] Init rank 71 ; local_rank 7
[amour10_CPU0:user_app:(118) 0.000000] [user_app/INFO] Init rank 72 ; local_rank 0
[amour10_CPU1:user_app:(119) 0.000000] [user_app/INFO] Init rank 73 ; local_rank 1
[amour10_CPU2:user_app:(120) 0.000000] [user_app/INFO] Init rank 74 ; local_rank 2
[amour10_CPU3:user_app:(121) 0.000000] [user_app/INFO] Init rank 75 ; local_rank 3
[amour10_CPU4:user_app:(122) 0.000000] [user_app/INFO] Init rank 76 ; local_rank 4
[amour10_CPU5:user_app:(123) 0.000000] [user_app/INFO] Init rank 77 ; local_rank 5
[amour10_CPU6:user_app:(124) 0.000000] [user_app/INFO] Init rank 78 ; local_rank 6
[amour10_CPU7:user_app:(125) 0.000000] [user_app/INFO] Init rank 79 ; local_rank 7
[amour11_CPU0:user_app:(131) 0.000000] [user_app/INFO] Init rank 80 ; local_rank 0
[amour11_CPU1:user_app:(132) 0.000000] [user_app/INFO] Init rank 81 ; local_rank 1
[amour11_CPU2:user_app:(133) 0.000000] [user_app/INFO] Init rank 82 ; local_rank 2
[amour11_CPU3:user_app:(134) 0.000000] [user_app/INFO] Init rank 83 ; local_rank 3
[amour11_CPU4:user_app:(135) 0.000000] [user_app/INFO] Init rank 84 ; local_rank 4
[amour11_CPU5:user_app:(136) 0.000000] [user_app/INFO] Init rank 85 ; local_rank 5
[amour11_CPU6:user_app:(137) 0.000000] [user_app/INFO] Init rank 86 ; local_rank 6
[amour11_CPU7:user_app:(138) 0.000000] [user_app/INFO] Init rank 87 ; local_rank 7
[amour12_CPU0:user_app:(144) 0.000000] [user_app/INFO] Init rank 88 ; local_rank 0
[amour12_CPU1:user_app:(145) 0.000000] [user_app/INFO] Init rank 89 ; local_rank 1
[amour12_CPU2:user_app:(146) 0.000000] [user_app/INFO] Init rank 90 ; local_rank 2
[amour12_CPU3:user_app:(147) 0.000000] [user_app/INFO] Init rank 91 ; local_rank 3
[amour12_CPU4:user_app:(148) 0.000000] [user_app/INFO] Init rank 92 ; local_rank 4
[amour12_CPU5:user_app:(149) 0.000000] [user_app/INFO] Init rank 93 ; local_rank 5
[amour12_CPU6:user_app:(150) 0.000000] [user_app/INFO] Init rank 94 ; local_rank 6
[amour12_CPU7:user_app:(151) 0.000000] [user_app/INFO] Init rank 95 ; local_rank 7
[amour13_CPU0:user_app:(157) 0.000000] [user_app/INFO] Init rank 96 ; local_rank 0
[amour13_CPU1:user_app:(158) 0.000000] [user_app/INFO] Init rank 97 ; local_rank 1
[amour13_CPU2:user_app:(159) 0.000000] [user_app/INFO] Init rank 98 ; local_rank 2
[amour13_CPU3:user_app:(160) 0.000000] [user_app/INFO] Init rank 99 ; local_rank 3
[amour13_CPU4:user_app:(161) 0.000000] [user_app/INFO] Init rank 100 ; local_rank 4
[amour13_CPU5:user_app:(162) 0.000000] [user_app/INFO] Init rank 101 ; local_rank 5
[amour13_CPU6:user_app:(163) 0.000000] [user_app/INFO] Init rank 102 ; local_rank 6
[amour13_CPU7:user_app:(164) 0.000000] [user_app/INFO] Init rank 103 ; local_rank 7
[amour14_CPU0:user_app:(170) 0.000000] [user_app/INFO] Init rank 104 ; local_rank 0
[amour14_CPU1:user_app:(171) 0.000000] [user_app/INFO] Init rank 105 ; local_rank 1
[amour14_CPU2:user_app:(172) 0.000000] [user_app/INFO] Init rank 106 ; local_rank 2
[amour14_CPU3:user_app:(173) 0.000000] [user_app/INFO] Init rank 107 ; local_rank 3
[amour14_CPU4:user_app:(174) 0.000000] [user_app/INFO] Init rank 108 ; local_rank 4
[amour14_CPU5:user_app:(175) 0.000000] [user_app/INFO] Init rank 109 ; local_rank 5
[amour14_CPU6:user_app:(176) 0.000000] [user_app/INFO] Init rank 110 ; local_rank 6
[amour14_CPU7:user_app:(177) 0.000000] [user_app/INFO] Init rank 111 ; local_rank 7
[amour15_CPU0:user_app:(183) 0.000000] [user_app/INFO] Init rank 112 ; local_rank 0
[amour15_CPU1:user_app:(184) 0.000000] [user_app/INFO] Init rank 113 ; local_rank 1
[amour15_CPU2:user_app:(185) 0.000000] [user_app/INFO] Init rank 114 ; local_rank 2
[amour15_CPU3:user_app:(186) 0.000000] [user_app/INFO] Init rank 115 ; local_rank 3
[amour15_CPU4:user_app:(187) 0.000000] [user_app/INFO] Init rank 116 ; local_rank 4
[amour15_CPU5:user_app:(188) 0.000000] [user_app/INFO] Init rank 117 ; local_rank 5
[amour15_CPU6:user_app:(189) 0.000000] [user_app/INFO] Init rank 118 ; local_rank 6
[amour15_CPU7:user_app:(190) 0.000000] [user_app/INFO] Init rank 119 ; local_rank 7
[amour16_CPU0:user_app:(196) 0.000000] [user_app/INFO] Init rank 120 ; local_rank 0
[amour16_CPU1:user_app:(197) 0.000000] [user_app/INFO] Init rank 121 ; local_rank 1
[amour16_CPU2:user_app:(198) 0.000000] [user_app/INFO] Init rank 122 ; local_rank 2
[amour16_CPU3:user_app:(199) 0.000000] [user_app/INFO] Init rank 123 ; local_rank 3
[amour16_CPU4:user_app:(200) 0.000000] [user_app/INFO] Init rank 124 ; local_rank 4
[amour16_CPU5:user_app:(201) 0.000000] [user_app/INFO] Init rank 125 ; local_rank 5
[amour16_CPU6:user_app:(202) 0.000000] [user_app/INFO] Init rank 126 ; local_rank 6
[amour16_CPU7:user_app:(203) 0.000000] [user_app/INFO] Init rank 127 ; local_rank 7
[amour1_NIC:nic_e2e:(13) 0.000000] [s4bxi_nic_e2e/INFO] E2E was configured with timeout = 10.000000 and retries = 5
[amour2_NIC:nic_e2e:(26) 0.000000] [s4bxi_nic_e2e/INFO] E2E was configured with timeout = 10.000000 and retries = 5
[amour3_NIC:nic_e2e:(39) 0.000000] [s4bxi_nic_e2e/INFO] E2E was configured with timeout = 10.000000 and retries = 5
[amour4_NIC:nic_e2e:(52) 0.000000] [s4bxi_nic_e2e/INFO] E2E was configured with timeout = 10.000000 and retries = 5
[amour5_NIC:nic_e2e:(65) 0.000000] [s4bxi_nic_e2e/INFO] E2E was configured with timeout = 10.000000 and retries = 5
[amour6_NIC:nic_e2e:(78) 0.000000] [s4bxi_nic_e2e/INFO] E2E was configured with timeout = 10.000000 and retries = 5
[amour7_NIC:nic_e2e:(91) 0.000000] [s4bxi_nic_e2e/INFO] E2E was configured with timeout = 10.000000 and retries = 5
[amour8_NIC:nic_e2e:(104) 0.000000] [s4bxi_nic_e2e/INFO] E2E was configured with timeout = 10.000000 and retries = 5
[amour9_NIC:nic_e2e:(117) 0.000000] [s4bxi_nic_e2e/INFO] E2E was configured with timeout = 10.000000 and retries = 5
[amour10_NIC:nic_e2e:(130) 0.000000] [s4bxi_nic_e2e/INFO] E2E was configured with timeout = 10.000000 and retries = 5
[amour11_NIC:nic_e2e:(143) 0.000000] [s4bxi_nic_e2e/INFO] E2E was configured with timeout = 10.000000 and retries = 5
[amour12_NIC:nic_e2e:(156) 0.000000] [s4bxi_nic_e2e/INFO] E2E was configured with timeout = 10.000000 and retries = 5
[amour13_NIC:nic_e2e:(169) 0.000000] [s4bxi_nic_e2e/INFO] E2E was configured with timeout = 10.000000 and retries = 5
[amour14_NIC:nic_e2e:(182) 0.000000] [s4bxi_nic_e2e/INFO] E2E was configured with timeout = 10.000000 and retries = 5
[amour15_NIC:nic_e2e:(195) 0.000000] [s4bxi_nic_e2e/INFO] E2E was configured with timeout = 10.000000 and retries = 5
[amour16_NIC:nic_e2e:(208) 0.000000] [s4bxi_nic_e2e/INFO] E2E was configured with timeout = 10.000000 and retries = 5
[amour1_CPU0:user_app:(1) 0.000000] [user_app/INFO] Extracting symbols from Bull lib 0x1edd700 (Yqrxdk0so.40) and SMPI lib 0x7f31699eb850
[amour1_CPU1:user_app:(2) 0.000000] [user_app/INFO] Extracting symbols from Bull lib 0x1ee1b30 (Yqrxdk1so.40) and SMPI lib 0x7f31699eb850
[amour1_CPU2:user_app:(3) 0.000000] [user_app/INFO] Extracting symbols from Bull lib 0x1ee43e0 (Yqrxdk2so.40) and SMPI lib 0x7f31699eb850
[amour1_CPU3:user_app:(4) 0.000000] [user_app/INFO] Extracting symbols from Bull lib 0x1ee6bf0 (Yqrxdk3so.40) and SMPI lib 0x7f31699eb850
[amour1_CPU4:user_app:(5) 0.000000] [user_app/INFO] Extracting symbols from Bull lib 0x1ee94d0 (Yqrxdk4so.40) and SMPI lib 0x7f31699eb850
[amour1_CPU5:user_app:(6) 0.000000] [user_app/INFO] Extracting symbols from Bull lib 0x1eebd20 (Yqrxdk5so.40) and SMPI lib 0x7f31699eb850
[amour1_CPU6:user_app:(7) 0.000000] [user_app/INFO] Extracting symbols from Bull lib 0x1eee570 (Yqrxdk6so.40) and SMPI lib 0x7f31699eb850
[amour1_CPU7:user_app:(8) 0.000000] [user_app/INFO] Extracting symbols from Bull lib 0x1ef0e50 (Yqrxdk7so.40) and SMPI lib 0x7f31699eb850
[amour2_CPU0:user_app:(14) 0.000000] [user_app/INFO] Extracting symbols from Bull lib 0x1ef3980 (Yqrxdk8so.40) and SMPI lib 0x7f31699eb850
[amour2_CPU1:user_app:(15) 0.000000] [user_app/INFO] Extracting symbols from Bull lib 0x1ef6290 (Yqrxdk9so.40) and SMPI lib 0x7f31699eb850
[amour2_CPU2:user_app:(16) 0.000000] [user_app/INFO] Extracting symbols from Bull lib 0x1ef8b70 (Yqrxd10so.40) and SMPI lib 0x7f31699eb850
[amour2_CPU3:user_app:(17) 0.000000] [user_app/INFO] Extracting symbols from Bull lib 0x1efb540 (Yqrxd11so.40) and SMPI lib 0x7f31699eb850
[amour2_CPU4:user_app:(18) 0.000000] [user_app/INFO] Extracting symbols from Bull lib 0x1efdeb0 (Yqrxd12so.40) and SMPI lib 0x7f31699eb850
[amour2_CPU5:user_app:(19) 0.000000] [user_app/INFO] Extracting symbols from Bull lib 0x1f008e0 (Yqrxd13so.40) and SMPI lib 0x7f31699eb850
[amour2_CPU6:user_app:(20) 0.000000] [user_app/INFO] Extracting symbols from Bull lib 0x1f03360 (Yqrxd14so.40) and SMPI lib 0x7f31699eb850
[amour2_CPU7:user_app:(21) 0.000000] [user_app/INFO] Extracting symbols from Bull lib 0x1f05e60 (Yqrxd15so.40) and SMPI lib 0x7f31699eb850
[amour3_CPU0:user_app:(27) 0.000000] [user_app/INFO] Extracting symbols from Bull lib 0x1f08f50 (Yqrxd16so.40) and SMPI lib 0x7f31699eb850
[amour3_CPU1:user_app:(28) 0.000000] [user_app/INFO] Extracting symbols from Bull lib 0x1f0b9d0 (Yqrxd17so.40) and SMPI lib 0x7f31699eb850
[amour3_CPU2:user_app:(29) 0.000000] [user_app/INFO] Extracting symbols from Bull lib 0x1f0e450 (Yqrxd18so.40) and SMPI lib 0x7f31699eb850
[amour3_CPU3:user_app:(30) 0.000000] [user_app/INFO] Extracting symbols from Bull lib 0x1f10ed0 (Yqrxd19so.40) and SMPI lib 0x7f31699eb850
[amour3_CPU4:user_app:(31) 0.000000] [user_app/INFO] Extracting symbols from Bull lib 0x1f13950 (Yqrxd20so.40) and SMPI lib 0x7f31699eb850
[amour3_CPU5:user_app:(32) 0.000000] [user_app/INFO] Extracting symbols from Bull lib 0x1f163d0 (Yqrxd21so.40) and SMPI lib 0x7f31699eb850
[amour3_CPU6:user_app:(33) 0.000000] [user_app/INFO] Extracting symbols from Bull lib 0x1f18e50 (Yqrxd22so.40) and SMPI lib 0x7f31699eb850
[amour3_CPU7:user_app:(34) 0.000000] [user_app/INFO] Extracting symbols from Bull lib 0x1f1b8d0 (Yqrxd23so.40) and SMPI lib 0x7f31699eb850
[amour4_CPU0:user_app:(40) 0.000000] [user_app/INFO] Extracting symbols from Bull lib 0x1f1e390 (Yqrxd24so.40) and SMPI lib 0x7f31699eb850
[amour4_CPU1:user_app:(41) 0.000000] [user_app/INFO] Extracting symbols from Bull lib 0x1f20e10 (Yqrxd25so.40) and SMPI lib 0x7f31699eb850
[amour4_CPU2:user_app:(42) 0.000000] [user_app/INFO] Extracting symbols from Bull lib 0x1f23890 (Yqrxd26so.40) and SMPI lib 0x7f31699eb850
[amour4_CPU3:user_app:(43) 0.000000] [user_app/INFO] Extracting symbols from Bull lib 0x1f26310 (Yqrxd27so.40) and SMPI lib 0x7f31699eb850
[amour4_CPU4:user_app:(44) 0.000000] [user_app/INFO] Extracting symbols from Bull lib 0x1f28d90 (Yqrxd28so.40) and SMPI lib 0x7f31699eb850
[amour4_CPU5:user_app:(45) 0.000000] [user_app/INFO] Extracting symbols from Bull lib 0x1f2b810 (Yqrxd29so.40) and SMPI lib 0x7f31699eb850
[amour4_CPU6:user_app:(46) 0.000000] [user_app/INFO] Extracting symbols from Bull lib 0x1f2e290 (Yqrxd30so.40) and SMPI lib 0x7f31699eb850
[amour4_CPU7:user_app:(47) 0.000000] [user_app/INFO] Extracting symbols from Bull lib 0x1f30f20 (Yqrxd31so.40) and SMPI lib 0x7f31699eb850
[amour5_CPU0:user_app:(53) 0.000000] [user_app/INFO] Extracting symbols from Bull lib 0x1f34500 (Yqrxd32so.40) and SMPI lib 0x7f31699eb850
[amour5_CPU1:user_app:(54) 0.000000] [user_app/INFO] Extracting symbols from Bull lib 0x1f36f80 (Yqrxd33so.40) and SMPI lib 0x7f31699eb850
[amour5_CPU2:user_app:(55) 0.000000] [user_app/INFO] Extracting symbols from Bull lib 0x1f39a00 (Yqrxd34so.40) and SMPI lib 0x7f31699eb850
[amour5_CPU3:user_app:(56) 0.000000] [user_app/INFO] Extracting symbols from Bull lib 0x1f3c480 (Yqrxd35so.40) and SMPI lib 0x7f31699eb850
[amour5_CPU4:user_app:(57) 0.000000] [user_app/INFO] Extracting symbols from Bull lib 0x1f3ef00 (Yqrxd36so.40) and SMPI lib 0x7f31699eb850
[amour5_CPU5:user_app:(58) 0.000000] [user_app/INFO] Extracting symbols from Bull lib 0x1f41980 (Yqrxd37so.40) and SMPI lib 0x7f31699eb850
[amour5_CPU6:user_app:(59) 0.000000] [user_app/INFO] Extracting symbols from Bull lib 0x1f44400 (Yqrxd38so.40) and SMPI lib 0x7f31699eb850
[amour5_CPU7:user_app:(60) 0.000000] [user_app/INFO] Extracting symbols from Bull lib 0x1f46e80 (Yqrxd39so.40) and SMPI lib 0x7f31699eb850
[amour6_CPU0:user_app:(66) 0.000000] [user_app/INFO] Extracting symbols from Bull lib 0x1f49c40 (Yqrxd40so.40) and SMPI lib 0x7f31699eb850
[amour6_CPU1:user_app:(67) 0.000000] [user_app/INFO] Extracting symbols from Bull lib 0x1f4c6c0 (Yqrxd41so.40) and SMPI lib 0x7f31699eb850
[amour6_CPU2:user_app:(68) 0.000000] [user_app/INFO] Extracting symbols from Bull lib 0x1f4f140 (Yqrxd42so.40) and SMPI lib 0x7f31699eb850
[amour6_CPU3:user_app:(69) 0.000000] [user_app/INFO] Extracting symbols from Bull lib 0x1f51bc0 (Yqrxd43so.40) and SMPI lib 0x7f31699eb850
[amour6_CPU4:user_app:(70) 0.000000] [user_app/INFO] Extracting symbols from Bull lib 0x1f54640 (Yqrxd44so.40) and SMPI lib 0x7f31699eb850
[amour6_CPU5:user_app:(71) 0.000000] [user_app/INFO] Extracting symbols from Bull lib 0x1f570c0 (Yqrxd45so.40) and SMPI lib 0x7f31699eb850
[amour6_CPU6:user_app:(72) 0.000000] [user_app/INFO] Extracting symbols from Bull lib 0x1f59b40 (Yqrxd46so.40) and SMPI lib 0x7f31699eb850
[amour6_CPU7:user_app:(73) 0.000000] [user_app/INFO] Extracting symbols from Bull lib 0x1f5c5c0 (Yqrxd47so.40) and SMPI lib 0x7f31699eb850
[amour7_CPU0:user_app:(79) 0.000000] [user_app/INFO] Extracting symbols from Bull lib 0x1f5f380 (Yqrxd48so.40) and SMPI lib 0x7f31699eb850
[amour7_CPU1:user_app:(80) 0.000000] [user_app/INFO] Extracting symbols from Bull lib 0x1f61e00 (Yqrxd49so.40) and SMPI lib 0x7f31699eb850
[amour7_CPU2:user_app:(81) 0.000000] [user_app/INFO] Extracting symbols from Bull lib 0x1f64880 (Yqrxd50so.40) and SMPI lib 0x7f31699eb850
[amour7_CPU3:user_app:(82) 0.000000] [user_app/INFO] Extracting symbols from Bull lib 0x1f67300 (Yqrxd51so.40) and SMPI lib 0x7f31699eb850
[amour7_CPU4:user_app:(83) 0.000000] [user_app/INFO] Extracting symbols from Bull lib 0x1f69d80 (Yqrxd52so.40) and SMPI lib 0x7f31699eb850
[amour7_CPU5:user_app:(84) 0.000000] [user_app/INFO] Extracting symbols from Bull lib 0x1f6c800 (Yqrxd53so.40) and SMPI lib 0x7f31699eb850
[amour7_CPU6:user_app:(85) 0.000000] [user_app/INFO] Extracting symbols from Bull lib 0x1f6f280 (Yqrxd54so.40) and SMPI lib 0x7f31699eb850
[amour7_CPU7:user_app:(86) 0.000000] [user_app/INFO] Extracting symbols from Bull lib 0x1f71d00 (Yqrxd55so.40) and SMPI lib 0x7f31699eb850
[amour8_CPU0:user_app:(92) 0.000000] [user_app/INFO] Extracting symbols from Bull lib 0x1f74ac0 (Yqrxd56so.40) and SMPI lib 0x7f31699eb850
[amour8_CPU1:user_app:(93) 0.000000] [user_app/INFO] Extracting symbols from Bull lib 0x1f77540 (Yqrxd57so.40) and SMPI lib 0x7f31699eb850
[amour8_CPU2:user_app:(94) 0.000000] [user_app/INFO] Extracting symbols from Bull lib 0x1f79fc0 (Yqrxd58so.40) and SMPI lib 0x7f31699eb850
[amour8_CPU3:user_app:(95) 0.000000] [user_app/INFO] Extracting symbols from Bull lib 0x1f7ca40 (Yqrxd59so.40) and SMPI lib 0x7f31699eb850
[amour8_CPU4:user_app:(96) 0.000000] [user_app/INFO] Extracting symbols from Bull lib 0x1f7f4c0 (Yqrxd60so.40) and SMPI lib 0x7f31699eb850
[amour8_CPU5:user_app:(97) 0.000000] [user_app/INFO] Extracting symbols from Bull lib 0x1f81f40 (Yqrxd61so.40) and SMPI lib 0x7f31699eb850
[amour8_CPU6:user_app:(98) 0.000000] [user_app/INFO] Extracting symbols from Bull lib 0x1f849c0 (Yqrxd62so.40) and SMPI lib 0x7f31699eb850
[amour8_CPU7:user_app:(99) 0.000000] [user_app/INFO] Extracting symbols from Bull lib 0x1f87850 (Yqrxd63so.40) and SMPI lib 0x7f31699eb850
[amour9_CPU0:user_app:(105) 0.000000] [user_app/INFO] Extracting symbols from Bull lib 0x1f8be40 (Yqrxd64so.40) and SMPI lib 0x7f31699eb850
[amour9_CPU1:user_app:(106) 0.000000] [user_app/INFO] Extracting symbols from Bull lib 0x1f8e8c0 (Yqrxd65so.40) and SMPI lib 0x7f31699eb850
[amour9_CPU2:user_app:(107) 0.000000] [user_app/INFO] Extracting symbols from Bull lib 0x1f91340 (Yqrxd66so.40) and SMPI lib 0x7f31699eb850
[amour9_CPU3:user_app:(108) 0.000000] [user_app/INFO] Extracting symbols from Bull lib 0x1f93dc0 (Yqrxd67so.40) and SMPI lib 0x7f31699eb850
[amour9_CPU4:user_app:(109) 0.000000] [user_app/INFO] Extracting symbols from Bull lib 0x1f96840 (Yqrxd68so.40) and SMPI lib 0x7f31699eb850
[amour9_CPU5:user_app:(110) 0.000000] [user_app/INFO] Extracting symbols from Bull lib 0x1f992c0 (Yqrxd69so.40) and SMPI lib 0x7f31699eb850
[amour9_CPU6:user_app:(111) 0.000000] [user_app/INFO] Extracting symbols from Bull lib 0x1f9bd40 (Yqrxd70so.40) and SMPI lib 0x7f31699eb850
[amour9_CPU7:user_app:(112) 0.000000] [user_app/INFO] Extracting symbols from Bull lib 0x1f9e7c0 (Yqrxd71so.40) and SMPI lib 0x7f31699eb850
[amour10_CPU0:user_app:(118) 0.000000] [user_app/INFO] Extracting symbols from Bull lib 0x1fa1580 (Yqrxd72so.40) and SMPI lib 0x7f31699eb850
[amour10_CPU1:user_app:(119) 0.000000] [user_app/INFO] Extracting symbols from Bull lib 0x1fa4000 (Yqrxd73so.40) and SMPI lib 0x7f31699eb850
[amour10_CPU2:user_app:(120) 0.000000] [user_app/INFO] Extracting symbols from Bull lib 0x1fa6a80 (Yqrxd74so.40) and SMPI lib 0x7f31699eb850
[amour10_CPU3:user_app:(121) 0.000000] [user_app/INFO] Extracting symbols from Bull lib 0x1fa9500 (Yqrxd75so.40) and SMPI lib 0x7f31699eb850
[amour10_CPU4:user_app:(122) 0.000000] [user_app/INFO] Extracting symbols from Bull lib 0x1fabf80 (Yqrxd76so.40) and SMPI lib 0x7f31699eb850
[amour10_CPU5:user_app:(123) 0.000000] [user_app/INFO] Extracting symbols from Bull lib 0x1faea00 (Yqrxd77so.40) and SMPI lib 0x7f31699eb850
[amour10_CPU6:user_app:(124) 0.000000] [user_app/INFO] Extracting symbols from Bull lib 0x1fb1480 (Yqrxd78so.40) and SMPI lib 0x7f31699eb850
[amour10_CPU7:user_app:(125) 0.000000] [user_app/INFO] Extracting symbols from Bull lib 0x1fb3f00 (Yqrxd79so.40) and SMPI lib 0x7f31699eb850
[amour11_CPU0:user_app:(131) 0.000000] [user_app/INFO] Extracting symbols from Bull lib 0x1fb6cc0 (Yqrxd80so.40) and SMPI lib 0x7f31699eb850
[amour11_CPU1:user_app:(132) 0.000000] [user_app/INFO] Extracting symbols from Bull lib 0x1fb9740 (Yqrxd81so.40) and SMPI lib 0x7f31699eb850
[amour11_CPU2:user_app:(133) 0.000000] [user_app/INFO] Extracting symbols from Bull lib 0x1fbc1c0 (Yqrxd82so.40) and SMPI lib 0x7f31699eb850
[amour11_CPU3:user_app:(134) 0.000000] [user_app/INFO] Extracting symbols from Bull lib 0x1fbec40 (Yqrxd83so.40) and SMPI lib 0x7f31699eb850
[amour11_CPU4:user_app:(135) 0.000000] [user_app/INFO] Extracting symbols from Bull lib 0x1fc16c0 (Yqrxd84so.40) and SMPI lib 0x7f31699eb850
[amour11_CPU5:user_app:(136) 0.000000] [user_app/INFO] Extracting symbols from Bull lib 0x1fc4140 (Yqrxd85so.40) and SMPI lib 0x7f31699eb850
[amour11_CPU6:user_app:(137) 0.000000] [user_app/INFO] Extracting symbols from Bull lib 0x1fc6bc0 (Yqrxd86so.40) and SMPI lib 0x7f31699eb850
[amour11_CPU7:user_app:(138) 0.000000] [user_app/INFO] Extracting symbols from Bull lib 0x1fc9640 (Yqrxd87so.40) and SMPI lib 0x7f31699eb850
[amour12_CPU0:user_app:(144) 0.000000] [user_app/INFO] Extracting symbols from Bull lib 0x1fcc400 (Yqrxd88so.40) and SMPI lib 0x7f31699eb850
[amour12_CPU1:user_app:(145) 0.000000] [user_app/INFO] Extracting symbols from Bull lib 0x1fcee80 (Yqrxd89so.40) and SMPI lib 0x7f31699eb850
[amour12_CPU2:user_app:(146) 0.000000] [user_app/INFO] Extracting symbols from Bull lib 0x1fd1900 (Yqrxd90so.40) and SMPI lib 0x7f31699eb850
[amour12_CPU3:user_app:(147) 0.000000] [user_app/INFO] Extracting symbols from Bull lib 0x1fd4380 (Yqrxd91so.40) and SMPI lib 0x7f31699eb850
[amour12_CPU4:user_app:(148) 0.000000] [user_app/INFO] Extracting symbols from Bull lib 0x1fd6e00 (Yqrxd92so.40) and SMPI lib 0x7f31699eb850
[amour12_CPU5:user_app:(149) 0.000000] [user_app/INFO] Extracting symbols from Bull lib 0x1fd9880 (Yqrxd93so.40) and SMPI lib 0x7f31699eb850
[amour12_CPU6:user_app:(150) 0.000000] [user_app/INFO] Extracting symbols from Bull lib 0x1fdc300 (Yqrxd94so.40) and SMPI lib 0x7f31699eb850
[amour12_CPU7:user_app:(151) 0.000000] [user_app/INFO] Extracting symbols from Bull lib 0x1fded80 (Yqrxd95so.40) and SMPI lib 0x7f31699eb850
[amour13_CPU0:user_app:(157) 0.000000] [user_app/INFO] Extracting symbols from Bull lib 0x1fe1b40 (Yqrxd96so.40) and SMPI lib 0x7f31699eb850
[amour13_CPU1:user_app:(158) 0.000000] [user_app/INFO] Extracting symbols from Bull lib 0x1fe45c0 (Yqrxd97so.40) and SMPI lib 0x7f31699eb850
[amour13_CPU2:user_app:(159) 0.000000] [user_app/INFO] Extracting symbols from Bull lib 0x1fe7040 (Yqrxd98so.40) and SMPI lib 0x7f31699eb850
[amour13_CPU3:user_app:(160) 0.000000] [user_app/INFO] Extracting symbols from Bull lib 0x1fe9ac0 (Yqrxd99so.40) and SMPI lib 0x7f31699eb850
[amour13_CPU4:user_app:(161) 0.000000] [user_app/INFO] Extracting symbols from Bull lib 0x1fec4b0 (Yqrx100so.40) and SMPI lib 0x7f31699eb850
[amour13_CPU5:user_app:(162) 0.000000] [user_app/INFO] Extracting symbols from Bull lib 0x1feeeb0 (Yqrx101so.40) and SMPI lib 0x7f31699eb850
[amour13_CPU6:user_app:(163) 0.000000] [user_app/INFO] Extracting symbols from Bull lib 0x1ff18b0 (Yqrx102so.40) and SMPI lib 0x7f31699eb850
[amour13_CPU7:user_app:(164) 0.000000] [user_app/INFO] Extracting symbols from Bull lib 0x1ff42b0 (Yqrx103so.40) and SMPI lib 0x7f31699eb850
[amour14_CPU0:user_app:(170) 0.000000] [user_app/INFO] Extracting symbols from Bull lib 0x1ff6ff0 (Yqrx104so.40) and SMPI lib 0x7f31699eb850
[amour14_CPU1:user_app:(171) 0.000000] [user_app/INFO] Extracting symbols from Bull lib 0x1ff99f0 (Yqrx105so.40) and SMPI lib 0x7f31699eb850
[amour14_CPU2:user_app:(172) 0.000000] [user_app/INFO] Extracting symbols from Bull lib 0x1ffc3f0 (Yqrx106so.40) and SMPI lib 0x7f31699eb850
[amour14_CPU3:user_app:(173) 0.000000] [user_app/INFO] Extracting symbols from Bull lib 0x1ffeea0 (Yqrx107so.40) and SMPI lib 0x7f31699eb850
[amour14_CPU4:user_app:(174) 0.000000] [user_app/INFO] Extracting symbols from Bull lib 0x2001950 (Yqrx108so.40) and SMPI lib 0x7f31699eb850
[amour14_CPU5:user_app:(175) 0.000000] [user_app/INFO] Extracting symbols from Bull lib 0x2004400 (Yqrx109so.40) and SMPI lib 0x7f31699eb850
[amour14_CPU6:user_app:(176) 0.000000] [user_app/INFO] Extracting symbols from Bull lib 0x2006eb0 (Yqrx110so.40) and SMPI lib 0x7f31699eb850
[amour14_CPU7:user_app:(177) 0.000000] [user_app/INFO] Extracting symbols from Bull lib 0x2009960 (Yqrx111so.40) and SMPI lib 0x7f31699eb850
[amour15_CPU0:user_app:(183) 0.000000] [user_app/INFO] Extracting symbols from Bull lib 0x200c710 (Yqrx112so.40) and SMPI lib 0x7f31699eb850
[amour15_CPU1:user_app:(184) 0.000000] [user_app/INFO] Extracting symbols from Bull lib 0x200f200 (Yqrx113so.40) and SMPI lib 0x7f31699eb850
[amour15_CPU2:user_app:(185) 0.000000] [user_app/INFO] Extracting symbols from Bull lib 0x2011cb0 (Yqrx114so.40) and SMPI lib 0x7f31699eb850
[amour15_CPU3:user_app:(186) 0.000000] [user_app/INFO] Extracting symbols from Bull lib 0x2014760 (Yqrx115so.40) and SMPI lib 0x7f31699eb850
[amour15_CPU4:user_app:(187) 0.000000] [user_app/INFO] Extracting symbols from Bull lib 0x2017210 (Yqrx116so.40) and SMPI lib 0x7f31699eb850
[amour15_CPU5:user_app:(188) 0.000000] [user_app/INFO] Extracting symbols from Bull lib 0x2019cc0 (Yqrx117so.40) and SMPI lib 0x7f31699eb850
[amour15_CPU6:user_app:(189) 0.000000] [user_app/INFO] Extracting symbols from Bull lib 0x201c770 (Yqrx118so.40) and SMPI lib 0x7f31699eb850
[amour15_CPU7:user_app:(190) 0.000000] [user_app/INFO] Extracting symbols from Bull lib 0x201f220 (Yqrx119so.40) and SMPI lib 0x7f31699eb850
[amour16_CPU0:user_app:(196) 0.000000] [user_app/INFO] Extracting symbols from Bull lib 0x2022010 (Yqrx120so.40) and SMPI lib 0x7f31699eb850
[amour16_CPU1:user_app:(197) 0.000000] [user_app/INFO] Extracting symbols from Bull lib 0x2024ac0 (Yqrx121so.40) and SMPI lib 0x7f31699eb850
[amour16_CPU2:user_app:(198) 0.000000] [user_app/INFO] Extracting symbols from Bull lib 0x2027570 (Yqrx122so.40) and SMPI lib 0x7f31699eb850
[amour16_CPU3:user_app:(199) 0.000000] [user_app/INFO] Extracting symbols from Bull lib 0x202a020 (Yqrx123so.40) and SMPI lib 0x7f31699eb850
[amour16_CPU4:user_app:(200) 0.000000] [user_app/INFO] Extracting symbols from Bull lib 0x202cad0 (Yqrx124so.40) and SMPI lib 0x7f31699eb850
[amour16_CPU5:user_app:(201) 0.000000] [user_app/INFO] Extracting symbols from Bull lib 0x202f580 (Yqrx125so.40) and SMPI lib 0x7f31699eb850
[amour16_CPU6:user_app:(202) 0.000000] [user_app/INFO] Extracting symbols from Bull lib 0x2032030 (Yqrx126so.40) and SMPI lib 0x7f31699eb850
[amour16_CPU7:user_app:(203) 0.000000] [user_app/INFO] Extracting symbols from Bull lib 0x20352f0 (Yqrx127so.40) and SMPI lib 0x7f31699eb850
./s4bxi_run_optimized.sh: line 89: 592572 Segmentation fault      (core dumped) s4bximain $PLATFORMDIR/amour/build/libamour.so ./deploy.xml ./xhpl xhpl --cfg=smpi/cpu-threshold:${S4BXI_CPU_THRESHOLD} --cfg=smpi/host-speed:$(bc <<< "10000 * ${S4BXI_CPU_FACTOR}")Mf --cfg=smpi/shared-malloc-blocksize:$(bc <<< "4096 * 0.0256 * $in_size") --cfg=smpi/display-timing:yes

real	0m24.176s
user	0m6.328s
sys	0m16.832s
