[0.000000] [xbt_cfg/INFO] Configuration change: Set 'smpi/cpu-threshold' to '1e-8'
[0.000000] [xbt_cfg/INFO] Configuration change: Set 'smpi/host-speed' to '10000Mf'
[0.000000] [xbt_cfg/INFO] Configuration change: Set 'smpi/shared-malloc-blocksize' to '196608.0000'
[0.000000] [xbt_cfg/INFO] Configuration change: Set 'smpi/display-timing' to 'yes'
[0.000000] [xbt_cfg/INFO] Configuration change: Set 'surf/precision' to '1e-9'
[0.000000] [xbt_cfg/INFO] Configuration change: Set 'network/loopback-lat' to '0'
[0.000000] [xbt_cfg/INFO] Configuration change: Set 'network/loopback-bw' to '999e9'
[0.000000] [xbt_cfg/INFO] Configuration change: Set 'network/model' to 'CM02'
[0.000000] [xbt_cfg/INFO] Configuration change: Set 'smpi/coll-selector' to 'ompi'
[0.000000] [xbt_cfg/INFO] Configuration change: Set 'smpi/host-speed' to '10000.000000Mf'
[0.000000] [xbt_cfg/INFO] Configuration change: Set 'smpi/cpu-threshold' to '0.000000'
[0.000000] [xbt_cfg/INFO] Configuration change: Set 'smpi/simulate-computation' to 'yes'
[0.000000] [smpi_coll/INFO] Switch to algorithm ompi for collective gather
[0.000000] [smpi_coll/INFO] Switch to algorithm ompi for collective allgather
[0.000000] [smpi_coll/INFO] Switch to algorithm ompi for collective allgatherv
[0.000000] [smpi_coll/INFO] Switch to algorithm ompi for collective allreduce
[0.000000] [smpi_coll/INFO] Switch to algorithm ompi for collective alltoall
[0.000000] [smpi_coll/INFO] Switch to algorithm ompi for collective alltoallv
[0.000000] [smpi_coll/INFO] Switch to algorithm ompi for collective reduce
[0.000000] [smpi_coll/INFO] Switch to algorithm ompi for collective reduce_scatter
[0.000000] [smpi_coll/INFO] Switch to algorithm ompi for collective scatter
[0.000000] [smpi_coll/INFO] Switch to algorithm ompi for collective bcast
[0.000000] [smpi_coll/INFO] Switch to algorithm ompi for collective barrier
[0.000000] [smpi_coll/INFO] Switch to algorithm ompi for collective gather
[0.000000] [smpi_coll/INFO] Switch to algorithm ompi for collective allgather
[0.000000] [smpi_coll/INFO] Switch to algorithm ompi for collective allgatherv
[0.000000] [smpi_coll/INFO] Switch to algorithm ompi for collective allreduce
[0.000000] [smpi_coll/INFO] Switch to algorithm ompi for collective alltoall
[0.000000] [smpi_coll/INFO] Switch to algorithm ompi for collective alltoallv
[0.000000] [smpi_coll/INFO] Switch to algorithm ompi for collective reduce
[0.000000] [smpi_coll/INFO] Switch to algorithm ompi for collective reduce_scatter
[0.000000] [smpi_coll/INFO] Switch to algorithm ompi for collective scatter
[0.000000] [smpi_coll/INFO] Switch to algorithm ompi for collective bcast
[0.000000] [smpi_coll/INFO] Switch to algorithm ompi for collective barrier
[amour1_CPU0:user_app:(1) 0.000000] [s4bxi_main_actor/INFO] Setup with nid = 1, model_pci = 1 ; e2e_off = 0
[amour2_CPU0:user_app:(7) 0.000000] [s4bxi_main_actor/INFO] Setup with nid = 2, model_pci = 1 ; e2e_off = 0
[amour1_CPU0:user_app:(1) 0.000000] [user_app/INFO] Init rank 0 ; local_rank 0
[amour2_CPU0:user_app:(7) 0.000000] [user_app/INFO] Init rank 1 ; local_rank 0
[amour1_NIC:nic_e2e:(6) 0.000000] [s4bxi_nic_e2e/INFO] E2E was configured with timeout = 10.000000 and retries = 5
[amour2_NIC:nic_e2e:(12) 0.000000] [s4bxi_nic_e2e/INFO] E2E was configured with timeout = 10.000000 and retries = 5
[amour1_CPU0:user_app:(1) 0.000000] [user_app/INFO] Extracting symbols from Bull lib 0x168dbe0 (cAeaij0so.40) and SMPI lib 0x7f72cb22b850
[amour2_CPU0:user_app:(7) 0.000000] [user_app/INFO] Extracting symbols from Bull lib 0x16989a0 (cAeaij1so.40) and SMPI lib 0x7f72cb22b850
[amour2_CPU0:user_app:(7) 0.106697] /dev/shm/simu/s4bxi/src/actors/BxiUserAppActor.cpp:350: [user_app/CRITICAL] Segmentation fault.
malloc(): invalid next size (unsorted)
[pm0-nod16:472220] *** Process received signal ***
[pm0-nod16:472220] Signal: Aborted (6)
[pm0-nod16:472220] Signal code:  (-6)
[pm0-nod16:472220] [ 0] /lib64/libc.so.6(+0x37400)[0x7f72c97a7400]
[pm0-nod16:472220] [ 1] /lib64/libc.so.6(gsignal+0x10f)[0x7f72c97a737f]
[pm0-nod16:472220] [ 2] /lib64/libc.so.6(abort+0x127)[0x7f72c9791db5]
[pm0-nod16:472220] [ 3] /lib64/libc.so.6(+0x7a4e7)[0x7f72c97ea4e7]
[pm0-nod16:472220] [ 4] /lib64/libc.so.6(+0x815ec)[0x7f72c97f15ec]
[pm0-nod16:472220] [ 5] /lib64/libc.so.6(+0x844cc)[0x7f72c97f44cc]
[pm0-nod16:472220] [ 6] /lib64/libc.so.6(__libc_malloc+0x8e)[0x7f72c97f5b1e]
[pm0-nod16:472220] [ 7] /lib64/libstdc++.so.6(_Znwm+0x1c)[0x7f72ca165d6c]
[pm0-nod16:472220] [ 8] /dev/shm/opt/s4bxi/lib/libportals.so.1(_ZNSt7__cxx1112basic_stringIcSt11char_traitsIcESaIcEE12_M_constructIPKcEEvT_S8_St20forward_iterator_tag+0x6c)[0x7f72cad615ec]
[pm0-nod16:472220] [ 9] /dev/shm/opt/simgrid/lib64/libsimgrid.so.3.32(_ZNK7simgrid3xbt13BacktraceImpl7resolveB5cxx11Ev+0x3c3)[0x7f72ca88c783]
[pm0-nod16:472220] [10] /dev/shm/opt/simgrid/lib64/libsimgrid.so.3.32(_ZNK7simgrid3xbt9Backtrace7resolveB5cxx11Ev+0xc)[0x7f72ca88aa9c]
[pm0-nod16:472220] [11] /dev/shm/opt/simgrid/lib64/libsimgrid.so.3.32(_ZNK7simgrid3xbt9Backtrace7displayEv+0x14)[0x7f72ca88aac4]
[pm0-nod16:472220] [12] /dev/shm/opt/simgrid/lib64/libsimgrid.so.3.32(xbt_backtrace_display_current+0x19)[0x7f72ca88abb9]
[pm0-nod16:472220] [13] /dev/shm/opt/s4bxi/lib/libportals.so.1(_Z18app_signal_handleriP9siginfo_tPv+0x9f)[0x7f72cad7bf1f]
[pm0-nod16:472220] [14] /lib64/libc.so.6(+0x37400)[0x7f72c97a7400]
[pm0-nod16:472220] [15] ./xhpl_cAeaijrkfU_1.so(HPL_perm+0x268)[0x7f72c09efd38]
[pm0-nod16:472220] [16] ./xhpl_cAeaijrkfU_1.so(HPL_plindx1+0x209)[0x7f72c09ed7b9]
[pm0-nod16:472220] [17] ./xhpl_cAeaijrkfU_1.so(HPL_pdlaswp01T+0x2a9)[0x7f72c09e76b9]
[pm0-nod16:472220] [18] ./xhpl_cAeaijrkfU_1.so(HPL_pdupdateTT+0xdd)[0x7f72c09dae7d]
[pm0-nod16:472220] [19] ./xhpl_cAeaijrkfU_1.so(HPL_pdgesv0+0x126)[0x7f72c09e8b16]
[pm0-nod16:472220] [20] ./xhpl_cAeaijrkfU_1.so(HPL_pdgesv+0x45)[0x7f72c09dba25]
[pm0-nod16:472220] [21] ./xhpl_cAeaijrkfU_1.so(HPL_pdtest+0x203)[0x7f72c09d4243]
[pm0-nod16:472220] [22] ./xhpl_cAeaijrkfU_1.so(main+0x752)[0x7f72c09ccb02]
[pm0-nod16:472220] [23] /dev/shm/opt/s4bxi/lib/libportals.so.1(_ZN15BxiUserAppActorclEv+0x184d)[0x7f72cad7d8ed]
[pm0-nod16:472220] [24] /dev/shm/opt/s4bxi/lib/libportals.so.1(_ZZZN7simgrid3s4u6Engine14register_actorI15BxiUserAppActorEEvRKNSt7__cxx1112basic_stringIcSt11char_traitsIcESaIcEEEENKUlSt6vectorIS9_SaIS9_EEE_clESE_ENUlvE_clEv+0x21)[0x7f72cad83891]
[pm0-nod16:472220] [25] /dev/shm/opt/simgrid/lib64/libsimgrid.so.3.32(smx_ctx_wrapper+0x1c)[0x7f72ca7e90bc]
[pm0-nod16:472220] *** End of error message ***
./s4bxi_run_optimized.sh: line 89: 472220 Aborted                 (core dumped) s4bximain $PLATFORMDIR/amour/build/libamour.so ./deploy.xml ./xhpl xhpl --cfg=smpi/cpu-threshold:${S4BXI_CPU_THRESHOLD} --cfg=smpi/host-speed:$(bc <<< "10000 * ${S4BXI_CPU_FACTOR}")Mf --cfg=smpi/shared-malloc-blocksize:$(bc <<< "4096 * 0.0256 * $in_size") --cfg=smpi/display-timing:yes

real	0m0.804s
user	0m0.201s
sys	0m0.478s
