magic, rank, use_smpi, time, delta, comment
#~#, 12, 0, 0.000001, 0.000001, Set initial model
#~#, 12, 0, 0.094638, 0.094637, After MPI_Init
#~#, 12, 0, 0.098150, 0.003512, After HPL_pdinfo
#~#, 12, 0, 0.099109, 0.000959, After HPL_grid_info
