magic, rank, use_smpi, time, delta, comment
#~#, 14, 0, 0.000002, 0.000002, Set initial model
#~#, 14, 0, 0.095856, 0.095855, After MPI_Init
#~#, 14, 0, 0.098157, 0.002300, After HPL_pdinfo
#~#, 14, 0, 0.099106, 0.000950, After HPL_grid_info
