magic, rank, use_smpi, time, delta, comment
#~#, 15, 0, 0.000001, 0.000001, Set initial model
#~#, 15, 0, 0.096225, 0.096224, After MPI_Init
#~#, 15, 0, 0.098430, 0.002206, After HPL_pdinfo
#~#, 15, 0, 0.099427, 0.000997, After HPL_grid_info
