magic, rank, use_smpi, time, delta, comment
#~#, 3, 0, 0.000001, 0.000001, Set initial model
#~#, 3, 0, 0.094705, 0.094703, After MPI_Init
#~#, 3, 0, 0.098436, 0.003731, After HPL_pdinfo
#~#, 3, 0, 0.099424, 0.000989, After HPL_grid_info
