magic, rank, use_smpi, time, delta, comment
#~#, 6, 0, 0.000001, 0.000001, Set initial model
#~#, 6, 0, 0.096194, 0.096193, After MPI_Init
#~#, 6, 0, 0.098414, 0.002220, After HPL_pdinfo
#~#, 6, 0, 0.099424, 0.001009, After HPL_grid_info
