magic, rank, use_smpi, time, delta, comment
#~#, 0, 0, 0.000004, 0.000004, Initial setup
#~#, 0, 1, 0.547584, 0.547580, Before PDUpdate
#~#, 0, 0, 0.753211, 0.205627, Before PDUpdate
#~#, 0, 1, 0.910438, 0.157227, Before PDUpdate
#~#, 0, 0, 0.987350, 0.076912, Before PDUpdate
