magic, rank, use_smpi, time, delta, comment
#~#, 6, 0, 0.000002, 0.000002, Initial setup
#~#, 6, 1, 0.547909, 0.547907, Before PDUpdate
#~#, 6, 0, 0.753589, 0.205680, Before PDUpdate
#~#, 6, 1, 0.910258, 0.156669, Before PDUpdate
#~#, 6, 0, 0.987288, 0.077030, Before PDUpdate
