magic, rank, use_smpi, time, delta, comment
#~#, 7, 0, 0.000003, 0.000003, Set initial model
#~#, 7, 1, 1.747553, 1.747549, Before pdupdate
#~#, 7, 0, 2.456729, 0.709177, Before pdupdate
#~#, 7, 1, 3.075019, 0.618290, Before pdupdate
#~#, 7, 0, 3.602886, 0.527867, Before pdupdate
#~#, 7, 1, 4.019492, 0.416606, Before pdupdate
#~#, 7, 0, 4.333171, 0.313679, Before pdupdate
#~#, 7, 1, 4.607816, 0.274645, Before pdupdate
#~#, 7, 0, 4.790726, 0.182910, Before pdupdate
#~#, 7, 1, 4.931378, 0.140652, Before pdupdate
#~#, 7, 0, 5.019503, 0.088125, Before pdupdate
#~#, 7, 1, 5.083052, 0.063549, Before pdupdate
#~#, 7, 0, 5.114995, 0.031943, Before pdupdate
