_#_,340,341,120,622693
_#_,340,240,120,406952
_#_,220,240,120,258511
_#_,220,240,120,254311
_#_,220,240,120,253381
_#_,220,240,120,254322
_#_,220,240,120,256602
_#_,220,240,120,259161
_#_,220,60,0,13610
_#_,220,30,0,540
_#_,220,16,0,410
_#_,220,8,0,380
_#_,220,4,0,350
_#_,220,2,0,350
_#_,220,2,2,460
_#_,220,4,4,660
_#_,220,2,0,500
_#_,220,2,2,330
_#_,220,8,8,1200
_#_,220,4,0,440
_#_,220,2,0,360
_#_,220,2,2,310
_#_,220,4,4,560
_#_,220,2,0,429
_#_,220,2,2,280
_#_,220,14,16,2820
_#_,220,8,0,450
_#_,220,4,0,360
_#_,220,2,0,340
_#_,220,2,2,270
_#_,220,4,4,490
_#_,220,2,0,390
_#_,220,2,2,269
_#_,220,6,8,971
_#_,220,4,0,431
_#_,220,2,0,340
_#_,220,2,2,290
_#_,220,2,4,370
_#_,220,30,30,9230
_#_,220,16,0,490
_#_,220,8,0,370
_#_,220,4,0,350
_#_,220,2,0,340
_#_,220,2,2,280
_#_,220,4,4,531
_#_,220,2,0,420
_#_,220,2,2,260
_#_,220,8,8,1080
_#_,220,4,0,440
_#_,220,2,0,340
_#_,220,2,2,260
_#_,220,4,4,500
_#_,220,2,0,420
_#_,220,2,2,260
_#_,220,14,16,2740
_#_,220,8,0,460
_#_,220,4,0,380
_#_,220,2,0,351
_#_,220,2,2,280
_#_,220,4,4,500
_#_,220,2,0,410
_#_,220,2,2,280
_#_,220,6,8,910
_#_,220,4,0,450
_#_,220,2,0,350
_#_,220,2,2,280
_#_,220,2,4,350
_#_,220,60,60,32660
_#_,220,30,0,580
_#_,220,16,0,400
_#_,220,8,0,360
_#_,220,4,0,360
_#_,220,2,0,340
_#_,220,2,2,290
_#_,220,4,4,520
_#_,220,2,0,430
_#_,220,2,2,269
_#_,220,8,8,1090
_#_,220,4,0,440
_#_,220,2,0,360
_#_,220,2,2,270
_#_,220,4,4,510
_#_,220,2,0,410
_#_,220,2,2,280
_#_,220,14,16,2711
_#_,220,8,0,429
_#_,220,4,0,351
_#_,220,2,0,351
_#_,220,2,2,291
_#_,220,4,4,500
_#_,220,2,0,400
_#_,220,2,2,260
_#_,220,6,8,900
_#_,220,4,0,410
_#_,220,2,0,350
_#_,220,2,2,280
_#_,220,2,4,309
_#_,220,30,30,9260
_#_,220,16,0,500
_#_,220,8,0,360
_#_,220,4,0,350
_#_,220,2,0,360
_#_,220,2,2,320
_#_,220,4,4,530
_#_,220,2,0,420
_#_,220,2,2,300
_#_,220,8,8,1080
_#_,220,4,0,430
_#_,220,2,0,360
_#_,220,2,2,269
_#_,220,4,4,500
_#_,220,2,0,410
_#_,220,2,2,270
_#_,220,14,16,2790
_#_,220,8,0,450
_#_,220,4,0,370
_#_,220,2,0,360
_#_,220,2,2,290
_#_,220,4,4,511
_#_,220,2,0,431
_#_,220,2,2,280
_#_,220,6,8,910
_#_,220,4,0,410
_#_,220,2,0,360
_#_,220,2,2,280
_#_,220,2,4,320_#_,220,120,120,130341
_#_,220,1_#_,220,240,12__#_,220,120,120,133920__#_,100,120,120,61080__#_,100,120,120,61280__#_,100,120,120,60390__#_,100,120,120,61510__#_,100,120,120,60751
_#_,100,120,120,62930
_#_,100,60,0,1120
_#_,100,30,0,410
_#_,100,16,0,370
_#_,100,8,0,350
_#_,100,4,0,350
_#_,100,2,0,330
_#_,100,2,2,360
_#_,100,4,4,449
_#_,100,2,0,440
_#_,100,2,2,270
_#_,100,8,8,720
_#_,100,4,0,440
_#_,100,2,0,360
_#_,100,2,2,230
_#_,100,4,4,410
_#_,100,2,0,440
_#_,100,2,2,230
_#_,100,14,16,1460
_#_,100,8,0,440
_#_,100,4,0,380
_#_,100,2,0,349
_#_,100,2,2,220
_#_,100,4,4,350
_#_,100,2,0,430
_#_,100,2,2,200
_#_,100,6,8,540
_#_,100,4,0,430
_#_,100,2,0,340
_#_,100,2,2,220
_#_,100,2,4,309
_#_,100,30,30,4530
_#_,100,16,0,520
_#_,100,8,0,360
_#_,100,4,0,360
_#_,100,2,0,340
_#_,100,2,2,230
_#_,100,4,4,370
_#_,100,2,0,420
_#_,100,2,2,220
_#_,100,8,8,709
_#_,100,4,0,429
_#_,100,2,0,349
_#_,100,2,2,210
_#_,100,4,4,380
_#_,100,2,0,400
_#_,100,2,2,200
_#_,100,14,16,1400
_#_,100,8,0,420
_#_,100,4,0,370
_#_,100,2,0,340
_#_,100,2,2,220
_#_,100,4,4,340
_#_,100,2,0,400
_#_,100,2,2,230
_#_,100,6,8,540
_#_,100,4,0,420
_#_,100,2,0,360
_#_,100,2,2,200
_#_,100,2,4,220
_#_,100,60,60,15660
_#_,100,30,0,520
_#_,100,16,0,391
_#_,100,8,0,360
_#_,100,4,0,349
_#_,100,2,0,340
_#_,100,2,2,210
_#_,100,4,4,350
_#_,100,2,0,430
_#_,100,2,2,210
_#_,100,8,8,640
_#_,100,4,0,430
_#_,100,2,0,350
_#_,100,2,2,220
_#_,100,4,4,340
_#_,100,2,0,411
_#_,100,2,2,220
_#_,100,14,16,1380
_#_,100,8,0,430
_#_,100,4,0,380
_#_,100,2,0,350
_#_,100,2,2,220
_#_,100,4,4,310
_#_,100,2,0,410
_#_,100,2,2,231
_#_,100,6,8,511
_#_,100,4,0,451
_#_,100,2,0,360
_#_,100,2,2,210
_#_,100,2,4,220
_#_,100,30,30,4720
_#_,100,16,0,490
_#_,100,8,0,370
_#_,100,4,0,350
_#_,100,2,0,330
_#_,100,2,2,210
_#_,100,4,4,331
_#_,100,2,0,409
_#_,100,2,2,230
_#_,100,8,8,630
_#_,100,4,0,410
_#_,100,2,0,370
_#_,100,2,2,210
_#_,100,4,4,320
_#_,100,2,0,410
_#_,100,2,2,220
_#_,100,14,16,1549
_#_,100,8,0,429
_#_,100,4,0,369
_#_,100,2,0,340
_#_,100,2,2,210
_#_,100,4,4,350
_#
real	0m0.566s
user	0m0.119s
sys	0m0.323s
m0
real	0m0.559s
user	0m
real	0m0.562s
user	0
real	0m0.568s
user	0m0.107s
sys	0m0.328s
	0m0.116s
sys	0m0.298s
120,120,587_#_,100,101,120,53281
_#_,100,50,0,1060
_#_,100,26,0,410
_#_,100,14,0,390
_#_,100,8,0,360
_#_,100,4,0,350
_#_,100,2,0,340
_#_,98,2,2,400
_#_,96,4,4,410
_#_,96,2,0,460
_#_,94,2,2,270
_#_,92,6,8,680
_#_,92,4,0,491
_#_,92,2,0,360
_#_,90,2,2,290
_#_,88,2,4,270
_#_,86,12,14,1390
_#_,86,6,0,500
_#_,86,4,0,380
_#_,86,2,0,340
_#_,84,2,2,230
_#_,82,2,4,290
_#_,80,6,6,411
_#_,80,4,0,460
_#_,80,2,0,371
_#_,78,2,2,280
_#_,76,2,4,250
_#_,74,24,26,3030
_#_,74,12,0,500
_#_,74,6,0,370
_#_,74,4,0,350
_#_,74,2,0,370
_#_,72,2,2,250
_#_,70,2,4,300
_#_,68,6,6,420
_#_,68,4,0,509
_#_,68,2,0,369
_#_,66,2,2,240
_#_,64,2,4,250
_#_,62,12,12,920
_#_,62,6,0,460
_#_,62,4,0,370
_#_,62,2,0,340
_#_,60,2,2,250
_#_,58,2,4,270
_#_,56,6,6,400
_#_,56,4,0,469
_#_,56,2,0,351
_#_,54,2,2,240
_#_,52,2,4,210
_#_,50,50,50,7110
_#_,50,26,0,530
_#_,50,14,0,370
_#_,50,8,0,350
_#_,50,4,0,360
_#_,50,2,0,340
_#_,48,2,2,220
_#_,46,4,4,409
_#_,46,2,0,509
_#_,44,2,2,210
_#_,42,6,8,480
_#_,42,4,0,460
_#_,42,2,0,360
_#_,40,2,2,210
_#_,38,2,4,250
_#_,36,12,14,590
_#_,36,6,0,500
_#_,36,4,0,370
_#_,36,2,0,340
_#_,34,2,2,220
_#_,32,2,4,190
_#_,30,6,6,400
_#_,30,4,0,460
_#_,30,2,0,360
_#_,28,2,2,180
_#_,26,2,4,240
_#_,24,24,26,970
_#_,24,12,0,500
_#_,24,6,0,380
_#_,24,4,0,360
_#_,24,2,0,350
_#_,22,2,2,220
_#_,20,2,4,190
_#_,18,6,6,360
_#_,18,4,0,450
_#_,18,2,0,360
_#_,16,2,2,180
_#_,14,2,4,220
_#_,12,12,12,300
_#_,12,6,0,450
_#_,12,4,0,350
_#_,12,2,0,350
_#_,10,2,2,191
_#_,8,2,4,180
_#_,6,6,6,320
_#_,6,4,0,460
_#_,6,2,0,360
_#_,4,2,2,180
_#_,2,2,4,210
_#_,0,1,100,300

real	0m0.561s
user	0m0.114s
sys	0m0.329s
,0,430
_#_,100,2,2,220
_#_,100,8,8,640
_#_,100,4,0,449
_#_,100,2,0,349
_#_,100,2,2,220
_#_,100,4,4,350
_#_,100,2,0,420
_#_,100,2,2,230
_#_,100,14,16,1400
_#_,100,8,0,420
_#_,100,4,0,360
_#_,100,2,0,340
_#_,100,2,2,220
_#_,100,4,4,340
_#_,100,2,0,430
_#_,100,2,2,220
_#_,100,6,8,550
_#_,100,4,0,420
_#_,100,2,0,360
_#_,100,2,
real	0m0.554s
user	0m
real	0m0.564s
user	0m0.115s
sys	0m0.328s
