[0.000000] [xbt_cfg/INFO] Configuration change: Set 'smpi/cpu-threshold' to '1e-9'
[0.000000] [xbt_cfg/INFO] Configuration change: Set 'smpi/host-speed' to '10000Mf'
[0.000000] [xbt_cfg/INFO] Configuration change: Set 'surf/precision' to '1e-9'
[0.000000] [xbt_cfg/INFO] Configuration change: Set 'network/loopback-lat' to '0'
[0.000000] [xbt_cfg/INFO] Configuration change: Set 'network/loopback-bw' to '999e9'
[0.000000] [xbt_cfg/INFO] Configuration change: Set 'network/model' to 'CM02'
[0.000000] [xbt_cfg/INFO] Configuration change: Set 'smpi/os' to '0:2.2617745265427535e-06:2.703352029721588e-10;392:2.8385604119907807e-06:1.1264760290330328e-10;32712:0.0:0.0;186836:0.0:0.0;1538469:0.0:0.0'
[0.000000] [xbt_cfg/INFO] Configuration change: Set 'smpi/or' to '0:4.879281137093516e-07:2.2618415203462987e-10;392:5.779857092751072e-07:3.8094447278873e-11;32712:0.0:0.0;186836:0.0:0.0;1538469:0.0:0.0'
[0.000000] [xbt_cfg/INFO] Configuration change: Set 'smpi/ois' to '0:5.673519212129521e-07:7.174648137343064e-43;392:5.446695252027938e-07:1.9686168165027744e-11;32712:5.536713106693264e-07:5.082661224033066e-13;186836:5.49289659548938e-07:3.189291810074661e-14;1538469:4.306002121584747e-07:4.21325930847998e-14'
[0.000000] [xbt_cfg/INFO] Configuration change: Set 'smpi/bw-factor' to '0:0.2699228069054274;392:0.7647794357220394;32712:0.9664149337828888;186836:0.9243880418172589;1538469:0.9732858005841204'
[0.000000] [xbt_cfg/INFO] Configuration change: Set 'smpi/lat-factor' to '0:2.7676182391675814;392:3.9432860784637396;32712:10.117401654450653;186836:7.810638891189083;1538469:18.84747638996546'
[0.000000] [xbt_cfg/INFO] Configuration change: Set 'smpi/async-small-thresh' to '32712'
[0.000000] [xbt_cfg/INFO] Configuration change: Set 'smpi/send-is-detached-thresh' to '32712'
[0.000000] [xbt_cfg/INFO] Configuration change: Set 'smpi/iprobe' to '1.9586518031175638e-07'
[0.000000] [xbt_cfg/INFO] Configuration change: Set 'smpi/test' to '1.1523121197560569e-07'
[0.000000] [xbt_cfg/INFO] Configuration change: Set 'smpi/coll-selector' to 'ompi'
[0.000000] [smpi_coll/INFO] Switch to algorithm ompi for collective gather
[0.000000] [smpi_coll/INFO] Switch to algorithm ompi for collective allgather
[0.000000] [smpi_coll/INFO] Switch to algorithm ompi for collective allgatherv
[0.000000] [smpi_coll/INFO] Switch to algorithm ompi for collective allreduce
[0.000000] [smpi_coll/INFO] Switch to algorithm ompi for collective alltoall
[0.000000] [smpi_coll/INFO] Switch to algorithm ompi for collective alltoallv
[0.000000] [smpi_coll/INFO] Switch to algorithm ompi for collective reduce
[0.000000] [smpi_coll/INFO] Switch to algorithm ompi for collective reduce_scatter
[0.000000] [smpi_coll/INFO] Switch to algorithm ompi for collective scatter
[0.000000] [smpi_coll/INFO] Switch to algorithm ompi for collective bcast
[0.000000] [smpi_coll/INFO] Switch to algorithm ompi for collective barrier
[0.000000] [smpi_coll/INFO] Switch to algorithm ompi for collective gather
[0.000000] [smpi_coll/INFO] Switch to algorithm ompi for collective allgather
[0.000000] [smpi_coll/INFO] Switch to algorithm ompi for collective allgatherv
[0.000000] [smpi_coll/INFO] Switch to algorithm ompi for collective allreduce
[0.000000] [smpi_coll/INFO] Switch to algorithm ompi for collective alltoall
[0.000000] [smpi_coll/INFO] Switch to algorithm ompi for collective alltoallv
[0.000000] [smpi_coll/INFO] Switch to algorithm ompi for collective reduce
[0.000000] [smpi_coll/INFO] Switch to algorithm ompi for collective reduce_scatter
[0.000000] [smpi_coll/INFO] Switch to algorithm ompi for collective scatter
[0.000000] [smpi_coll/INFO] Switch to algorithm ompi for collective bcast
[0.000000] [smpi_coll/INFO] Switch to algorithm ompi for collective barrier
[amour1_CPU0:user_app:(1) 0.000000] [s4bxi_main_actor/INFO] Setup with nid = 1, model_pci = 1 ; e2e_off = 0
[amour2_CPU0:user_app:(7) 0.000000] [s4bxi_main_actor/INFO] Setup with nid = 2, model_pci = 1 ; e2e_off = 0
[amour3_CPU0:user_app:(13) 0.000000] [s4bxi_main_actor/INFO] Setup with nid = 3, model_pci = 1 ; e2e_off = 0
[amour4_CPU0:user_app:(19) 0.000000] [s4bxi_main_actor/INFO] Setup with nid = 4, model_pci = 1 ; e2e_off = 0
[amour5_CPU0:user_app:(25) 0.000000] [s4bxi_main_actor/INFO] Setup with nid = 5, model_pci = 1 ; e2e_off = 0
[amour6_CPU0:user_app:(31) 0.000000] [s4bxi_main_actor/INFO] Setup with nid = 6, model_pci = 1 ; e2e_off = 0
[amour7_CPU0:user_app:(37) 0.000000] [s4bxi_main_actor/INFO] Setup with nid = 7, model_pci = 1 ; e2e_off = 0
[amour8_CPU0:user_app:(43) 0.000000] [s4bxi_main_actor/INFO] Setup with nid = 8, model_pci = 1 ; e2e_off = 0
[amour9_CPU0:user_app:(49) 0.000000] [s4bxi_main_actor/INFO] Setup with nid = 9, model_pci = 1 ; e2e_off = 0
[amour10_CPU0:user_app:(55) 0.000000] [s4bxi_main_actor/INFO] Setup with nid = 10, model_pci = 1 ; e2e_off = 0
[amour11_CPU0:user_app:(61) 0.000000] [s4bxi_main_actor/INFO] Setup with nid = 11, model_pci = 1 ; e2e_off = 0
[amour1_CPU0:user_app:(1) 0.000000] [user_app/INFO] Init rank 0 ; local_rank 0
[amour2_CPU0:user_app:(7) 0.000000] [user_app/INFO] Init rank 1 ; local_rank 0
[amour3_CPU0:user_app:(13) 0.000000] [user_app/INFO] Init rank 2 ; local_rank 0
[amour4_CPU0:user_app:(19) 0.000000] [user_app/INFO] Init rank 3 ; local_rank 0
[amour5_CPU0:user_app:(25) 0.000000] [user_app/INFO] Init rank 4 ; local_rank 0
[amour6_CPU0:user_app:(31) 0.000000] [user_app/INFO] Init rank 5 ; local_rank 0
[amour7_CPU0:user_app:(37) 0.000000] [user_app/INFO] Init rank 6 ; local_rank 0
[amour8_CPU0:user_app:(43) 0.000000] [user_app/INFO] Init rank 7 ; local_rank 0
[amour9_CPU0:user_app:(49) 0.000000] [user_app/INFO] Init rank 8 ; local_rank 0
[amour10_CPU0:user_app:(55) 0.000000] [user_app/INFO] Init rank 9 ; local_rank 0
[amour11_CPU0:user_app:(61) 0.000000] [user_app/INFO] Init rank 10 ; local_rank 0
[amour1_NIC:nic_e2e:(6) 0.000000] [s4bxi_nic_e2e/INFO] E2E was configured with timeout = 10.000000 and retries = 5
[amour2_NIC:nic_e2e:(12) 0.000000] [s4bxi_nic_e2e/INFO] E2E was configured with timeout = 10.000000 and retries = 5
[amour3_NIC:nic_e2e:(18) 0.000000] [s4bxi_nic_e2e/INFO] E2E was configured with timeout = 10.000000 and retries = 5
[amour4_NIC:nic_e2e:(24) 0.000000] [s4bxi_nic_e2e/INFO] E2E was configured with timeout = 10.000000 and retries = 5
[amour5_NIC:nic_e2e:(30) 0.000000] [s4bxi_nic_e2e/INFO] E2E was configured with timeout = 10.000000 and retries = 5
[amour6_NIC:nic_e2e:(36) 0.000000] [s4bxi_nic_e2e/INFO] E2E was configured with timeout = 10.000000 and retries = 5
[amour7_NIC:nic_e2e:(42) 0.000000] [s4bxi_nic_e2e/INFO] E2E was configured with timeout = 10.000000 and retries = 5
[amour8_NIC:nic_e2e:(48) 0.000000] [s4bxi_nic_e2e/INFO] E2E was configured with timeout = 10.000000 and retries = 5
[amour9_NIC:nic_e2e:(54) 0.000000] [s4bxi_nic_e2e/INFO] E2E was configured with timeout = 10.000000 and retries = 5
[amour10_NIC:nic_e2e:(60) 0.000000] [s4bxi_nic_e2e/INFO] E2E was configured with timeout = 10.000000 and retries = 5
[amour11_NIC:nic_e2e:(66) 0.000000] [s4bxi_nic_e2e/INFO] E2E was configured with timeout = 10.000000 and retries = 5
[amour1_CPU0:user_app:(1) 0.000000] [user_app/INFO] Extracting symbols from Bull lib 0x2be9a30 (ULtqqV0so.40) and SMPI lib 0x7ff18a130850
[amour2_CPU0:user_app:(7) 0.000000] [user_app/INFO] Extracting symbols from Bull lib 0x2bee030 (ULtqqV1so.40) and SMPI lib 0x7ff18a130850
[amour3_CPU0:user_app:(13) 0.000000] [user_app/INFO] Extracting symbols from Bull lib 0x2bf0a30 (ULtqqV2so.40) and SMPI lib 0x7ff18a130850
[amour4_CPU0:user_app:(19) 0.000000] [user_app/INFO] Extracting symbols from Bull lib 0x2bf3390 (ULtqqV3so.40) and SMPI lib 0x7ff18a130850
[amour5_CPU0:user_app:(25) 0.000000] [user_app/INFO] Extracting symbols from Bull lib 0x2bf60c0 (ULtqqV4so.40) and SMPI lib 0x7ff18a130850
[amour6_CPU0:user_app:(31) 0.000000] [user_app/INFO] Extracting symbols from Bull lib 0x2bf8d60 (ULtqqV5so.40) and SMPI lib 0x7ff18a130850
[amour7_CPU0:user_app:(37) 0.000000] [user_app/INFO] Extracting symbols from Bull lib 0x2bfba00 (ULtqqV6so.40) and SMPI lib 0x7ff18a130850
[amour8_CPU0:user_app:(43) 0.000000] [user_app/INFO] Extracting symbols from Bull lib 0x2bfe730 (ULtqqV7so.40) and SMPI lib 0x7ff18a130850
[amour9_CPU0:user_app:(49) 0.000000] [user_app/INFO] Extracting symbols from Bull lib 0x2c01690 (ULtqqV8so.40) and SMPI lib 0x7ff18a130850
[amour10_CPU0:user_app:(55) 0.000000] [user_app/INFO] Extracting symbols from Bull lib 0x2c043b0 (ULtqqV9so.40) and SMPI lib 0x7ff18a130850
[amour11_CPU0:user_app:(61) 0.000000] [user_app/INFO] Extracting symbols from Bull lib 0x2c070d0 (ULtqq10so.40) and SMPI lib 0x7ff18a130850
#~#, 10, 0, 0.000001, 0.000001, Set initial model
#~#, 9, 0, 0.000002, 0.000002, Set initial model
#~#, 8, 0, 0.000002, 0.000002, Set initial model
#~#, 6, 0, 0.000003, 0.000003, Set initial model
#~#, 7, 0, 0.000003, 0.000003, Set initial model
#~#, 5, 0, 0.000003, 0.000003, Set initial model
#~#, 4, 0, 0.000003, 0.000003, Set initial model
#~#, 1, 0, 0.000003, 0.000003, Set initial model
#~#, 3, 0, 0.000005, 0.000005, Set initial model
#~#, 2, 0, 0.000006, 0.000006, Set initial model
#~#, 0, 0, 0.000006, 0.000006, Set initial model
#~#, 10, 0, 0.440730, 0.440730, After MPI_Init
#~#, 9, 0, 0.440898, 0.440896, After MPI_Init
#~#, 8, 0, 0.441071, 0.441069, After MPI_Init
#~#, 6, 0, 0.441238, 0.441236, After MPI_Init
#~#, 7, 0, 0.441404, 0.441402, After MPI_Init
#~#, 5, 0, 0.441575, 0.441573, After MPI_Init
#~#, 4, 0, 0.441734, 0.441731, After MPI_Init
#~#, 1, 0, 0.441904, 0.441901, After MPI_Init
#~#, 3, 0, 0.442090, 0.442085, After MPI_Init
#~#, 2, 0, 0.442273, 0.442268, After MPI_Init
#~#, 0, 0, 0.442522, 0.442516, After MPI_Init
#~#, 10, 0, 0.442913, 0.002183, After HPL_pdinfo
#~#, 9, 0, 0.442917, 0.002019, After HPL_pdinfo
#~#, 8, 0, 0.442919, 0.001848, After HPL_pdinfo
#~#, 7, 0, 0.442924, 0.001520, After HPL_pdinfo
#~#, 5, 0, 0.442925, 0.001349, After HPL_pdinfo
#~#, 4, 0, 0.442925, 0.001191, After HPL_pdinfo
#~#, 1, 0, 0.442925, 0.001021, After HPL_pdinfo
#~#, 6, 0, 0.442925, 0.001687, After HPL_pdinfo
#~#, 3, 0, 0.442925, 0.000835, After HPL_pdinfo
#~#, 2, 0, 0.442927, 0.000654, After HPL_pdinfo
#~#, 0, 0, 0.442984, 0.000462, After HPL_pdinfo
#~#, 1, 0, 0.443756, 0.000831, After HPL_grid_info
#~#, 4, 0, 0.443756, 0.000831, After HPL_grid_info
#~#, 0, 0, 0.443756, 0.000772, After HPL_grid_info
#~#, 8, 0, 0.443756, 0.000838, After HPL_grid_info
#~#, 5, 0, 0.443757, 0.000832, After HPL_grid_info
#~#, 2, 0, 0.443757, 0.000830, After HPL_grid_info
#~#, 6, 0, 0.443757, 0.000832, After HPL_grid_info
#~#, 3, 0, 0.443757, 0.000832, After HPL_grid_info
#~#, 9, 0, 0.443757, 0.000840, After HPL_grid_info
#~#, 10, 0, 0.443758, 0.000844, After HPL_grid_info
#~#, 7, 0, 0.443758, 0.000834, After HPL_grid_info
[amour3_CPU0:user_app:(13) 46.337611] [s4bxi_redefine/INFO] User code exited gracefully
[amour3_CPU0:user_app:(13) 46.337611] ../src/xbt/exception.cpp:107: [xbt_exception/ERROR] Received a ForcefulKillException at the top-level exception handler. Maybe a Java->C++ call that is not protected in a try/catch?
[amour3_CPU0:user_app:(13) 46.337611] ../src/xbt/exception.cpp:75: [xbt_exception/CRITICAL] Current backtrace:
  ->  0# 0x00007FF189688ED9 in /tmp/opt/simgrid/lib64/libsimgrid.so.3.31.1
  ->  1# 0x00007FF18907853C in /lib64/libstdc++.so.6
  ->  2# 0x00007FF189077559 in /lib64/libstdc++.so.6
  ->  3# __gxx_personality_v0 in /lib64/libstdc++.so.6
  ->  4# 0x00007FF188A58B03 in /lib64/libgcc_s.so.1
  ->  5# _Unwind_Resume in /lib64/libgcc_s.so.1
  ->  6# 0x00007FF18967369A in /tmp/opt/simgrid/lib64/libsimgrid.so.3.31.1
  ->  7# s4bxi_exit in /tmp/opt/s4bxi/lib/libportals.so.1
  ->  8# main in ./xhpl_ULtqqVXbYI_2.so

[pm0-nod12:3357992] *** Process received signal ***
[pm0-nod12:3357992] Signal: Aborted (6)
[pm0-nod12:3357992] Signal code:  (-6)
[pm0-nod12:3357992] [ 0] /lib64/libc.so.6(+0x37400)[0x7ff1886ba400]
[pm0-nod12:3357992] [ 1] /lib64/libc.so.6(gsignal+0x10f)[0x7ff1886ba37f]
[pm0-nod12:3357992] [ 2] /lib64/libc.so.6(abort+0x127)[0x7ff1886a4db5]
[pm0-nod12:3357992] [ 3] /tmp/opt/simgrid/lib64/libsimgrid.so.3.31.1(+0x10deab)[0x7ff189688eab]
[pm0-nod12:3357992] [ 4] /lib64/libstdc++.so.6(+0x9653c)[0x7ff18907853c]
[pm0-nod12:3357992] [ 5] /lib64/libstdc++.so.6(+0x95559)[0x7ff189077559]
[pm0-nod12:3357992] [ 6] /lib64/libstdc++.so.6(__gxx_personality_v0+0x2a8)[0x7ff189077ed8]
[pm0-nod12:3357992] [ 7] /lib64/libgcc_s.so.1(+0x10b03)[0x7ff188a58b03]
[pm0-nod12:3357992] [ 8] /lib64/libgcc_s.so.1(_Unwind_Resume+0x12d)[0x7ff188a5941d]
[pm0-nod12:3357992] [ 9] /tmp/opt/simgrid/lib64/libsimgrid.so.3.31.1(+0xf869a)[0x7ff18967369a]
[pm0-nod12:3357992] [10] /tmp/opt/s4bxi/lib/libportals.so.1(s4bxi_exit+0x2e)[0x7ff189c9a1fe]
[pm0-nod12:3357992] [11] ./xhpl_ULtqqVXbYI_2.so(main+0x64c)[0x7ff1638452ac]
[pm0-nod12:3357992] [12] /tmp/opt/s4bxi/lib/libportals.so.1(_ZN15BxiUserAppActorclEv+0x184d)[0x7ff189c83dad]
[pm0-nod12:3357992] [13] /tmp/opt/s4bxi/lib/libportals.so.1(_ZZZN7simgrid3s4u6Engine14register_actorI15BxiUserAppActorEEvRKNSt7__cxx1112basic_stringIcSt11char_traitsIcESaIcEEEENKUlSt6vectorIS9_SaIS9_EEE_clESE_ENUlvE_clEv+0x21)[0x7ff189c89a81]
[pm0-nod12:3357992] [14] /tmp/opt/simgrid/lib64/libsimgrid.so.3.31.1(smx_ctx_wrapper+0x17)[0x7ff1896e40f7]
[pm0-nod12:3357992] *** End of error message ***
./s4bxi_run_vanilla.sh: line 90: 3357992 Aborted                 (core dumped) s4bximain $PLATFORMDIR/amour/build/libamour.so ./deploy.xml ./xhpl xhpl --cfg=smpi/cpu-threshold:${S4BXI_CPU_THRESHOLD} --cfg=smpi/host-speed:$(bc <<< "10000 * ${S4BXI_CPU_FACTOR}")Mf

real	18m17.162s
user	17m26.057s
sys	0m48.122s
