magic, rank, use_smpi, time, delta, comment
#~#, 10, 0, 0.000001, 0.000001, Set initial model
#~#, 10, 0, 0.094235, 0.094234, After MPI_Init
#~#, 10, 0, 0.097351, 0.003116, After HPL_pdinfo
#~#, 10, 0, 0.098313, 0.000962, After HPL_grid_info
