magic, rank, use_smpi, time, delta, comment
#~#, 14, 0, 0.000001, 0.000001, Set initial model
#~#, 14, 0, 0.094498, 0.094496, After MPI_Init
#~#, 14, 0, 0.097364, 0.002866, After HPL_pdinfo
#~#, 14, 0, 0.098314, 0.000950, After HPL_grid_info
