magic, rank, use_smpi, time, delta, comment
#~#, 15, 0, 0.000001, 0.000001, Set initial model
#~#, 15, 0, 0.095305, 0.095304, After MPI_Init
#~#, 15, 0, 0.097383, 0.002078, After HPL_pdinfo
#~#, 15, 0, 0.098317, 0.000934, After HPL_grid_info
