[0.000000] [xbt_cfg/INFO] Configuration change: Set 'smpi/cpu-threshold' to '1e-9'
[0.000000] [xbt_cfg/INFO] Configuration change: Set 'smpi/host-speed' to '10000Mf'
[0.000000] [xbt_cfg/INFO] Configuration change: Set 'surf/precision' to '1e-9'
[0.000000] [xbt_cfg/INFO] Configuration change: Set 'network/loopback-lat' to '0'
[0.000000] [xbt_cfg/INFO] Configuration change: Set 'network/loopback-bw' to '999e9'
[0.000000] [xbt_cfg/INFO] Configuration change: Set 'network/model' to 'CM02'
[0.000000] [xbt_cfg/INFO] Configuration change: Set 'smpi/os' to '0:2.2617745265427535e-06:2.703352029721588e-10;392:2.8385604119907807e-06:1.1264760290330328e-10;32712:0.0:0.0;186836:0.0:0.0;1538469:0.0:0.0'
[0.000000] [xbt_cfg/INFO] Configuration change: Set 'smpi/or' to '0:4.879281137093516e-07:2.2618415203462987e-10;392:5.779857092751072e-07:3.8094447278873e-11;32712:0.0:0.0;186836:0.0:0.0;1538469:0.0:0.0'
[0.000000] [xbt_cfg/INFO] Configuration change: Set 'smpi/ois' to '0:5.673519212129521e-07:7.174648137343064e-43;392:5.446695252027938e-07:1.9686168165027744e-11;32712:5.536713106693264e-07:5.082661224033066e-13;186836:5.49289659548938e-07:3.189291810074661e-14;1538469:4.306002121584747e-07:4.21325930847998e-14'
[0.000000] [xbt_cfg/INFO] Configuration change: Set 'smpi/bw-factor' to '0:0.2699228069054274;392:0.7647794357220394;32712:0.9664149337828888;186836:0.9243880418172589;1538469:0.9732858005841204'
[0.000000] [xbt_cfg/INFO] Configuration change: Set 'smpi/lat-factor' to '0:2.7676182391675814;392:3.9432860784637396;32712:10.117401654450653;186836:7.810638891189083;1538469:18.84747638996546'
[0.000000] [xbt_cfg/INFO] Configuration change: Set 'smpi/async-small-thresh' to '32712'
[0.000000] [xbt_cfg/INFO] Configuration change: Set 'smpi/send-is-detached-thresh' to '32712'
[0.000000] [xbt_cfg/INFO] Configuration change: Set 'smpi/iprobe' to '1.9586518031175638e-07'
[0.000000] [xbt_cfg/INFO] Configuration change: Set 'smpi/test' to '1.1523121197560569e-07'
[0.000000] [xbt_cfg/INFO] Configuration change: Set 'smpi/coll-selector' to 'ompi'
[0.000000] [smpi_coll/INFO] Switch to algorithm ompi for collective gather
[0.000000] [smpi_coll/INFO] Switch to algorithm ompi for collective allgather
[0.000000] [smpi_coll/INFO] Switch to algorithm ompi for collective allgatherv
[0.000000] [smpi_coll/INFO] Switch to algorithm ompi for collective allreduce
[0.000000] [smpi_coll/INFO] Switch to algorithm ompi for collective alltoall
[0.000000] [smpi_coll/INFO] Switch to algorithm ompi for collective alltoallv
[0.000000] [smpi_coll/INFO] Switch to algorithm ompi for collective reduce
[0.000000] [smpi_coll/INFO] Switch to algorithm ompi for collective reduce_scatter
[0.000000] [smpi_coll/INFO] Switch to algorithm ompi for collective scatter
[0.000000] [smpi_coll/INFO] Switch to algorithm ompi for collective bcast
[0.000000] [smpi_coll/INFO] Switch to algorithm ompi for collective barrier
[0.000000] [smpi_coll/INFO] Switch to algorithm ompi for collective gather
[0.000000] [smpi_coll/INFO] Switch to algorithm ompi for collective allgather
[0.000000] [smpi_coll/INFO] Switch to algorithm ompi for collective allgatherv
[0.000000] [smpi_coll/INFO] Switch to algorithm ompi for collective allreduce
[0.000000] [smpi_coll/INFO] Switch to algorithm ompi for collective alltoall
[0.000000] [smpi_coll/INFO] Switch to algorithm ompi for collective alltoallv
[0.000000] [smpi_coll/INFO] Switch to algorithm ompi for collective reduce
[0.000000] [smpi_coll/INFO] Switch to algorithm ompi for collective reduce_scatter
[0.000000] [smpi_coll/INFO] Switch to algorithm ompi for collective scatter
[0.000000] [smpi_coll/INFO] Switch to algorithm ompi for collective bcast
[0.000000] [smpi_coll/INFO] Switch to algorithm ompi for collective barrier
[amour1_CPU0:user_app:(1) 0.000000] [s4bxi_main_actor/INFO] Setup with nid = 1, model_pci = 1 ; e2e_off = 0
[amour2_CPU0:user_app:(7) 0.000000] [s4bxi_main_actor/INFO] Setup with nid = 2, model_pci = 1 ; e2e_off = 0
[amour3_CPU0:user_app:(13) 0.000000] [s4bxi_main_actor/INFO] Setup with nid = 3, model_pci = 1 ; e2e_off = 0
[amour4_CPU0:user_app:(19) 0.000000] [s4bxi_main_actor/INFO] Setup with nid = 4, model_pci = 1 ; e2e_off = 0
[amour5_CPU0:user_app:(25) 0.000000] [s4bxi_main_actor/INFO] Setup with nid = 5, model_pci = 1 ; e2e_off = 0
[amour6_CPU0:user_app:(31) 0.000000] [s4bxi_main_actor/INFO] Setup with nid = 6, model_pci = 1 ; e2e_off = 0
[amour7_CPU0:user_app:(37) 0.000000] [s4bxi_main_actor/INFO] Setup with nid = 7, model_pci = 1 ; e2e_off = 0
[amour8_CPU0:user_app:(43) 0.000000] [s4bxi_main_actor/INFO] Setup with nid = 8, model_pci = 1 ; e2e_off = 0
[amour1_CPU0:user_app:(1) 0.000000] [user_app/INFO] Init rank 0 ; local_rank 0
[amour2_CPU0:user_app:(7) 0.000000] [user_app/INFO] Init rank 1 ; local_rank 0
[amour3_CPU0:user_app:(13) 0.000000] [user_app/INFO] Init rank 2 ; local_rank 0
[amour4_CPU0:user_app:(19) 0.000000] [user_app/INFO] Init rank 3 ; local_rank 0
[amour5_CPU0:user_app:(25) 0.000000] [user_app/INFO] Init rank 4 ; local_rank 0
[amour6_CPU0:user_app:(31) 0.000000] [user_app/INFO] Init rank 5 ; local_rank 0
[amour7_CPU0:user_app:(37) 0.000000] [user_app/INFO] Init rank 6 ; local_rank 0
[amour8_CPU0:user_app:(43) 0.000000] [user_app/INFO] Init rank 7 ; local_rank 0
[amour1_NIC:nic_e2e:(6) 0.000000] [s4bxi_nic_e2e/INFO] E2E was configured with timeout = 10.000000 and retries = 5
[amour2_NIC:nic_e2e:(12) 0.000000] [s4bxi_nic_e2e/INFO] E2E was configured with timeout = 10.000000 and retries = 5
[amour3_NIC:nic_e2e:(18) 0.000000] [s4bxi_nic_e2e/INFO] E2E was configured with timeout = 10.000000 and retries = 5
[amour4_NIC:nic_e2e:(24) 0.000000] [s4bxi_nic_e2e/INFO] E2E was configured with timeout = 10.000000 and retries = 5
[amour5_NIC:nic_e2e:(30) 0.000000] [s4bxi_nic_e2e/INFO] E2E was configured with timeout = 10.000000 and retries = 5
[amour6_NIC:nic_e2e:(36) 0.000000] [s4bxi_nic_e2e/INFO] E2E was configured with timeout = 10.000000 and retries = 5
[amour7_NIC:nic_e2e:(42) 0.000000] [s4bxi_nic_e2e/INFO] E2E was configured with timeout = 10.000000 and retries = 5
[amour8_NIC:nic_e2e:(48) 0.000000] [s4bxi_nic_e2e/INFO] E2E was configured with timeout = 10.000000 and retries = 5
[amour1_CPU0:user_app:(1) 0.000000] [user_app/INFO] Extracting symbols from Bull lib 0x14a86f0 (OqlqdB0so.40) and SMPI lib 0x7f6b1e02b850
[amour2_CPU0:user_app:(7) 0.000000] [user_app/INFO] Extracting symbols from Bull lib 0x14accf0 (OqlqdB1so.40) and SMPI lib 0x7f6b1e02b850
[amour3_CPU0:user_app:(13) 0.000000] [user_app/INFO] Extracting symbols from Bull lib 0x14af6f0 (OqlqdB2so.40) and SMPI lib 0x7f6b1e02b850
[amour4_CPU0:user_app:(19) 0.000000] [user_app/INFO] Extracting symbols from Bull lib 0x14b2050 (OqlqdB3so.40) and SMPI lib 0x7f6b1e02b850
[amour5_CPU0:user_app:(25) 0.000000] [user_app/INFO] Extracting symbols from Bull lib 0x14b4d80 (OqlqdB4so.40) and SMPI lib 0x7f6b1e02b850
[amour6_CPU0:user_app:(31) 0.000000] [user_app/INFO] Extracting symbols from Bull lib 0x14b7a20 (OqlqdB5so.40) and SMPI lib 0x7f6b1e02b850
[amour7_CPU0:user_app:(37) 0.000000] [user_app/INFO] Extracting symbols from Bull lib 0x14ba6c0 (OqlqdB6so.40) and SMPI lib 0x7f6b1e02b850
[amour8_CPU0:user_app:(43) 0.000000] [user_app/INFO] Extracting symbols from Bull lib 0x14bd3f0 (OqlqdB7so.40) and SMPI lib 0x7f6b1e02b850
[amour2_CPU0:user_app:(7) 0.444249] [s4bxi_redefine/INFO] User code exited gracefully
[amour2_CPU0:user_app:(7) 0.444249] ../src/xbt/exception.cpp:107: [xbt_exception/ERROR] Received a ForcefulKillException at the top-level exception handler. Maybe a Java->C++ call that is not protected in a try/catch?
[amour2_CPU0:user_app:(7) 0.444249] ../src/xbt/exception.cpp:75: [xbt_exception/CRITICAL] Current backtrace:
  ->  0# 0x00007F6B1D583ED9 in /tmp/opt/simgrid/lib64/libsimgrid.so.3.31.1
  ->  1# 0x00007F6B1CF7353C in /lib64/libstdc++.so.6
  ->  2# 0x00007F6B1CF72559 in /lib64/libstdc++.so.6
  ->  3# __gxx_personality_v0 in /lib64/libstdc++.so.6
  ->  4# 0x00007F6B1C953B03 in /lib64/libgcc_s.so.1
  ->  5# _Unwind_Resume in /lib64/libgcc_s.so.1
  ->  6# 0x00007F6B1D56E69A in /tmp/opt/simgrid/lib64/libsimgrid.so.3.31.1
  ->  7# s4bxi_exit in /tmp/opt/s4bxi/lib/libportals.so.1
  ->  8# main in ./xhpl_OqlqdBbWfQ_1.so

[pm0-nod12:3265735] *** Process received signal ***
[pm0-nod12:3265735] Signal: Aborted (6)
[pm0-nod12:3265735] Signal code:  (-6)
[pm0-nod12:3265735] [ 0] /lib64/libc.so.6(+0x37400)[0x7f6b1c5b5400]
[pm0-nod12:3265735] [ 1] /lib64/libc.so.6(gsignal+0x10f)[0x7f6b1c5b537f]
[pm0-nod12:3265735] [ 2] /lib64/libc.so.6(abort+0x127)[0x7f6b1c59fdb5]
[pm0-nod12:3265735] [ 3] /tmp/opt/simgrid/lib64/libsimgrid.so.3.31.1(+0x10deab)[0x7f6b1d583eab]
[pm0-nod12:3265735] [ 4] /lib64/libstdc++.so.6(+0x9653c)[0x7f6b1cf7353c]
[pm0-nod12:3265735] [ 5] /lib64/libstdc++.so.6(+0x95559)[0x7f6b1cf72559]
[pm0-nod12:3265735] [ 6] /lib64/libstdc++.so.6(__gxx_personality_v0+0x2a8)[0x7f6b1cf72ed8]
[pm0-nod12:3265735] [ 7] /lib64/libgcc_s.so.1(+0x10b03)[0x7f6b1c953b03]
[pm0-nod12:3265735] [ 8] /lib64/libgcc_s.so.1(_Unwind_Resume+0x12d)[0x7f6b1c95441d]
[pm0-nod12:3265735] [ 9] /tmp/opt/simgrid/lib64/libsimgrid.so.3.31.1(+0xf869a)[0x7f6b1d56e69a]
[pm0-nod12:3265735] [10] /tmp/opt/s4bxi/lib/libportals.so.1(s4bxi_exit+0x2e)[0x7f6b1db951fe]
[pm0-nod12:3265735] [11] ./xhpl_OqlqdBbWfQ_1.so(main+0x5ff)[0x7f6b0176b1ff]
[pm0-nod12:3265735] [12] /tmp/opt/s4bxi/lib/libportals.so.1(_ZN15BxiUserAppActorclEv+0x184d)[0x7f6b1db7edad]
[pm0-nod12:3265735] [13] /tmp/opt/s4bxi/lib/libportals.so.1(_ZZZN7simgrid3s4u6Engine14register_actorI15BxiUserAppActorEEvRKNSt7__cxx1112basic_stringIcSt11char_traitsIcESaIcEEEENKUlSt6vectorIS9_SaIS9_EEE_clESE_ENUlvE_clEv+0x21)[0x7f6b1db84a81]
[pm0-nod12:3265735] [14] /tmp/opt/simgrid/lib64/libsimgrid.so.3.31.1(smx_ctx_wrapper+0x17)[0x7f6b1d5df0f7]
[pm0-nod12:3265735] *** End of error message ***
./s4bxi_run_vanilla.sh: line 90: 3265735 Aborted                 (core dumped) s4bximain $PLATFORMDIR/amour/build/libamour.so ./deploy.xml ./xhpl xhpl --cfg=smpi/cpu-threshold:${S4BXI_CPU_THRESHOLD} --cfg=smpi/host-speed:$(bc <<< "10000 * ${S4BXI_CPU_FACTOR}")Mf

real	0m14.989s
user	0m10.122s
sys	0m3.989s
