magic, rank, use_smpi, time, delta, comment
#~#, 1, 0, 0.000002, 0.000002, Set initial model
#~#, 1, 0, 0.101435, 0.101433, After MPI_Init
#~#, 1, 0, 0.104148, 0.002714, After HPL_pdinfo
#~#, 1, 0, 0.105083, 0.000935, After HPL_grid_info
