magic, rank, use_smpi, time, delta, comment
#~#, 10, 0, 0.000002, 0.000002, Set initial model
#~#, 10, 0, 0.102884, 0.102883, After MPI_Init
#~#, 10, 0, 0.104143, 0.001258, After HPL_pdinfo
#~#, 10, 0, 0.105087, 0.000944, After HPL_grid_info
