magic, rank, use_smpi, time, delta, comment
#~#, 11, 0, 0.000001, 0.000001, Set initial model
#~#, 11, 0, 0.100356, 0.100355, After MPI_Init
#~#, 11, 0, 0.104168, 0.003812, After HPL_pdinfo
#~#, 11, 0, 0.105089, 0.000921, After HPL_grid_info
