magic, rank, use_smpi, time, delta, comment
#~#, 12, 0, 0.000002, 0.000002, Set initial model
#~#, 12, 0, 0.101406, 0.101405, After MPI_Init
#~#, 12, 0, 0.104131, 0.002725, After HPL_pdinfo
#~#, 12, 0, 0.105091, 0.000959, After HPL_grid_info
