magic, rank, use_smpi, time, delta, comment
#~#, 2, 0, 0.000002, 0.000002, Set initial model
#~#, 2, 0, 0.102360, 0.102358, After MPI_Init
#~#, 2, 0, 0.104142, 0.001783, After HPL_pdinfo
#~#, 2, 0, 0.105085, 0.000943, After HPL_grid_info
