magic, rank, use_smpi, time, delta, comment
#~#, 2, 0, 0.000003, 0.000003, Set initial model
#~#, 2, 1, 0.891506, 0.891503, Before pdupdate
#~#, 2, 0, 0.936482, 0.044976, Before pdupdate
#~#, 2, 1, 0.969514, 0.033032, Before pdupdate
