_#_,720,840,120,3127571
_#_,720,821,120,2893972
_#_,720,60,0,11590
_#_,720,30,0,510
_#_,720,16,0,400
_#_,720,8,0,360
_#_,720,4,0,340
_#_,720,2,0,340
_#_,720,2,2,630
_#_,720,4,4,1220
_#_,720,2,0,520
_#_,720,2,2,560
_#_,720,8,8,2900
_#_,720,4,0,429
_#_,720,2,0,360
_#_,720,2,2,511
_#_,720,4,4,1080
_#_,720,2,0,420
_#_,720,2,2,500
_#_,720,14,16,8650
_#_,720,8,0,470
_#_,720,4,0,350
_#_,720,2,0,360
_#_,720,2,2,520
_#_,720,4,4,1060
_#_,720,2,0,390
_#_,720,2,2,490
_#_,720,6,8,2370
_#_,720,4,0,400
_#_,720,2,0,340
_#_,720,2,2,510
_#_,720,2,4,620
_#_,720,30,30,30570
_#_,720,16,0,580
_#_,720,8,0,360
_#_,720,4,0,350
_#_,720,2,0,350
_#_,720,2,2,509
_#_,720,4,4,1109
_#_,720,2,0,431
_#_,720,2,2,500
_#_,720,8,8,2900
_#_,720,4,0,440
_#_,720,2,0,350
_#_,720,2,2,490
_#_,720,4,4,1050
_#_,720,2,0,400
_#_,720,2,2,490
_#_,720,14,16,8310
_#_,720,8,0,470
_#_,720,4,0,360
_#_,720,2,0,340
_#_,720,2,2,500
_#_,720,4,4,1090
_#_,720,2,0,400
_#_,720,2,2,510
_#_,720,6,8,2370
_#_,720,4,0,400
_#_,720,2,0,340
_#_,720,2,2,480
_#_,720,2,4,640
_#_,720,60,60,107109
_#_,720,30,0,620
_#_,720,16,0,380
_#_,720,8,0,350
_#_,720,4,0,350
_#_,720,2,0,330
_#_,720,2,2,520
_#_,720,4,4,1070
_#_,720,2,0,410
_#_,720,2,2,490
_#_,720,8,8,2880
_#_,720,4,0,410
_#_,720,2,0,350
_#_,720,2,2,500
_#_,720,4,4,1040
_#_,720,2,0,400
_#_,720,2,2,500
_#_,720,14,16,8380
_#_,720,8,0,420
_#_,720,4,0,340
_#_,720,2,0,349
_#_,720,2,2,520
_#_,720,4,4,1049
_#_,720,2,0,420
_#_,720,2,2,490
_#_,720,6,8,2320
_#_,720,4,0,390
_#_,720,2,0,340
_#_,720,2,2,490
_#_,720,2,4,600
_#_,720,30,30,30420
_#_,720,16,0,500
_#_,720,8,0,370
_#_,720,4,0,350
_#_,720,2,0,350
_#_,720,2,2,510
_#_,720,4,4,1130
_#_,720,2,0,400
_#_,720,2,2,510
_#_,720,8,8,2870
_#_,720,4,0,410
_#_,720,2,0,340
_#_,720,2,2,480
_#_,720,4,4,1080
_#_,720,2,0,400
_#_,720,2,2,511
_#_,720,14,16,8320
_#_,720,8,0,430
_#_,720,4,0,350
_#_,720,2,0,340
_#_,720,2,2,490
_#_,720,4,4,1050
_#_,720,2,0,410
_#_,720,2,2,490
_#_,720,6,8,2340
_#_,720,4,0,410
_#_,720,2,0,360
_#_,720,2,2,490
_#_,720,2,4,620_#_,720,720,120,2570943
_#_,600,720,120,2212933
__#_,600,701,120,2098804
_#_,600,60,0,1240
_#_,600,30,0,440
_#_,600,16,0,390
_#_,600,8,0,350
_#_,600,4,0,340
_#_,600,2,0,340
_#_,600,2,2,540
_#_,600,4,4,1020
_#_,600,2,0,460
_#_,600,2,2,450
_#_,600,8,8,2530
_#_,600,4,0,450
_#_,600,2,0,370
_#_,600,2,2,440
_#_,600,4,4,930
_#_,600,2,0,420
_#_,600,2,2,430
_#_,600,14,16,7140
_#_,600,8,0,470
_#_,600,4,0,370
_#_,600,2,0,350
_#_,600,2,2,460
_#_,600,4,4,940
_#_,600,2,0,411
_#_,600,2,2,451
_#_,600,6,8,2031
_#_,600,4,0,431
_#_,600,2,0,360
_#_,600,2,2,480
_#_,600,2,4,570
_#_,600,30,30,25420
_#_,600,16,0,550
_#_,600,8,0,370
_#_,600,4,0,340
_#_,600,2,0,340
_#_,600,2,2,460
_#_,600,4,4,960
_#_,600,2,0,400
_#_,600,2,2,440
_#_,600,8,8,2520
_#_,600,4,0,420
_#_,600,2,0,350
_#_,600,2,2,460
_#_,600,4,4,900
_#_,600,2,0,420
_#_,600,2,2,440
_#_,600,14,16,6991
_#_,600,8,0,440
_#_,600,4,0,351
_#_,600,2,0,349
_#_,600,2,2,460
_#_,600,4,4,920
_#_,600,2,0,420
_#_,600,2,2,440
_#_,600,6,8,2130
_#_,600,4,0,410
_#_,600,2,0,360
_#_,600,2,2,430
_#_,600,2,4,580
_#_,600,60,60,91190
_#_,600,30,0,610
_#_,600,16,0,380
_#_,600,8,0,350
_#_,600,4,0,340
_#_,600,2,0,350
_#_,600,2,2,480
_#_,600,4,4,929
_#_,600,2,0,420
_#_,600,2,2,431
_#_,600,8,8,2449
_#_,600,4,0,409
_#_,600,2,0,371
_#_,600,2,2,490
_#_,600,4,4,930
_#_,600,2,0,410
_#_,600,2,2,430
_#_,600,14,16,7830
_#_,600,8,0,430
_#_,600,4,0,350
_#_,600,2,0,330
_#_,600,2,2,420
_#_,600,4,4,910
_#_,600,2,0,410
_#_,600,2,2,440
_#_,600,6,8,1980
_#_,600,4,0,410
_#_,600,2,0,350
_#_,600,2,2,440
_#_,600,2,4,530
_#_,600,30,30,25391
_#_,600,16,0,520
_#_,600,8,0,360
_#_,600,4,0,340
_#_,600,2,0,340
_#_,600,2,2,471
_#_,600,4,4,910
_#_,600,2,0,420
_#_,600,2,2,440
_#_,600,8,8,2440
_#_,600,4,0,410
_#_,600,2,0,360
_#_,600,2,2,450
_#_,600,4,4,910
_#_,600,2,0,390
_#_,600,2,2,430
_#_,600,14,16,7100
_#_,600,8,0,460
_#_,600,4,0,360
_#_,600,2,0,350
_#_,600,2,2,450
_#_,600,4,4,930
_#_,600,2,0,410
_#_,600,2,2,440
_#_,600,6,8,2011
_#_,600,4,0,409
_#_,600,2,0,349
_#_,600,2,2,471
_#_,600,2,4,520
__#_,600,600,120,1829435__#_,480,600,120,1457295_#_,480,581,120,1367336
_#_,480,60,0,1030
_#_,480,30,0,410
_#_,480,16,0,370
_#_,480,8,0,350
_#_,480,4,0,340
_#_,480,2,0,340
_#_,480,2,2,440
_#_,480,4,4,830
_#_,480,2,0,430
_#_,480,2,2,400
_#_,480,8,8,2040
_#_,480,4,0,440
_#_,480,2,0,370
_#_,480,2,2,380
_#_,480,4,4,780
_#_,480,2,0,410
_#_,480,2,2,420
_#_,480,14,16,5700
_#_,480,8,0,430
_#_,480,4,0,370
_#_,480,2,0,340
_#_,480,2,2,391
_#_,480,4,4,780
_#_,480,2,0,400
_#_,480,2,2,400
_#_,480,6,8,1630
_#_,480,4,0,410
_#_,480,2,0,360
_#_,480,2,2,390
_#_,480,2,4,460
_#_,480,30,30,20240
_#_,480,16,0,540
_#_,480,8,0,360
_#_,480,4,0,360
_#_,480,2,0,350
_#_,480,2,2,380
_#_,480,4,4,790
_#_,480,2,0,430
_#_,480,2,2,410
_#_,480,8,8,2050
_#_,480,4,0,400
_#_,480,2,0,350
_#_,480,2,2,380
_#_,480,4,4,810
_#_,480,2,0,400
_#_,480,2,2,400
_#_,480,14,16,5700
_#_,480,8,0,420
_#_,480,4,0,380
_#_,480,2,0,360
_#_,480,2,2,380
_#_,480,4,4,800
_#_,480,2,0,410
_#_,480,2,2,380
_#_,480,6,8,1670
_#_,480,4,0,400
_#_,480,2,0,360
_#_,480,2,2,420
_#_,480,2,4,450
_#_,480,60,60,71540
_#_,480,30,0,560
_#_,480,16,0,380
_#_,480,8,0,360
_#_,480,4,0,340
_#_,480,2,0,340
_#_,480,2,2,410
_#_,480,4,4,760
_#_,480,2,0,400
_#_,480,2,2,371
_#_,480,8,8,2000
_#_,480,4,0,400
_#_,480,2,0,351
_#_,480,2,2,370
_#_,480,4,4,750
_#_,480,2,0,400
_#_,480,2,2,380
_#_,480,14,16,5680
_#_,480,8,0,450
_#_,480,4,0,380
_#_,480,2,0,360
_#_,480,2,2,370
_#_,480,4,4,750
_#_,480,2,0,410
_#_,480,2,2,380
_#_,480,6,8,1620
_#_,480,4,0,410
_#_,480,2,0,370
_#_,480,2,2,380
_#_,480,2,4,470
_#_,480,30,30,20280
_#_,480,16,0,540
_#_,480,8,0,349
_#_,480,4,0,351
_#_,480,2,0,340
_#_,480,2,2,391
_#_,480,4,4,769
_#_,480,2,0,400
_#_,480,2,2,370
_#_,480,8,8,2000
_#_,480,4,0,410
_#_,480,2,0,350
_#_,480,2,2,370
_#_,480,4,4,760
_#_,480,2,0,400
_#_,480,2,2,390
_#_,480,14,16,7240
_#_,480,8,0,480
_#_,480,4,0,380
_#_,480,2,0,360
_#_,480,2,2,390
_#_,480,4,4,830
_#_,480,2,0,400
_#_,480,2,2,370
_#_,480,6,8,1670
_#_,480,4,0,400
_#_,480,2,0,350
_#_,480,2,2,380
_#_,480,2,4,440
_#_,480,480,120,1157477
_#_,360,480,120,878477
_#_,360,461,120,818278
_#_,360,60,0,980
_#_,360,30,0,420
_#_,360,16,0,369
_#_,360,8,0,349
_#_,360,4,0,350
_#_,360,2,0,340
_#_,360,2,2,409
_#_,360,4,4,640
_#_,360,2,0,411
_#_,360,2,2,340
_#_,360,8,8,1570
_#_,360,4,0,410
_#_,360,2,0,350
_#_,360,2,2,330
_#_,360,4,4,630
_#_,360,2,0,390
_#_,360,2,2,330
_#_,360,14,16,4450
_#_,360,8,0,430
_#_,360,4,0,360
_#_,360,2,0,340
_#_,360,2,2,330
_#_,360,4,4,640
_#_,360,2,0,390
_#_,360,2,2,320
_#_,360,6,8,1300
_#_,360,4,0,430
_#_,360,2,0,350
_#_,360,2,2,340
_#_,360,2,4,410
_#_,360,30,30,15240
_#_,360,16,0,500
_#_,360,8,0,380
_#_,360,4,0,360
_#_,360,2,0,340
_#_,360,2,2,340
_#_,360,4,4,670
_#_,360,2,0,440
_#_,360,2,2,340
_#_,360,8,8,1550
_#_,360,4,0,420
_#_,360,2,0,350
_#_,360,2,2,330
_#_,360,4,4,640
_#_,360,2,0,400
_#_,360,2,2,330
_#_,360,14,16,4340
_#_,360,8,0,430
_#_,360,4,0,370
_#_,360,2,0,350
_#_,360,2,2,330
_#_,360,4,4,620
_#_,360,2,0,410
_#_,360,2,2,330
_#_,360,6,8,1260
_#_,360,4,0,411
_#_,360,2,0,349
_#_,360,2,2,320
_#_,360,2,4,380
_#_,360,60,60,53960
_#_,360,30,0,550
_#_,360,16,0,380
_#_,360,8,0,350
_#_,360,4,0,360
_#_,360,2,0,360
_#_,360,2,2,340
_#_,360,4,4,640
_#_,360,2,0,410
_#_,360,2,2,330
_#_,360,8,8,1530
_#_,360,4,0,400
_#_,360,2,0,350
_#_,360,2,2,330
_#_,360,4,4,620
_#_,360,2,0,410
_#_,360,2,2,340
_#_,360,14,16,4380
_#_,360,8,0,440
_#_,360,4,0,360
_#_,360,2,0,351
_#_,360,2,2,329
_#_,360,4,4,660
_#_,360,2,0,400
_#_,360,2,2,330
_#_,360,6,8,1280
_#_,360,4,0,420
_#_,360,2,0,360
_#_,360,2,2,330
_#_,360,2,4,380
_#_,360,30,30,15290
_#_,360,16,0,500
_#_,360,8,0,370
_#_,360,4,0,360
_#_,360,2,0,350
_#_,360,2,2,360
_#_,360,4,4,670
_#_,360,2,0,400
_#_,360,2,2,320
_#_,360,8,8,1570
_#_,360,4,0,400
_#_,360,2,0,360
_#_,360,2,2,350
_#_,360,4,4,610
_#_,360,2,0,400
_#_,360,2,2,320
_#_,360,14,16,4280
_#_,360,8,0,420
_#_,360,4,0,351
_#_,360,2,0,340
_#_,360,2,2,340
_#_,360,4,4,620
_#_,360,2,0,400
_#_,360,2,2,340
_#_,360,6,8,1320
_#_,360,4,0,400
_#_,360,2,0,350
_#_,360,2,2,330
_#_,360,2,4,390
_#_,360,360,120,627838
_#_,240,360,120,416399
_#_,240,341,120,406399
_#_,240,60,0,940
_#_,240,30,0,410
_#_,240,16,0,370
_#_,240,8,0,360
_#_,240,4,0,340
_#_,240,2,0,340
_#_,240,2,2,320
_#_,240,4,4,510
_#_,240,2,0,410
_#_,240,2,2,280
_#_,240,8,8,1150
_#_,240,4,0,420
_#_,240,2,0,350
_#_,240,2,2,250
_#_,240,4,4,480
_#_,240,2,0,400
_#_,240,2,2,250
_#_,240,14,16,2920
_#_,240,8,0,420
_#_,240,4,0,370
_#_,240,2,0,340
_#_,240,2,2,260
_#_,240,4,4,460
_#_,240,2,0,400
_#_,240,2,2,240
_#_,240,6,8,929
_#_,240,4,0,429
_#_,240,2,0,349
_#_,240,2,2,260
_#_,240,2,4,310
_#_,240,30,30,10190
_#_,240,16,0,450
_#_,240,8,0,350
_#_,240,4,0,350
_#_,240,2,0,350
_#_,240,2,2,280
_#_,240,4,4,540
_#_,240,2,0,400
_#_,240,2,2,260
_#_,240,8,8,1170
_#_,240,4,0,400
_#_,240,2,0,350
_#_,240,2,2,260
_#_,240,4,4,470
_#_,240,2,0,400
_#_,240,2,2,260
_#_,240,14,16,2970
_#_,240,8,0,429
_#_,240,4,0,360
_#_,240,2,0,340
_#_,240,2,2,260
_#_,240,4,4,460
_#_,240,2,0,400
_#_,240,2,2,250
_#_,240,6,8,930
_#_,240,4,0,410
_#_,240,2,0,360
_#_,240,2,2,260
_#_,240,2,4,310
_#_,240,60,60,35770
_#_,240,30,0,590
_#_,240,16,0,380
_#_,240,8,0,350
_#_,240,4,0,350
_#_,240,2,0,340
_#_,240,2,2,260
_#_,240,4,4,500
_#_,240,2,0,410
_#_,240,2,2,250
_#_,240,8,8,1110
_#_,240,4,0,400
_#_,240,2,0,350
_#_,240,2,2,250
_#_,240,4,4,460
_#_,240,2,0,411
_#_,240,2,2,260
_#_,240,14,16,2951
_#_,240,8,0,440
_#_,240,4,0,360
_#_,240,2,0,340
_#_,240,2,2,250
_#_,240,4,4,520
_#_,240,2,0,390
_#_,240,2,2,240
_#_,240,6,8,920
_#_,240,4,0,400
_#_,240,2,0,350
_#_,240,2,2,250
_#_,240,2,4,290
_#_,240,30,30,10150
_#_,240,16,0,470
_#_,240,8,0,360
_#_,240,4,0,340
_#_,240,2,0,340
_#_,240,2,2,250
_#_,240,4,4,460
_#_,240,2,0,420
_#_,240,2,2,250
_#_,240,8,8,1110
_#_,240,4,0,400
_#_,240,2,0,349
_#_,240,2,2,251
_#_,240,4,4,469
_#_,240,2,0,400
_#_,240,2,2,251
_#_,240,14,16,3020
_#_,240,8,0,440
_#_,240,4,0,350
_#_,240,2,0,340
_#_,240,2,2,250
_#_,240,4,4,510
_#_,240,2,0,400
_#_,240,2,2,290
_#_,240,6,8,950
_#_,240,4,0,400
_#_,240,2,0,350
_#_,240,2,2,290
_#_,240,2,4,290
__#_,240,240,120,267069__#_,120,240,120,139359_#_,120,221,120,124689
_#_,120,60,0,900
_#_,120,30,0,410
_#_,120,16,0,370
_#_,120,8,0,360
_#_,120,4,0,350
_#_,120,2,0,340
_#_,120,2,2,270
_#_,120,4,4,370
_#_,120,2,0,400
_#_,120,2,2,220
_#_,120,8,8,680
_#_,120,4,0,400
_#_,120,2,0,350
_#_,120,2,2,200
_#_,120,4,4,329
_#_,120,2,0,400
_#_,120,2,2,209
_#_,120,14,16,1620
_#_,120,8,0,410
_#_,120,4,0,360
_#_,120,2,0,340
_#_,120,2,2,210
_#_,120,4,4,330
_#_,120,2,0,400
_#_,120,2,2,200
_#_,120,6,8,580
_#_,120,4,0,410
_#_,120,2,0,360
_#_,120,2,2,200
_#_,120,2,4,230
_#_,120,30,30,5180
_#_,120,16,0,460
_#_,120,8,0,360
_#_,120,4,0,350
_#_,120,2,0,350
_#_,120,2,2,210
_#_,120,4,4,340
_#_,120,2,0,380
_#_,120,2,2,200
_#_,120,8,8,660
_#_,120,4,0,409
_#_,120,2,0,340
_#_,120,2,2,200
_#_,120,4,4,320
_#_,120,2,0,391
_#_,120,2,2,200
_#_,120,14,16,1620
_#_,120,8,0,430
_#_,120,4,0,380
_#_,120,2,0,330
_#_,120,2,2,200
_#_,120,4,4,330
_#_,120,2,0,390
_#_,120,2,2,210
_#_,120,6,8,590
_#_,120,4,0,400
_#_,120,2,0,350
_#_,120,2,2,210
_#_,120,2,4,220
_#_,120,60,60,18310
_#_,120,30,0,480
_#_,120,16,0,380
_#_,120,8,0,350
_#_,120,4,0,360
_#_,120,2,0,340
_#_,120,2,2,210
_#_,120,4,4,329
_#_,120,2,0,400
_#_,120,2,2,211
_#_,120,8,8,671
_#_,120,4,0,411
_#_,120,2,0,360
_#_,120,2,2,210
_#_,120,4,4,320
_#_,120,2,0,390
_#_,120,2,2,200
_#_,120,14,16,1590
_#_,120,8,0,410
_#_,120,4,0,360
_#_,120,2,0,340
_#_,120,2,2,210
_#_,120,4,4,320
_#_,120,2,0,390
_#_,120,2,2,200
_#_,120,6,8,570
_#_,120,4,0,400
_#_,120,2,0,350
_#_,120,2,2,210
_#_,120,2,4,240
_#_,120,30,30,5230
_#_,120,16,0,430
_#_,120,8,0,360
_#_,120,4,0,350
_#_,120,2,0,330
_#_,120,2,2,200
_#_,120,4,4,340
_#_,120,2,0,391
_#_,120,2,2,220
_#_,120,8,8,660
_#_,120,4,0,400
_#_,120,2,0,350
_#_,120,2,2,200
_#_,120,4,4,320
_#_,120,2,0,390
_#_,120,2,2,200
_#_,120,14,16,1560
_#_,120,8,0,420
_#_,120,4,0,370
_#_,120,2,0,340
_#_,120,2,2,200
_#_,120,4,4,320
_#_,120,2,0,390
_#_,120,2,2,210
_#_,120,6,8,590
_#_,120,4,0,400
_#_,120,2,0,340
_#_,120,2,2,200
_#_,120,2,4,220
_#_,120,120,120,68560
_#_,0,120,120,790
_#_,0,101,120,580
_#_,0,50,0,340
_#_,0,26,0,300
_#_,0,14,0,290
_#_,0,8,0,300
_#_,0,4,0,300
_#_,0,2,0,290
_#_,0,2,2,360
_#_,0,4,4,340
_#_,0,2,0,320
_#_,0,2,2,330
_#_,0,6,8,360
_#_,0,4,0,310
_#_,0,2,0,300
_#_,0,2,2,340
_#_,0,2,4,340
_#_,0,12,14,340
_#_,0,6,0,311
_#_,0,4,0,309
_#_,0,2,0,280
_#_,0,2,2,340
_#_,0,2,4,340
_#_,0,6,6,350
_#_,0,4,0,310
_#_,0,2,0,290
_#_,0,2,2,340
_#_,0,2,4,350
_#_,0,24,26,350
_#_,0,12,0,310
_#_,0,6,0,300
_#_,0,4,0,300
_#_,0,2,0,300
_#_,0,2,2,340
_#_,0,2,4,340
_#_,0,6,6,360
_#_,0,4,0,320
_#_,0,2,0,310
_#_,0,2,2,350
_#_,0,2,4,340
_#_,0,12,12,350
_#_,0,6,0,320
_#_,0,4,0,309
_#_,0,2,0,289
_#_,0,2,2,331
_#_,0,2,4,349
_#_,0,6,6,351
_#_,0,4,0,320
_#_,0,2,0,300
_#_,0,2,2,360
_#_,0,2,4,340
_#_,0,50,50,360
_#_,0,26,0,310
_#_,0,14,0,290
_#_,0,8,0,290
_#_,0,4,0,290
_#_,0,2,0,290
_#_,0,2,2,340
_#_,0,4,4,340
_#_,0,2,0,300
_#_,0,2,2,340
_#_,0,6,8,360
_#_,0,4,0,290
_#_,0,2,0,290
_#_,0,2,2,340
_#_,0,2,4,340
_#_,0,12,14,360
_#_,0,6,0,340
_#_,0,4,0,310
_#_,0,2,0,290
_#_,0,2,2,330
_#_,0,2,4,340
_#_,0,6,6,360
_#_,0,4,0,311
_#_,0,2,0,289
_#_,0,2,2,320
_#_,0,2,4,350
_#_,0,24,26,340
_#_,0,12,0,310
_#_,0,6,0,300
_#_,0,4,0,290
_#_,0,2,0,290
_#_,0,2,2,340
_#_,0,2,4,340
_#_,0,6,6,360
_#_,0,4,0,310
_#_,0,2,0,310
_#_,0,2,2,350
_#_,0,2,4,340
_#_,0,12,12,330
_#_,0,6,0,310
_#_,0,4,0,290
_#_,0,2,0,300
_#_,0,2,2,340
_#_,0,2,4,340
_#_,0,6,6,350
_#_,0,4,0,300
_#_,0,2,0,290
_#_,0,2,2,340
_#_,0,2,4,351
_#_,0,1,100,309

real	0m0.312s
user	0m0.131s
sys	0m0.139s
0,320
_#_,0,2,2,340
_#_,0,14,16,340
_#_,0,8,0,320
_#_,0,4,0,310
_#_,0,2,0,310
_#_,0,2,2,320
_#_,0,4,4,340
_#_,0,2,0,320
_#_,0,2,2,340
_#_,0,6,8,340
_#_,0,4,0,320
_#_,0,2,0,320
_#_,0,2,2,350
_#_,0,2,4,340

real	0m0.320s
user	0m0.125s
sys	0m0.150s
10,4,4,310
_#_,10,2,0,390
_#_,8,2,2,160
_#_,6,6,8,360
_#_,6,4,0,420
_#_,6,2,0,340
_#_,4,2,2,160
_#_,2,2,4,209

real	0m0.314s
user	0m0.126s
sys	0m0.139s
