magic, rank, use_smpi, time, delta, comment
#~#, 12, 0, 0.000001, 0.000001, Set initial model
#~#, 12, 0, 0.097455, 0.097454, After MPI_Init
#~#, 12, 0, 0.098995, 0.001540, After HPL_pdinfo
#~#, 12, 0, 0.100024, 0.001029, After HPL_grid_info
