magic, rank, use_smpi, time, delta, comment
#~#, 4, 0, 0.000001, 0.000001, Set initial model
#~#, 4, 0, 0.097425, 0.097424, After MPI_Init
#~#, 4, 0, 0.098997, 0.001572, After HPL_pdinfo
#~#, 4, 0, 0.100023, 0.001026, After HPL_grid_info
