magic, rank, use_smpi, time, delta, comment
#~#, 5, 0, 0.000001, 0.000001, Set initial model
#~#, 5, 0, 0.095688, 0.095687, After MPI_Init
#~#, 5, 0, 0.099018, 0.003330, After HPL_pdinfo
#~#, 5, 0, 0.100018, 0.001000, After HPL_grid_info
