magic, rank, use_smpi, time, delta, comment
#~#, 4, 1, 0.000001, 0.000001, Set initial model
#~#, 4, 1, 0.095372, 0.095370, After MPI_Init
#~#, 4, 1, 0.099210, 0.003838, After HPL_pdinfo
#~#, 4, 1, 0.100273, 0.001063, After HPL_grid_info
