[0.000000] [xbt_cfg/INFO] Configuration change: Set 'smpi/cpu-threshold' to '1e-9'
[0.000000] [xbt_cfg/INFO] Configuration change: Set 'smpi/host-speed' to '10000Mf'
[0.000000] [xbt_cfg/INFO] Configuration change: Set 'surf/precision' to '1e-9'
[0.000000] [xbt_cfg/INFO] Configuration change: Set 'network/loopback-lat' to '0'
[0.000000] [xbt_cfg/INFO] Configuration change: Set 'network/loopback-bw' to '999e9'
[0.000000] [xbt_cfg/INFO] Configuration change: Set 'network/model' to 'CM02'
[0.000000] [xbt_cfg/INFO] Configuration change: Set 'smpi/os' to '0:2.2617745265427535e-06:2.703352029721588e-10;392:2.8385604119907807e-06:1.1264760290330328e-10;32712:0.0:0.0;186836:0.0:0.0;1538469:0.0:0.0'
[0.000000] [xbt_cfg/INFO] Configuration change: Set 'smpi/or' to '0:4.879281137093516e-07:2.2618415203462987e-10;392:5.779857092751072e-07:3.8094447278873e-11;32712:0.0:0.0;186836:0.0:0.0;1538469:0.0:0.0'
[0.000000] [xbt_cfg/INFO] Configuration change: Set 'smpi/ois' to '0:5.673519212129521e-07:7.174648137343064e-43;392:5.446695252027938e-07:1.9686168165027744e-11;32712:5.536713106693264e-07:5.082661224033066e-13;186836:5.49289659548938e-07:3.189291810074661e-14;1538469:4.306002121584747e-07:4.21325930847998e-14'
[0.000000] [xbt_cfg/INFO] Configuration change: Set 'smpi/bw-factor' to '0:0.2699228069054274;392:0.7647794357220394;32712:0.9664149337828888;186836:0.9243880418172589;1538469:0.9732858005841204'
[0.000000] [xbt_cfg/INFO] Configuration change: Set 'smpi/lat-factor' to '0:2.7676182391675814;392:3.9432860784637396;32712:10.117401654450653;186836:7.810638891189083;1538469:18.84747638996546'
[0.000000] [xbt_cfg/INFO] Configuration change: Set 'smpi/async-small-thresh' to '32712'
[0.000000] [xbt_cfg/INFO] Configuration change: Set 'smpi/send-is-detached-thresh' to '32712'
[0.000000] [xbt_cfg/INFO] Configuration change: Set 'smpi/iprobe' to '1.9586518031175638e-07'
[0.000000] [xbt_cfg/INFO] Configuration change: Set 'smpi/test' to '1.1523121197560569e-07'
[0.000000] [xbt_cfg/INFO] Configuration change: Set 'smpi/coll-selector' to 'ompi'
[0.000000] [smpi_coll/INFO] Switch to algorithm ompi for collective gather
[0.000000] [smpi_coll/INFO] Switch to algorithm ompi for collective allgather
[0.000000] [smpi_coll/INFO] Switch to algorithm ompi for collective allgatherv
[0.000000] [smpi_coll/INFO] Switch to algorithm ompi for collective allreduce
[0.000000] [smpi_coll/INFO] Switch to algorithm ompi for collective alltoall
[0.000000] [smpi_coll/INFO] Switch to algorithm ompi for collective alltoallv
[0.000000] [smpi_coll/INFO] Switch to algorithm ompi for collective reduce
[0.000000] [smpi_coll/INFO] Switch to algorithm ompi for collective reduce_scatter
[0.000000] [smpi_coll/INFO] Switch to algorithm ompi for collective scatter
[0.000000] [smpi_coll/INFO] Switch to algorithm ompi for collective bcast
[0.000000] [smpi_coll/INFO] Switch to algorithm ompi for collective barrier
[0.000000] [smpi_coll/INFO] Switch to algorithm ompi for collective gather
[0.000000] [smpi_coll/INFO] Switch to algorithm ompi for collective allgather
[0.000000] [smpi_coll/INFO] Switch to algorithm ompi for collective allgatherv
[0.000000] [smpi_coll/INFO] Switch to algorithm ompi for collective allreduce
[0.000000] [smpi_coll/INFO] Switch to algorithm ompi for collective alltoall
[0.000000] [smpi_coll/INFO] Switch to algorithm ompi for collective alltoallv
[0.000000] [smpi_coll/INFO] Switch to algorithm ompi for collective reduce
[0.000000] [smpi_coll/INFO] Switch to algorithm ompi for collective reduce_scatter
[0.000000] [smpi_coll/INFO] Switch to algorithm ompi for collective scatter
[0.000000] [smpi_coll/INFO] Switch to algorithm ompi for collective bcast
[0.000000] [smpi_coll/INFO] Switch to algorithm ompi for collective barrier
[amour1_CPU0:user_app:(1) 0.000000] [s4bxi_main_actor/INFO] Setup with nid = 1, model_pci = 1 ; e2e_off = 0
[amour1_CPU1:user_app:(2) 0.000000] [s4bxi_main_actor/INFO] Setup with nid = 1, model_pci = 1 ; e2e_off = 0
[amour1_CPU2:user_app:(3) 0.000000] [s4bxi_main_actor/INFO] Setup with nid = 1, model_pci = 1 ; e2e_off = 0
[amour2_CPU0:user_app:(9) 0.000000] [s4bxi_main_actor/INFO] Setup with nid = 2, model_pci = 1 ; e2e_off = 0
[amour2_CPU1:user_app:(10) 0.000000] [s4bxi_main_actor/INFO] Setup with nid = 2, model_pci = 1 ; e2e_off = 0
[amour2_CPU2:user_app:(11) 0.000000] [s4bxi_main_actor/INFO] Setup with nid = 2, model_pci = 1 ; e2e_off = 0
[amour3_CPU0:user_app:(17) 0.000000] [s4bxi_main_actor/INFO] Setup with nid = 3, model_pci = 1 ; e2e_off = 0
[amour3_CPU1:user_app:(18) 0.000000] [s4bxi_main_actor/INFO] Setup with nid = 3, model_pci = 1 ; e2e_off = 0
[amour3_CPU2:user_app:(19) 0.000000] [s4bxi_main_actor/INFO] Setup with nid = 3, model_pci = 1 ; e2e_off = 0
[amour1_CPU0:user_app:(1) 0.000000] [user_app/INFO] Init rank 0 ; local_rank 0
[amour1_CPU1:user_app:(2) 0.000000] [user_app/INFO] Init rank 1 ; local_rank 1
[amour1_CPU2:user_app:(3) 0.000000] [user_app/INFO] Init rank 2 ; local_rank 2
[amour2_CPU0:user_app:(9) 0.000000] [user_app/INFO] Init rank 3 ; local_rank 0
[amour2_CPU1:user_app:(10) 0.000000] [user_app/INFO] Init rank 4 ; local_rank 1
[amour2_CPU2:user_app:(11) 0.000000] [user_app/INFO] Init rank 5 ; local_rank 2
[amour3_CPU0:user_app:(17) 0.000000] [user_app/INFO] Init rank 6 ; local_rank 0
[amour3_CPU1:user_app:(18) 0.000000] [user_app/INFO] Init rank 7 ; local_rank 1
[amour3_CPU2:user_app:(19) 0.000000] [user_app/INFO] Init rank 8 ; local_rank 2
[amour1_NIC:nic_e2e:(8) 0.000000] [s4bxi_nic_e2e/INFO] E2E was configured with timeout = 10.000000 and retries = 5
[amour2_NIC:nic_e2e:(16) 0.000000] [s4bxi_nic_e2e/INFO] E2E was configured with timeout = 10.000000 and retries = 5
[amour3_NIC:nic_e2e:(24) 0.000000] [s4bxi_nic_e2e/INFO] E2E was configured with timeout = 10.000000 and retries = 5
[amour1_CPU0:user_app:(1) 0.000000] [user_app/INFO] Extracting symbols from Bull lib 0x2ba9470 (VFzuOv0so.40) and SMPI lib 0x7f2bd58f9850
[amour1_CPU1:user_app:(2) 0.000000] [user_app/INFO] Extracting symbols from Bull lib 0x2bada30 (VFzuOv1so.40) and SMPI lib 0x7f2bd58f9850
[amour1_CPU2:user_app:(3) 0.000000] [user_app/INFO] Extracting symbols from Bull lib 0x2bb03f0 (VFzuOv2so.40) and SMPI lib 0x7f2bd58f9850
[amour2_CPU0:user_app:(9) 0.000000] [user_app/INFO] Extracting symbols from Bull lib 0x2bb2d50 (VFzuOv3so.40) and SMPI lib 0x7f2bd58f9850
[amour2_CPU1:user_app:(10) 0.000000] [user_app/INFO] Extracting symbols from Bull lib 0x2bb5740 (VFzuOv4so.40) and SMPI lib 0x7f2bd58f9850
[amour2_CPU2:user_app:(11) 0.000000] [user_app/INFO] Extracting symbols from Bull lib 0x2bb80a0 (VFzuOv5so.40) and SMPI lib 0x7f2bd58f9850
[amour3_CPU0:user_app:(17) 0.000000] [user_app/INFO] Extracting symbols from Bull lib 0x2bbaa40 (VFzuOv6so.40) and SMPI lib 0x7f2bd58f9850
[amour3_CPU1:user_app:(18) 0.000000] [user_app/INFO] Extracting symbols from Bull lib 0x2bbd430 (VFzuOv7so.40) and SMPI lib 0x7f2bd58f9850
[amour3_CPU2:user_app:(19) 0.000000] [user_app/INFO] Extracting symbols from Bull lib 0x2bc0160 (VFzuOv8so.40) and SMPI lib 0x7f2bd58f9850
#~#, 8, 1, 0.000001, 0.000001, Set initial model
#~#, 7, 1, 0.000002, 0.000002, Set initial model
#~#, 6, 1, 0.000002, 0.000002, Set initial model
#~#, 4, 1, 0.000003, 0.000003, Set initial model
#~#, 5, 1, 0.000003, 0.000003, Set initial model
#~#, 3, 1, 0.000003, 0.000003, Set initial model
#~#, 1, 1, 0.000003, 0.000003, Set initial model
#~#, 2, 1, 0.000003, 0.000003, Set initial model
#~#, 0, 1, 0.000007, 0.000007, Set initial model
#~#, 8, 1, 0.331189, 0.331188, After MPI_Init
#~#, 7, 1, 0.331370, 0.331368, After MPI_Init
#~#, 6, 1, 0.331545, 0.331543, After MPI_Init
#~#, 4, 1, 0.331726, 0.331724, After MPI_Init
#~#, 5, 1, 0.331910, 0.331908, After MPI_Init
#~#, 3, 1, 0.332086, 0.332084, After MPI_Init
#~#, 1, 1, 0.332257, 0.332254, After MPI_Init
#~#, 2, 1, 0.332436, 0.332433, After MPI_Init
#~#, 0, 1, 0.332627, 0.332619, After MPI_Init
#~#, 8, 1, 0.332862, 0.001673, After HPL_pdinfo
#~#, 1, 1, 0.332870, 0.000613, After HPL_pdinfo
#~#, 4, 1, 0.332870, 0.001144, After HPL_pdinfo
#~#, 2, 1, 0.332870, 0.000434, After HPL_pdinfo
#~#, 3, 1, 0.332871, 0.000785, After HPL_pdinfo
#~#, 5, 1, 0.332871, 0.000961, After HPL_pdinfo
#~#, 6, 1, 0.332872, 0.001327, After HPL_pdinfo
#~#, 7, 1, 0.332872, 0.001502, After HPL_pdinfo
#~#, 0, 1, 0.332928, 0.000301, After HPL_pdinfo
#~#, 1, 1, 0.333605, 0.000735, After HPL_grid_info
#~#, 0, 1, 0.333606, 0.000678, After HPL_grid_info
#~#, 2, 1, 0.333606, 0.000736, After HPL_grid_info
#~#, 4, 1, 0.333607, 0.000737, After HPL_grid_info
#~#, 3, 1, 0.333608, 0.000737, After HPL_grid_info
#~#, 7, 1, 0.333608, 0.000736, After HPL_grid_info
#~#, 5, 1, 0.333608, 0.000737, After HPL_grid_info
#~#, 6, 1, 0.333610, 0.000738, After HPL_grid_info
#~#, 8, 1, 0.333610, 0.000748, After HPL_grid_info
[amour3_CPU1:user_app:(18) 0.804468] [s4bxi_redefine/INFO] User code exited gracefully
[amour3_CPU1:user_app:(18) 0.804468] ../src/xbt/exception.cpp:107: [xbt_exception/ERROR] Received a ForcefulKillException at the top-level exception handler. Maybe a Java->C++ call that is not protected in a try/catch?
[amour3_CPU1:user_app:(18) 0.804468] ../src/xbt/exception.cpp:75: [xbt_exception/CRITICAL] Current backtrace:
  ->  0# 0x00007F2BD4E51ED9 in /tmp/opt/simgrid/lib64/libsimgrid.so.3.31.1
  ->  1# 0x00007F2BD484153C in /lib64/libstdc++.so.6
  ->  2# 0x00007F2BD4840559 in /lib64/libstdc++.so.6
  ->  3# __gxx_personality_v0 in /lib64/libstdc++.so.6
  ->  4# 0x00007F2BD4221B03 in /lib64/libgcc_s.so.1
  ->  5# _Unwind_Resume in /lib64/libgcc_s.so.1
  ->  6# 0x00007F2BD4E3C69A in /tmp/opt/simgrid/lib64/libsimgrid.so.3.31.1
  ->  7# s4bxi_exit in /tmp/opt/s4bxi/lib/libportals.so.1
  ->  8# main in ./xhpl_VFzuOvIhiG_7.so

[pm0-nod12:2664592] *** Process received signal ***
[pm0-nod12:2664592] Signal: Aborted (6)
[pm0-nod12:2664592] Signal code:  (-6)
[pm0-nod12:2664592] [ 0] /lib64/libc.so.6(+0x37400)[0x7f2bd3e83400]
[pm0-nod12:2664592] [ 1] /lib64/libc.so.6(gsignal+0x10f)[0x7f2bd3e8337f]
[pm0-nod12:2664592] [ 2] /lib64/libc.so.6(abort+0x127)[0x7f2bd3e6ddb5]
[pm0-nod12:2664592] [ 3] /tmp/opt/simgrid/lib64/libsimgrid.so.3.31.1(+0x10deab)[0x7f2bd4e51eab]
[pm0-nod12:2664592] [ 4] /lib64/libstdc++.so.6(+0x9653c)[0x7f2bd484153c]
[pm0-nod12:2664592] [ 5] /lib64/libstdc++.so.6(+0x95559)[0x7f2bd4840559]
[pm0-nod12:2664592] [ 6] /lib64/libstdc++.so.6(__gxx_personality_v0+0x2a8)[0x7f2bd4840ed8]
[pm0-nod12:2664592] [ 7] /lib64/libgcc_s.so.1(+0x10b03)[0x7f2bd4221b03]
[pm0-nod12:2664592] [ 8] /lib64/libgcc_s.so.1(_Unwind_Resume+0x12d)[0x7f2bd422241d]
[pm0-nod12:2664592] [ 9] /tmp/opt/simgrid/lib64/libsimgrid.so.3.31.1(+0xf869a)[0x7f2bd4e3c69a]
[pm0-nod12:2664592] [10] /tmp/opt/s4bxi/lib/libportals.so.1(s4bxi_exit+0x2e)[0x7f2bd54631fe]
[pm0-nod12:2664592] [11] ./xhpl_VFzuOvIhiG_7.so(main+0x64c)[0x7f2bbf0c32ac]
[pm0-nod12:2664592] [12] /tmp/opt/s4bxi/lib/libportals.so.1(_ZN15BxiUserAppActorclEv+0x184d)[0x7f2bd544cdad]
[pm0-nod12:2664592] [13] /tmp/opt/s4bxi/lib/libportals.so.1(_ZZZN7simgrid3s4u6Engine14register_actorI15BxiUserAppActorEEvRKNSt7__cxx1112basic_stringIcSt11char_traitsIcESaIcEEEENKUlSt6vectorIS9_SaIS9_EEE_clESE_ENUlvE_clEv+0x21)[0x7f2bd5452a81]
[pm0-nod12:2664592] [14] /tmp/opt/simgrid/lib64/libsimgrid.so.3.31.1(smx_ctx_wrapper+0x17)[0x7f2bd4ead0f7]
[pm0-nod12:2664592] *** End of error message ***
./s4bxi_run_vanilla.sh: line 90: 2664592 Aborted                 (core dumped) s4bximain $PLATFORMDIR/amour/build/libamour.so ./deploy.xml ./xhpl xhpl --cfg=smpi/cpu-threshold:${S4BXI_CPU_THRESHOLD} --cfg=smpi/host-speed:$(bc <<< "10000 * ${S4BXI_CPU_FACTOR}")Mf

real	0m8.812s
user	0m4.244s
sys	0m3.832s
