_#_,480,480,120,1182634
_#_,480,480,120,1159355
_#_,480,480,120,1157504
_#_,480,480,120,1166794
_#_,480,60,0,6480
_#_,480,30,0,509
_#_,480,16,0,369
_#_,480,8,0,360
_#_,480,4,0,340
_#_,480,2,0,330
_#_,478,2,2,1180
_#_,476,4,4,960
_#_,476,2,0,540
_#_,474,2,2,640
_#_,472,8,8,2180
_#_,472,4,0,460
_#_,472,2,0,340
_#_,470,2,2,560
_#_,468,4,4,891
_#_,468,2,0,420
_#_,466,2,2,450
_#_,464,14,16,5640
_#_,464,8,0,470
_#_,464,4,0,350
_#_,464,2,0,330
_#_,462,2,2,500
_#_,460,4,4,790
_#_,460,2,0,420
_#_,458,2,2,490
_#_,456,6,8,1669
_#_,456,4,0,489
_#_,456,2,0,340
_#_,454,2,2,550
_#_,452,2,4,490
_#_,450,30,30,20310
_#_,450,16,0,590
_#_,450,8,0,360
_#_,450,4,0,330
_#_,450,2,0,330
_#_,448,2,2,420
_#_,446,4,4,1029
_#_,446,2,0,411
_#_,444,2,2,409
_#_,442,8,8,2270
_#_,442,4,0,420
_#_,442,2,0,360
_#_,440,2,2,430
_#_,438,4,4,950
_#_,438,2,0,420
_#_,436,2,2,390
_#_,434,14,16,5630
_#_,434,8,0,450
_#_,434,4,0,350
_#_,434,2,0,340
_#_,432,2,2,440
_#_,430,4,4,930
_#_,430,2,0,410
_#_,428,2,2,380
_#_,426,6,8,1690
_#_,426,4,0,440
_#_,426,2,0,340
_#_,424,2,2,380
_#_,422,2,4,580
_#_,420,60,60,63210
_#_,420,30,0,680
_#_,420,16,0,390
_#_,420,8,0,340
_#_,420,4,0,360
_#_,420,2,0,340
_#_,418,2,2,520
_#_,416,4,4,730
_#_,416,2,0,430
_#_,414,2,2,470
_#_,412,8,8,1811
_#_,412,4,0,451
_#_,412,2,0,349
_#_,410,2,2,469
_#_,408,4,4,770
_#_,408,2,0,430
_#_,406,2,2,440
_#_,404,14,16,4950
_#_,404,8,0,450
_#_,404,4,0,350
_#_,404,2,0,340
_#_,402,2,2,420
_#_,400,4,4,680
_#_,400,2,0,420
_#_,398,2,2,471
_#_,396,6,8,1440
_#_,396,4,0,470
_#_,396,2,0,350
_#_,394,2,2,480
_#_,392,2,4,450
_#_,390,30,30,17550
_#_,390,16,0,550
_#_,390,8,0,350
_#_,390,4,0,350
_#_,390,2,0,340
_#_,388,2,2,380
_#_,386,4,4,840
_#_,386,2,0,449
_#_,384,2,2,360
_#_,382,8,8,1990
_#_,382,4,0,450
_#_,382,2,0,360
_#_,380,2,2,400
_#_,378,4,4,860
_#_,378,2,0,450
_#_,376,2,2,360
_#_,374,14,16,5040
_#_,374,8,0,440
_#_,374,4,0,349
_#_,374,2,0,340
_#_,372,2,2,380
_#_,370,4,4,870
_#_,370,2,0,410
_#_,368,2,2,350
_#_,366,6,8,1500
_#_,366,4,0,410
_#_,366,2,0,360
_#_,364,2,2,350
_#_,362,2,4___#_,_#_,360,461,120,8___#_,360,360,120,655256_#_,_#_,360,360,120,6210_#__#_,360,360,120,625827
_#_,360,360,120,629217
_#_,360,60,0,1260
_#_,360,30,0,420
_#_,360,16,0,370
_#_,360,8,0,340
_#_,360,4,0,340
_#_,360,2,0,340
_#_,358,2,2,580
_#_,356,4,4,740
_#_,356,2,0,460
_#_,354,2,2,430
_#_,352,8,8,1580
_#_,352,4,0,440
_#_,352,2,0,360
_#_,350,2,2,430
_#_,348,4,4,690
_#_,348,2,0,410
_#_,346,2,2,440
_#_,344,14,16,4270
_#_,344,8,0,490
_#_,344,4,0,350
_#_,344,2,0,340
_#_,342,2,2,410
_#_,340,4,4,670
_#_,340,2,0,429
_#_,338,2,2,389
_#_,336,6,8,1310
_#_,336,4,0,440
_#_,336,2,0,350
_#_,334,2,2,430
_#_,332,2,4,470
_#_,330,30,30,15060
_#_,330,16,0,610
_#_,330,8,0,360
_#_,330,4,0,340
_#_,330,2,0,340
_#_,328,2,2,390
_#_,326,4,4,829
_#_,326,2,0,469
_#_,324,2,2,380
_#_,322,8,8,1690
_#_,322,4,0,480
_#_,322,2,0,360
_#_,320,2,2,350
_#_,318,4,4,730
_#_,318,2,0,420
_#_,316,2,2,330
_#_,314,14,16,4329
_#_,314,8,0,489
_#_,314,4,0,360
_#_,314,2,0,329
_#_,312,2,2,330
_#_,310,4,4,750
_#_,310,2,0,420
_#_,308,2,2,320
_#_,306,6,8,1270
_#_,306,4,0,440
_#_,306,2,0,350
_#_,304,2,2,320
_#_,302,2,4,500
_#_,300,60,60,44880
_#_,300,30,0,660
_#_,300,16,0,400
_#_,300,8,0,350
_#_,300,4,0,350
_#_,300,2,0,360
_#_,298,2,2,440
_#_,296,4,4,630
_#_,296,2,0,420
_#_,294,2,2,370
_#_,292,8,8,1431
_#_,292,4,0,440
_#_,292,2,0,349
_#_,290,2,2,369
_#_,288,4,4,560
_#_,288,2,0,400
_#_,286,2,2,380
_#_,284,14,16,3460
_#_,284,8,0,480
_#_,284,4,0,360
_#_,284,2,0,340
_#_,282,2,2,420
_#_,280,4,4,580
_#_,280,2,0,450
_#_,278,2,2,380
_#_,276,6,8,1060
_#_,276,4,0,440
_#_,276,2,0,370
_#_,274,2,2,360
_#_,272,2,4,360
_#_,270,30,30,12270
_#_,270,16,0,590
_#_,270,8,0,360
_#_,270,4,0,350
_#_,270,2,0,330
_#_,268,2,2,330
_#_,266,4,4,720
_#_,266,2,0,420
_#_,264,2,2,320
_#_,262,8,8,1510
_#_,262,4,0,430
_#_,262,2,0,340
_#_,260,2,2,320
_#_,258,4,4,650
_#_,258,2,0,440
_#_,256,2,2,290
_#_,254,14,16,3470
_#_,254,8,0,480
_#_,254,4,0,349
_#_,254,2,0,329
_#_,252,2,2,311
_#_,250,4,4,650
_#_,250,2,0,460
_#_,248,2,2,300
_#_,246,6,8,1090
_#_,246,4,0,430
_#_,246,2,0,350
_#_,244,2,2,290
_#_,242,2,4__#_,240_#_,240,341,120___#_,240,240,120,266669__#__#_,240,240,120,2693_#__#_,240,240,120,269339
_#_,240,240,120,269638
_#_,240,60,0,1270
_#_,240,30,0,410
_#_,240,16,0,390
_#_,240,8,0,360
_#_,240,4,0,350
_#_,240,2,0,350
_#_,238,2,2,510
_#_,236,4,4,570
_#_,236,2,0,430
_#_,234,2,2,400
_#_,232,8,8,1191
_#_,232,4,0,460
_#_,232,2,0,369
_#_,230,2,2,409
_#_,228,4,4,570
_#_,228,2,0,420
_#_,226,2,2,360
_#_,224,14,16,2770
_#_,224,8,0,460
_#_,224,4,0,360
_#_,224,2,0,350
_#_,222,2,2,340
_#_,220,4,4,490
_#_,220,2,0,440
_#_,218,2,2,340
_#_,216,6,8,900
_#_,216,4,0,430
_#_,216,2,0,350
_#_,214,2,2,300
_#_,212,2,4,360
_#_,210,30,30,9750
_#_,210,16,0,510
_#_,210,8,0,370
_#_,210,4,0,360
_#_,210,2,0,350
_#_,208,2,2,290
_#_,206,4,4,640
_#_,206,2,0,449
_#_,204,2,2,309
_#_,202,8,8,1210
_#_,202,4,0,410
_#_,202,2,0,360
_#_,200,2,2,300
_#_,198,4,4,570
_#_,198,2,0,440
_#_,196,2,2,280
_#_,194,14,16,2750
_#_,194,8,0,440
_#_,194,4,0,340
_#_,194,2,0,330
_#_,192,2,2,251
_#_,190,4,4,540
_#_,190,2,0,400
_#_,188,2,2,270
_#_,186,6,8,860
_#_,186,4,0,410
_#_,186,2,0,340
_#_,184,2,2,270
_#_,182,2,4,380
_#_,180,60,60,27520
_#_,180,30,0,640
_#_,180,16,0,400
_#_,180,8,0,360
_#_,180,4,0,351
_#_,180,2,0,340
_#_,178,2,2,320
_#_,176,4,4,440
_#_,176,2,0,440
_#_,174,2,2,300
_#_,172,8,8,880
_#_,172,4,0,420
_#_,172,2,0,350
_#_,170,2,2,310
_#_,168,4,4,429
_#_,168,2,0,429
_#_,166,2,2,329
_#_,164,14,16,2150
_#_,164,8,0,460
_#_,164,4,0,350
_#_,164,2,0,330
_#_,162,2,2,250
_#_,160,4,4,390
_#_,160,2,0,440
_#_,158,2,2,300
_#_,156,6,8,710
_#_,156,4,0,420
_#_,156,2,0,350
_#_,154,2,2,311
_#_,152,2,4,280
_#_,150,30,30,7270
_#_,150,16,0,520
_#_,150,8,0,360
_#_,150,4,0,340
_#_,150,2,0,340
_#_,148,2,2,260
_#_,146,4,4,480
_#_,146,2,0,430
_#_,144,2,2,230
_#_,142,8,8,989
_#_,142,4,0,440
_#_,142,2,0,351
_#_,140,2,2,260
_#_,138,4,4,540
_#_,138,2,0,400
_#_,136,2,2,250
_#_,134,14,16,2120
_#_,134,8,0,450
_#_,134,4,0,350
_#_,134,2,0,330
_#_,132,2,2,240
_#_,130,4,4,480
_#_,130,2,0,410
_#_,128,2,2,209
_#_,126,6,8,680
_#_,126,4,0,410
_#_,126,2,0,350
_#_,124,2,2,240
_#_,122,2,4,35__#_,120,_#_,120,221,1____#_,120,120,120,6806__#_,120,120,120,67819
_#_,120,120,120,67970
_#_,120,120,120,67600
_#_,120,60,0,900
_#_,120,30,0,420
_#_,120,16,0,360
_#_,120,8,0,350
_#_,120,4,0,360
_#_,120,2,0,360
_#_,118,2,2,370
_#_,116,4,4,420
_#_,116,2,0,420
_#_,114,2,2,260
_#_,112,8,8,660
_#_,112,4,0,460
_#_,112,2,0,350
_#_,110,2,2,260
_#_,108,4,4,380
_#_,108,2,0,440
_#_,106,2,2,330
_#_,104,14,16,1480
_#_,104,8,0,460
_#_,104,4,0,350
_#_,104,2,0,340
_#_,102,2,2,260
_#_,100,4,4,340
_#_,100,2,0,440
_#_,98,2,2,240
_#_,96,6,8,480
_#_,96,4,0,460
_#_,96,2,0,340
_#_,94,2,2,250
_#_,92,2,4,280
_#_,90,30,30,4840
_#_,90,16,0,509
_#_,90,8,0,360
_#_,90,4,0,331
_#_,90,2,0,340
_#_,88,2,2,251
_#_,86,4,4,440
_#_,86,2,0,450
_#_,84,2,2,230
_#_,82,8,8,700
_#_,82,4,0,430
_#_,82,2,0,340
_#_,80,2,2,200
_#_,78,4,4,450
_#_,78,2,0,500
_#_,76,2,2,209
_#_,74,14,16,1410
_#_,74,8,0,470
_#_,74,4,0,360
_#_,74,2,0,340
_#_,72,2,2,230
_#_,70,4,4,390
_#_,70,2,0,420
_#_,68,2,2,230
_#_,66,6,8,550
_#_,66,4,0,420
_#_,66,2,0,340
_#_,64,2,2,210
_#_,62,2,4,289
_#_,60,60,60,9260
_#_,60,30,0,540
_#_,60,16,0,380
_#_,60,8,0,350
_#_,60,4,0,340
_#_,60,2,0,350
_#_,58,2,2,280
_#_,56,4,4,310
_#_,56,2,0,410
_#_,54,2,2,250
_#_,52,8,8,420
_#_,52,4,0,420
_#_,52,2,0,340
_#_,50,2,2,220
_#_,48,4,4,240
_#_,48,2,0,420
_#_,46,2,2,220
_#_,44,14,16,720
_#_,44,8,0,430
_#_,44,4,0,360
_#_,44,2,0,340
_#_,42,2,2,210
_#_,40,4,4,250
_#_,40,2,0,420
_#_,38,2,2,220
_#_,36,6,8,349
_#_,36,4,0,420
_#_,36,2,0,349
_#_,34,2,2,210
_#_,32,2,4,210
_#_,30,30,30,2170
_#_,30,16,0,480
_#_,30,8,0,360
_#_,30,4,0,340
_#_,30,2,0,340
_#_,28,2,2,190
_#_,26,4,4,310
_#_,26,2,0,420
_#_,24,2,2,200
_#_,22,8,8,460
_#_,22,4,0,420
_#_,22,2,0,360
_#_,20,2,2,180
_#_,18,4,4,260
_#_,18,2,0,410
_#_,16,2,2,160
_#_,14,14,16,640
_#_,14,8,0,430
_#_,14,4,0,350
_#_,14,2,0,350
_#_,12,2,2,190
_#_,10,4,4,311
_#_,10,2,0,460
_#_,8,2,2,160
_#_,6,6,8,320
_#_,6,4,0,430
_#_,6,2,0,340
_#_,4,2,2,210
_#_,2,2,4,220

real	0m0.338s
user	0m0.104s
sys	0m0.152s
m0.334s
user	0m0
real	0m0.336s
user	0m0.
real	0m0.339s
user	0m0.113s
sys	0m0.152s
20,800
_#_,0,50,0,480
_#_,0,26,0,300
_#_,0,14,0,300
_#_,0,8,0,310
_#_,0,4,0,300
_#_,0,2,0,320
_#_,0,2,2,351
_#_,0,4,4,340
_#_,0,2,0,300
_#_,0,2,2,320
_#_,0,6,8,310
_#_,0,4,0,310
_#_,0,2,0,300
_#_,0,2,2,310
_#_,0,2,4,320
_#_,0,12,14,309
_#_,0,6,0,300
_#_,0,4,0,300
_#_,0,2,0,280
_#_,0,2,2,331
_#_,0,2,4,340
_#_,0,6,6,310
_#_,0,4,0,300
_#_,0,2,0,300
_#_,0,2,2,310
_#_,0,2,4,310
_#_,0,24,26,310
_#_,0,12,0,300
_#_,0,6,0,290
_#_,0,4,0,300
_#_,0,2,0,290
_#_,0,2,2,320
_#_,0,2,4,320
_#_,0,6,6,340
_#_,0,4,0,310
_#_,0,2,0,290
_#_,0,2,2,310
_#_,0,2,4,310
_#_,0,12,12,310
_#_,0,6,0,290
_#_,0,4,0,290
_#_,0,2,0,310
_#_,0,2,2,590
_#_,0,2,4,620
_#_,0,6,6,549
_#_,0,4,0,530
_#_,0,2,0,540
_#_,0,2,2,670
_#_,0,2,4,400
_#_,0,50,50,360
_#_,0,26,0,300
_#_,0,14,0,290
_#_,0,8,0,300
_#_,0,4,0,290
_#_,0,2,0,290
_#_,0,2,2,320
_#_,0,4,4,309
_#_,0,2,0,300
_#_,0,2,2,320
_#_,0,6,8,340
_#_,0,4,0,300
_#_,0,2,0,290
_#_,0,2,2,310
_#_,0,2,4,310
_#_,0,12,14,310
_#_,0,6,0,300
_#_,0,4,0,300
_#_,0,2,0,300
_#_,0,2,2,310
_#_,0,2,4,309
_#_,0,6,6,310
_#_,0,4,0,290
_#_,0,2,0,290
_#_,0,2,2,310
_#_,0,2,4,310
_#_,0,24,26,310
_#_,0,12,0,300
_#_,0,6,0,300
_#_,0,4,0,290
_#_,0,2,0,300
_#_,0,2,2,320
_#_,0,2,4,310
_#_,0,6,6,300
_#_,0,4,0,289
_#_,0,2,0,300
_#_,0,2,2,340
_#_,0,2,4,340
_#_,0,12,12,310
_#_,0,6,0,290
_#_,0,4,0,290
_#_,0,2,0,300
_#_,0,2,2,310
_#_,0,2,4,310
_#_,0,6,6,320
_#_,0,4,0,300
_#_,0,2,0,290
_#_,0,2,2,320
_#_,0,2,4,310
_#_,0,1,100,280

real	0m0.332s
user	0m0.108s
sys	0m0.161s
