magic, rank, use_smpi, time, delta, comment
#~#, 2, 1, 0.000001, 0.000001, Set initial model
#~#, 2, 1, 0.096560, 0.096559, After MPI_Init
#~#, 2, 1, 0.098502, 0.001942, After HPL_pdinfo
#~#, 2, 1, 0.099538, 0.001036, After HPL_grid_info
