================================================================================
HPLinpack 2.2  --  High-Performance Linpack benchmark  --   February 24, 2016
Written by A. Petitet and R. Clint Whaley,  Innovative Computing Laboratory, UTK
Modified by Piotr Luszczek, Innovative Computing Laboratory, UTK
Modified by Julien Langou, University of Colorado Denver
================================================================================

An explanation of the input/output parameters follows:
T/V    : Wall time / encoded variant.
N      : The order of the coefficient matrix A.
NB     : The partitioning blocking factor.
P      : The number of process rows.
Q      : The number of process columns.
Time   : Time in seconds to solve the linear system.
Gflops : Rate of execution for solving the linear system.

The following parameter values will be used:

N      :   15000 
NB     :     120 
PMAP   : Row-major process mapping
P      :       4 
Q      :       4 
PFACT  :    Left    Crout    Right 
NBMIN  :       2        4 
NDIV   :       2 
RFACT  :    Left    Crout    Right 
BCAST  :   1ring 
DEPTH  :       0 
SWAP   : Mix (threshold = 64)
L1     : transposed form
U      : transposed form
EQUIL  : yes
ALIGN  : 8 double precision words

--------------------------------------------------------------------------------

- The matrix A is randomly generated for each test.
- The following scaled residual check will be computed:
      ||Ax-b||_oo / ( eps * ( || x ||_oo * || A ||_oo + || b ||_oo ) * N )
- The relative machine precision (eps) is taken to be               1.110223e-16
- Computational tests pass if scaled residuals are less than                16.0

================================================================================
T/V                N    NB     P     Q               Time                 Gflops
--------------------------------------------------------------------------------
WR00L2L2       15000   120     4     4               4.23              5.314e+02
HPL_pdgesv() start time Thu Jun  9 12:58:49 2022

HPL_pdgesv() end time   Thu Jun  9 12:59:45 2022

--------------------------------------------------------------------------------
||Ax-b||_oo/(eps*(||A||_oo*||x||_oo+||b||_oo)*N)=        0.0036873 ...... PASSED
================================================================================
T/V                N    NB     P     Q               Time                 Gflops
--------------------------------------------------------------------------------
WR00L2L4       15000   120     4     4               4.23              5.317e+02
HPL_pdgesv() start time Thu Jun  9 12:59:52 2022

HPL_pdgesv() end time   Thu Jun  9 13:00:48 2022

--------------------------------------------------------------------------------
||Ax-b||_oo/(eps*(||A||_oo*||x||_oo+||b||_oo)*N)=        0.0039839 ...... PASSED
================================================================================
T/V                N    NB     P     Q               Time                 Gflops
--------------------------------------------------------------------------------
WR00L2C2       15000   120     4     4               4.24              5.309e+02
HPL_pdgesv() start time Thu Jun  9 13:00:54 2022

HPL_pdgesv() end time   Thu Jun  9 13:01:50 2022

--------------------------------------------------------------------------------
||Ax-b||_oo/(eps*(||A||_oo*||x||_oo+||b||_oo)*N)=        0.0036873 ...... PASSED
================================================================================
T/V                N    NB     P     Q               Time                 Gflops
--------------------------------------------------------------------------------
WR00L2C4       15000   120     4     4               4.23              5.321e+02
HPL_pdgesv() start time Thu Jun  9 13:01:56 2022

HPL_pdgesv() end time   Thu Jun  9 13:02:53 2022

--------------------------------------------------------------------------------
||Ax-b||_oo/(eps*(||A||_oo*||x||_oo+||b||_oo)*N)=        0.0039405 ...... PASSED
================================================================================
T/V                N    NB     P     Q               Time                 Gflops
--------------------------------------------------------------------------------
WR00L2R2       15000   120     4     4               4.23              5.316e+02
HPL_pdgesv() start time Thu Jun  9 13:02:59 2022

HPL_pdgesv() end time   Thu Jun  9 13:03:55 2022

--------------------------------------------------------------------------------
||Ax-b||_oo/(eps*(||A||_oo*||x||_oo+||b||_oo)*N)=        0.0036873 ...... PASSED
================================================================================
T/V                N    NB     P     Q               Time                 Gflops
--------------------------------------------------------------------------------
WR00L2R4       15000   120     4     4               4.23              5.326e+02
HPL_pdgesv() start time Thu Jun  9 13:04:01 2022

HPL_pdgesv() end time   Thu Jun  9 13:04:58 2022

--------------------------------------------------------------------------------
||Ax-b||_oo/(eps*(||A||_oo*||x||_oo+||b||_oo)*N)=        0.0041694 ...... PASSED
================================================================================
T/V                N    NB     P     Q               Time                 Gflops
--------------------------------------------------------------------------------
WR00C2L2       15000   120     4     4               4.25              5.293e+02
HPL_pdgesv() start time Thu Jun  9 13:05:04 2022

HPL_pdgesv() end time   Thu Jun  9 13:06:00 2022

--------------------------------------------------------------------------------
||Ax-b||_oo/(eps*(||A||_oo*||x||_oo+||b||_oo)*N)=        0.0036873 ...... PASSED
================================================================================
T/V                N    NB     P     Q               Time                 Gflops
--------------------------------------------------------------------------------
WR00C2L4       15000   120     4     4               4.22              5.333e+02
HPL_pdgesv() start time Thu Jun  9 13:06:06 2022

HPL_pdgesv() end time   Thu Jun  9 13:07:02 2022

--------------------------------------------------------------------------------
||Ax-b||_oo/(eps*(||A||_oo*||x||_oo+||b||_oo)*N)=        0.0039839 ...... PASSED
================================================================================
T/V                N    NB     P     Q               Time                 Gflops
--------------------------------------------------------------------------------
WR00C2C2       15000   120     4     4               4.25              5.301e+02
HPL_pdgesv() start time Thu Jun  9 13:07:09 2022

HPL_pdgesv() end time   Thu Jun  9 13:08:05 2022

--------------------------------------------------------------------------------
||Ax-b||_oo/(eps*(||A||_oo*||x||_oo+||b||_oo)*N)=        0.0036873 ...... PASSED
================================================================================
T/V                N    NB     P     Q               Time                 Gflops
--------------------------------------------------------------------------------
WR00C2C4       15000   120     4     4               4.23              5.317e+02
HPL_pdgesv() start time Thu Jun  9 13:08:11 2022

HPL_pdgesv() end time   Thu Jun  9 13:09:07 2022

--------------------------------------------------------------------------------
||Ax-b||_oo/(eps*(||A||_oo*||x||_oo+||b||_oo)*N)=        0.0039405 ...... PASSED
================================================================================
T/V                N    NB     P     Q               Time                 Gflops
--------------------------------------------------------------------------------
WR00C2R2       15000   120     4     4               4.24              5.305e+02
HPL_pdgesv() start time Thu Jun  9 13:09:14 2022

HPL_pdgesv() end time   Thu Jun  9 13:10:10 2022

--------------------------------------------------------------------------------
||Ax-b||_oo/(eps*(||A||_oo*||x||_oo+||b||_oo)*N)=        0.0036873 ...... PASSED
================================================================================
T/V                N    NB     P     Q               Time                 Gflops
--------------------------------------------------------------------------------
WR00C2R4       15000   120     4     4               4.23              5.316e+02
HPL_pdgesv() start time Thu Jun  9 13:10:16 2022

HPL_pdgesv() end time   Thu Jun  9 13:11:12 2022

--------------------------------------------------------------------------------
||Ax-b||_oo/(eps*(||A||_oo*||x||_oo+||b||_oo)*N)=        0.0041694 ...... PASSED
================================================================================
T/V                N    NB     P     Q               Time                 Gflops
--------------------------------------------------------------------------------
WR00R2L2       15000   120     4     4               4.23              5.319e+02
HPL_pdgesv() start time Thu Jun  9 13:11:19 2022

HPL_pdgesv() end time   Thu Jun  9 13:12:15 2022

--------------------------------------------------------------------------------
||Ax-b||_oo/(eps*(||A||_oo*||x||_oo+||b||_oo)*N)=        0.0036873 ...... PASSED
================================================================================
T/V                N    NB     P     Q               Time                 Gflops
--------------------------------------------------------------------------------
WR00R2L4       15000   120     4     4               4.22              5.328e+02
HPL_pdgesv() start time Thu Jun  9 13:12:21 2022

HPL_pdgesv() end time   Thu Jun  9 13:13:17 2022

--------------------------------------------------------------------------------
||Ax-b||_oo/(eps*(||A||_oo*||x||_oo+||b||_oo)*N)=        0.0039839 ...... PASSED
================================================================================
T/V                N    NB     P     Q               Time                 Gflops
--------------------------------------------------------------------------------
WR00R2C2       15000   120     4     4               4.24              5.304e+02
HPL_pdgesv() start time Thu Jun  9 13:13:24 2022

HPL_pdgesv() end time   Thu Jun  9 13:14:20 2022

--------------------------------------------------------------------------------
||Ax-b||_oo/(eps*(||A||_oo*||x||_oo+||b||_oo)*N)=        0.0036873 ...... PASSED
================================================================================
T/V                N    NB     P     Q               Time                 Gflops
--------------------------------------------------------------------------------
WR00R2C4       15000   120     4     4               4.22              5.327e+02
HPL_pdgesv() start time Thu Jun  9 13:14:26 2022

HPL_pdgesv() end time   Thu Jun  9 13:15:22 2022

--------------------------------------------------------------------------------
||Ax-b||_oo/(eps*(||A||_oo*||x||_oo+||b||_oo)*N)=        0.0039405 ...... PASSED
================================================================================
T/V                N    NB     P     Q               Time                 Gflops
--------------------------------------------------------------------------------
WR00R2R2       15000   120     4     4               4.25              5.297e+02
HPL_pdgesv() start time Thu Jun  9 13:15:28 2022

HPL_pdgesv() end time   Thu Jun  9 13:16:25 2022

--------------------------------------------------------------------------------
||Ax-b||_oo/(eps*(||A||_oo*||x||_oo+||b||_oo)*N)=        0.0036873 ...... PASSED
================================================================================
T/V                N    NB     P     Q               Time                 Gflops
--------------------------------------------------------------------------------
WR00R2R4       15000   120     4     4               4.23              5.321e+02
HPL_pdgesv() start time Thu Jun  9 13:16:31 2022

HPL_pdgesv() end time   Thu Jun  9 13:17:27 2022

--------------------------------------------------------------------------------
||Ax-b||_oo/(eps*(||A||_oo*||x||_oo+||b||_oo)*N)=        0.0041694 ...... PASSED
================================================================================

Finished     18 tests with the following results:
             18 tests completed and passed residual checks,
              0 tests completed and failed residual checks,
              0 tests skipped because of illegal input values.
--------------------------------------------------------------------------------

End of Tests.
================================================================================
