magic, rank, use_smpi, time, delta, comment
#~#, 1, 1, 0.000001, 0.000001, Set initial model
#~#, 1, 1, 0.104190, 0.104188, After MPI_Init
#~#, 1, 1, 0.105594, 0.001404, After HPL_pdinfo
#~#, 1, 1, 0.106711, 0.001117, After HPL_grid_info
