magic, rank, use_smpi, time, delta, comment
#~#, 12, 1, 0.000001, 0.000001, Set initial model
#~#, 12, 1, 0.102792, 0.102791, After MPI_Init
#~#, 12, 1, 0.105592, 0.002799, After HPL_pdinfo
#~#, 12, 1, 0.106719, 0.001127, After HPL_grid_info
