magic, rank, use_smpi, time, delta, comment
#~#, 0, 1, 0.000004, 0.000004, Initial setup
#~#, 0, 1, 0.235873, 0.235869, Before PDUpdate
#~#, 0, 1, 0.260375, 0.024502, After PDUpdate
#~#, 0, 1, 0.271534, 0.011159, Before PDUpdate
#~#, 0, 1, 0.296252, 0.024718, After PDUpdate
#~#, 0, 1, 0.305589, 0.009337, Before PDUpdate
#~#, 0, 1, 0.329836, 0.024247, After PDUpdate
#~#, 0, 1, 0.337570, 0.007734, Before PDUpdate
#~#, 0, 1, 0.358521, 0.020951, After PDUpdate
#~#, 0, 1, 0.368531, 0.010010, Before PDUpdate
#~#, 0, 1, 0.389040, 0.020509, After PDUpdate
#~#, 0, 1, 0.399134, 0.010094, Before PDUpdate
#~#, 0, 1, 0.419626, 0.020492, After PDUpdate
#~#, 0, 1, 0.427281, 0.007655, Before PDUpdate
#~#, 0, 1, 0.445105, 0.017824, After PDUpdate
#~#, 0, 1, 0.455175, 0.010070, Before PDUpdate
#~#, 0, 1, 0.472464, 0.017289, After PDUpdate
#~#, 0, 1, 0.482206, 0.009741, Before PDUpdate
#~#, 0, 1, 0.500154, 0.017948, After PDUpdate
#~#, 0, 1, 0.507885, 0.007732, Before PDUpdate
#~#, 0, 1, 0.523080, 0.015195, After PDUpdate
#~#, 0, 1, 0.533065, 0.009984, Before PDUpdate
#~#, 0, 1, 0.548053, 0.014988, After PDUpdate
#~#, 0, 1, 0.556481, 0.008428, Before PDUpdate
#~#, 0, 1, 0.571230, 0.014749, After PDUpdate
#~#, 0, 1, 0.578435, 0.007205, Before PDUpdate
#~#, 0, 1, 0.591082, 0.012647, After PDUpdate
#~#, 0, 1, 0.600420, 0.009338, Before PDUpdate
#~#, 0, 1, 0.612966, 0.012546, After PDUpdate
#~#, 0, 1, 0.621859, 0.008892, Before PDUpdate
#~#, 0, 1, 0.634119, 0.012260, After PDUpdate
#~#, 0, 1, 0.640875, 0.006756, Before PDUpdate
#~#, 0, 1, 0.651908, 0.011033, After PDUpdate
#~#, 0, 1, 0.660281, 0.008373, Before PDUpdate
#~#, 0, 1, 0.670436, 0.010154, After PDUpdate
#~#, 0, 1, 0.679517, 0.009081, Before PDUpdate
#~#, 0, 1, 0.689374, 0.009857, After PDUpdate
#~#, 0, 1, 0.696874, 0.007500, Before PDUpdate
#~#, 0, 1, 0.705649, 0.008775, After PDUpdate
#~#, 0, 1, 0.714476, 0.008827, Before PDUpdate
#~#, 0, 1, 0.722448, 0.007972, After PDUpdate
#~#, 0, 1, 0.731047, 0.008598, Before PDUpdate
#~#, 0, 1, 0.738863, 0.007817, After PDUpdate
#~#, 0, 1, 0.746280, 0.007416, Before PDUpdate
#~#, 0, 1, 0.752663, 0.006384, After PDUpdate
#~#, 0, 1, 0.761393, 0.008730, Before PDUpdate
#~#, 0, 1, 0.767686, 0.006292, After PDUpdate
#~#, 0, 1, 0.775700, 0.008014, Before PDUpdate
#~#, 0, 1, 0.781897, 0.006198, After PDUpdate
#~#, 0, 1, 0.788956, 0.007059, Before PDUpdate
#~#, 0, 1, 0.793762, 0.004806, After PDUpdate
#~#, 0, 1, 0.802041, 0.008278, Before PDUpdate
#~#, 0, 1, 0.806699, 0.004658, After PDUpdate
#~#, 0, 1, 0.814331, 0.007632, Before PDUpdate
#~#, 0, 1, 0.818967, 0.004636, After PDUpdate
#~#, 0, 1, 0.825579, 0.006612, Before PDUpdate
#~#, 0, 1, 0.828975, 0.003397, After PDUpdate
#~#, 0, 1, 0.836714, 0.007738, Before PDUpdate
#~#, 0, 1, 0.839853, 0.003139, After PDUpdate
#~#, 0, 1, 0.847061, 0.007209, Before PDUpdate
#~#, 0, 1, 0.850198, 0.003137, After PDUpdate
#~#, 0, 1, 0.856556, 0.006358, Before PDUpdate
#~#, 0, 1, 0.858668, 0.002112, After PDUpdate
#~#, 0, 1, 0.865973, 0.007305, Before PDUpdate
#~#, 0, 1, 0.868032, 0.002059, After PDUpdate
#~#, 0, 1, 0.875160, 0.007128, Before PDUpdate
#~#, 0, 1, 0.877117, 0.001956, After PDUpdate
#~#, 0, 1, 0.883406, 0.006289, Before PDUpdate
#~#, 0, 1, 0.884655, 0.001248, After PDUpdate
#~#, 0, 1, 0.891658, 0.007004, Before PDUpdate
#~#, 0, 1, 0.892930, 0.001271, After PDUpdate
#~#, 0, 1, 0.900129, 0.007200, Before PDUpdate
#~#, 0, 1, 0.901194, 0.001065, After PDUpdate
#~#, 0, 1, 0.907307, 0.006113, Before PDUpdate
#~#, 0, 1, 0.907851, 0.000544, After PDUpdate
#~#, 0, 1, 0.914752, 0.006902, Before PDUpdate
#~#, 0, 1, 0.915152, 0.000400, After PDUpdate
#~#, 0, 1, 0.921567, 0.006415, Before PDUpdate
#~#, 0, 1, 0.922039, 0.000472, After PDUpdate
#~#, 0, 1, 0.927741, 0.005702, Before PDUpdate
#~#, 0, 1, 0.927742, 0.000001, After PDUpdate
#~#, 0, 1, 0.933673, 0.005932, Before PDUpdate
#~#, 0, 1, 0.933674, 0.000001, After PDUpdate
#~#, 0, 1, 0.937503, 0.003829, Before PDUpdate
#~#, 0, 1, 0.937503, 0.000000, After PDUpdate
