magic, rank, use_smpi, time, delta, comment
#~#, 15, 0, 0.000001, 0.000001, Set initial model
#~#, 15, 0, 0.101357, 0.101356, After MPI_Init
#~#, 15, 0, 0.104099, 0.002742, After HPL_pdinfo
#~#, 15, 0, 0.104996, 0.000896, After HPL_grid_info
