magic, rank, use_smpi, time, delta, comment
#~#, 9, 0, 0.000001, 0.000001, Set initial model
#~#, 9, 0, 0.102806, 0.102804, After MPI_Init
#~#, 9, 0, 0.104073, 0.001267, After HPL_pdinfo
#~#, 9, 0, 0.104990, 0.000917, After HPL_grid_info
