[0.000000] [xbt_cfg/INFO] Configuration change: Set 'smpi/cpu-threshold' to '1e-8'
[0.000000] [xbt_cfg/INFO] Configuration change: Set 'smpi/host-speed' to '10000Mf'
[0.000000] [xbt_cfg/INFO] Configuration change: Set 'surf/precision' to '1e-9'
[0.000000] [xbt_cfg/INFO] Configuration change: Set 'network/loopback-lat' to '0'
[0.000000] [xbt_cfg/INFO] Configuration change: Set 'network/loopback-bw' to '999e9'
[0.000000] [xbt_cfg/INFO] Configuration change: Set 'network/model' to 'CM02'
[0.000000] [xbt_cfg/INFO] Configuration change: Set 'smpi/coll-selector' to 'ompi'
[0.000000] [xbt_cfg/INFO] Configuration change: Set 'smpi/host-speed' to '10000.000000Mf'
[0.000000] [xbt_cfg/INFO] Configuration change: Set 'smpi/cpu-threshold' to '0.000000'
[0.000000] [xbt_cfg/INFO] Configuration change: Set 'smpi/simulate-computation' to 'yes'
[0.000000] [smpi_coll/INFO] Switch to algorithm ompi for collective gather
[0.000000] [smpi_coll/INFO] Switch to algorithm ompi for collective allgather
[0.000000] [smpi_coll/INFO] Switch to algorithm ompi for collective allgatherv
[0.000000] [smpi_coll/INFO] Switch to algorithm ompi for collective allreduce
[0.000000] [smpi_coll/INFO] Switch to algorithm ompi for collective alltoall
[0.000000] [smpi_coll/INFO] Switch to algorithm ompi for collective alltoallv
[0.000000] [smpi_coll/INFO] Switch to algorithm ompi for collective reduce
[0.000000] [smpi_coll/INFO] Switch to algorithm ompi for collective reduce_scatter
[0.000000] [smpi_coll/INFO] Switch to algorithm ompi for collective scatter
[0.000000] [smpi_coll/INFO] Switch to algorithm ompi for collective bcast
[0.000000] [smpi_coll/INFO] Switch to algorithm ompi for collective barrier
[0.000000] [smpi_coll/INFO] Switch to algorithm ompi for collective gather
[0.000000] [smpi_coll/INFO] Switch to algorithm ompi for collective allgather
[0.000000] [smpi_coll/INFO] Switch to algorithm ompi for collective allgatherv
[0.000000] [smpi_coll/INFO] Switch to algorithm ompi for collective allreduce
[0.000000] [smpi_coll/INFO] Switch to algorithm ompi for collective alltoall
[0.000000] [smpi_coll/INFO] Switch to algorithm ompi for collective alltoallv
[0.000000] [smpi_coll/INFO] Switch to algorithm ompi for collective reduce
[0.000000] [smpi_coll/INFO] Switch to algorithm ompi for collective reduce_scatter
[0.000000] [smpi_coll/INFO] Switch to algorithm ompi for collective scatter
[0.000000] [smpi_coll/INFO] Switch to algorithm ompi for collective bcast
[0.000000] [smpi_coll/INFO] Switch to algorithm ompi for collective barrier
[amour1_CPU0:user_app:(1) 0.000000] [s4bxi_main_actor/INFO] Setup with nid = 1, model_pci = 1 ; e2e_off = 0
[amour1_CPU1:user_app:(2) 0.000000] [s4bxi_main_actor/INFO] Setup with nid = 1, model_pci = 1 ; e2e_off = 0
[amour1_CPU2:user_app:(3) 0.000000] [s4bxi_main_actor/INFO] Setup with nid = 1, model_pci = 1 ; e2e_off = 0
[amour1_CPU3:user_app:(4) 0.000000] [s4bxi_main_actor/INFO] Setup with nid = 1, model_pci = 1 ; e2e_off = 0
[amour1_CPU4:user_app:(5) 0.000000] [s4bxi_main_actor/INFO] Setup with nid = 1, model_pci = 1 ; e2e_off = 0
[amour2_CPU0:user_app:(11) 0.000000] [s4bxi_main_actor/INFO] Setup with nid = 2, model_pci = 1 ; e2e_off = 0
[amour2_CPU1:user_app:(12) 0.000000] [s4bxi_main_actor/INFO] Setup with nid = 2, model_pci = 1 ; e2e_off = 0
[amour2_CPU2:user_app:(13) 0.000000] [s4bxi_main_actor/INFO] Setup with nid = 2, model_pci = 1 ; e2e_off = 0
[amour2_CPU3:user_app:(14) 0.000000] [s4bxi_main_actor/INFO] Setup with nid = 2, model_pci = 1 ; e2e_off = 0
[amour2_CPU4:user_app:(15) 0.000000] [s4bxi_main_actor/INFO] Setup with nid = 2, model_pci = 1 ; e2e_off = 0
[amour3_CPU0:user_app:(21) 0.000000] [s4bxi_main_actor/INFO] Setup with nid = 3, model_pci = 1 ; e2e_off = 0
[amour3_CPU1:user_app:(22) 0.000000] [s4bxi_main_actor/INFO] Setup with nid = 3, model_pci = 1 ; e2e_off = 0
[amour3_CPU2:user_app:(23) 0.000000] [s4bxi_main_actor/INFO] Setup with nid = 3, model_pci = 1 ; e2e_off = 0
[amour3_CPU3:user_app:(24) 0.000000] [s4bxi_main_actor/INFO] Setup with nid = 3, model_pci = 1 ; e2e_off = 0
[amour3_CPU4:user_app:(25) 0.000000] [s4bxi_main_actor/INFO] Setup with nid = 3, model_pci = 1 ; e2e_off = 0
[amour4_CPU0:user_app:(31) 0.000000] [s4bxi_main_actor/INFO] Setup with nid = 4, model_pci = 1 ; e2e_off = 0
[amour4_CPU1:user_app:(32) 0.000000] [s4bxi_main_actor/INFO] Setup with nid = 4, model_pci = 1 ; e2e_off = 0
[amour4_CPU2:user_app:(33) 0.000000] [s4bxi_main_actor/INFO] Setup with nid = 4, model_pci = 1 ; e2e_off = 0
[amour4_CPU3:user_app:(34) 0.000000] [s4bxi_main_actor/INFO] Setup with nid = 4, model_pci = 1 ; e2e_off = 0
[amour4_CPU4:user_app:(35) 0.000000] [s4bxi_main_actor/INFO] Setup with nid = 4, model_pci = 1 ; e2e_off = 0
[amour5_CPU0:user_app:(41) 0.000000] [s4bxi_main_actor/INFO] Setup with nid = 5, model_pci = 1 ; e2e_off = 0
[amour5_CPU1:user_app:(42) 0.000000] [s4bxi_main_actor/INFO] Setup with nid = 5, model_pci = 1 ; e2e_off = 0
[amour5_CPU2:user_app:(43) 0.000000] [s4bxi_main_actor/INFO] Setup with nid = 5, model_pci = 1 ; e2e_off = 0
[amour5_CPU3:user_app:(44) 0.000000] [s4bxi_main_actor/INFO] Setup with nid = 5, model_pci = 1 ; e2e_off = 0
[amour5_CPU4:user_app:(45) 0.000000] [s4bxi_main_actor/INFO] Setup with nid = 5, model_pci = 1 ; e2e_off = 0
[amour6_CPU0:user_app:(51) 0.000000] [s4bxi_main_actor/INFO] Setup with nid = 6, model_pci = 1 ; e2e_off = 0
[amour6_CPU1:user_app:(52) 0.000000] [s4bxi_main_actor/INFO] Setup with nid = 6, model_pci = 1 ; e2e_off = 0
[amour6_CPU2:user_app:(53) 0.000000] [s4bxi_main_actor/INFO] Setup with nid = 6, model_pci = 1 ; e2e_off = 0
[amour6_CPU3:user_app:(54) 0.000000] [s4bxi_main_actor/INFO] Setup with nid = 6, model_pci = 1 ; e2e_off = 0
[amour6_CPU4:user_app:(55) 0.000000] [s4bxi_main_actor/INFO] Setup with nid = 6, model_pci = 1 ; e2e_off = 0
[amour7_CPU0:user_app:(61) 0.000000] [s4bxi_main_actor/INFO] Setup with nid = 7, model_pci = 1 ; e2e_off = 0
[amour7_CPU1:user_app:(62) 0.000000] [s4bxi_main_actor/INFO] Setup with nid = 7, model_pci = 1 ; e2e_off = 0
[amour7_CPU2:user_app:(63) 0.000000] [s4bxi_main_actor/INFO] Setup with nid = 7, model_pci = 1 ; e2e_off = 0
[amour7_CPU3:user_app:(64) 0.000000] [s4bxi_main_actor/INFO] Setup with nid = 7, model_pci = 1 ; e2e_off = 0
[amour7_CPU4:user_app:(65) 0.000000] [s4bxi_main_actor/INFO] Setup with nid = 7, model_pci = 1 ; e2e_off = 0
[amour8_CPU0:user_app:(71) 0.000000] [s4bxi_main_actor/INFO] Setup with nid = 8, model_pci = 1 ; e2e_off = 0
[amour8_CPU1:user_app:(72) 0.000000] [s4bxi_main_actor/INFO] Setup with nid = 8, model_pci = 1 ; e2e_off = 0
[amour8_CPU2:user_app:(73) 0.000000] [s4bxi_main_actor/INFO] Setup with nid = 8, model_pci = 1 ; e2e_off = 0
[amour8_CPU3:user_app:(74) 0.000000] [s4bxi_main_actor/INFO] Setup with nid = 8, model_pci = 1 ; e2e_off = 0
[amour8_CPU4:user_app:(75) 0.000000] [s4bxi_main_actor/INFO] Setup with nid = 8, model_pci = 1 ; e2e_off = 0
[amour9_CPU0:user_app:(81) 0.000000] [s4bxi_main_actor/INFO] Setup with nid = 9, model_pci = 1 ; e2e_off = 0
[amour9_CPU1:user_app:(82) 0.000000] [s4bxi_main_actor/INFO] Setup with nid = 9, model_pci = 1 ; e2e_off = 0
[amour9_CPU2:user_app:(83) 0.000000] [s4bxi_main_actor/INFO] Setup with nid = 9, model_pci = 1 ; e2e_off = 0
[amour9_CPU3:user_app:(84) 0.000000] [s4bxi_main_actor/INFO] Setup with nid = 9, model_pci = 1 ; e2e_off = 0
[amour9_CPU4:user_app:(85) 0.000000] [s4bxi_main_actor/INFO] Setup with nid = 9, model_pci = 1 ; e2e_off = 0
[amour10_CPU0:user_app:(91) 0.000000] [s4bxi_main_actor/INFO] Setup with nid = 10, model_pci = 1 ; e2e_off = 0
[amour10_CPU1:user_app:(92) 0.000000] [s4bxi_main_actor/INFO] Setup with nid = 10, model_pci = 1 ; e2e_off = 0
[amour10_CPU2:user_app:(93) 0.000000] [s4bxi_main_actor/INFO] Setup with nid = 10, model_pci = 1 ; e2e_off = 0
[amour10_CPU3:user_app:(94) 0.000000] [s4bxi_main_actor/INFO] Setup with nid = 10, model_pci = 1 ; e2e_off = 0
[amour10_CPU4:user_app:(95) 0.000000] [s4bxi_main_actor/INFO] Setup with nid = 10, model_pci = 1 ; e2e_off = 0
[amour1_CPU0:user_app:(1) 0.000000] [user_app/INFO] Init rank 0 ; local_rank 0
[amour1_CPU1:user_app:(2) 0.000000] [user_app/INFO] Init rank 1 ; local_rank 1
[amour1_CPU2:user_app:(3) 0.000000] [user_app/INFO] Init rank 2 ; local_rank 2
[amour1_CPU3:user_app:(4) 0.000000] [user_app/INFO] Init rank 3 ; local_rank 3
[amour1_CPU4:user_app:(5) 0.000000] [user_app/INFO] Init rank 4 ; local_rank 4
[amour2_CPU0:user_app:(11) 0.000000] [user_app/INFO] Init rank 5 ; local_rank 0
[amour2_CPU1:user_app:(12) 0.000000] [user_app/INFO] Init rank 6 ; local_rank 1
[amour2_CPU2:user_app:(13) 0.000000] [user_app/INFO] Init rank 7 ; local_rank 2
[amour2_CPU3:user_app:(14) 0.000000] [user_app/INFO] Init rank 8 ; local_rank 3
[amour2_CPU4:user_app:(15) 0.000000] [user_app/INFO] Init rank 9 ; local_rank 4
[amour3_CPU0:user_app:(21) 0.000000] [user_app/INFO] Init rank 10 ; local_rank 0
[amour3_CPU1:user_app:(22) 0.000000] [user_app/INFO] Init rank 11 ; local_rank 1
[amour3_CPU2:user_app:(23) 0.000000] [user_app/INFO] Init rank 12 ; local_rank 2
[amour3_CPU3:user_app:(24) 0.000000] [user_app/INFO] Init rank 13 ; local_rank 3
[amour3_CPU4:user_app:(25) 0.000000] [user_app/INFO] Init rank 14 ; local_rank 4
[amour4_CPU0:user_app:(31) 0.000000] [user_app/INFO] Init rank 15 ; local_rank 0
[amour4_CPU1:user_app:(32) 0.000000] [user_app/INFO] Init rank 16 ; local_rank 1
[amour4_CPU2:user_app:(33) 0.000000] [user_app/INFO] Init rank 17 ; local_rank 2
[amour4_CPU3:user_app:(34) 0.000000] [user_app/INFO] Init rank 18 ; local_rank 3
[amour4_CPU4:user_app:(35) 0.000000] [user_app/INFO] Init rank 19 ; local_rank 4
[amour5_CPU0:user_app:(41) 0.000000] [user_app/INFO] Init rank 20 ; local_rank 0
[amour5_CPU1:user_app:(42) 0.000000] [user_app/INFO] Init rank 21 ; local_rank 1
[amour5_CPU2:user_app:(43) 0.000000] [user_app/INFO] Init rank 22 ; local_rank 2
[amour5_CPU3:user_app:(44) 0.000000] [user_app/INFO] Init rank 23 ; local_rank 3
[amour5_CPU4:user_app:(45) 0.000000] [user_app/INFO] Init rank 24 ; local_rank 4
[amour6_CPU0:user_app:(51) 0.000000] [user_app/INFO] Init rank 25 ; local_rank 0
[amour6_CPU1:user_app:(52) 0.000000] [user_app/INFO] Init rank 26 ; local_rank 1
[amour6_CPU2:user_app:(53) 0.000000] [user_app/INFO] Init rank 27 ; local_rank 2
[amour6_CPU3:user_app:(54) 0.000000] [user_app/INFO] Init rank 28 ; local_rank 3
[amour6_CPU4:user_app:(55) 0.000000] [user_app/INFO] Init rank 29 ; local_rank 4
[amour7_CPU0:user_app:(61) 0.000000] [user_app/INFO] Init rank 30 ; local_rank 0
[amour7_CPU1:user_app:(62) 0.000000] [user_app/INFO] Init rank 31 ; local_rank 1
[amour7_CPU2:user_app:(63) 0.000000] [user_app/INFO] Init rank 32 ; local_rank 2
[amour7_CPU3:user_app:(64) 0.000000] [user_app/INFO] Init rank 33 ; local_rank 3
[amour7_CPU4:user_app:(65) 0.000000] [user_app/INFO] Init rank 34 ; local_rank 4
[amour8_CPU0:user_app:(71) 0.000000] [user_app/INFO] Init rank 35 ; local_rank 0
[amour8_CPU1:user_app:(72) 0.000000] [user_app/INFO] Init rank 36 ; local_rank 1
[amour8_CPU2:user_app:(73) 0.000000] [user_app/INFO] Init rank 37 ; local_rank 2
[amour8_CPU3:user_app:(74) 0.000000] [user_app/INFO] Init rank 38 ; local_rank 3
[amour8_CPU4:user_app:(75) 0.000000] [user_app/INFO] Init rank 39 ; local_rank 4
[amour9_CPU0:user_app:(81) 0.000000] [user_app/INFO] Init rank 40 ; local_rank 0
[amour9_CPU1:user_app:(82) 0.000000] [user_app/INFO] Init rank 41 ; local_rank 1
[amour9_CPU2:user_app:(83) 0.000000] [user_app/INFO] Init rank 42 ; local_rank 2
[amour9_CPU3:user_app:(84) 0.000000] [user_app/INFO] Init rank 43 ; local_rank 3
[amour9_CPU4:user_app:(85) 0.000000] [user_app/INFO] Init rank 44 ; local_rank 4
[amour10_CPU0:user_app:(91) 0.000000] [user_app/INFO] Init rank 45 ; local_rank 0
[amour10_CPU1:user_app:(92) 0.000000] [user_app/INFO] Init rank 46 ; local_rank 1
[amour10_CPU2:user_app:(93) 0.000000] [user_app/INFO] Init rank 47 ; local_rank 2
[amour10_CPU3:user_app:(94) 0.000000] [user_app/INFO] Init rank 48 ; local_rank 3
[amour10_CPU4:user_app:(95) 0.000000] [user_app/INFO] Init rank 49 ; local_rank 4
[amour1_NIC:nic_e2e:(10) 0.000000] [s4bxi_nic_e2e/INFO] E2E was configured with timeout = 10.000000 and retries = 5
[amour2_NIC:nic_e2e:(20) 0.000000] [s4bxi_nic_e2e/INFO] E2E was configured with timeout = 10.000000 and retries = 5
[amour3_NIC:nic_e2e:(30) 0.000000] [s4bxi_nic_e2e/INFO] E2E was configured with timeout = 10.000000 and retries = 5
[amour4_NIC:nic_e2e:(40) 0.000000] [s4bxi_nic_e2e/INFO] E2E was configured with timeout = 10.000000 and retries = 5
[amour5_NIC:nic_e2e:(50) 0.000000] [s4bxi_nic_e2e/INFO] E2E was configured with timeout = 10.000000 and retries = 5
[amour6_NIC:nic_e2e:(60) 0.000000] [s4bxi_nic_e2e/INFO] E2E was configured with timeout = 10.000000 and retries = 5
[amour7_NIC:nic_e2e:(70) 0.000000] [s4bxi_nic_e2e/INFO] E2E was configured with timeout = 10.000000 and retries = 5
[amour8_NIC:nic_e2e:(80) 0.000000] [s4bxi_nic_e2e/INFO] E2E was configured with timeout = 10.000000 and retries = 5
[amour9_NIC:nic_e2e:(90) 0.000000] [s4bxi_nic_e2e/INFO] E2E was configured with timeout = 10.000000 and retries = 5
[amour10_NIC:nic_e2e:(100) 0.000000] [s4bxi_nic_e2e/INFO] E2E was configured with timeout = 10.000000 and retries = 5
[amour1_CPU0:user_app:(1) 0.000000] [user_app/INFO] Extracting symbols from Bull lib 0x259fac0 (mowsNW0so.40) and SMPI lib 0x7f8f42bf0850
[amour1_CPU1:user_app:(2) 0.000000] [user_app/INFO] Extracting symbols from Bull lib 0x25a3ee0 (mowsNW1so.40) and SMPI lib 0x7f8f42bf0850
[amour1_CPU2:user_app:(3) 0.000000] [user_app/INFO] Extracting symbols from Bull lib 0x25a6780 (mowsNW2so.40) and SMPI lib 0x7f8f42bf0850
[amour1_CPU3:user_app:(4) 0.000000] [user_app/INFO] Extracting symbols from Bull lib 0x25a8f80 (mowsNW3so.40) and SMPI lib 0x7f8f42bf0850
[amour1_CPU4:user_app:(5) 0.000000] [user_app/INFO] Extracting symbols from Bull lib 0x25ab8d0 (mowsNW4so.40) and SMPI lib 0x7f8f42bf0850
[amour2_CPU0:user_app:(11) 0.000000] [user_app/INFO] Extracting symbols from Bull lib 0x25ae270 (mowsNW5so.40) and SMPI lib 0x7f8f42bf0850
[amour2_CPU1:user_app:(12) 0.000000] [user_app/INFO] Extracting symbols from Bull lib 0x25b0bd0 (mowsNW6so.40) and SMPI lib 0x7f8f42bf0850
[amour2_CPU2:user_app:(13) 0.000000] [user_app/INFO] Extracting symbols from Bull lib 0x25b35c0 (mowsNW7so.40) and SMPI lib 0x7f8f42bf0850
[amour2_CPU3:user_app:(14) 0.000000] [user_app/INFO] Extracting symbols from Bull lib 0x25b61e0 (mowsNW8so.40) and SMPI lib 0x7f8f42bf0850
[amour2_CPU4:user_app:(15) 0.000000] [user_app/INFO] Extracting symbols from Bull lib 0x25b8bc0 (mowsNW9so.40) and SMPI lib 0x7f8f42bf0850
[amour3_CPU0:user_app:(21) 0.000000] [user_app/INFO] Extracting symbols from Bull lib 0x25bb5e0 (mowsN10so.40) and SMPI lib 0x7f8f42bf0850
[amour3_CPU1:user_app:(22) 0.000000] [user_app/INFO] Extracting symbols from Bull lib 0x25be050 (mowsN11so.40) and SMPI lib 0x7f8f42bf0850
[amour3_CPU2:user_app:(23) 0.000000] [user_app/INFO] Extracting symbols from Bull lib 0x25c0ac0 (mowsN12so.40) and SMPI lib 0x7f8f42bf0850
[amour3_CPU3:user_app:(24) 0.000000] [user_app/INFO] Extracting symbols from Bull lib 0x25c3530 (mowsN13so.40) and SMPI lib 0x7f8f42bf0850
[amour3_CPU4:user_app:(25) 0.000000] [user_app/INFO] Extracting symbols from Bull lib 0x25c5fa0 (mowsN14so.40) and SMPI lib 0x7f8f42bf0850
[amour4_CPU0:user_app:(31) 0.000000] [user_app/INFO] Extracting symbols from Bull lib 0x25c8ad0 (mowsN15so.40) and SMPI lib 0x7f8f42bf0850
[amour4_CPU1:user_app:(32) 0.000000] [user_app/INFO] Extracting symbols from Bull lib 0x25cbb70 (mowsN16so.40) and SMPI lib 0x7f8f42bf0850
[amour4_CPU2:user_app:(33) 0.000000] [user_app/INFO] Extracting symbols from Bull lib 0x25ce5e0 (mowsN17so.40) and SMPI lib 0x7f8f42bf0850
[amour4_CPU3:user_app:(34) 0.000000] [user_app/INFO] Extracting symbols from Bull lib 0x25d1050 (mowsN18so.40) and SMPI lib 0x7f8f42bf0850
[amour4_CPU4:user_app:(35) 0.000000] [user_app/INFO] Extracting symbols from Bull lib 0x25d3ac0 (mowsN19so.40) and SMPI lib 0x7f8f42bf0850
[amour5_CPU0:user_app:(41) 0.000000] [user_app/INFO] Extracting symbols from Bull lib 0x25d6870 (mowsN20so.40) and SMPI lib 0x7f8f42bf0850
[amour5_CPU1:user_app:(42) 0.000000] [user_app/INFO] Extracting symbols from Bull lib 0x25d92e0 (mowsN21so.40) and SMPI lib 0x7f8f42bf0850
[amour5_CPU2:user_app:(43) 0.000000] [user_app/INFO] Extracting symbols from Bull lib 0x25dbd50 (mowsN22so.40) and SMPI lib 0x7f8f42bf0850
[amour5_CPU3:user_app:(44) 0.000000] [user_app/INFO] Extracting symbols from Bull lib 0x25de7c0 (mowsN23so.40) and SMPI lib 0x7f8f42bf0850
[amour5_CPU4:user_app:(45) 0.000000] [user_app/INFO] Extracting symbols from Bull lib 0x25e1230 (mowsN24so.40) and SMPI lib 0x7f8f42bf0850
[amour6_CPU0:user_app:(51) 0.000000] [user_app/INFO] Extracting symbols from Bull lib 0x25e3fe0 (mowsN25so.40) and SMPI lib 0x7f8f42bf0850
[amour6_CPU1:user_app:(52) 0.000000] [user_app/INFO] Extracting symbols from Bull lib 0x25e6a50 (mowsN26so.40) and SMPI lib 0x7f8f42bf0850
[amour6_CPU2:user_app:(53) 0.000000] [user_app/INFO] Extracting symbols from Bull lib 0x25e94c0 (mowsN27so.40) and SMPI lib 0x7f8f42bf0850
[amour6_CPU3:user_app:(54) 0.000000] [user_app/INFO] Extracting symbols from Bull lib 0x25ebf30 (mowsN28so.40) and SMPI lib 0x7f8f42bf0850
[amour6_CPU4:user_app:(55) 0.000000] [user_app/INFO] Extracting symbols from Bull lib 0x25ee9a0 (mowsN29so.40) and SMPI lib 0x7f8f42bf0850
[amour7_CPU0:user_app:(61) 0.000000] [user_app/INFO] Extracting symbols from Bull lib 0x25f1750 (mowsN30so.40) and SMPI lib 0x7f8f42bf0850
[amour7_CPU1:user_app:(62) 0.000000] [user_app/INFO] Extracting symbols from Bull lib 0x25f43d0 (mowsN31so.40) and SMPI lib 0x7f8f42bf0850
[amour7_CPU2:user_app:(63) 0.000000] [user_app/INFO] Extracting symbols from Bull lib 0x25f7a70 (mowsN32so.40) and SMPI lib 0x7f8f42bf0850
[amour7_CPU3:user_app:(64) 0.000000] [user_app/INFO] Extracting symbols from Bull lib 0x25fa4e0 (mowsN33so.40) and SMPI lib 0x7f8f42bf0850
[amour7_CPU4:user_app:(65) 0.000000] [user_app/INFO] Extracting symbols from Bull lib 0x25fcf50 (mowsN34so.40) and SMPI lib 0x7f8f42bf0850
[amour8_CPU0:user_app:(71) 0.000000] [user_app/INFO] Extracting symbols from Bull lib 0x25ffd00 (mowsN35so.40) and SMPI lib 0x7f8f42bf0850
[amour8_CPU1:user_app:(72) 0.000000] [user_app/INFO] Extracting symbols from Bull lib 0x2602770 (mowsN36so.40) and SMPI lib 0x7f8f42bf0850
[amour8_CPU2:user_app:(73) 0.000000] [user_app/INFO] Extracting symbols from Bull lib 0x26051e0 (mowsN37so.40) and SMPI lib 0x7f8f42bf0850
[amour8_CPU3:user_app:(74) 0.000000] [user_app/INFO] Extracting symbols from Bull lib 0x2607c50 (mowsN38so.40) and SMPI lib 0x7f8f42bf0850
[amour8_CPU4:user_app:(75) 0.000000] [user_app/INFO] Extracting symbols from Bull lib 0x260a6c0 (mowsN39so.40) and SMPI lib 0x7f8f42bf0850
[amour9_CPU0:user_app:(81) 0.000000] [user_app/INFO] Extracting symbols from Bull lib 0x260d470 (mowsN40so.40) and SMPI lib 0x7f8f42bf0850
[amour9_CPU1:user_app:(82) 0.000000] [user_app/INFO] Extracting symbols from Bull lib 0x260fee0 (mowsN41so.40) and SMPI lib 0x7f8f42bf0850
[amour9_CPU2:user_app:(83) 0.000000] [user_app/INFO] Extracting symbols from Bull lib 0x2612950 (mowsN42so.40) and SMPI lib 0x7f8f42bf0850
[amour9_CPU3:user_app:(84) 0.000000] [user_app/INFO] Extracting symbols from Bull lib 0x26153c0 (mowsN43so.40) and SMPI lib 0x7f8f42bf0850
[amour9_CPU4:user_app:(85) 0.000000] [user_app/INFO] Extracting symbols from Bull lib 0x2617e30 (mowsN44so.40) and SMPI lib 0x7f8f42bf0850
[amour10_CPU0:user_app:(91) 0.000000] [user_app/INFO] Extracting symbols from Bull lib 0x261abe0 (mowsN45so.40) and SMPI lib 0x7f8f42bf0850
[amour10_CPU1:user_app:(92) 0.000000] [user_app/INFO] Extracting symbols from Bull lib 0x261d650 (mowsN46so.40) and SMPI lib 0x7f8f42bf0850
[amour10_CPU2:user_app:(93) 0.000000] [user_app/INFO] Extracting symbols from Bull lib 0x26200c0 (mowsN47so.40) and SMPI lib 0x7f8f42bf0850
[amour10_CPU3:user_app:(94) 0.000000] [user_app/INFO] Extracting symbols from Bull lib 0x2622b30 (mowsN48so.40) and SMPI lib 0x7f8f42bf0850
[amour10_CPU4:user_app:(95) 0.000000] [user_app/INFO] Extracting symbols from Bull lib 0x26255a0 (mowsN49so.40) and SMPI lib 0x7f8f42bf0850
--------------------------------------------------------------------------
An invalid value was supplied for an enum variable.

  Variable     : btl_vader_single_copy_mechanism
  Value        : xpmem
  Valid values : 1:"cma", 4:"emulated", 3:"none"
--------------------------------------------------------------------------
--------------------------------------------------------------------------
An invalid value was supplied for an enum variable.

  Variable     : btl_vader_single_copy_mechanism
  Value        : xpmem
  Valid values : 1:"cma", 4:"emulated", 3:"none"
--------------------------------------------------------------------------
--------------------------------------------------------------------------
An invalid value was supplied for an enum variable.

  Variable     : btl_vader_single_copy_mechanism
  Value        : xpmem
  Valid values : 1:"cma", 4:"emulated", 3:"none"
--------------------------------------------------------------------------
--------------------------------------------------------------------------
An invalid value was supplied for an enum variable.

  Variable     : btl_vader_single_copy_mechanism
  Value        : xpmem
  Valid values : 1:"cma", 4:"emulated", 3:"none"
--------------------------------------------------------------------------
--------------------------------------------------------------------------
An invalid value was supplied for an enum variable.

  Variable     : btl_vader_single_copy_mechanism
  Value        : xpmem
  Valid values : 1:"cma", 4:"emulated", 3:"none"
--------------------------------------------------------------------------
--------------------------------------------------------------------------
An invalid value was supplied for an enum variable.

  Variable     : btl_vader_single_copy_mechanism
  Value        : xpmem
  Valid values : 1:"cma", 4:"emulated", 3:"none"
--------------------------------------------------------------------------
--------------------------------------------------------------------------
An invalid value was supplied for an enum variable.

  Variable     : btl_vader_single_copy_mechanism
  Value        : xpmem
  Valid values : 1:"cma", 4:"emulated", 3:"none"
--------------------------------------------------------------------------
--------------------------------------------------------------------------
An invalid value was supplied for an enum variable.

  Variable     : btl_vader_single_copy_mechanism
  Value        : xpmem
  Valid values : 1:"cma", 4:"emulated", 3:"none"
--------------------------------------------------------------------------
--------------------------------------------------------------------------
An invalid value was supplied for an enum variable.

  Variable     : btl_vader_single_copy_mechanism
  Value        : xpmem
  Valid values : 1:"cma", 4:"emulated", 3:"none"
--------------------------------------------------------------------------
--------------------------------------------------------------------------
An invalid value was supplied for an enum variable.

  Variable     : btl_vader_single_copy_mechanism
  Value        : xpmem
  Valid values : 1:"cma", 4:"emulated", 3:"none"
--------------------------------------------------------------------------
--------------------------------------------------------------------------
An invalid value was supplied for an enum variable.

  Variable     : btl_vader_single_copy_mechanism
  Value        : xpmem
  Valid values : 1:"cma", 4:"emulated", 3:"none"
--------------------------------------------------------------------------
--------------------------------------------------------------------------
An invalid value was supplied for an enum variable.

  Variable     : btl_vader_single_copy_mechanism
  Value        : xpmem
  Valid values : 1:"cma", 4:"emulated", 3:"none"
--------------------------------------------------------------------------
--------------------------------------------------------------------------
An invalid value was supplied for an enum variable.

  Variable     : btl_vader_single_copy_mechanism
  Value        : xpmem
  Valid values : 1:"cma", 4:"emulated", 3:"none"
--------------------------------------------------------------------------
--------------------------------------------------------------------------
An invalid value was supplied for an enum variable.

  Variable     : btl_vader_single_copy_mechanism
  Value        : xpmem
  Valid values : 1:"cma", 4:"emulated", 3:"none"
--------------------------------------------------------------------------
--------------------------------------------------------------------------
An invalid value was supplied for an enum variable.

  Variable     : btl_vader_single_copy_mechanism
  Value        : xpmem
  Valid values : 1:"cma", 4:"emulated", 3:"none"
--------------------------------------------------------------------------
--------------------------------------------------------------------------
An invalid value was supplied for an enum variable.

  Variable     : btl_vader_single_copy_mechanism
  Value        : xpmem
  Valid values : 1:"cma", 4:"emulated", 3:"none"
--------------------------------------------------------------------------
--------------------------------------------------------------------------
An invalid value was supplied for an enum variable.

  Variable     : btl_vader_single_copy_mechanism
  Value        : xpmem
  Valid values : 1:"cma", 4:"emulated", 3:"none"
--------------------------------------------------------------------------
--------------------------------------------------------------------------
An invalid value was supplied for an enum variable.

  Variable     : btl_vader_single_copy_mechanism
  Value        : xpmem
  Valid values : 1:"cma", 4:"emulated", 3:"none"
--------------------------------------------------------------------------
--------------------------------------------------------------------------
An invalid value was supplied for an enum variable.

  Variable     : btl_vader_single_copy_mechanism
  Value        : xpmem
  Valid values : 1:"cma", 4:"emulated", 3:"none"
--------------------------------------------------------------------------
--------------------------------------------------------------------------
An invalid value was supplied for an enum variable.

  Variable     : btl_vader_single_copy_mechanism
  Value        : xpmem
  Valid values : 1:"cma", 4:"emulated", 3:"none"
--------------------------------------------------------------------------
--------------------------------------------------------------------------
An invalid value was supplied for an enum variable.

  Variable     : btl_vader_single_copy_mechanism
  Value        : xpmem
  Valid values : 1:"cma", 4:"emulated", 3:"none"
--------------------------------------------------------------------------
--------------------------------------------------------------------------
An invalid value was supplied for an enum variable.

  Variable     : btl_vader_single_copy_mechanism
  Value        : xpmem
  Valid values : 1:"cma", 4:"emulated", 3:"none"
--------------------------------------------------------------------------
--------------------------------------------------------------------------
An invalid value was supplied for an enum variable.

  Variable     : btl_vader_single_copy_mechanism
  Value        : xpmem
  Valid values : 1:"cma", 4:"emulated", 3:"none"
--------------------------------------------------------------------------
--------------------------------------------------------------------------
An invalid value was supplied for an enum variable.

  Variable     : btl_vader_single_copy_mechanism
  Value        : xpmem
  Valid values : 1:"cma", 4:"emulated", 3:"none"
--------------------------------------------------------------------------
--------------------------------------------------------------------------
An invalid value was supplied for an enum variable.

  Variable     : btl_vader_single_copy_mechanism
  Value        : xpmem
  Valid values : 1:"cma", 4:"emulated", 3:"none"
--------------------------------------------------------------------------
--------------------------------------------------------------------------
An invalid value was supplied for an enum variable.

  Variable     : btl_vader_single_copy_mechanism
  Value        : xpmem
  Valid values : 1:"cma", 4:"emulated", 3:"none"
--------------------------------------------------------------------------
--------------------------------------------------------------------------
An invalid value was supplied for an enum variable.

  Variable     : btl_vader_single_copy_mechanism
  Value        : xpmem
  Valid values : 1:"cma", 4:"emulated", 3:"none"
--------------------------------------------------------------------------
--------------------------------------------------------------------------
An invalid value was supplied for an enum variable.

  Variable     : btl_vader_single_copy_mechanism
  Value        : xpmem
  Valid values : 1:"cma", 4:"emulated", 3:"none"
--------------------------------------------------------------------------
--------------------------------------------------------------------------
An invalid value was supplied for an enum variable.

  Variable     : btl_vader_single_copy_mechanism
  Value        : xpmem
  Valid values : 1:"cma", 4:"emulated", 3:"none"
--------------------------------------------------------------------------
--------------------------------------------------------------------------
An invalid value was supplied for an enum variable.

  Variable     : btl_vader_single_copy_mechanism
  Value        : xpmem
  Valid values : 1:"cma", 4:"emulated", 3:"none"
--------------------------------------------------------------------------
--------------------------------------------------------------------------
An invalid value was supplied for an enum variable.

  Variable     : btl_vader_single_copy_mechanism
  Value        : xpmem
  Valid values : 1:"cma", 4:"emulated", 3:"none"
--------------------------------------------------------------------------
--------------------------------------------------------------------------
An invalid value was supplied for an enum variable.

  Variable     : btl_vader_single_copy_mechanism
  Value        : xpmem
  Valid values : 1:"cma", 4:"emulated", 3:"none"
--------------------------------------------------------------------------
--------------------------------------------------------------------------
An invalid value was supplied for an enum variable.

  Variable     : btl_vader_single_copy_mechanism
  Value        : xpmem
  Valid values : 1:"cma", 4:"emulated", 3:"none"
--------------------------------------------------------------------------
--------------------------------------------------------------------------
An invalid value was supplied for an enum variable.

  Variable     : btl_vader_single_copy_mechanism
  Value        : xpmem
  Valid values : 1:"cma", 4:"emulated", 3:"none"
--------------------------------------------------------------------------
--------------------------------------------------------------------------
An invalid value was supplied for an enum variable.

  Variable     : btl_vader_single_copy_mechanism
  Value        : xpmem
  Valid values : 1:"cma", 4:"emulated", 3:"none"
--------------------------------------------------------------------------
--------------------------------------------------------------------------
An invalid value was supplied for an enum variable.

  Variable     : btl_vader_single_copy_mechanism
  Value        : xpmem
  Valid values : 1:"cma", 4:"emulated", 3:"none"
--------------------------------------------------------------------------
--------------------------------------------------------------------------
An invalid value was supplied for an enum variable.

  Variable     : btl_vader_single_copy_mechanism
  Value        : xpmem
  Valid values : 1:"cma", 4:"emulated", 3:"none"
--------------------------------------------------------------------------
--------------------------------------------------------------------------
An invalid value was supplied for an enum variable.

  Variable     : btl_vader_single_copy_mechanism
  Value        : xpmem
  Valid values : 1:"cma", 4:"emulated", 3:"none"
--------------------------------------------------------------------------
--------------------------------------------------------------------------
An invalid value was supplied for an enum variable.

  Variable     : btl_vader_single_copy_mechanism
  Value        : xpmem
  Valid values : 1:"cma", 4:"emulated", 3:"none"
--------------------------------------------------------------------------
--------------------------------------------------------------------------
An invalid value was supplied for an enum variable.

  Variable     : btl_vader_single_copy_mechanism
  Value        : xpmem
  Valid values : 1:"cma", 4:"emulated", 3:"none"
--------------------------------------------------------------------------
--------------------------------------------------------------------------
An invalid value was supplied for an enum variable.

  Variable     : btl_vader_single_copy_mechanism
  Value        : xpmem
  Valid values : 1:"cma", 4:"emulated", 3:"none"
--------------------------------------------------------------------------
--------------------------------------------------------------------------
An invalid value was supplied for an enum variable.

  Variable     : btl_vader_single_copy_mechanism
  Value        : xpmem
  Valid values : 1:"cma", 4:"emulated", 3:"none"
--------------------------------------------------------------------------
--------------------------------------------------------------------------
An invalid value was supplied for an enum variable.

  Variable     : btl_vader_single_copy_mechanism
  Value        : xpmem
  Valid values : 1:"cma", 4:"emulated", 3:"none"
--------------------------------------------------------------------------
--------------------------------------------------------------------------
An invalid value was supplied for an enum variable.

  Variable     : btl_vader_single_copy_mechanism
  Value        : xpmem
  Valid values : 1:"cma", 4:"emulated", 3:"none"
--------------------------------------------------------------------------
--------------------------------------------------------------------------
An invalid value was supplied for an enum variable.

  Variable     : btl_vader_single_copy_mechanism
  Value        : xpmem
  Valid values : 1:"cma", 4:"emulated", 3:"none"
--------------------------------------------------------------------------
--------------------------------------------------------------------------
An invalid value was supplied for an enum variable.

  Variable     : btl_vader_single_copy_mechanism
  Value        : xpmem
  Valid values : 1:"cma", 4:"emulated", 3:"none"
--------------------------------------------------------------------------
--------------------------------------------------------------------------
An invalid value was supplied for an enum variable.

  Variable     : btl_vader_single_copy_mechanism
  Value        : xpmem
  Valid values : 1:"cma", 4:"emulated", 3:"none"
--------------------------------------------------------------------------
--------------------------------------------------------------------------
An invalid value was supplied for an enum variable.

  Variable     : btl_vader_single_copy_mechanism
  Value        : xpmem
  Valid values : 1:"cma", 4:"emulated", 3:"none"
--------------------------------------------------------------------------
--------------------------------------------------------------------------
An invalid value was supplied for an enum variable.

  Variable     : btl_vader_single_copy_mechanism
  Value        : xpmem
  Valid values : 1:"cma", 4:"emulated", 3:"none"
--------------------------------------------------------------------------
--------------------------------------------------------------------------
An invalid value was supplied for an enum variable.

  Variable     : btl_vader_single_copy_mechanism
  Value        : xpmem
  Valid values : 1:"cma", 4:"emulated", 3:"none"
--------------------------------------------------------------------------
Backtrace (displayed in actor user_app):
  ->  0# xbt_backtrace_display_current in /tmp/opt/simgrid/lib64/libsimgrid.so.3.32
  ->  1# 0x00007F8F4236A47B in /tmp/opt/simgrid/lib64/libsimgrid.so.3.32
  ->  2# s4bxi_bench_end in /tmp/opt/s4bxi/lib/libportals.so.1
  ->  3# PtlEQGet in /tmp/opt/s4bxi/lib/libportals.so.1
  ->  4# mca_btl_bxi_component_progress in mowsN14-pal.so.40
  ->  5# opal_progress in mowsN14-pal.so.40
  ->  6# mca_pml_ob1_recv in mowsN14so.40
  ->  7# PMPI_Recv in mowsN14so.40
  ->  8# HPL_reduce in ./xhpl_mowsNWFTwu_14.so
  ->  9# HPL_all_reduce in ./xhpl_mowsNWFTwu_14.so
  ->  10# HPL_pdinfo in ./xhpl_mowsNWFTwu_14.so
  ->  11# main in ./xhpl_mowsNWFTwu_14.so

[amour3_CPU4:user_app:(25) 0.060460] ../src/smpi/internals/smpi_bench.cpp:126: [root/CRITICAL] Bench end called twice?
[pm0-nod15:279207] *** Process received signal ***
[pm0-nod15:279207] Signal: Aborted (6)
[pm0-nod15:279207] Signal code:  (-6)
[pm0-nod15:279207] [ 0] /lib64/libc.so.6(+0x37400)[0x7f8f4116c400]
[pm0-nod15:279207] [ 1] /lib64/libc.so.6(gsignal+0x10f)[0x7f8f4116c37f]
[pm0-nod15:279207] [ 2] /lib64/libc.so.6(abort+0x127)[0x7f8f41156db5]
[pm0-nod15:279207] [ 3] /tmp/opt/simgrid/lib64/libsimgrid.so.3.32(+0x110efc)[0x7f8f4213defc]
[pm0-nod15:279207] [ 4] /tmp/opt/simgrid/lib64/libsimgrid.so.3.32(+0x33d418)[0x7f8f4236a418]
[pm0-nod15:279207] [ 5] /tmp/opt/s4bxi/lib/libportals.so.1(s4bxi_bench_end+0x17)[0x7f8f4275a067]
[pm0-nod15:279207] [ 6] /tmp/opt/s4bxi/lib/libportals.so.1(PtlEQGet+0x17)[0x7f8f42756e67]
[pm0-nod15:279207] [ 7] mowsN14-pal.so.40(mca_btl_bxi_component_progress+0xf0)[0x7f8efe58afc0]
[pm0-nod15:279207] [ 8] mowsN14-pal.so.40(opal_progress+0x74)[0x7f8efe52b824]
[pm0-nod15:279207] [ 9] mowsN14so.40(mca_pml_ob1_recv+0x195)[0x7f8efef92d75]
[pm0-nod15:279207] [10] mowsN14so.40(PMPI_Recv+0x145)[0x7f8efedeb9a5]
[pm0-nod15:279207] [11] ./xhpl_mowsNWFTwu_14.so(HPL_reduce+0x3ad)[0x7f8eff29f97d]
[pm0-nod15:279207] [12] ./xhpl_mowsNWFTwu_14.so(HPL_all_reduce+0x20)[0x7f8eff29fb20]
[pm0-nod15:279207] [13] ./xhpl_mowsNWFTwu_14.so(HPL_pdinfo+0x1f9)[0x7f8eff297859]
[pm0-nod15:279207] [14] ./xhpl_mowsNWFTwu_14.so(main+0x1bf)[0x7f8eff296dbf]
[pm0-nod15:279207] [15] /tmp/opt/s4bxi/lib/libportals.so.1(_ZN15BxiUserAppActorclEv+0x184d)[0x7f8f427428dd]
[pm0-nod15:279207] [16] /tmp/opt/s4bxi/lib/libportals.so.1(_ZZZN7simgrid3s4u6Engine14register_actorI15BxiUserAppActorEEvRKNSt7__cxx1112basic_stringIcSt11char_traitsIcESaIcEEEENKUlSt6vectorIS9_SaIS9_EEE_clESE_ENUlvE_clEv+0x21)[0x7f8f42748881]
[pm0-nod15:279207] [17] /tmp/opt/simgrid/lib64/libsimgrid.so.3.32(smx_ctx_wrapper+0x1c)[0x7f8f421ae0bc]
[pm0-nod15:279207] *** End of error message ***
./s4bxi_run_vanilla.sh: line 91: 279207 Aborted                 (core dumped) s4bximain $PLATFORMDIR/amour/build/libamour.so ./deploy.xml ./xhpl xhpl --cfg=smpi/cpu-threshold:${S4BXI_CPU_THRESHOLD} --cfg=smpi/host-speed:$(bc <<< "10000 * ${S4BXI_CPU_FACTOR}")Mf

real	0m11.047s
user	0m1.929s
sys	0m8.358s
