[0.000000] [xbt_cfg/INFO] Configuration change: Set 'smpi/cpu-threshold' to '1e-8'
[0.000000] [xbt_cfg/INFO] Configuration change: Set 'smpi/host-speed' to '10000Mf'
[0.000000] [xbt_cfg/INFO] Configuration change: Set 'surf/precision' to '1e-9'
[0.000000] [xbt_cfg/INFO] Configuration change: Set 'network/loopback-lat' to '0'
[0.000000] [xbt_cfg/INFO] Configuration change: Set 'network/loopback-bw' to '999e9'
[0.000000] [xbt_cfg/INFO] Configuration change: Set 'network/model' to 'CM02'
[0.000000] [xbt_cfg/INFO] Configuration change: Set 'smpi/coll-selector' to 'ompi'
[0.000000] [xbt_cfg/INFO] Configuration change: Set 'smpi/host-speed' to '10000.000000Mf'
[0.000000] [xbt_cfg/INFO] Configuration change: Set 'smpi/cpu-threshold' to '0.000000'
[0.000000] [xbt_cfg/INFO] Configuration change: Set 'smpi/simulate-computation' to 'yes'
[0.000000] [smpi_coll/INFO] Switch to algorithm ompi for collective gather
[0.000000] [smpi_coll/INFO] Switch to algorithm ompi for collective allgather
[0.000000] [smpi_coll/INFO] Switch to algorithm ompi for collective allgatherv
[0.000000] [smpi_coll/INFO] Switch to algorithm ompi for collective allreduce
[0.000000] [smpi_coll/INFO] Switch to algorithm ompi for collective alltoall
[0.000000] [smpi_coll/INFO] Switch to algorithm ompi for collective alltoallv
[0.000000] [smpi_coll/INFO] Switch to algorithm ompi for collective reduce
[0.000000] [smpi_coll/INFO] Switch to algorithm ompi for collective reduce_scatter
[0.000000] [smpi_coll/INFO] Switch to algorithm ompi for collective scatter
[0.000000] [smpi_coll/INFO] Switch to algorithm ompi for collective bcast
[0.000000] [smpi_coll/INFO] Switch to algorithm ompi for collective barrier
[0.000000] [smpi_coll/INFO] Switch to algorithm ompi for collective gather
[0.000000] [smpi_coll/INFO] Switch to algorithm ompi for collective allgather
[0.000000] [smpi_coll/INFO] Switch to algorithm ompi for collective allgatherv
[0.000000] [smpi_coll/INFO] Switch to algorithm ompi for collective allreduce
[0.000000] [smpi_coll/INFO] Switch to algorithm ompi for collective alltoall
[0.000000] [smpi_coll/INFO] Switch to algorithm ompi for collective alltoallv
[0.000000] [smpi_coll/INFO] Switch to algorithm ompi for collective reduce
[0.000000] [smpi_coll/INFO] Switch to algorithm ompi for collective reduce_scatter
[0.000000] [smpi_coll/INFO] Switch to algorithm ompi for collective scatter
[0.000000] [smpi_coll/INFO] Switch to algorithm ompi for collective bcast
[0.000000] [smpi_coll/INFO] Switch to algorithm ompi for collective barrier
[amour1_CPU0:user_app:(1) 0.000000] [s4bxi_main_actor/INFO] Setup with nid = 1, model_pci = 1 ; e2e_off = 0
[amour1_CPU1:user_app:(2) 0.000000] [s4bxi_main_actor/INFO] Setup with nid = 1, model_pci = 1 ; e2e_off = 0
[amour1_CPU2:user_app:(3) 0.000000] [s4bxi_main_actor/INFO] Setup with nid = 1, model_pci = 1 ; e2e_off = 0
[amour1_CPU3:user_app:(4) 0.000000] [s4bxi_main_actor/INFO] Setup with nid = 1, model_pci = 1 ; e2e_off = 0
[amour1_CPU4:user_app:(5) 0.000000] [s4bxi_main_actor/INFO] Setup with nid = 1, model_pci = 1 ; e2e_off = 0
[amour1_CPU5:user_app:(6) 0.000000] [s4bxi_main_actor/INFO] Setup with nid = 1, model_pci = 1 ; e2e_off = 0
[amour1_CPU6:user_app:(7) 0.000000] [s4bxi_main_actor/INFO] Setup with nid = 1, model_pci = 1 ; e2e_off = 0
[amour1_CPU7:user_app:(8) 0.000000] [s4bxi_main_actor/INFO] Setup with nid = 1, model_pci = 1 ; e2e_off = 0
[amour2_CPU0:user_app:(14) 0.000000] [s4bxi_main_actor/INFO] Setup with nid = 2, model_pci = 1 ; e2e_off = 0
[amour2_CPU1:user_app:(15) 0.000000] [s4bxi_main_actor/INFO] Setup with nid = 2, model_pci = 1 ; e2e_off = 0
[amour2_CPU2:user_app:(16) 0.000000] [s4bxi_main_actor/INFO] Setup with nid = 2, model_pci = 1 ; e2e_off = 0
[amour2_CPU3:user_app:(17) 0.000000] [s4bxi_main_actor/INFO] Setup with nid = 2, model_pci = 1 ; e2e_off = 0
[amour2_CPU4:user_app:(18) 0.000000] [s4bxi_main_actor/INFO] Setup with nid = 2, model_pci = 1 ; e2e_off = 0
[amour2_CPU5:user_app:(19) 0.000000] [s4bxi_main_actor/INFO] Setup with nid = 2, model_pci = 1 ; e2e_off = 0
[amour2_CPU6:user_app:(20) 0.000000] [s4bxi_main_actor/INFO] Setup with nid = 2, model_pci = 1 ; e2e_off = 0
[amour2_CPU7:user_app:(21) 0.000000] [s4bxi_main_actor/INFO] Setup with nid = 2, model_pci = 1 ; e2e_off = 0
[amour3_CPU0:user_app:(27) 0.000000] [s4bxi_main_actor/INFO] Setup with nid = 3, model_pci = 1 ; e2e_off = 0
[amour3_CPU1:user_app:(28) 0.000000] [s4bxi_main_actor/INFO] Setup with nid = 3, model_pci = 1 ; e2e_off = 0
[amour3_CPU2:user_app:(29) 0.000000] [s4bxi_main_actor/INFO] Setup with nid = 3, model_pci = 1 ; e2e_off = 0
[amour3_CPU3:user_app:(30) 0.000000] [s4bxi_main_actor/INFO] Setup with nid = 3, model_pci = 1 ; e2e_off = 0
[amour3_CPU4:user_app:(31) 0.000000] [s4bxi_main_actor/INFO] Setup with nid = 3, model_pci = 1 ; e2e_off = 0
[amour3_CPU5:user_app:(32) 0.000000] [s4bxi_main_actor/INFO] Setup with nid = 3, model_pci = 1 ; e2e_off = 0
[amour3_CPU6:user_app:(33) 0.000000] [s4bxi_main_actor/INFO] Setup with nid = 3, model_pci = 1 ; e2e_off = 0
[amour3_CPU7:user_app:(34) 0.000000] [s4bxi_main_actor/INFO] Setup with nid = 3, model_pci = 1 ; e2e_off = 0
[amour4_CPU0:user_app:(40) 0.000000] [s4bxi_main_actor/INFO] Setup with nid = 4, model_pci = 1 ; e2e_off = 0
[amour4_CPU1:user_app:(41) 0.000000] [s4bxi_main_actor/INFO] Setup with nid = 4, model_pci = 1 ; e2e_off = 0
[amour4_CPU2:user_app:(42) 0.000000] [s4bxi_main_actor/INFO] Setup with nid = 4, model_pci = 1 ; e2e_off = 0
[amour4_CPU3:user_app:(43) 0.000000] [s4bxi_main_actor/INFO] Setup with nid = 4, model_pci = 1 ; e2e_off = 0
[amour4_CPU4:user_app:(44) 0.000000] [s4bxi_main_actor/INFO] Setup with nid = 4, model_pci = 1 ; e2e_off = 0
[amour4_CPU5:user_app:(45) 0.000000] [s4bxi_main_actor/INFO] Setup with nid = 4, model_pci = 1 ; e2e_off = 0
[amour4_CPU6:user_app:(46) 0.000000] [s4bxi_main_actor/INFO] Setup with nid = 4, model_pci = 1 ; e2e_off = 0
[amour4_CPU7:user_app:(47) 0.000000] [s4bxi_main_actor/INFO] Setup with nid = 4, model_pci = 1 ; e2e_off = 0
[amour5_CPU0:user_app:(53) 0.000000] [s4bxi_main_actor/INFO] Setup with nid = 5, model_pci = 1 ; e2e_off = 0
[amour5_CPU1:user_app:(54) 0.000000] [s4bxi_main_actor/INFO] Setup with nid = 5, model_pci = 1 ; e2e_off = 0
[amour5_CPU2:user_app:(55) 0.000000] [s4bxi_main_actor/INFO] Setup with nid = 5, model_pci = 1 ; e2e_off = 0
[amour5_CPU3:user_app:(56) 0.000000] [s4bxi_main_actor/INFO] Setup with nid = 5, model_pci = 1 ; e2e_off = 0
[amour5_CPU4:user_app:(57) 0.000000] [s4bxi_main_actor/INFO] Setup with nid = 5, model_pci = 1 ; e2e_off = 0
[amour5_CPU5:user_app:(58) 0.000000] [s4bxi_main_actor/INFO] Setup with nid = 5, model_pci = 1 ; e2e_off = 0
[amour5_CPU6:user_app:(59) 0.000000] [s4bxi_main_actor/INFO] Setup with nid = 5, model_pci = 1 ; e2e_off = 0
[amour5_CPU7:user_app:(60) 0.000000] [s4bxi_main_actor/INFO] Setup with nid = 5, model_pci = 1 ; e2e_off = 0
[amour6_CPU0:user_app:(66) 0.000000] [s4bxi_main_actor/INFO] Setup with nid = 6, model_pci = 1 ; e2e_off = 0
[amour6_CPU1:user_app:(67) 0.000000] [s4bxi_main_actor/INFO] Setup with nid = 6, model_pci = 1 ; e2e_off = 0
[amour6_CPU2:user_app:(68) 0.000000] [s4bxi_main_actor/INFO] Setup with nid = 6, model_pci = 1 ; e2e_off = 0
[amour6_CPU3:user_app:(69) 0.000000] [s4bxi_main_actor/INFO] Setup with nid = 6, model_pci = 1 ; e2e_off = 0
[amour6_CPU4:user_app:(70) 0.000000] [s4bxi_main_actor/INFO] Setup with nid = 6, model_pci = 1 ; e2e_off = 0
[amour6_CPU5:user_app:(71) 0.000000] [s4bxi_main_actor/INFO] Setup with nid = 6, model_pci = 1 ; e2e_off = 0
[amour6_CPU6:user_app:(72) 0.000000] [s4bxi_main_actor/INFO] Setup with nid = 6, model_pci = 1 ; e2e_off = 0
[amour6_CPU7:user_app:(73) 0.000000] [s4bxi_main_actor/INFO] Setup with nid = 6, model_pci = 1 ; e2e_off = 0
[amour7_CPU0:user_app:(79) 0.000000] [s4bxi_main_actor/INFO] Setup with nid = 7, model_pci = 1 ; e2e_off = 0
[amour7_CPU1:user_app:(80) 0.000000] [s4bxi_main_actor/INFO] Setup with nid = 7, model_pci = 1 ; e2e_off = 0
[amour7_CPU2:user_app:(81) 0.000000] [s4bxi_main_actor/INFO] Setup with nid = 7, model_pci = 1 ; e2e_off = 0
[amour7_CPU3:user_app:(82) 0.000000] [s4bxi_main_actor/INFO] Setup with nid = 7, model_pci = 1 ; e2e_off = 0
[amour7_CPU4:user_app:(83) 0.000000] [s4bxi_main_actor/INFO] Setup with nid = 7, model_pci = 1 ; e2e_off = 0
[amour7_CPU5:user_app:(84) 0.000000] [s4bxi_main_actor/INFO] Setup with nid = 7, model_pci = 1 ; e2e_off = 0
[amour7_CPU6:user_app:(85) 0.000000] [s4bxi_main_actor/INFO] Setup with nid = 7, model_pci = 1 ; e2e_off = 0
[amour7_CPU7:user_app:(86) 0.000000] [s4bxi_main_actor/INFO] Setup with nid = 7, model_pci = 1 ; e2e_off = 0
[amour8_CPU0:user_app:(92) 0.000000] [s4bxi_main_actor/INFO] Setup with nid = 8, model_pci = 1 ; e2e_off = 0
[amour8_CPU1:user_app:(93) 0.000000] [s4bxi_main_actor/INFO] Setup with nid = 8, model_pci = 1 ; e2e_off = 0
[amour8_CPU2:user_app:(94) 0.000000] [s4bxi_main_actor/INFO] Setup with nid = 8, model_pci = 1 ; e2e_off = 0
[amour8_CPU3:user_app:(95) 0.000000] [s4bxi_main_actor/INFO] Setup with nid = 8, model_pci = 1 ; e2e_off = 0
[amour8_CPU4:user_app:(96) 0.000000] [s4bxi_main_actor/INFO] Setup with nid = 8, model_pci = 1 ; e2e_off = 0
[amour8_CPU5:user_app:(97) 0.000000] [s4bxi_main_actor/INFO] Setup with nid = 8, model_pci = 1 ; e2e_off = 0
[amour8_CPU6:user_app:(98) 0.000000] [s4bxi_main_actor/INFO] Setup with nid = 8, model_pci = 1 ; e2e_off = 0
[amour8_CPU7:user_app:(99) 0.000000] [s4bxi_main_actor/INFO] Setup with nid = 8, model_pci = 1 ; e2e_off = 0
[amour9_CPU0:user_app:(105) 0.000000] [s4bxi_main_actor/INFO] Setup with nid = 9, model_pci = 1 ; e2e_off = 0
[amour9_CPU1:user_app:(106) 0.000000] [s4bxi_main_actor/INFO] Setup with nid = 9, model_pci = 1 ; e2e_off = 0
[amour9_CPU2:user_app:(107) 0.000000] [s4bxi_main_actor/INFO] Setup with nid = 9, model_pci = 1 ; e2e_off = 0
[amour9_CPU3:user_app:(108) 0.000000] [s4bxi_main_actor/INFO] Setup with nid = 9, model_pci = 1 ; e2e_off = 0
[amour9_CPU4:user_app:(109) 0.000000] [s4bxi_main_actor/INFO] Setup with nid = 9, model_pci = 1 ; e2e_off = 0
[amour9_CPU5:user_app:(110) 0.000000] [s4bxi_main_actor/INFO] Setup with nid = 9, model_pci = 1 ; e2e_off = 0
[amour9_CPU6:user_app:(111) 0.000000] [s4bxi_main_actor/INFO] Setup with nid = 9, model_pci = 1 ; e2e_off = 0
[amour9_CPU7:user_app:(112) 0.000000] [s4bxi_main_actor/INFO] Setup with nid = 9, model_pci = 1 ; e2e_off = 0
[amour10_CPU0:user_app:(118) 0.000000] [s4bxi_main_actor/INFO] Setup with nid = 10, model_pci = 1 ; e2e_off = 0
[amour10_CPU1:user_app:(119) 0.000000] [s4bxi_main_actor/INFO] Setup with nid = 10, model_pci = 1 ; e2e_off = 0
[amour10_CPU2:user_app:(120) 0.000000] [s4bxi_main_actor/INFO] Setup with nid = 10, model_pci = 1 ; e2e_off = 0
[amour10_CPU3:user_app:(121) 0.000000] [s4bxi_main_actor/INFO] Setup with nid = 10, model_pci = 1 ; e2e_off = 0
[amour10_CPU4:user_app:(122) 0.000000] [s4bxi_main_actor/INFO] Setup with nid = 10, model_pci = 1 ; e2e_off = 0
[amour10_CPU5:user_app:(123) 0.000000] [s4bxi_main_actor/INFO] Setup with nid = 10, model_pci = 1 ; e2e_off = 0
[amour10_CPU6:user_app:(124) 0.000000] [s4bxi_main_actor/INFO] Setup with nid = 10, model_pci = 1 ; e2e_off = 0
[amour10_CPU7:user_app:(125) 0.000000] [s4bxi_main_actor/INFO] Setup with nid = 10, model_pci = 1 ; e2e_off = 0
[amour11_CPU0:user_app:(131) 0.000000] [s4bxi_main_actor/INFO] Setup with nid = 11, model_pci = 1 ; e2e_off = 0
[amour11_CPU1:user_app:(132) 0.000000] [s4bxi_main_actor/INFO] Setup with nid = 11, model_pci = 1 ; e2e_off = 0
[amour11_CPU2:user_app:(133) 0.000000] [s4bxi_main_actor/INFO] Setup with nid = 11, model_pci = 1 ; e2e_off = 0
[amour11_CPU3:user_app:(134) 0.000000] [s4bxi_main_actor/INFO] Setup with nid = 11, model_pci = 1 ; e2e_off = 0
[amour11_CPU4:user_app:(135) 0.000000] [s4bxi_main_actor/INFO] Setup with nid = 11, model_pci = 1 ; e2e_off = 0
[amour11_CPU5:user_app:(136) 0.000000] [s4bxi_main_actor/INFO] Setup with nid = 11, model_pci = 1 ; e2e_off = 0
[amour11_CPU6:user_app:(137) 0.000000] [s4bxi_main_actor/INFO] Setup with nid = 11, model_pci = 1 ; e2e_off = 0
[amour11_CPU7:user_app:(138) 0.000000] [s4bxi_main_actor/INFO] Setup with nid = 11, model_pci = 1 ; e2e_off = 0
[amour12_CPU0:user_app:(144) 0.000000] [s4bxi_main_actor/INFO] Setup with nid = 12, model_pci = 1 ; e2e_off = 0
[amour12_CPU1:user_app:(145) 0.000000] [s4bxi_main_actor/INFO] Setup with nid = 12, model_pci = 1 ; e2e_off = 0
[amour12_CPU2:user_app:(146) 0.000000] [s4bxi_main_actor/INFO] Setup with nid = 12, model_pci = 1 ; e2e_off = 0
[amour12_CPU3:user_app:(147) 0.000000] [s4bxi_main_actor/INFO] Setup with nid = 12, model_pci = 1 ; e2e_off = 0
[amour12_CPU4:user_app:(148) 0.000000] [s4bxi_main_actor/INFO] Setup with nid = 12, model_pci = 1 ; e2e_off = 0
[amour12_CPU5:user_app:(149) 0.000000] [s4bxi_main_actor/INFO] Setup with nid = 12, model_pci = 1 ; e2e_off = 0
[amour12_CPU6:user_app:(150) 0.000000] [s4bxi_main_actor/INFO] Setup with nid = 12, model_pci = 1 ; e2e_off = 0
[amour12_CPU7:user_app:(151) 0.000000] [s4bxi_main_actor/INFO] Setup with nid = 12, model_pci = 1 ; e2e_off = 0
[amour13_CPU0:user_app:(157) 0.000000] [s4bxi_main_actor/INFO] Setup with nid = 13, model_pci = 1 ; e2e_off = 0
[amour13_CPU1:user_app:(158) 0.000000] [s4bxi_main_actor/INFO] Setup with nid = 13, model_pci = 1 ; e2e_off = 0
[amour13_CPU2:user_app:(159) 0.000000] [s4bxi_main_actor/INFO] Setup with nid = 13, model_pci = 1 ; e2e_off = 0
[amour13_CPU3:user_app:(160) 0.000000] [s4bxi_main_actor/INFO] Setup with nid = 13, model_pci = 1 ; e2e_off = 0
[amour13_CPU4:user_app:(161) 0.000000] [s4bxi_main_actor/INFO] Setup with nid = 13, model_pci = 1 ; e2e_off = 0
[amour13_CPU5:user_app:(162) 0.000000] [s4bxi_main_actor/INFO] Setup with nid = 13, model_pci = 1 ; e2e_off = 0
[amour13_CPU6:user_app:(163) 0.000000] [s4bxi_main_actor/INFO] Setup with nid = 13, model_pci = 1 ; e2e_off = 0
[amour13_CPU7:user_app:(164) 0.000000] [s4bxi_main_actor/INFO] Setup with nid = 13, model_pci = 1 ; e2e_off = 0
[amour14_CPU0:user_app:(170) 0.000000] [s4bxi_main_actor/INFO] Setup with nid = 14, model_pci = 1 ; e2e_off = 0
[amour14_CPU1:user_app:(171) 0.000000] [s4bxi_main_actor/INFO] Setup with nid = 14, model_pci = 1 ; e2e_off = 0
[amour14_CPU2:user_app:(172) 0.000000] [s4bxi_main_actor/INFO] Setup with nid = 14, model_pci = 1 ; e2e_off = 0
[amour14_CPU3:user_app:(173) 0.000000] [s4bxi_main_actor/INFO] Setup with nid = 14, model_pci = 1 ; e2e_off = 0
[amour14_CPU4:user_app:(174) 0.000000] [s4bxi_main_actor/INFO] Setup with nid = 14, model_pci = 1 ; e2e_off = 0
[amour14_CPU5:user_app:(175) 0.000000] [s4bxi_main_actor/INFO] Setup with nid = 14, model_pci = 1 ; e2e_off = 0
[amour14_CPU6:user_app:(176) 0.000000] [s4bxi_main_actor/INFO] Setup with nid = 14, model_pci = 1 ; e2e_off = 0
[amour14_CPU7:user_app:(177) 0.000000] [s4bxi_main_actor/INFO] Setup with nid = 14, model_pci = 1 ; e2e_off = 0
[amour15_CPU0:user_app:(183) 0.000000] [s4bxi_main_actor/INFO] Setup with nid = 15, model_pci = 1 ; e2e_off = 0
[amour15_CPU1:user_app:(184) 0.000000] [s4bxi_main_actor/INFO] Setup with nid = 15, model_pci = 1 ; e2e_off = 0
[amour15_CPU2:user_app:(185) 0.000000] [s4bxi_main_actor/INFO] Setup with nid = 15, model_pci = 1 ; e2e_off = 0
[amour15_CPU3:user_app:(186) 0.000000] [s4bxi_main_actor/INFO] Setup with nid = 15, model_pci = 1 ; e2e_off = 0
[amour15_CPU4:user_app:(187) 0.000000] [s4bxi_main_actor/INFO] Setup with nid = 15, model_pci = 1 ; e2e_off = 0
[amour15_CPU5:user_app:(188) 0.000000] [s4bxi_main_actor/INFO] Setup with nid = 15, model_pci = 1 ; e2e_off = 0
[amour15_CPU6:user_app:(189) 0.000000] [s4bxi_main_actor/INFO] Setup with nid = 15, model_pci = 1 ; e2e_off = 0
[amour15_CPU7:user_app:(190) 0.000000] [s4bxi_main_actor/INFO] Setup with nid = 15, model_pci = 1 ; e2e_off = 0
[amour16_CPU0:user_app:(196) 0.000000] [s4bxi_main_actor/INFO] Setup with nid = 16, model_pci = 1 ; e2e_off = 0
[amour16_CPU1:user_app:(197) 0.000000] [s4bxi_main_actor/INFO] Setup with nid = 16, model_pci = 1 ; e2e_off = 0
[amour16_CPU2:user_app:(198) 0.000000] [s4bxi_main_actor/INFO] Setup with nid = 16, model_pci = 1 ; e2e_off = 0
[amour16_CPU3:user_app:(199) 0.000000] [s4bxi_main_actor/INFO] Setup with nid = 16, model_pci = 1 ; e2e_off = 0
[amour16_CPU4:user_app:(200) 0.000000] [s4bxi_main_actor/INFO] Setup with nid = 16, model_pci = 1 ; e2e_off = 0
[amour16_CPU5:user_app:(201) 0.000000] [s4bxi_main_actor/INFO] Setup with nid = 16, model_pci = 1 ; e2e_off = 0
[amour16_CPU6:user_app:(202) 0.000000] [s4bxi_main_actor/INFO] Setup with nid = 16, model_pci = 1 ; e2e_off = 0
[amour16_CPU7:user_app:(203) 0.000000] [s4bxi_main_actor/INFO] Setup with nid = 16, model_pci = 1 ; e2e_off = 0
[amour1_CPU0:user_app:(1) 0.000000] [user_app/INFO] Init rank 0 ; local_rank 0
[amour1_CPU1:user_app:(2) 0.000000] [user_app/INFO] Init rank 1 ; local_rank 1
[amour1_CPU2:user_app:(3) 0.000000] [user_app/INFO] Init rank 2 ; local_rank 2
[amour1_CPU3:user_app:(4) 0.000000] [user_app/INFO] Init rank 3 ; local_rank 3
[amour1_CPU4:user_app:(5) 0.000000] [user_app/INFO] Init rank 4 ; local_rank 4
[amour1_CPU5:user_app:(6) 0.000000] [user_app/INFO] Init rank 5 ; local_rank 5
[amour1_CPU6:user_app:(7) 0.000000] [user_app/INFO] Init rank 6 ; local_rank 6
[amour1_CPU7:user_app:(8) 0.000000] [user_app/INFO] Init rank 7 ; local_rank 7
[amour2_CPU0:user_app:(14) 0.000000] [user_app/INFO] Init rank 8 ; local_rank 0
[amour2_CPU1:user_app:(15) 0.000000] [user_app/INFO] Init rank 9 ; local_rank 1
[amour2_CPU2:user_app:(16) 0.000000] [user_app/INFO] Init rank 10 ; local_rank 2
[amour2_CPU3:user_app:(17) 0.000000] [user_app/INFO] Init rank 11 ; local_rank 3
[amour2_CPU4:user_app:(18) 0.000000] [user_app/INFO] Init rank 12 ; local_rank 4
[amour2_CPU5:user_app:(19) 0.000000] [user_app/INFO] Init rank 13 ; local_rank 5
[amour2_CPU6:user_app:(20) 0.000000] [user_app/INFO] Init rank 14 ; local_rank 6
[amour2_CPU7:user_app:(21) 0.000000] [user_app/INFO] Init rank 15 ; local_rank 7
[amour3_CPU0:user_app:(27) 0.000000] [user_app/INFO] Init rank 16 ; local_rank 0
[amour3_CPU1:user_app:(28) 0.000000] [user_app/INFO] Init rank 17 ; local_rank 1
[amour3_CPU2:user_app:(29) 0.000000] [user_app/INFO] Init rank 18 ; local_rank 2
[amour3_CPU3:user_app:(30) 0.000000] [user_app/INFO] Init rank 19 ; local_rank 3
[amour3_CPU4:user_app:(31) 0.000000] [user_app/INFO] Init rank 20 ; local_rank 4
[amour3_CPU5:user_app:(32) 0.000000] [user_app/INFO] Init rank 21 ; local_rank 5
[amour3_CPU6:user_app:(33) 0.000000] [user_app/INFO] Init rank 22 ; local_rank 6
[amour3_CPU7:user_app:(34) 0.000000] [user_app/INFO] Init rank 23 ; local_rank 7
[amour4_CPU0:user_app:(40) 0.000000] [user_app/INFO] Init rank 24 ; local_rank 0
[amour4_CPU1:user_app:(41) 0.000000] [user_app/INFO] Init rank 25 ; local_rank 1
[amour4_CPU2:user_app:(42) 0.000000] [user_app/INFO] Init rank 26 ; local_rank 2
[amour4_CPU3:user_app:(43) 0.000000] [user_app/INFO] Init rank 27 ; local_rank 3
[amour4_CPU4:user_app:(44) 0.000000] [user_app/INFO] Init rank 28 ; local_rank 4
[amour4_CPU5:user_app:(45) 0.000000] [user_app/INFO] Init rank 29 ; local_rank 5
[amour4_CPU6:user_app:(46) 0.000000] [user_app/INFO] Init rank 30 ; local_rank 6
[amour4_CPU7:user_app:(47) 0.000000] [user_app/INFO] Init rank 31 ; local_rank 7
[amour5_CPU0:user_app:(53) 0.000000] [user_app/INFO] Init rank 32 ; local_rank 0
[amour5_CPU1:user_app:(54) 0.000000] [user_app/INFO] Init rank 33 ; local_rank 1
[amour5_CPU2:user_app:(55) 0.000000] [user_app/INFO] Init rank 34 ; local_rank 2
[amour5_CPU3:user_app:(56) 0.000000] [user_app/INFO] Init rank 35 ; local_rank 3
[amour5_CPU4:user_app:(57) 0.000000] [user_app/INFO] Init rank 36 ; local_rank 4
[amour5_CPU5:user_app:(58) 0.000000] [user_app/INFO] Init rank 37 ; local_rank 5
[amour5_CPU6:user_app:(59) 0.000000] [user_app/INFO] Init rank 38 ; local_rank 6
[amour5_CPU7:user_app:(60) 0.000000] [user_app/INFO] Init rank 39 ; local_rank 7
[amour6_CPU0:user_app:(66) 0.000000] [user_app/INFO] Init rank 40 ; local_rank 0
[amour6_CPU1:user_app:(67) 0.000000] [user_app/INFO] Init rank 41 ; local_rank 1
[amour6_CPU2:user_app:(68) 0.000000] [user_app/INFO] Init rank 42 ; local_rank 2
[amour6_CPU3:user_app:(69) 0.000000] [user_app/INFO] Init rank 43 ; local_rank 3
[amour6_CPU4:user_app:(70) 0.000000] [user_app/INFO] Init rank 44 ; local_rank 4
[amour6_CPU5:user_app:(71) 0.000000] [user_app/INFO] Init rank 45 ; local_rank 5
[amour6_CPU6:user_app:(72) 0.000000] [user_app/INFO] Init rank 46 ; local_rank 6
[amour6_CPU7:user_app:(73) 0.000000] [user_app/INFO] Init rank 47 ; local_rank 7
[amour7_CPU0:user_app:(79) 0.000000] [user_app/INFO] Init rank 48 ; local_rank 0
[amour7_CPU1:user_app:(80) 0.000000] [user_app/INFO] Init rank 49 ; local_rank 1
[amour7_CPU2:user_app:(81) 0.000000] [user_app/INFO] Init rank 50 ; local_rank 2
[amour7_CPU3:user_app:(82) 0.000000] [user_app/INFO] Init rank 51 ; local_rank 3
[amour7_CPU4:user_app:(83) 0.000000] [user_app/INFO] Init rank 52 ; local_rank 4
[amour7_CPU5:user_app:(84) 0.000000] [user_app/INFO] Init rank 53 ; local_rank 5
[amour7_CPU6:user_app:(85) 0.000000] [user_app/INFO] Init rank 54 ; local_rank 6
[amour7_CPU7:user_app:(86) 0.000000] [user_app/INFO] Init rank 55 ; local_rank 7
[amour8_CPU0:user_app:(92) 0.000000] [user_app/INFO] Init rank 56 ; local_rank 0
[amour8_CPU1:user_app:(93) 0.000000] [user_app/INFO] Init rank 57 ; local_rank 1
[amour8_CPU2:user_app:(94) 0.000000] [user_app/INFO] Init rank 58 ; local_rank 2
[amour8_CPU3:user_app:(95) 0.000000] [user_app/INFO] Init rank 59 ; local_rank 3
[amour8_CPU4:user_app:(96) 0.000000] [user_app/INFO] Init rank 60 ; local_rank 4
[amour8_CPU5:user_app:(97) 0.000000] [user_app/INFO] Init rank 61 ; local_rank 5
[amour8_CPU6:user_app:(98) 0.000000] [user_app/INFO] Init rank 62 ; local_rank 6
[amour8_CPU7:user_app:(99) 0.000000] [user_app/INFO] Init rank 63 ; local_rank 7
[amour9_CPU0:user_app:(105) 0.000000] [user_app/INFO] Init rank 64 ; local_rank 0
[amour9_CPU1:user_app:(106) 0.000000] [user_app/INFO] Init rank 65 ; local_rank 1
[amour9_CPU2:user_app:(107) 0.000000] [user_app/INFO] Init rank 66 ; local_rank 2
[amour9_CPU3:user_app:(108) 0.000000] [user_app/INFO] Init rank 67 ; local_rank 3
[amour9_CPU4:user_app:(109) 0.000000] [user_app/INFO] Init rank 68 ; local_rank 4
[amour9_CPU5:user_app:(110) 0.000000] [user_app/INFO] Init rank 69 ; local_rank 5
[amour9_CPU6:user_app:(111) 0.000000] [user_app/INFO] Init rank 70 ; local_rank 6
[amour9_CPU7:user_app:(112) 0.000000] [user_app/INFO] Init rank 71 ; local_rank 7
[amour10_CPU0:user_app:(118) 0.000000] [user_app/INFO] Init rank 72 ; local_rank 0
[amour10_CPU1:user_app:(119) 0.000000] [user_app/INFO] Init rank 73 ; local_rank 1
[amour10_CPU2:user_app:(120) 0.000000] [user_app/INFO] Init rank 74 ; local_rank 2
[amour10_CPU3:user_app:(121) 0.000000] [user_app/INFO] Init rank 75 ; local_rank 3
[amour10_CPU4:user_app:(122) 0.000000] [user_app/INFO] Init rank 76 ; local_rank 4
[amour10_CPU5:user_app:(123) 0.000000] [user_app/INFO] Init rank 77 ; local_rank 5
[amour10_CPU6:user_app:(124) 0.000000] [user_app/INFO] Init rank 78 ; local_rank 6
[amour10_CPU7:user_app:(125) 0.000000] [user_app/INFO] Init rank 79 ; local_rank 7
[amour11_CPU0:user_app:(131) 0.000000] [user_app/INFO] Init rank 80 ; local_rank 0
[amour11_CPU1:user_app:(132) 0.000000] [user_app/INFO] Init rank 81 ; local_rank 1
[amour11_CPU2:user_app:(133) 0.000000] [user_app/INFO] Init rank 82 ; local_rank 2
[amour11_CPU3:user_app:(134) 0.000000] [user_app/INFO] Init rank 83 ; local_rank 3
[amour11_CPU4:user_app:(135) 0.000000] [user_app/INFO] Init rank 84 ; local_rank 4
[amour11_CPU5:user_app:(136) 0.000000] [user_app/INFO] Init rank 85 ; local_rank 5
[amour11_CPU6:user_app:(137) 0.000000] [user_app/INFO] Init rank 86 ; local_rank 6
[amour11_CPU7:user_app:(138) 0.000000] [user_app/INFO] Init rank 87 ; local_rank 7
[amour12_CPU0:user_app:(144) 0.000000] [user_app/INFO] Init rank 88 ; local_rank 0
[amour12_CPU1:user_app:(145) 0.000000] [user_app/INFO] Init rank 89 ; local_rank 1
[amour12_CPU2:user_app:(146) 0.000000] [user_app/INFO] Init rank 90 ; local_rank 2
[amour12_CPU3:user_app:(147) 0.000000] [user_app/INFO] Init rank 91 ; local_rank 3
[amour12_CPU4:user_app:(148) 0.000000] [user_app/INFO] Init rank 92 ; local_rank 4
[amour12_CPU5:user_app:(149) 0.000000] [user_app/INFO] Init rank 93 ; local_rank 5
[amour12_CPU6:user_app:(150) 0.000000] [user_app/INFO] Init rank 94 ; local_rank 6
[amour12_CPU7:user_app:(151) 0.000000] [user_app/INFO] Init rank 95 ; local_rank 7
[amour13_CPU0:user_app:(157) 0.000000] [user_app/INFO] Init rank 96 ; local_rank 0
[amour13_CPU1:user_app:(158) 0.000000] [user_app/INFO] Init rank 97 ; local_rank 1
[amour13_CPU2:user_app:(159) 0.000000] [user_app/INFO] Init rank 98 ; local_rank 2
[amour13_CPU3:user_app:(160) 0.000000] [user_app/INFO] Init rank 99 ; local_rank 3
[amour13_CPU4:user_app:(161) 0.000000] [user_app/INFO] Init rank 100 ; local_rank 4
[amour13_CPU5:user_app:(162) 0.000000] [user_app/INFO] Init rank 101 ; local_rank 5
[amour13_CPU6:user_app:(163) 0.000000] [user_app/INFO] Init rank 102 ; local_rank 6
[amour13_CPU7:user_app:(164) 0.000000] [user_app/INFO] Init rank 103 ; local_rank 7
[amour14_CPU0:user_app:(170) 0.000000] [user_app/INFO] Init rank 104 ; local_rank 0
[amour14_CPU1:user_app:(171) 0.000000] [user_app/INFO] Init rank 105 ; local_rank 1
[amour14_CPU2:user_app:(172) 0.000000] [user_app/INFO] Init rank 106 ; local_rank 2
[amour14_CPU3:user_app:(173) 0.000000] [user_app/INFO] Init rank 107 ; local_rank 3
[amour14_CPU4:user_app:(174) 0.000000] [user_app/INFO] Init rank 108 ; local_rank 4
[amour14_CPU5:user_app:(175) 0.000000] [user_app/INFO] Init rank 109 ; local_rank 5
[amour14_CPU6:user_app:(176) 0.000000] [user_app/INFO] Init rank 110 ; local_rank 6
[amour14_CPU7:user_app:(177) 0.000000] [user_app/INFO] Init rank 111 ; local_rank 7
[amour15_CPU0:user_app:(183) 0.000000] [user_app/INFO] Init rank 112 ; local_rank 0
[amour15_CPU1:user_app:(184) 0.000000] [user_app/INFO] Init rank 113 ; local_rank 1
[amour15_CPU2:user_app:(185) 0.000000] [user_app/INFO] Init rank 114 ; local_rank 2
[amour15_CPU3:user_app:(186) 0.000000] [user_app/INFO] Init rank 115 ; local_rank 3
[amour15_CPU4:user_app:(187) 0.000000] [user_app/INFO] Init rank 116 ; local_rank 4
[amour15_CPU5:user_app:(188) 0.000000] [user_app/INFO] Init rank 117 ; local_rank 5
[amour15_CPU6:user_app:(189) 0.000000] [user_app/INFO] Init rank 118 ; local_rank 6
[amour15_CPU7:user_app:(190) 0.000000] [user_app/INFO] Init rank 119 ; local_rank 7
[amour16_CPU0:user_app:(196) 0.000000] [user_app/INFO] Init rank 120 ; local_rank 0
[amour16_CPU1:user_app:(197) 0.000000] [user_app/INFO] Init rank 121 ; local_rank 1
[amour16_CPU2:user_app:(198) 0.000000] [user_app/INFO] Init rank 122 ; local_rank 2
[amour16_CPU3:user_app:(199) 0.000000] [user_app/INFO] Init rank 123 ; local_rank 3
[amour16_CPU4:user_app:(200) 0.000000] [user_app/INFO] Init rank 124 ; local_rank 4
[amour16_CPU5:user_app:(201) 0.000000] [user_app/INFO] Init rank 125 ; local_rank 5
[amour16_CPU6:user_app:(202) 0.000000] [user_app/INFO] Init rank 126 ; local_rank 6
[amour16_CPU7:user_app:(203) 0.000000] [user_app/INFO] Init rank 127 ; local_rank 7
[amour1_NIC:nic_e2e:(13) 0.000000] [s4bxi_nic_e2e/INFO] E2E was configured with timeout = 10.000000 and retries = 5
[amour2_NIC:nic_e2e:(26) 0.000000] [s4bxi_nic_e2e/INFO] E2E was configured with timeout = 10.000000 and retries = 5
[amour3_NIC:nic_e2e:(39) 0.000000] [s4bxi_nic_e2e/INFO] E2E was configured with timeout = 10.000000 and retries = 5
[amour4_NIC:nic_e2e:(52) 0.000000] [s4bxi_nic_e2e/INFO] E2E was configured with timeout = 10.000000 and retries = 5
[amour5_NIC:nic_e2e:(65) 0.000000] [s4bxi_nic_e2e/INFO] E2E was configured with timeout = 10.000000 and retries = 5
[amour6_NIC:nic_e2e:(78) 0.000000] [s4bxi_nic_e2e/INFO] E2E was configured with timeout = 10.000000 and retries = 5
[amour7_NIC:nic_e2e:(91) 0.000000] [s4bxi_nic_e2e/INFO] E2E was configured with timeout = 10.000000 and retries = 5
[amour8_NIC:nic_e2e:(104) 0.000000] [s4bxi_nic_e2e/INFO] E2E was configured with timeout = 10.000000 and retries = 5
[amour9_NIC:nic_e2e:(117) 0.000000] [s4bxi_nic_e2e/INFO] E2E was configured with timeout = 10.000000 and retries = 5
[amour10_NIC:nic_e2e:(130) 0.000000] [s4bxi_nic_e2e/INFO] E2E was configured with timeout = 10.000000 and retries = 5
[amour11_NIC:nic_e2e:(143) 0.000000] [s4bxi_nic_e2e/INFO] E2E was configured with timeout = 10.000000 and retries = 5
[amour12_NIC:nic_e2e:(156) 0.000000] [s4bxi_nic_e2e/INFO] E2E was configured with timeout = 10.000000 and retries = 5
[amour13_NIC:nic_e2e:(169) 0.000000] [s4bxi_nic_e2e/INFO] E2E was configured with timeout = 10.000000 and retries = 5
[amour14_NIC:nic_e2e:(182) 0.000000] [s4bxi_nic_e2e/INFO] E2E was configured with timeout = 10.000000 and retries = 5
[amour15_NIC:nic_e2e:(195) 0.000000] [s4bxi_nic_e2e/INFO] E2E was configured with timeout = 10.000000 and retries = 5
[amour16_NIC:nic_e2e:(208) 0.000000] [s4bxi_nic_e2e/INFO] E2E was configured with timeout = 10.000000 and retries = 5
[amour1_CPU0:user_app:(1) 0.000000] [user_app/INFO] Extracting symbols from Bull lib 0x11ae570 (WxzArL0so.40) and SMPI lib 0x7efddc758850
[amour1_CPU1:user_app:(2) 0.000000] [user_app/INFO] Extracting symbols from Bull lib 0x11b2990 (WxzArL1so.40) and SMPI lib 0x7efddc758850
[amour1_CPU2:user_app:(3) 0.000000] [user_app/INFO] Extracting symbols from Bull lib 0x11b5230 (WxzArL2so.40) and SMPI lib 0x7efddc758850
[amour1_CPU3:user_app:(4) 0.000000] [user_app/INFO] Extracting symbols from Bull lib 0x11b7a30 (WxzArL3so.40) and SMPI lib 0x7efddc758850
[amour1_CPU4:user_app:(5) 0.000000] [user_app/INFO] Extracting symbols from Bull lib 0x11ba300 (WxzArL4so.40) and SMPI lib 0x7efddc758850
[amour1_CPU5:user_app:(6) 0.000000] [user_app/INFO] Extracting symbols from Bull lib 0x11bcb40 (WxzArL5so.40) and SMPI lib 0x7efddc758850
[amour1_CPU6:user_app:(7) 0.000000] [user_app/INFO] Extracting symbols from Bull lib 0x11bf380 (WxzArL6so.40) and SMPI lib 0x7efddc758850
[amour1_CPU7:user_app:(8) 0.000000] [user_app/INFO] Extracting symbols from Bull lib 0x11c1c50 (WxzArL7so.40) and SMPI lib 0x7efddc758850
[amour2_CPU0:user_app:(14) 0.000000] [user_app/INFO] Extracting symbols from Bull lib 0x11c4770 (WxzArL8so.40) and SMPI lib 0x7efddc758850
[amour2_CPU1:user_app:(15) 0.000000] [user_app/INFO] Extracting symbols from Bull lib 0x11c7070 (WxzArL9so.40) and SMPI lib 0x7efddc758850
[amour2_CPU2:user_app:(16) 0.000000] [user_app/INFO] Extracting symbols from Bull lib 0x11c9940 (WxzAr10so.40) and SMPI lib 0x7efddc758850
[amour2_CPU3:user_app:(17) 0.000000] [user_app/INFO] Extracting symbols from Bull lib 0x11cc300 (WxzAr11so.40) and SMPI lib 0x7efddc758850
[amour2_CPU4:user_app:(18) 0.000000] [user_app/INFO] Extracting symbols from Bull lib 0x11cec60 (WxzAr12so.40) and SMPI lib 0x7efddc758850
[amour2_CPU5:user_app:(19) 0.000000] [user_app/INFO] Extracting symbols from Bull lib 0x11d1680 (WxzAr13so.40) and SMPI lib 0x7efddc758850
[amour2_CPU6:user_app:(20) 0.000000] [user_app/INFO] Extracting symbols from Bull lib 0x11d40f0 (WxzAr14so.40) and SMPI lib 0x7efddc758850
[amour2_CPU7:user_app:(21) 0.000000] [user_app/INFO] Extracting symbols from Bull lib 0x11d6be0 (WxzAr15so.40) and SMPI lib 0x7efddc758850
[amour3_CPU0:user_app:(27) 0.000000] [user_app/INFO] Extracting symbols from Bull lib 0x11d9cc0 (WxzAr16so.40) and SMPI lib 0x7efddc758850
[amour3_CPU1:user_app:(28) 0.000000] [user_app/INFO] Extracting symbols from Bull lib 0x11dc730 (WxzAr17so.40) and SMPI lib 0x7efddc758850
[amour3_CPU2:user_app:(29) 0.000000] [user_app/INFO] Extracting symbols from Bull lib 0x11df1a0 (WxzAr18so.40) and SMPI lib 0x7efddc758850
[amour3_CPU3:user_app:(30) 0.000000] [user_app/INFO] Extracting symbols from Bull lib 0x11e1c10 (WxzAr19so.40) and SMPI lib 0x7efddc758850
[amour3_CPU4:user_app:(31) 0.000000] [user_app/INFO] Extracting symbols from Bull lib 0x11e4680 (WxzAr20so.40) and SMPI lib 0x7efddc758850
[amour3_CPU5:user_app:(32) 0.000000] [user_app/INFO] Extracting symbols from Bull lib 0x11e70f0 (WxzAr21so.40) and SMPI lib 0x7efddc758850
[amour3_CPU6:user_app:(33) 0.000000] [user_app/INFO] Extracting symbols from Bull lib 0x11e9b60 (WxzAr22so.40) and SMPI lib 0x7efddc758850
[amour3_CPU7:user_app:(34) 0.000000] [user_app/INFO] Extracting symbols from Bull lib 0x11ec5d0 (WxzAr23so.40) and SMPI lib 0x7efddc758850
[amour4_CPU0:user_app:(40) 0.000000] [user_app/INFO] Extracting symbols from Bull lib 0x11ef080 (WxzAr24so.40) and SMPI lib 0x7efddc758850
[amour4_CPU1:user_app:(41) 0.000000] [user_app/INFO] Extracting symbols from Bull lib 0x11f1af0 (WxzAr25so.40) and SMPI lib 0x7efddc758850
[amour4_CPU2:user_app:(42) 0.000000] [user_app/INFO] Extracting symbols from Bull lib 0x11f4560 (WxzAr26so.40) and SMPI lib 0x7efddc758850
[amour4_CPU3:user_app:(43) 0.000000] [user_app/INFO] Extracting symbols from Bull lib 0x11f6fd0 (WxzAr27so.40) and SMPI lib 0x7efddc758850
[amour4_CPU4:user_app:(44) 0.000000] [user_app/INFO] Extracting symbols from Bull lib 0x11f9a40 (WxzAr28so.40) and SMPI lib 0x7efddc758850
[amour4_CPU5:user_app:(45) 0.000000] [user_app/INFO] Extracting symbols from Bull lib 0x11fc4b0 (WxzAr29so.40) and SMPI lib 0x7efddc758850
[amour4_CPU6:user_app:(46) 0.000000] [user_app/INFO] Extracting symbols from Bull lib 0x11fef20 (WxzAr30so.40) and SMPI lib 0x7efddc758850
[amour4_CPU7:user_app:(47) 0.000000] [user_app/INFO] Extracting symbols from Bull lib 0x1201ba0 (WxzAr31so.40) and SMPI lib 0x7efddc758850
[amour5_CPU0:user_app:(53) 0.000000] [user_app/INFO] Extracting symbols from Bull lib 0x1205170 (WxzAr32so.40) and SMPI lib 0x7efddc758850
[amour5_CPU1:user_app:(54) 0.000000] [user_app/INFO] Extracting symbols from Bull lib 0x1207be0 (WxzAr33so.40) and SMPI lib 0x7efddc758850
[amour5_CPU2:user_app:(55) 0.000000] [user_app/INFO] Extracting symbols from Bull lib 0x120a650 (WxzAr34so.40) and SMPI lib 0x7efddc758850
[amour5_CPU3:user_app:(56) 0.000000] [user_app/INFO] Extracting symbols from Bull lib 0x120d0c0 (WxzAr35so.40) and SMPI lib 0x7efddc758850
[amour5_CPU4:user_app:(57) 0.000000] [user_app/INFO] Extracting symbols from Bull lib 0x120fb30 (WxzAr36so.40) and SMPI lib 0x7efddc758850
[amour5_CPU5:user_app:(58) 0.000000] [user_app/INFO] Extracting symbols from Bull lib 0x12125a0 (WxzAr37so.40) and SMPI lib 0x7efddc758850
[amour5_CPU6:user_app:(59) 0.000000] [user_app/INFO] Extracting symbols from Bull lib 0x1215010 (WxzAr38so.40) and SMPI lib 0x7efddc758850
[amour5_CPU7:user_app:(60) 0.000000] [user_app/INFO] Extracting symbols from Bull lib 0x1217a80 (WxzAr39so.40) and SMPI lib 0x7efddc758850
[amour6_CPU0:user_app:(66) 0.000000] [user_app/INFO] Extracting symbols from Bull lib 0x121a830 (WxzAr40so.40) and SMPI lib 0x7efddc758850
[amour6_CPU1:user_app:(67) 0.000000] [user_app/INFO] Extracting symbols from Bull lib 0x121d2a0 (WxzAr41so.40) and SMPI lib 0x7efddc758850
[amour6_CPU2:user_app:(68) 0.000000] [user_app/INFO] Extracting symbols from Bull lib 0x121fd10 (WxzAr42so.40) and SMPI lib 0x7efddc758850
[amour6_CPU3:user_app:(69) 0.000000] [user_app/INFO] Extracting symbols from Bull lib 0x1222780 (WxzAr43so.40) and SMPI lib 0x7efddc758850
[amour6_CPU4:user_app:(70) 0.000000] [user_app/INFO] Extracting symbols from Bull lib 0x12251f0 (WxzAr44so.40) and SMPI lib 0x7efddc758850
[amour6_CPU5:user_app:(71) 0.000000] [user_app/INFO] Extracting symbols from Bull lib 0x1227c60 (WxzAr45so.40) and SMPI lib 0x7efddc758850
[amour6_CPU6:user_app:(72) 0.000000] [user_app/INFO] Extracting symbols from Bull lib 0x122a6d0 (WxzAr46so.40) and SMPI lib 0x7efddc758850
[amour6_CPU7:user_app:(73) 0.000000] [user_app/INFO] Extracting symbols from Bull lib 0x122d140 (WxzAr47so.40) and SMPI lib 0x7efddc758850
[amour7_CPU0:user_app:(79) 0.000000] [user_app/INFO] Extracting symbols from Bull lib 0x122fef0 (WxzAr48so.40) and SMPI lib 0x7efddc758850
[amour7_CPU1:user_app:(80) 0.000000] [user_app/INFO] Extracting symbols from Bull lib 0x1232960 (WxzAr49so.40) and SMPI lib 0x7efddc758850
[amour7_CPU2:user_app:(81) 0.000000] [user_app/INFO] Extracting symbols from Bull lib 0x12353d0 (WxzAr50so.40) and SMPI lib 0x7efddc758850
[amour7_CPU3:user_app:(82) 0.000000] [user_app/INFO] Extracting symbols from Bull lib 0x1237e40 (WxzAr51so.40) and SMPI lib 0x7efddc758850
[amour7_CPU4:user_app:(83) 0.000000] [user_app/INFO] Extracting symbols from Bull lib 0x123a8b0 (WxzAr52so.40) and SMPI lib 0x7efddc758850
[amour7_CPU5:user_app:(84) 0.000000] [user_app/INFO] Extracting symbols from Bull lib 0x123d320 (WxzAr53so.40) and SMPI lib 0x7efddc758850
[amour7_CPU6:user_app:(85) 0.000000] [user_app/INFO] Extracting symbols from Bull lib 0x123fd90 (WxzAr54so.40) and SMPI lib 0x7efddc758850
[amour7_CPU7:user_app:(86) 0.000000] [user_app/INFO] Extracting symbols from Bull lib 0x1242800 (WxzAr55so.40) and SMPI lib 0x7efddc758850
[amour8_CPU0:user_app:(92) 0.000000] [user_app/INFO] Extracting symbols from Bull lib 0x12455b0 (WxzAr56so.40) and SMPI lib 0x7efddc758850
[amour8_CPU1:user_app:(93) 0.000000] [user_app/INFO] Extracting symbols from Bull lib 0x1248020 (WxzAr57so.40) and SMPI lib 0x7efddc758850
[amour8_CPU2:user_app:(94) 0.000000] [user_app/INFO] Extracting symbols from Bull lib 0x124aa90 (WxzAr58so.40) and SMPI lib 0x7efddc758850
[amour8_CPU3:user_app:(95) 0.000000] [user_app/INFO] Extracting symbols from Bull lib 0x124d500 (WxzAr59so.40) and SMPI lib 0x7efddc758850
[amour8_CPU4:user_app:(96) 0.000000] [user_app/INFO] Extracting symbols from Bull lib 0x124ff70 (WxzAr60so.40) and SMPI lib 0x7efddc758850
[amour8_CPU5:user_app:(97) 0.000000] [user_app/INFO] Extracting symbols from Bull lib 0x12529e0 (WxzAr61so.40) and SMPI lib 0x7efddc758850
[amour8_CPU6:user_app:(98) 0.000000] [user_app/INFO] Extracting symbols from Bull lib 0x1255450 (WxzAr62so.40) and SMPI lib 0x7efddc758850
[amour8_CPU7:user_app:(99) 0.000000] [user_app/INFO] Extracting symbols from Bull lib 0x12582d0 (WxzAr63so.40) and SMPI lib 0x7efddc758850
[amour9_CPU0:user_app:(105) 0.000000] [user_app/INFO] Extracting symbols from Bull lib 0x125c8b0 (WxzAr64so.40) and SMPI lib 0x7efddc758850
[amour9_CPU1:user_app:(106) 0.000000] [user_app/INFO] Extracting symbols from Bull lib 0x125f320 (WxzAr65so.40) and SMPI lib 0x7efddc758850
[amour9_CPU2:user_app:(107) 0.000000] [user_app/INFO] Extracting symbols from Bull lib 0x1261d90 (WxzAr66so.40) and SMPI lib 0x7efddc758850
[amour9_CPU3:user_app:(108) 0.000000] [user_app/INFO] Extracting symbols from Bull lib 0x1264800 (WxzAr67so.40) and SMPI lib 0x7efddc758850
[amour9_CPU4:user_app:(109) 0.000000] [user_app/INFO] Extracting symbols from Bull lib 0x1267270 (WxzAr68so.40) and SMPI lib 0x7efddc758850
[amour9_CPU5:user_app:(110) 0.000000] [user_app/INFO] Extracting symbols from Bull lib 0x1269ce0 (WxzAr69so.40) and SMPI lib 0x7efddc758850
[amour9_CPU6:user_app:(111) 0.000000] [user_app/INFO] Extracting symbols from Bull lib 0x126c750 (WxzAr70so.40) and SMPI lib 0x7efddc758850
[amour9_CPU7:user_app:(112) 0.000000] [user_app/INFO] Extracting symbols from Bull lib 0x126f1c0 (WxzAr71so.40) and SMPI lib 0x7efddc758850
[amour10_CPU0:user_app:(118) 0.000000] [user_app/INFO] Extracting symbols from Bull lib 0x1271f70 (WxzAr72so.40) and SMPI lib 0x7efddc758850
[amour10_CPU1:user_app:(119) 0.000000] [user_app/INFO] Extracting symbols from Bull lib 0x12749e0 (WxzAr73so.40) and SMPI lib 0x7efddc758850
[amour10_CPU2:user_app:(120) 0.000000] [user_app/INFO] Extracting symbols from Bull lib 0x1277450 (WxzAr74so.40) and SMPI lib 0x7efddc758850
[amour10_CPU3:user_app:(121) 0.000000] [user_app/INFO] Extracting symbols from Bull lib 0x1279ec0 (WxzAr75so.40) and SMPI lib 0x7efddc758850
[amour10_CPU4:user_app:(122) 0.000000] [user_app/INFO] Extracting symbols from Bull lib 0x127c930 (WxzAr76so.40) and SMPI lib 0x7efddc758850
[amour10_CPU5:user_app:(123) 0.000000] [user_app/INFO] Extracting symbols from Bull lib 0x127f3a0 (WxzAr77so.40) and SMPI lib 0x7efddc758850
[amour10_CPU6:user_app:(124) 0.000000] [user_app/INFO] Extracting symbols from Bull lib 0x1281e10 (WxzAr78so.40) and SMPI lib 0x7efddc758850
[amour10_CPU7:user_app:(125) 0.000000] [user_app/INFO] Extracting symbols from Bull lib 0x1284880 (WxzAr79so.40) and SMPI lib 0x7efddc758850
[amour11_CPU0:user_app:(131) 0.000000] [user_app/INFO] Extracting symbols from Bull lib 0x1287630 (WxzAr80so.40) and SMPI lib 0x7efddc758850
[amour11_CPU1:user_app:(132) 0.000000] [user_app/INFO] Extracting symbols from Bull lib 0x128a0a0 (WxzAr81so.40) and SMPI lib 0x7efddc758850
[amour11_CPU2:user_app:(133) 0.000000] [user_app/INFO] Extracting symbols from Bull lib 0x128cb10 (WxzAr82so.40) and SMPI lib 0x7efddc758850
[amour11_CPU3:user_app:(134) 0.000000] [user_app/INFO] Extracting symbols from Bull lib 0x128f580 (WxzAr83so.40) and SMPI lib 0x7efddc758850
[amour11_CPU4:user_app:(135) 0.000000] [user_app/INFO] Extracting symbols from Bull lib 0x1291ff0 (WxzAr84so.40) and SMPI lib 0x7efddc758850
[amour11_CPU5:user_app:(136) 0.000000] [user_app/INFO] Extracting symbols from Bull lib 0x1294a60 (WxzAr85so.40) and SMPI lib 0x7efddc758850
[amour11_CPU6:user_app:(137) 0.000000] [user_app/INFO] Extracting symbols from Bull lib 0x12974d0 (WxzAr86so.40) and SMPI lib 0x7efddc758850
[amour11_CPU7:user_app:(138) 0.000000] [user_app/INFO] Extracting symbols from Bull lib 0x1299f40 (WxzAr87so.40) and SMPI lib 0x7efddc758850
[amour12_CPU0:user_app:(144) 0.000000] [user_app/INFO] Extracting symbols from Bull lib 0x129ccf0 (WxzAr88so.40) and SMPI lib 0x7efddc758850
[amour12_CPU1:user_app:(145) 0.000000] [user_app/INFO] Extracting symbols from Bull lib 0x129f760 (WxzAr89so.40) and SMPI lib 0x7efddc758850
[amour12_CPU2:user_app:(146) 0.000000] [user_app/INFO] Extracting symbols from Bull lib 0x12a21d0 (WxzAr90so.40) and SMPI lib 0x7efddc758850
[amour12_CPU3:user_app:(147) 0.000000] [user_app/INFO] Extracting symbols from Bull lib 0x12a4c40 (WxzAr91so.40) and SMPI lib 0x7efddc758850
[amour12_CPU4:user_app:(148) 0.000000] [user_app/INFO] Extracting symbols from Bull lib 0x12a76b0 (WxzAr92so.40) and SMPI lib 0x7efddc758850
[amour12_CPU5:user_app:(149) 0.000000] [user_app/INFO] Extracting symbols from Bull lib 0x12aa120 (WxzAr93so.40) and SMPI lib 0x7efddc758850
[amour12_CPU6:user_app:(150) 0.000000] [user_app/INFO] Extracting symbols from Bull lib 0x12acb90 (WxzAr94so.40) and SMPI lib 0x7efddc758850
[amour12_CPU7:user_app:(151) 0.000000] [user_app/INFO] Extracting symbols from Bull lib 0x12af600 (WxzAr95so.40) and SMPI lib 0x7efddc758850
[amour13_CPU0:user_app:(157) 0.000000] [user_app/INFO] Extracting symbols from Bull lib 0x12b23b0 (WxzAr96so.40) and SMPI lib 0x7efddc758850
[amour13_CPU1:user_app:(158) 0.000000] [user_app/INFO] Extracting symbols from Bull lib 0x12b4e20 (WxzAr97so.40) and SMPI lib 0x7efddc758850
[amour13_CPU2:user_app:(159) 0.000000] [user_app/INFO] Extracting symbols from Bull lib 0x12b7890 (WxzAr98so.40) and SMPI lib 0x7efddc758850
[amour13_CPU3:user_app:(160) 0.000000] [user_app/INFO] Extracting symbols from Bull lib 0x12ba300 (WxzAr99so.40) and SMPI lib 0x7efddc758850
[amour13_CPU4:user_app:(161) 0.000000] [user_app/INFO] Extracting symbols from Bull lib 0x12bcce0 (WxzA100so.40) and SMPI lib 0x7efddc758850
[amour13_CPU5:user_app:(162) 0.000000] [user_app/INFO] Extracting symbols from Bull lib 0x12bf6d0 (WxzA101so.40) and SMPI lib 0x7efddc758850
[amour13_CPU6:user_app:(163) 0.000000] [user_app/INFO] Extracting symbols from Bull lib 0x12c20c0 (WxzA102so.40) and SMPI lib 0x7efddc758850
[amour13_CPU7:user_app:(164) 0.000000] [user_app/INFO] Extracting symbols from Bull lib 0x12c4ab0 (WxzA103so.40) and SMPI lib 0x7efddc758850
[amour14_CPU0:user_app:(170) 0.000000] [user_app/INFO] Extracting symbols from Bull lib 0x12c77e0 (WxzA104so.40) and SMPI lib 0x7efddc758850
[amour14_CPU1:user_app:(171) 0.000000] [user_app/INFO] Extracting symbols from Bull lib 0x12ca1d0 (WxzA105so.40) and SMPI lib 0x7efddc758850
[amour14_CPU2:user_app:(172) 0.000000] [user_app/INFO] Extracting symbols from Bull lib 0x12ccbc0 (WxzA106so.40) and SMPI lib 0x7efddc758850
[amour14_CPU3:user_app:(173) 0.000000] [user_app/INFO] Extracting symbols from Bull lib 0x12cf660 (WxzA107so.40) and SMPI lib 0x7efddc758850
[amour14_CPU4:user_app:(174) 0.000000] [user_app/INFO] Extracting symbols from Bull lib 0x12d2100 (WxzA108so.40) and SMPI lib 0x7efddc758850
[amour14_CPU5:user_app:(175) 0.000000] [user_app/INFO] Extracting symbols from Bull lib 0x12d4ba0 (WxzA109so.40) and SMPI lib 0x7efddc758850
[amour14_CPU6:user_app:(176) 0.000000] [user_app/INFO] Extracting symbols from Bull lib 0x12d7640 (WxzA110so.40) and SMPI lib 0x7efddc758850
[amour14_CPU7:user_app:(177) 0.000000] [user_app/INFO] Extracting symbols from Bull lib 0x12da0e0 (WxzA111so.40) and SMPI lib 0x7efddc758850
[amour15_CPU0:user_app:(183) 0.000000] [user_app/INFO] Extracting symbols from Bull lib 0x12dcec0 (WxzA112so.40) and SMPI lib 0x7efddc758850
[amour15_CPU1:user_app:(184) 0.000000] [user_app/INFO] Extracting symbols from Bull lib 0x12df960 (WxzA113so.40) and SMPI lib 0x7efddc758850
[amour15_CPU2:user_app:(185) 0.000000] [user_app/INFO] Extracting symbols from Bull lib 0x12e2400 (WxzA114so.40) and SMPI lib 0x7efddc758850
[amour15_CPU3:user_app:(186) 0.000000] [user_app/INFO] Extracting symbols from Bull lib 0x12e4ea0 (WxzA115so.40) and SMPI lib 0x7efddc758850
[amour15_CPU4:user_app:(187) 0.000000] [user_app/INFO] Extracting symbols from Bull lib 0x12e7940 (WxzA116so.40) and SMPI lib 0x7efddc758850
[amour15_CPU5:user_app:(188) 0.000000] [user_app/INFO] Extracting symbols from Bull lib 0x12ea3e0 (WxzA117so.40) and SMPI lib 0x7efddc758850
[amour15_CPU6:user_app:(189) 0.000000] [user_app/INFO] Extracting symbols from Bull lib 0x12ece80 (WxzA118so.40) and SMPI lib 0x7efddc758850
[amour15_CPU7:user_app:(190) 0.000000] [user_app/INFO] Extracting symbols from Bull lib 0x12ef920 (WxzA119so.40) and SMPI lib 0x7efddc758850
[amour16_CPU0:user_app:(196) 0.000000] [user_app/INFO] Extracting symbols from Bull lib 0x12f2700 (WxzA120so.40) and SMPI lib 0x7efddc758850
[amour16_CPU1:user_app:(197) 0.000000] [user_app/INFO] Extracting symbols from Bull lib 0x12f51a0 (WxzA121so.40) and SMPI lib 0x7efddc758850
[amour16_CPU2:user_app:(198) 0.000000] [user_app/INFO] Extracting symbols from Bull lib 0x12f7c40 (WxzA122so.40) and SMPI lib 0x7efddc758850
[amour16_CPU3:user_app:(199) 0.000000] [user_app/INFO] Extracting symbols from Bull lib 0x12fa6e0 (WxzA123so.40) and SMPI lib 0x7efddc758850
[amour16_CPU4:user_app:(200) 0.000000] [user_app/INFO] Extracting symbols from Bull lib 0x12fd180 (WxzA124so.40) and SMPI lib 0x7efddc758850
[amour16_CPU5:user_app:(201) 0.000000] [user_app/INFO] Extracting symbols from Bull lib 0x12ffc20 (WxzA125so.40) and SMPI lib 0x7efddc758850
[amour16_CPU6:user_app:(202) 0.000000] [user_app/INFO] Extracting symbols from Bull lib 0x13026c0 (WxzA126so.40) and SMPI lib 0x7efddc758850
[amour16_CPU7:user_app:(203) 0.000000] [user_app/INFO] Extracting symbols from Bull lib 0x1305970 (WxzA127so.40) and SMPI lib 0x7efddc758850
--------------------------------------------------------------------------
An invalid value was supplied for an enum variable.

  Variable     : btl_vader_single_copy_mechanism
  Value        : xpmem
  Valid values : 1:"cma", 4:"emulated", 3:"none"
--------------------------------------------------------------------------
--------------------------------------------------------------------------
An invalid value was supplied for an enum variable.

  Variable     : btl_vader_single_copy_mechanism
  Value        : xpmem
  Valid values : 1:"cma", 4:"emulated", 3:"none"
--------------------------------------------------------------------------
--------------------------------------------------------------------------
An invalid value was supplied for an enum variable.

  Variable     : btl_vader_single_copy_mechanism
  Value        : xpmem
  Valid values : 1:"cma", 4:"emulated", 3:"none"
--------------------------------------------------------------------------
--------------------------------------------------------------------------
An invalid value was supplied for an enum variable.

  Variable     : btl_vader_single_copy_mechanism
  Value        : xpmem
  Valid values : 1:"cma", 4:"emulated", 3:"none"
--------------------------------------------------------------------------
--------------------------------------------------------------------------
An invalid value was supplied for an enum variable.

  Variable     : btl_vader_single_copy_mechanism
  Value        : xpmem
  Valid values : 1:"cma", 4:"emulated", 3:"none"
--------------------------------------------------------------------------
--------------------------------------------------------------------------
An invalid value was supplied for an enum variable.

  Variable     : btl_vader_single_copy_mechanism
  Value        : xpmem
  Valid values : 1:"cma", 4:"emulated", 3:"none"
--------------------------------------------------------------------------
--------------------------------------------------------------------------
An invalid value was supplied for an enum variable.

  Variable     : btl_vader_single_copy_mechanism
  Value        : xpmem
  Valid values : 1:"cma", 4:"emulated", 3:"none"
--------------------------------------------------------------------------
--------------------------------------------------------------------------
An invalid value was supplied for an enum variable.

  Variable     : btl_vader_single_copy_mechanism
  Value        : xpmem
  Valid values : 1:"cma", 4:"emulated", 3:"none"
--------------------------------------------------------------------------
--------------------------------------------------------------------------
An invalid value was supplied for an enum variable.

  Variable     : btl_vader_single_copy_mechanism
  Value        : xpmem
  Valid values : 1:"cma", 4:"emulated", 3:"none"
--------------------------------------------------------------------------
--------------------------------------------------------------------------
An invalid value was supplied for an enum variable.

  Variable     : btl_vader_single_copy_mechanism
  Value        : xpmem
  Valid values : 1:"cma", 4:"emulated", 3:"none"
--------------------------------------------------------------------------
--------------------------------------------------------------------------
An invalid value was supplied for an enum variable.

  Variable     : btl_vader_single_copy_mechanism
  Value        : xpmem
  Valid values : 1:"cma", 4:"emulated", 3:"none"
--------------------------------------------------------------------------
--------------------------------------------------------------------------
An invalid value was supplied for an enum variable.

  Variable     : btl_vader_single_copy_mechanism
  Value        : xpmem
  Valid values : 1:"cma", 4:"emulated", 3:"none"
--------------------------------------------------------------------------
--------------------------------------------------------------------------
An invalid value was supplied for an enum variable.

  Variable     : btl_vader_single_copy_mechanism
  Value        : xpmem
  Valid values : 1:"cma", 4:"emulated", 3:"none"
--------------------------------------------------------------------------
--------------------------------------------------------------------------
An invalid value was supplied for an enum variable.

  Variable     : btl_vader_single_copy_mechanism
  Value        : xpmem
  Valid values : 1:"cma", 4:"emulated", 3:"none"
--------------------------------------------------------------------------
--------------------------------------------------------------------------
An invalid value was supplied for an enum variable.

  Variable     : btl_vader_single_copy_mechanism
  Value        : xpmem
  Valid values : 1:"cma", 4:"emulated", 3:"none"
--------------------------------------------------------------------------
--------------------------------------------------------------------------
An invalid value was supplied for an enum variable.

  Variable     : btl_vader_single_copy_mechanism
  Value        : xpmem
  Valid values : 1:"cma", 4:"emulated", 3:"none"
--------------------------------------------------------------------------
--------------------------------------------------------------------------
An invalid value was supplied for an enum variable.

  Variable     : btl_vader_single_copy_mechanism
  Value        : xpmem
  Valid values : 1:"cma", 4:"emulated", 3:"none"
--------------------------------------------------------------------------
--------------------------------------------------------------------------
An invalid value was supplied for an enum variable.

  Variable     : btl_vader_single_copy_mechanism
  Value        : xpmem
  Valid values : 1:"cma", 4:"emulated", 3:"none"
--------------------------------------------------------------------------
--------------------------------------------------------------------------
An invalid value was supplied for an enum variable.

  Variable     : btl_vader_single_copy_mechanism
  Value        : xpmem
  Valid values : 1:"cma", 4:"emulated", 3:"none"
--------------------------------------------------------------------------
--------------------------------------------------------------------------
An invalid value was supplied for an enum variable.

  Variable     : btl_vader_single_copy_mechanism
  Value        : xpmem
  Valid values : 1:"cma", 4:"emulated", 3:"none"
--------------------------------------------------------------------------
--------------------------------------------------------------------------
An invalid value was supplied for an enum variable.

  Variable     : btl_vader_single_copy_mechanism
  Value        : xpmem
  Valid values : 1:"cma", 4:"emulated", 3:"none"
--------------------------------------------------------------------------
--------------------------------------------------------------------------
An invalid value was supplied for an enum variable.

  Variable     : btl_vader_single_copy_mechanism
  Value        : xpmem
  Valid values : 1:"cma", 4:"emulated", 3:"none"
--------------------------------------------------------------------------
--------------------------------------------------------------------------
An invalid value was supplied for an enum variable.

  Variable     : btl_vader_single_copy_mechanism
  Value        : xpmem
  Valid values : 1:"cma", 4:"emulated", 3:"none"
--------------------------------------------------------------------------
--------------------------------------------------------------------------
An invalid value was supplied for an enum variable.

  Variable     : btl_vader_single_copy_mechanism
  Value        : xpmem
  Valid values : 1:"cma", 4:"emulated", 3:"none"
--------------------------------------------------------------------------
--------------------------------------------------------------------------
An invalid value was supplied for an enum variable.

  Variable     : btl_vader_single_copy_mechanism
  Value        : xpmem
  Valid values : 1:"cma", 4:"emulated", 3:"none"
--------------------------------------------------------------------------
--------------------------------------------------------------------------
An invalid value was supplied for an enum variable.

  Variable     : btl_vader_single_copy_mechanism
  Value        : xpmem
  Valid values : 1:"cma", 4:"emulated", 3:"none"
--------------------------------------------------------------------------
--------------------------------------------------------------------------
An invalid value was supplied for an enum variable.

  Variable     : btl_vader_single_copy_mechanism
  Value        : xpmem
  Valid values : 1:"cma", 4:"emulated", 3:"none"
--------------------------------------------------------------------------
--------------------------------------------------------------------------
An invalid value was supplied for an enum variable.

  Variable     : btl_vader_single_copy_mechanism
  Value        : xpmem
  Valid values : 1:"cma", 4:"emulated", 3:"none"
--------------------------------------------------------------------------
--------------------------------------------------------------------------
An invalid value was supplied for an enum variable.

  Variable     : btl_vader_single_copy_mechanism
  Value        : xpmem
  Valid values : 1:"cma", 4:"emulated", 3:"none"
--------------------------------------------------------------------------
--------------------------------------------------------------------------
An invalid value was supplied for an enum variable.

  Variable     : btl_vader_single_copy_mechanism
  Value        : xpmem
  Valid values : 1:"cma", 4:"emulated", 3:"none"
--------------------------------------------------------------------------
--------------------------------------------------------------------------
An invalid value was supplied for an enum variable.

  Variable     : btl_vader_single_copy_mechanism
  Value        : xpmem
  Valid values : 1:"cma", 4:"emulated", 3:"none"
--------------------------------------------------------------------------
--------------------------------------------------------------------------
An invalid value was supplied for an enum variable.

  Variable     : btl_vader_single_copy_mechanism
  Value        : xpmem
  Valid values : 1:"cma", 4:"emulated", 3:"none"
--------------------------------------------------------------------------
--------------------------------------------------------------------------
An invalid value was supplied for an enum variable.

  Variable     : btl_vader_single_copy_mechanism
  Value        : xpmem
  Valid values : 1:"cma", 4:"emulated", 3:"none"
--------------------------------------------------------------------------
--------------------------------------------------------------------------
An invalid value was supplied for an enum variable.

  Variable     : btl_vader_single_copy_mechanism
  Value        : xpmem
  Valid values : 1:"cma", 4:"emulated", 3:"none"
--------------------------------------------------------------------------
--------------------------------------------------------------------------
An invalid value was supplied for an enum variable.

  Variable     : btl_vader_single_copy_mechanism
  Value        : xpmem
  Valid values : 1:"cma", 4:"emulated", 3:"none"
--------------------------------------------------------------------------
--------------------------------------------------------------------------
An invalid value was supplied for an enum variable.

  Variable     : btl_vader_single_copy_mechanism
  Value        : xpmem
  Valid values : 1:"cma", 4:"emulated", 3:"none"
--------------------------------------------------------------------------
--------------------------------------------------------------------------
An invalid value was supplied for an enum variable.

  Variable     : btl_vader_single_copy_mechanism
  Value        : xpmem
  Valid values : 1:"cma", 4:"emulated", 3:"none"
--------------------------------------------------------------------------
--------------------------------------------------------------------------
An invalid value was supplied for an enum variable.

  Variable     : btl_vader_single_copy_mechanism
  Value        : xpmem
  Valid values : 1:"cma", 4:"emulated", 3:"none"
--------------------------------------------------------------------------
--------------------------------------------------------------------------
An invalid value was supplied for an enum variable.

  Variable     : btl_vader_single_copy_mechanism
  Value        : xpmem
  Valid values : 1:"cma", 4:"emulated", 3:"none"
--------------------------------------------------------------------------
--------------------------------------------------------------------------
An invalid value was supplied for an enum variable.

  Variable     : btl_vader_single_copy_mechanism
  Value        : xpmem
  Valid values : 1:"cma", 4:"emulated", 3:"none"
--------------------------------------------------------------------------
--------------------------------------------------------------------------
An invalid value was supplied for an enum variable.

  Variable     : btl_vader_single_copy_mechanism
  Value        : xpmem
  Valid values : 1:"cma", 4:"emulated", 3:"none"
--------------------------------------------------------------------------
--------------------------------------------------------------------------
An invalid value was supplied for an enum variable.

  Variable     : btl_vader_single_copy_mechanism
  Value        : xpmem
  Valid values : 1:"cma", 4:"emulated", 3:"none"
--------------------------------------------------------------------------
--------------------------------------------------------------------------
An invalid value was supplied for an enum variable.

  Variable     : btl_vader_single_copy_mechanism
  Value        : xpmem
  Valid values : 1:"cma", 4:"emulated", 3:"none"
--------------------------------------------------------------------------
--------------------------------------------------------------------------
An invalid value was supplied for an enum variable.

  Variable     : btl_vader_single_copy_mechanism
  Value        : xpmem
  Valid values : 1:"cma", 4:"emulated", 3:"none"
--------------------------------------------------------------------------
--------------------------------------------------------------------------
An invalid value was supplied for an enum variable.

  Variable     : btl_vader_single_copy_mechanism
  Value        : xpmem
  Valid values : 1:"cma", 4:"emulated", 3:"none"
--------------------------------------------------------------------------
--------------------------------------------------------------------------
An invalid value was supplied for an enum variable.

  Variable     : btl_vader_single_copy_mechanism
  Value        : xpmem
  Valid values : 1:"cma", 4:"emulated", 3:"none"
--------------------------------------------------------------------------
--------------------------------------------------------------------------
An invalid value was supplied for an enum variable.

  Variable     : btl_vader_single_copy_mechanism
  Value        : xpmem
  Valid values : 1:"cma", 4:"emulated", 3:"none"
--------------------------------------------------------------------------
--------------------------------------------------------------------------
An invalid value was supplied for an enum variable.

  Variable     : btl_vader_single_copy_mechanism
  Value        : xpmem
  Valid values : 1:"cma", 4:"emulated", 3:"none"
--------------------------------------------------------------------------
--------------------------------------------------------------------------
An invalid value was supplied for an enum variable.

  Variable     : btl_vader_single_copy_mechanism
  Value        : xpmem
  Valid values : 1:"cma", 4:"emulated", 3:"none"
--------------------------------------------------------------------------
--------------------------------------------------------------------------
An invalid value was supplied for an enum variable.

  Variable     : btl_vader_single_copy_mechanism
  Value        : xpmem
  Valid values : 1:"cma", 4:"emulated", 3:"none"
--------------------------------------------------------------------------
--------------------------------------------------------------------------
An invalid value was supplied for an enum variable.

  Variable     : btl_vader_single_copy_mechanism
  Value        : xpmem
  Valid values : 1:"cma", 4:"emulated", 3:"none"
--------------------------------------------------------------------------
--------------------------------------------------------------------------
An invalid value was supplied for an enum variable.

  Variable     : btl_vader_single_copy_mechanism
  Value        : xpmem
  Valid values : 1:"cma", 4:"emulated", 3:"none"
--------------------------------------------------------------------------
--------------------------------------------------------------------------
An invalid value was supplied for an enum variable.

  Variable     : btl_vader_single_copy_mechanism
  Value        : xpmem
  Valid values : 1:"cma", 4:"emulated", 3:"none"
--------------------------------------------------------------------------
--------------------------------------------------------------------------
An invalid value was supplied for an enum variable.

  Variable     : btl_vader_single_copy_mechanism
  Value        : xpmem
  Valid values : 1:"cma", 4:"emulated", 3:"none"
--------------------------------------------------------------------------
--------------------------------------------------------------------------
An invalid value was supplied for an enum variable.

  Variable     : btl_vader_single_copy_mechanism
  Value        : xpmem
  Valid values : 1:"cma", 4:"emulated", 3:"none"
--------------------------------------------------------------------------
--------------------------------------------------------------------------
An invalid value was supplied for an enum variable.

  Variable     : btl_vader_single_copy_mechanism
  Value        : xpmem
  Valid values : 1:"cma", 4:"emulated", 3:"none"
--------------------------------------------------------------------------
--------------------------------------------------------------------------
An invalid value was supplied for an enum variable.

  Variable     : btl_vader_single_copy_mechanism
  Value        : xpmem
  Valid values : 1:"cma", 4:"emulated", 3:"none"
--------------------------------------------------------------------------
--------------------------------------------------------------------------
An invalid value was supplied for an enum variable.

  Variable     : btl_vader_single_copy_mechanism
  Value        : xpmem
  Valid values : 1:"cma", 4:"emulated", 3:"none"
--------------------------------------------------------------------------
--------------------------------------------------------------------------
An invalid value was supplied for an enum variable.

  Variable     : btl_vader_single_copy_mechanism
  Value        : xpmem
  Valid values : 1:"cma", 4:"emulated", 3:"none"
--------------------------------------------------------------------------
--------------------------------------------------------------------------
An invalid value was supplied for an enum variable.

  Variable     : btl_vader_single_copy_mechanism
  Value        : xpmem
  Valid values : 1:"cma", 4:"emulated", 3:"none"
--------------------------------------------------------------------------
--------------------------------------------------------------------------
An invalid value was supplied for an enum variable.

  Variable     : btl_vader_single_copy_mechanism
  Value        : xpmem
  Valid values : 1:"cma", 4:"emulated", 3:"none"
--------------------------------------------------------------------------
--------------------------------------------------------------------------
An invalid value was supplied for an enum variable.

  Variable     : btl_vader_single_copy_mechanism
  Value        : xpmem
  Valid values : 1:"cma", 4:"emulated", 3:"none"
--------------------------------------------------------------------------
--------------------------------------------------------------------------
An invalid value was supplied for an enum variable.

  Variable     : btl_vader_single_copy_mechanism
  Value        : xpmem
  Valid values : 1:"cma", 4:"emulated", 3:"none"
--------------------------------------------------------------------------
--------------------------------------------------------------------------
An invalid value was supplied for an enum variable.

  Variable     : btl_vader_single_copy_mechanism
  Value        : xpmem
  Valid values : 1:"cma", 4:"emulated", 3:"none"
--------------------------------------------------------------------------
--------------------------------------------------------------------------
An invalid value was supplied for an enum variable.

  Variable     : btl_vader_single_copy_mechanism
  Value        : xpmem
  Valid values : 1:"cma", 4:"emulated", 3:"none"
--------------------------------------------------------------------------
--------------------------------------------------------------------------
An invalid value was supplied for an enum variable.

  Variable     : btl_vader_single_copy_mechanism
  Value        : xpmem
  Valid values : 1:"cma", 4:"emulated", 3:"none"
--------------------------------------------------------------------------
--------------------------------------------------------------------------
An invalid value was supplied for an enum variable.

  Variable     : btl_vader_single_copy_mechanism
  Value        : xpmem
  Valid values : 1:"cma", 4:"emulated", 3:"none"
--------------------------------------------------------------------------
--------------------------------------------------------------------------
An invalid value was supplied for an enum variable.

  Variable     : btl_vader_single_copy_mechanism
  Value        : xpmem
  Valid values : 1:"cma", 4:"emulated", 3:"none"
--------------------------------------------------------------------------
--------------------------------------------------------------------------
An invalid value was supplied for an enum variable.

  Variable     : btl_vader_single_copy_mechanism
  Value        : xpmem
  Valid values : 1:"cma", 4:"emulated", 3:"none"
--------------------------------------------------------------------------
--------------------------------------------------------------------------
An invalid value was supplied for an enum variable.

  Variable     : btl_vader_single_copy_mechanism
  Value        : xpmem
  Valid values : 1:"cma", 4:"emulated", 3:"none"
--------------------------------------------------------------------------
--------------------------------------------------------------------------
An invalid value was supplied for an enum variable.

  Variable     : btl_vader_single_copy_mechanism
  Value        : xpmem
  Valid values : 1:"cma", 4:"emulated", 3:"none"
--------------------------------------------------------------------------
--------------------------------------------------------------------------
An invalid value was supplied for an enum variable.

  Variable     : btl_vader_single_copy_mechanism
  Value        : xpmem
  Valid values : 1:"cma", 4:"emulated", 3:"none"
--------------------------------------------------------------------------
--------------------------------------------------------------------------
An invalid value was supplied for an enum variable.

  Variable     : btl_vader_single_copy_mechanism
  Value        : xpmem
  Valid values : 1:"cma", 4:"emulated", 3:"none"
--------------------------------------------------------------------------
--------------------------------------------------------------------------
An invalid value was supplied for an enum variable.

  Variable     : btl_vader_single_copy_mechanism
  Value        : xpmem
  Valid values : 1:"cma", 4:"emulated", 3:"none"
--------------------------------------------------------------------------
--------------------------------------------------------------------------
An invalid value was supplied for an enum variable.

  Variable     : btl_vader_single_copy_mechanism
  Value        : xpmem
  Valid values : 1:"cma", 4:"emulated", 3:"none"
--------------------------------------------------------------------------
--------------------------------------------------------------------------
An invalid value was supplied for an enum variable.

  Variable     : btl_vader_single_copy_mechanism
  Value        : xpmem
  Valid values : 1:"cma", 4:"emulated", 3:"none"
--------------------------------------------------------------------------
--------------------------------------------------------------------------
An invalid value was supplied for an enum variable.

  Variable     : btl_vader_single_copy_mechanism
  Value        : xpmem
  Valid values : 1:"cma", 4:"emulated", 3:"none"
--------------------------------------------------------------------------
--------------------------------------------------------------------------
An invalid value was supplied for an enum variable.

  Variable     : btl_vader_single_copy_mechanism
  Value        : xpmem
  Valid values : 1:"cma", 4:"emulated", 3:"none"
--------------------------------------------------------------------------
--------------------------------------------------------------------------
An invalid value was supplied for an enum variable.

  Variable     : btl_vader_single_copy_mechanism
  Value        : xpmem
  Valid values : 1:"cma", 4:"emulated", 3:"none"
--------------------------------------------------------------------------
--------------------------------------------------------------------------
An invalid value was supplied for an enum variable.

  Variable     : btl_vader_single_copy_mechanism
  Value        : xpmem
  Valid values : 1:"cma", 4:"emulated", 3:"none"
--------------------------------------------------------------------------
--------------------------------------------------------------------------
An invalid value was supplied for an enum variable.

  Variable     : btl_vader_single_copy_mechanism
  Value        : xpmem
  Valid values : 1:"cma", 4:"emulated", 3:"none"
--------------------------------------------------------------------------
--------------------------------------------------------------------------
An invalid value was supplied for an enum variable.

  Variable     : btl_vader_single_copy_mechanism
  Value        : xpmem
  Valid values : 1:"cma", 4:"emulated", 3:"none"
--------------------------------------------------------------------------
--------------------------------------------------------------------------
An invalid value was supplied for an enum variable.

  Variable     : btl_vader_single_copy_mechanism
  Value        : xpmem
  Valid values : 1:"cma", 4:"emulated", 3:"none"
--------------------------------------------------------------------------
--------------------------------------------------------------------------
An invalid value was supplied for an enum variable.

  Variable     : btl_vader_single_copy_mechanism
  Value        : xpmem
  Valid values : 1:"cma", 4:"emulated", 3:"none"
--------------------------------------------------------------------------
--------------------------------------------------------------------------
An invalid value was supplied for an enum variable.

  Variable     : btl_vader_single_copy_mechanism
  Value        : xpmem
  Valid values : 1:"cma", 4:"emulated", 3:"none"
--------------------------------------------------------------------------
--------------------------------------------------------------------------
An invalid value was supplied for an enum variable.

  Variable     : btl_vader_single_copy_mechanism
  Value        : xpmem
  Valid values : 1:"cma", 4:"emulated", 3:"none"
--------------------------------------------------------------------------
--------------------------------------------------------------------------
An invalid value was supplied for an enum variable.

  Variable     : btl_vader_single_copy_mechanism
  Value        : xpmem
  Valid values : 1:"cma", 4:"emulated", 3:"none"
--------------------------------------------------------------------------
--------------------------------------------------------------------------
An invalid value was supplied for an enum variable.

  Variable     : btl_vader_single_copy_mechanism
  Value        : xpmem
  Valid values : 1:"cma", 4:"emulated", 3:"none"
--------------------------------------------------------------------------
--------------------------------------------------------------------------
An invalid value was supplied for an enum variable.

  Variable     : btl_vader_single_copy_mechanism
  Value        : xpmem
  Valid values : 1:"cma", 4:"emulated", 3:"none"
--------------------------------------------------------------------------
--------------------------------------------------------------------------
An invalid value was supplied for an enum variable.

  Variable     : btl_vader_single_copy_mechanism
  Value        : xpmem
  Valid values : 1:"cma", 4:"emulated", 3:"none"
--------------------------------------------------------------------------
--------------------------------------------------------------------------
An invalid value was supplied for an enum variable.

  Variable     : btl_vader_single_copy_mechanism
  Value        : xpmem
  Valid values : 1:"cma", 4:"emulated", 3:"none"
--------------------------------------------------------------------------
--------------------------------------------------------------------------
An invalid value was supplied for an enum variable.

  Variable     : btl_vader_single_copy_mechanism
  Value        : xpmem
  Valid values : 1:"cma", 4:"emulated", 3:"none"
--------------------------------------------------------------------------
--------------------------------------------------------------------------
An invalid value was supplied for an enum variable.

  Variable     : btl_vader_single_copy_mechanism
  Value        : xpmem
  Valid values : 1:"cma", 4:"emulated", 3:"none"
--------------------------------------------------------------------------
--------------------------------------------------------------------------
An invalid value was supplied for an enum variable.

  Variable     : btl_vader_single_copy_mechanism
  Value        : xpmem
  Valid values : 1:"cma", 4:"emulated", 3:"none"
--------------------------------------------------------------------------
--------------------------------------------------------------------------
An invalid value was supplied for an enum variable.

  Variable     : btl_vader_single_copy_mechanism
  Value        : xpmem
  Valid values : 1:"cma", 4:"emulated", 3:"none"
--------------------------------------------------------------------------
--------------------------------------------------------------------------
An invalid value was supplied for an enum variable.

  Variable     : btl_vader_single_copy_mechanism
  Value        : xpmem
  Valid values : 1:"cma", 4:"emulated", 3:"none"
--------------------------------------------------------------------------
--------------------------------------------------------------------------
An invalid value was supplied for an enum variable.

  Variable     : btl_vader_single_copy_mechanism
  Value        : xpmem
  Valid values : 1:"cma", 4:"emulated", 3:"none"
--------------------------------------------------------------------------
--------------------------------------------------------------------------
An invalid value was supplied for an enum variable.

  Variable     : btl_vader_single_copy_mechanism
  Value        : xpmem
  Valid values : 1:"cma", 4:"emulated", 3:"none"
--------------------------------------------------------------------------
--------------------------------------------------------------------------
An invalid value was supplied for an enum variable.

  Variable     : btl_vader_single_copy_mechanism
  Value        : xpmem
  Valid values : 1:"cma", 4:"emulated", 3:"none"
--------------------------------------------------------------------------
--------------------------------------------------------------------------
An invalid value was supplied for an enum variable.

  Variable     : btl_vader_single_copy_mechanism
  Value        : xpmem
  Valid values : 1:"cma", 4:"emulated", 3:"none"
--------------------------------------------------------------------------
--------------------------------------------------------------------------
An invalid value was supplied for an enum variable.

  Variable     : btl_vader_single_copy_mechanism
  Value        : xpmem
  Valid values : 1:"cma", 4:"emulated", 3:"none"
--------------------------------------------------------------------------
--------------------------------------------------------------------------
An invalid value was supplied for an enum variable.

  Variable     : btl_vader_single_copy_mechanism
  Value        : xpmem
  Valid values : 1:"cma", 4:"emulated", 3:"none"
--------------------------------------------------------------------------
--------------------------------------------------------------------------
An invalid value was supplied for an enum variable.

  Variable     : btl_vader_single_copy_mechanism
  Value        : xpmem
  Valid values : 1:"cma", 4:"emulated", 3:"none"
--------------------------------------------------------------------------
--------------------------------------------------------------------------
An invalid value was supplied for an enum variable.

  Variable     : btl_vader_single_copy_mechanism
  Value        : xpmem
  Valid values : 1:"cma", 4:"emulated", 3:"none"
--------------------------------------------------------------------------
--------------------------------------------------------------------------
An invalid value was supplied for an enum variable.

  Variable     : btl_vader_single_copy_mechanism
  Value        : xpmem
  Valid values : 1:"cma", 4:"emulated", 3:"none"
--------------------------------------------------------------------------
--------------------------------------------------------------------------
An invalid value was supplied for an enum variable.

  Variable     : btl_vader_single_copy_mechanism
  Value        : xpmem
  Valid values : 1:"cma", 4:"emulated", 3:"none"
--------------------------------------------------------------------------
--------------------------------------------------------------------------
An invalid value was supplied for an enum variable.

  Variable     : btl_vader_single_copy_mechanism
  Value        : xpmem
  Valid values : 1:"cma", 4:"emulated", 3:"none"
--------------------------------------------------------------------------
--------------------------------------------------------------------------
An invalid value was supplied for an enum variable.

  Variable     : btl_vader_single_copy_mechanism
  Value        : xpmem
  Valid values : 1:"cma", 4:"emulated", 3:"none"
--------------------------------------------------------------------------
--------------------------------------------------------------------------
An invalid value was supplied for an enum variable.

  Variable     : btl_vader_single_copy_mechanism
  Value        : xpmem
  Valid values : 1:"cma", 4:"emulated", 3:"none"
--------------------------------------------------------------------------
--------------------------------------------------------------------------
An invalid value was supplied for an enum variable.

  Variable     : btl_vader_single_copy_mechanism
  Value        : xpmem
  Valid values : 1:"cma", 4:"emulated", 3:"none"
--------------------------------------------------------------------------
--------------------------------------------------------------------------
An invalid value was supplied for an enum variable.

  Variable     : btl_vader_single_copy_mechanism
  Value        : xpmem
  Valid values : 1:"cma", 4:"emulated", 3:"none"
--------------------------------------------------------------------------
--------------------------------------------------------------------------
An invalid value was supplied for an enum variable.

  Variable     : btl_vader_single_copy_mechanism
  Value        : xpmem
  Valid values : 1:"cma", 4:"emulated", 3:"none"
--------------------------------------------------------------------------
--------------------------------------------------------------------------
An invalid value was supplied for an enum variable.

  Variable     : btl_vader_single_copy_mechanism
  Value        : xpmem
  Valid values : 1:"cma", 4:"emulated", 3:"none"
--------------------------------------------------------------------------
--------------------------------------------------------------------------
An invalid value was supplied for an enum variable.

  Variable     : btl_vader_single_copy_mechanism
  Value        : xpmem
  Valid values : 1:"cma", 4:"emulated", 3:"none"
--------------------------------------------------------------------------
--------------------------------------------------------------------------
An invalid value was supplied for an enum variable.

  Variable     : btl_vader_single_copy_mechanism
  Value        : xpmem
  Valid values : 1:"cma", 4:"emulated", 3:"none"
--------------------------------------------------------------------------
--------------------------------------------------------------------------
An invalid value was supplied for an enum variable.

  Variable     : btl_vader_single_copy_mechanism
  Value        : xpmem
  Valid values : 1:"cma", 4:"emulated", 3:"none"
--------------------------------------------------------------------------
--------------------------------------------------------------------------
An invalid value was supplied for an enum variable.

  Variable     : btl_vader_single_copy_mechanism
  Value        : xpmem
  Valid values : 1:"cma", 4:"emulated", 3:"none"
--------------------------------------------------------------------------
--------------------------------------------------------------------------
An invalid value was supplied for an enum variable.

  Variable     : btl_vader_single_copy_mechanism
  Value        : xpmem
  Valid values : 1:"cma", 4:"emulated", 3:"none"
--------------------------------------------------------------------------
--------------------------------------------------------------------------
An invalid value was supplied for an enum variable.

  Variable     : btl_vader_single_copy_mechanism
  Value        : xpmem
  Valid values : 1:"cma", 4:"emulated", 3:"none"
--------------------------------------------------------------------------
--------------------------------------------------------------------------
An invalid value was supplied for an enum variable.

  Variable     : btl_vader_single_copy_mechanism
  Value        : xpmem
  Valid values : 1:"cma", 4:"emulated", 3:"none"
--------------------------------------------------------------------------
--------------------------------------------------------------------------
An invalid value was supplied for an enum variable.

  Variable     : btl_vader_single_copy_mechanism
  Value        : xpmem
  Valid values : 1:"cma", 4:"emulated", 3:"none"
--------------------------------------------------------------------------
--------------------------------------------------------------------------
An invalid value was supplied for an enum variable.

  Variable     : btl_vader_single_copy_mechanism
  Value        : xpmem
  Valid values : 1:"cma", 4:"emulated", 3:"none"
--------------------------------------------------------------------------
--------------------------------------------------------------------------
An invalid value was supplied for an enum variable.

  Variable     : btl_vader_single_copy_mechanism
  Value        : xpmem
  Valid values : 1:"cma", 4:"emulated", 3:"none"
--------------------------------------------------------------------------
--------------------------------------------------------------------------
An invalid value was supplied for an enum variable.

  Variable     : btl_vader_single_copy_mechanism
  Value        : xpmem
  Valid values : 1:"cma", 4:"emulated", 3:"none"
--------------------------------------------------------------------------
--------------------------------------------------------------------------
An invalid value was supplied for an enum variable.

  Variable     : btl_vader_single_copy_mechanism
  Value        : xpmem
  Valid values : 1:"cma", 4:"emulated", 3:"none"
--------------------------------------------------------------------------
--------------------------------------------------------------------------
An invalid value was supplied for an enum variable.

  Variable     : btl_vader_single_copy_mechanism
  Value        : xpmem
  Valid values : 1:"cma", 4:"emulated", 3:"none"
--------------------------------------------------------------------------
--------------------------------------------------------------------------
An invalid value was supplied for an enum variable.

  Variable     : btl_vader_single_copy_mechanism
  Value        : xpmem
  Valid values : 1:"cma", 4:"emulated", 3:"none"
--------------------------------------------------------------------------
--------------------------------------------------------------------------
An invalid value was supplied for an enum variable.

  Variable     : btl_vader_single_copy_mechanism
  Value        : xpmem
  Valid values : 1:"cma", 4:"emulated", 3:"none"
--------------------------------------------------------------------------
Backtrace (displayed in actor user_app):
  ->  0# xbt_backtrace_display_current in /tmp/opt/simgrid/lib64/libsimgrid.so.3.32
  ->  1# 0x00007EFDDBED247B in /tmp/opt/simgrid/lib64/libsimgrid.so.3.32
  ->  2# s4bxi_bench_end in /tmp/opt/s4bxi/lib/libportals.so.1
  ->  3# PtlEQGet in /tmp/opt/s4bxi/lib/libportals.so.1
  ->  4# mca_btl_bxi_component_progress in WxzAr84-pal.so.40
  ->  5# opal_progress in WxzAr84-pal.so.40
  ->  6# mca_pml_ob1_recv in WxzAr84so.40
  ->  7# PMPI_Recv in WxzAr84so.40
  ->  8# HPL_reduce in ./xhpl_WxzArLQpMc_84.so
  ->  9# HPL_all_reduce in ./xhpl_WxzArLQpMc_84.so
  ->  10# HPL_pdinfo in ./xhpl_WxzArLQpMc_84.so
  ->  11# main in ./xhpl_WxzArLQpMc_84.so

[amour11_CPU4:user_app:(135) 0.068813] ../src/smpi/internals/smpi_bench.cpp:126: [root/CRITICAL] Bench end called twice?
[pm0-nod15:360088] *** Process received signal ***
[pm0-nod15:360088] Signal: Aborted (6)
[pm0-nod15:360088] Signal code:  (-6)
[pm0-nod15:360088] [ 0] /lib64/libc.so.6(+0x37400)[0x7efddacd4400]
[pm0-nod15:360088] [ 1] /lib64/libc.so.6(gsignal+0x10f)[0x7efddacd437f]
[pm0-nod15:360088] [ 2] /lib64/libc.so.6(abort+0x127)[0x7efddacbedb5]
[pm0-nod15:360088] [ 3] /tmp/opt/simgrid/lib64/libsimgrid.so.3.32(+0x110efc)[0x7efddbca5efc]
[pm0-nod15:360088] [ 4] /tmp/opt/simgrid/lib64/libsimgrid.so.3.32(+0x33d418)[0x7efddbed2418]
[pm0-nod15:360088] [ 5] /tmp/opt/s4bxi/lib/libportals.so.1(s4bxi_bench_end+0x17)[0x7efddc2c2067]
[pm0-nod15:360088] [ 6] /tmp/opt/s4bxi/lib/libportals.so.1(PtlEQGet+0x17)[0x7efddc2bee67]
[pm0-nod15:360088] [ 7] WxzAr84-pal.so.40(mca_btl_bxi_component_progress+0xf0)[0x7efd1c03afc0]
[pm0-nod15:360088] [ 8] WxzAr84-pal.so.40(opal_progress+0x74)[0x7efd1bfdb824]
[pm0-nod15:360088] [ 9] WxzAr84so.40(mca_pml_ob1_recv+0x195)[0x7efd1ca42d75]
[pm0-nod15:360088] [10] WxzAr84so.40(PMPI_Recv+0x145)[0x7efd1c89b9a5]
[pm0-nod15:360088] [11] ./xhpl_WxzArLQpMc_84.so(HPL_reduce+0x24d)[0x7efd1cd4f81d]
[pm0-nod15:360088] [12] ./xhpl_WxzArLQpMc_84.so(HPL_all_reduce+0x20)[0x7efd1cd4fb20]
[pm0-nod15:360088] [13] ./xhpl_WxzArLQpMc_84.so(HPL_pdinfo+0x1f9)[0x7efd1cd47859]
[pm0-nod15:360088] [14] ./xhpl_WxzArLQpMc_84.so(main+0x1bf)[0x7efd1cd46dbf]
[pm0-nod15:360088] [15] /tmp/opt/s4bxi/lib/libportals.so.1(_ZN15BxiUserAppActorclEv+0x184d)[0x7efddc2aa8dd]
[pm0-nod15:360088] [16] /tmp/opt/s4bxi/lib/libportals.so.1(_ZZZN7simgrid3s4u6Engine14register_actorI15BxiUserAppActorEEvRKNSt7__cxx1112basic_stringIcSt11char_traitsIcESaIcEEEENKUlSt6vectorIS9_SaIS9_EEE_clESE_ENUlvE_clEv+0x21)[0x7efddc2b0881]
[pm0-nod15:360088] [17] /tmp/opt/simgrid/lib64/libsimgrid.so.3.32(smx_ctx_wrapper+0x1c)[0x7efddbd160bc]
[pm0-nod15:360088] *** End of error message ***
./s4bxi_run_vanilla.sh: line 91: 360088 Aborted                 (core dumped) s4bximain $PLATFORMDIR/amour/build/libamour.so ./deploy.xml ./xhpl xhpl --cfg=smpi/cpu-threshold:${S4BXI_CPU_THRESHOLD} --cfg=smpi/host-speed:$(bc <<< "10000 * ${S4BXI_CPU_FACTOR}")Mf

real	0m27.496s
user	0m5.111s
sys	0m21.504s
