[0.000000] [xbt_cfg/INFO] Configuration change: Set 'smpi/cpu-threshold' to '1e-8'
[0.000000] [xbt_cfg/INFO] Configuration change: Set 'smpi/host-speed' to '10000Mf'
[0.000000] [xbt_cfg/INFO] Configuration change: Set 'surf/precision' to '1e-9'
[0.000000] [xbt_cfg/INFO] Configuration change: Set 'network/loopback-lat' to '0'
[0.000000] [xbt_cfg/INFO] Configuration change: Set 'network/loopback-bw' to '999e9'
[0.000000] [xbt_cfg/INFO] Configuration change: Set 'network/model' to 'CM02'
[0.000000] [xbt_cfg/INFO] Configuration change: Set 'smpi/coll-selector' to 'ompi'
[0.000000] [xbt_cfg/INFO] Configuration change: Set 'smpi/host-speed' to '10000.000000Mf'
[0.000000] [xbt_cfg/INFO] Configuration change: Set 'smpi/cpu-threshold' to '0.000000'
[0.000000] [xbt_cfg/INFO] Configuration change: Set 'smpi/simulate-computation' to 'yes'
[0.000000] [smpi_coll/INFO] Switch to algorithm ompi for collective gather
[0.000000] [smpi_coll/INFO] Switch to algorithm ompi for collective allgather
[0.000000] [smpi_coll/INFO] Switch to algorithm ompi for collective allgatherv
[0.000000] [smpi_coll/INFO] Switch to algorithm ompi for collective allreduce
[0.000000] [smpi_coll/INFO] Switch to algorithm ompi for collective alltoall
[0.000000] [smpi_coll/INFO] Switch to algorithm ompi for collective alltoallv
[0.000000] [smpi_coll/INFO] Switch to algorithm ompi for collective reduce
[0.000000] [smpi_coll/INFO] Switch to algorithm ompi for collective reduce_scatter
[0.000000] [smpi_coll/INFO] Switch to algorithm ompi for collective scatter
[0.000000] [smpi_coll/INFO] Switch to algorithm ompi for collective bcast
[0.000000] [smpi_coll/INFO] Switch to algorithm ompi for collective barrier
[0.000000] [smpi_coll/INFO] Switch to algorithm ompi for collective gather
[0.000000] [smpi_coll/INFO] Switch to algorithm ompi for collective allgather
[0.000000] [smpi_coll/INFO] Switch to algorithm ompi for collective allgatherv
[0.000000] [smpi_coll/INFO] Switch to algorithm ompi for collective allreduce
[0.000000] [smpi_coll/INFO] Switch to algorithm ompi for collective alltoall
[0.000000] [smpi_coll/INFO] Switch to algorithm ompi for collective alltoallv
[0.000000] [smpi_coll/INFO] Switch to algorithm ompi for collective reduce
[0.000000] [smpi_coll/INFO] Switch to algorithm ompi for collective reduce_scatter
[0.000000] [smpi_coll/INFO] Switch to algorithm ompi for collective scatter
[0.000000] [smpi_coll/INFO] Switch to algorithm ompi for collective bcast
[0.000000] [smpi_coll/INFO] Switch to algorithm ompi for collective barrier
[amour1_CPU0:user_app:(1) 0.000000] [s4bxi_main_actor/INFO] Setup with nid = 1, model_pci = 1 ; e2e_off = 0
[amour1_CPU1:user_app:(2) 0.000000] [s4bxi_main_actor/INFO] Setup with nid = 1, model_pci = 1 ; e2e_off = 0
[amour1_CPU2:user_app:(3) 0.000000] [s4bxi_main_actor/INFO] Setup with nid = 1, model_pci = 1 ; e2e_off = 0
[amour1_CPU3:user_app:(4) 0.000000] [s4bxi_main_actor/INFO] Setup with nid = 1, model_pci = 1 ; e2e_off = 0
[amour1_CPU4:user_app:(5) 0.000000] [s4bxi_main_actor/INFO] Setup with nid = 1, model_pci = 1 ; e2e_off = 0
[amour1_CPU5:user_app:(6) 0.000000] [s4bxi_main_actor/INFO] Setup with nid = 1, model_pci = 1 ; e2e_off = 0
[amour1_CPU6:user_app:(7) 0.000000] [s4bxi_main_actor/INFO] Setup with nid = 1, model_pci = 1 ; e2e_off = 0
[amour2_CPU0:user_app:(13) 0.000000] [s4bxi_main_actor/INFO] Setup with nid = 2, model_pci = 1 ; e2e_off = 0
[amour2_CPU1:user_app:(14) 0.000000] [s4bxi_main_actor/INFO] Setup with nid = 2, model_pci = 1 ; e2e_off = 0
[amour2_CPU2:user_app:(15) 0.000000] [s4bxi_main_actor/INFO] Setup with nid = 2, model_pci = 1 ; e2e_off = 0
[amour2_CPU3:user_app:(16) 0.000000] [s4bxi_main_actor/INFO] Setup with nid = 2, model_pci = 1 ; e2e_off = 0
[amour2_CPU4:user_app:(17) 0.000000] [s4bxi_main_actor/INFO] Setup with nid = 2, model_pci = 1 ; e2e_off = 0
[amour2_CPU5:user_app:(18) 0.000000] [s4bxi_main_actor/INFO] Setup with nid = 2, model_pci = 1 ; e2e_off = 0
[amour2_CPU6:user_app:(19) 0.000000] [s4bxi_main_actor/INFO] Setup with nid = 2, model_pci = 1 ; e2e_off = 0
[amour3_CPU0:user_app:(25) 0.000000] [s4bxi_main_actor/INFO] Setup with nid = 3, model_pci = 1 ; e2e_off = 0
[amour3_CPU1:user_app:(26) 0.000000] [s4bxi_main_actor/INFO] Setup with nid = 3, model_pci = 1 ; e2e_off = 0
[amour3_CPU2:user_app:(27) 0.000000] [s4bxi_main_actor/INFO] Setup with nid = 3, model_pci = 1 ; e2e_off = 0
[amour3_CPU3:user_app:(28) 0.000000] [s4bxi_main_actor/INFO] Setup with nid = 3, model_pci = 1 ; e2e_off = 0
[amour3_CPU4:user_app:(29) 0.000000] [s4bxi_main_actor/INFO] Setup with nid = 3, model_pci = 1 ; e2e_off = 0
[amour3_CPU5:user_app:(30) 0.000000] [s4bxi_main_actor/INFO] Setup with nid = 3, model_pci = 1 ; e2e_off = 0
[amour3_CPU6:user_app:(31) 0.000000] [s4bxi_main_actor/INFO] Setup with nid = 3, model_pci = 1 ; e2e_off = 0
[amour4_CPU0:user_app:(37) 0.000000] [s4bxi_main_actor/INFO] Setup with nid = 4, model_pci = 1 ; e2e_off = 0
[amour4_CPU1:user_app:(38) 0.000000] [s4bxi_main_actor/INFO] Setup with nid = 4, model_pci = 1 ; e2e_off = 0
[amour4_CPU2:user_app:(39) 0.000000] [s4bxi_main_actor/INFO] Setup with nid = 4, model_pci = 1 ; e2e_off = 0
[amour4_CPU3:user_app:(40) 0.000000] [s4bxi_main_actor/INFO] Setup with nid = 4, model_pci = 1 ; e2e_off = 0
[amour4_CPU4:user_app:(41) 0.000000] [s4bxi_main_actor/INFO] Setup with nid = 4, model_pci = 1 ; e2e_off = 0
[amour4_CPU5:user_app:(42) 0.000000] [s4bxi_main_actor/INFO] Setup with nid = 4, model_pci = 1 ; e2e_off = 0
[amour4_CPU6:user_app:(43) 0.000000] [s4bxi_main_actor/INFO] Setup with nid = 4, model_pci = 1 ; e2e_off = 0
[amour5_CPU0:user_app:(49) 0.000000] [s4bxi_main_actor/INFO] Setup with nid = 5, model_pci = 1 ; e2e_off = 0
[amour5_CPU1:user_app:(50) 0.000000] [s4bxi_main_actor/INFO] Setup with nid = 5, model_pci = 1 ; e2e_off = 0
[amour5_CPU2:user_app:(51) 0.000000] [s4bxi_main_actor/INFO] Setup with nid = 5, model_pci = 1 ; e2e_off = 0
[amour5_CPU3:user_app:(52) 0.000000] [s4bxi_main_actor/INFO] Setup with nid = 5, model_pci = 1 ; e2e_off = 0
[amour5_CPU4:user_app:(53) 0.000000] [s4bxi_main_actor/INFO] Setup with nid = 5, model_pci = 1 ; e2e_off = 0
[amour5_CPU5:user_app:(54) 0.000000] [s4bxi_main_actor/INFO] Setup with nid = 5, model_pci = 1 ; e2e_off = 0
[amour5_CPU6:user_app:(55) 0.000000] [s4bxi_main_actor/INFO] Setup with nid = 5, model_pci = 1 ; e2e_off = 0
[amour6_CPU0:user_app:(61) 0.000000] [s4bxi_main_actor/INFO] Setup with nid = 6, model_pci = 1 ; e2e_off = 0
[amour6_CPU1:user_app:(62) 0.000000] [s4bxi_main_actor/INFO] Setup with nid = 6, model_pci = 1 ; e2e_off = 0
[amour6_CPU2:user_app:(63) 0.000000] [s4bxi_main_actor/INFO] Setup with nid = 6, model_pci = 1 ; e2e_off = 0
[amour6_CPU3:user_app:(64) 0.000000] [s4bxi_main_actor/INFO] Setup with nid = 6, model_pci = 1 ; e2e_off = 0
[amour6_CPU4:user_app:(65) 0.000000] [s4bxi_main_actor/INFO] Setup with nid = 6, model_pci = 1 ; e2e_off = 0
[amour6_CPU5:user_app:(66) 0.000000] [s4bxi_main_actor/INFO] Setup with nid = 6, model_pci = 1 ; e2e_off = 0
[amour6_CPU6:user_app:(67) 0.000000] [s4bxi_main_actor/INFO] Setup with nid = 6, model_pci = 1 ; e2e_off = 0
[amour7_CPU0:user_app:(73) 0.000000] [s4bxi_main_actor/INFO] Setup with nid = 7, model_pci = 1 ; e2e_off = 0
[amour7_CPU1:user_app:(74) 0.000000] [s4bxi_main_actor/INFO] Setup with nid = 7, model_pci = 1 ; e2e_off = 0
[amour7_CPU2:user_app:(75) 0.000000] [s4bxi_main_actor/INFO] Setup with nid = 7, model_pci = 1 ; e2e_off = 0
[amour7_CPU3:user_app:(76) 0.000000] [s4bxi_main_actor/INFO] Setup with nid = 7, model_pci = 1 ; e2e_off = 0
[amour7_CPU4:user_app:(77) 0.000000] [s4bxi_main_actor/INFO] Setup with nid = 7, model_pci = 1 ; e2e_off = 0
[amour7_CPU5:user_app:(78) 0.000000] [s4bxi_main_actor/INFO] Setup with nid = 7, model_pci = 1 ; e2e_off = 0
[amour7_CPU6:user_app:(79) 0.000000] [s4bxi_main_actor/INFO] Setup with nid = 7, model_pci = 1 ; e2e_off = 0
[amour8_CPU0:user_app:(85) 0.000000] [s4bxi_main_actor/INFO] Setup with nid = 8, model_pci = 1 ; e2e_off = 0
[amour8_CPU1:user_app:(86) 0.000000] [s4bxi_main_actor/INFO] Setup with nid = 8, model_pci = 1 ; e2e_off = 0
[amour8_CPU2:user_app:(87) 0.000000] [s4bxi_main_actor/INFO] Setup with nid = 8, model_pci = 1 ; e2e_off = 0
[amour8_CPU3:user_app:(88) 0.000000] [s4bxi_main_actor/INFO] Setup with nid = 8, model_pci = 1 ; e2e_off = 0
[amour8_CPU4:user_app:(89) 0.000000] [s4bxi_main_actor/INFO] Setup with nid = 8, model_pci = 1 ; e2e_off = 0
[amour8_CPU5:user_app:(90) 0.000000] [s4bxi_main_actor/INFO] Setup with nid = 8, model_pci = 1 ; e2e_off = 0
[amour8_CPU6:user_app:(91) 0.000000] [s4bxi_main_actor/INFO] Setup with nid = 8, model_pci = 1 ; e2e_off = 0
[amour9_CPU0:user_app:(97) 0.000000] [s4bxi_main_actor/INFO] Setup with nid = 9, model_pci = 1 ; e2e_off = 0
[amour9_CPU1:user_app:(98) 0.000000] [s4bxi_main_actor/INFO] Setup with nid = 9, model_pci = 1 ; e2e_off = 0
[amour9_CPU2:user_app:(99) 0.000000] [s4bxi_main_actor/INFO] Setup with nid = 9, model_pci = 1 ; e2e_off = 0
[amour9_CPU3:user_app:(100) 0.000000] [s4bxi_main_actor/INFO] Setup with nid = 9, model_pci = 1 ; e2e_off = 0
[amour9_CPU4:user_app:(101) 0.000000] [s4bxi_main_actor/INFO] Setup with nid = 9, model_pci = 1 ; e2e_off = 0
[amour9_CPU5:user_app:(102) 0.000000] [s4bxi_main_actor/INFO] Setup with nid = 9, model_pci = 1 ; e2e_off = 0
[amour9_CPU6:user_app:(103) 0.000000] [s4bxi_main_actor/INFO] Setup with nid = 9, model_pci = 1 ; e2e_off = 0
[amour10_CPU0:user_app:(109) 0.000000] [s4bxi_main_actor/INFO] Setup with nid = 10, model_pci = 1 ; e2e_off = 0
[amour10_CPU1:user_app:(110) 0.000000] [s4bxi_main_actor/INFO] Setup with nid = 10, model_pci = 1 ; e2e_off = 0
[amour10_CPU2:user_app:(111) 0.000000] [s4bxi_main_actor/INFO] Setup with nid = 10, model_pci = 1 ; e2e_off = 0
[amour10_CPU3:user_app:(112) 0.000000] [s4bxi_main_actor/INFO] Setup with nid = 10, model_pci = 1 ; e2e_off = 0
[amour10_CPU4:user_app:(113) 0.000000] [s4bxi_main_actor/INFO] Setup with nid = 10, model_pci = 1 ; e2e_off = 0
[amour10_CPU5:user_app:(114) 0.000000] [s4bxi_main_actor/INFO] Setup with nid = 10, model_pci = 1 ; e2e_off = 0
[amour10_CPU6:user_app:(115) 0.000000] [s4bxi_main_actor/INFO] Setup with nid = 10, model_pci = 1 ; e2e_off = 0
[amour11_CPU0:user_app:(121) 0.000000] [s4bxi_main_actor/INFO] Setup with nid = 11, model_pci = 1 ; e2e_off = 0
[amour11_CPU1:user_app:(122) 0.000000] [s4bxi_main_actor/INFO] Setup with nid = 11, model_pci = 1 ; e2e_off = 0
[amour11_CPU2:user_app:(123) 0.000000] [s4bxi_main_actor/INFO] Setup with nid = 11, model_pci = 1 ; e2e_off = 0
[amour11_CPU3:user_app:(124) 0.000000] [s4bxi_main_actor/INFO] Setup with nid = 11, model_pci = 1 ; e2e_off = 0
[amour11_CPU4:user_app:(125) 0.000000] [s4bxi_main_actor/INFO] Setup with nid = 11, model_pci = 1 ; e2e_off = 0
[amour11_CPU5:user_app:(126) 0.000000] [s4bxi_main_actor/INFO] Setup with nid = 11, model_pci = 1 ; e2e_off = 0
[amour11_CPU6:user_app:(127) 0.000000] [s4bxi_main_actor/INFO] Setup with nid = 11, model_pci = 1 ; e2e_off = 0
[amour12_CPU0:user_app:(133) 0.000000] [s4bxi_main_actor/INFO] Setup with nid = 12, model_pci = 1 ; e2e_off = 0
[amour12_CPU1:user_app:(134) 0.000000] [s4bxi_main_actor/INFO] Setup with nid = 12, model_pci = 1 ; e2e_off = 0
[amour12_CPU2:user_app:(135) 0.000000] [s4bxi_main_actor/INFO] Setup with nid = 12, model_pci = 1 ; e2e_off = 0
[amour12_CPU3:user_app:(136) 0.000000] [s4bxi_main_actor/INFO] Setup with nid = 12, model_pci = 1 ; e2e_off = 0
[amour12_CPU4:user_app:(137) 0.000000] [s4bxi_main_actor/INFO] Setup with nid = 12, model_pci = 1 ; e2e_off = 0
[amour12_CPU5:user_app:(138) 0.000000] [s4bxi_main_actor/INFO] Setup with nid = 12, model_pci = 1 ; e2e_off = 0
[amour12_CPU6:user_app:(139) 0.000000] [s4bxi_main_actor/INFO] Setup with nid = 12, model_pci = 1 ; e2e_off = 0
[amour13_CPU0:user_app:(145) 0.000000] [s4bxi_main_actor/INFO] Setup with nid = 13, model_pci = 1 ; e2e_off = 0
[amour13_CPU1:user_app:(146) 0.000000] [s4bxi_main_actor/INFO] Setup with nid = 13, model_pci = 1 ; e2e_off = 0
[amour13_CPU2:user_app:(147) 0.000000] [s4bxi_main_actor/INFO] Setup with nid = 13, model_pci = 1 ; e2e_off = 0
[amour13_CPU3:user_app:(148) 0.000000] [s4bxi_main_actor/INFO] Setup with nid = 13, model_pci = 1 ; e2e_off = 0
[amour13_CPU4:user_app:(149) 0.000000] [s4bxi_main_actor/INFO] Setup with nid = 13, model_pci = 1 ; e2e_off = 0
[amour13_CPU5:user_app:(150) 0.000000] [s4bxi_main_actor/INFO] Setup with nid = 13, model_pci = 1 ; e2e_off = 0
[amour13_CPU6:user_app:(151) 0.000000] [s4bxi_main_actor/INFO] Setup with nid = 13, model_pci = 1 ; e2e_off = 0
[amour14_CPU0:user_app:(157) 0.000000] [s4bxi_main_actor/INFO] Setup with nid = 14, model_pci = 1 ; e2e_off = 0
[amour14_CPU1:user_app:(158) 0.000000] [s4bxi_main_actor/INFO] Setup with nid = 14, model_pci = 1 ; e2e_off = 0
[amour14_CPU2:user_app:(159) 0.000000] [s4bxi_main_actor/INFO] Setup with nid = 14, model_pci = 1 ; e2e_off = 0
[amour14_CPU3:user_app:(160) 0.000000] [s4bxi_main_actor/INFO] Setup with nid = 14, model_pci = 1 ; e2e_off = 0
[amour14_CPU4:user_app:(161) 0.000000] [s4bxi_main_actor/INFO] Setup with nid = 14, model_pci = 1 ; e2e_off = 0
[amour14_CPU5:user_app:(162) 0.000000] [s4bxi_main_actor/INFO] Setup with nid = 14, model_pci = 1 ; e2e_off = 0
[amour14_CPU6:user_app:(163) 0.000000] [s4bxi_main_actor/INFO] Setup with nid = 14, model_pci = 1 ; e2e_off = 0
[amour1_CPU0:user_app:(1) 0.000000] [user_app/INFO] Init rank 0 ; local_rank 0
[amour1_CPU1:user_app:(2) 0.000000] [user_app/INFO] Init rank 1 ; local_rank 1
[amour1_CPU2:user_app:(3) 0.000000] [user_app/INFO] Init rank 2 ; local_rank 2
[amour1_CPU3:user_app:(4) 0.000000] [user_app/INFO] Init rank 3 ; local_rank 3
[amour1_CPU4:user_app:(5) 0.000000] [user_app/INFO] Init rank 4 ; local_rank 4
[amour1_CPU5:user_app:(6) 0.000000] [user_app/INFO] Init rank 5 ; local_rank 5
[amour1_CPU6:user_app:(7) 0.000000] [user_app/INFO] Init rank 6 ; local_rank 6
[amour2_CPU0:user_app:(13) 0.000000] [user_app/INFO] Init rank 7 ; local_rank 0
[amour2_CPU1:user_app:(14) 0.000000] [user_app/INFO] Init rank 8 ; local_rank 1
[amour2_CPU2:user_app:(15) 0.000000] [user_app/INFO] Init rank 9 ; local_rank 2
[amour2_CPU3:user_app:(16) 0.000000] [user_app/INFO] Init rank 10 ; local_rank 3
[amour2_CPU4:user_app:(17) 0.000000] [user_app/INFO] Init rank 11 ; local_rank 4
[amour2_CPU5:user_app:(18) 0.000000] [user_app/INFO] Init rank 12 ; local_rank 5
[amour2_CPU6:user_app:(19) 0.000000] [user_app/INFO] Init rank 13 ; local_rank 6
[amour3_CPU0:user_app:(25) 0.000000] [user_app/INFO] Init rank 14 ; local_rank 0
[amour3_CPU1:user_app:(26) 0.000000] [user_app/INFO] Init rank 15 ; local_rank 1
[amour3_CPU2:user_app:(27) 0.000000] [user_app/INFO] Init rank 16 ; local_rank 2
[amour3_CPU3:user_app:(28) 0.000000] [user_app/INFO] Init rank 17 ; local_rank 3
[amour3_CPU4:user_app:(29) 0.000000] [user_app/INFO] Init rank 18 ; local_rank 4
[amour3_CPU5:user_app:(30) 0.000000] [user_app/INFO] Init rank 19 ; local_rank 5
[amour3_CPU6:user_app:(31) 0.000000] [user_app/INFO] Init rank 20 ; local_rank 6
[amour4_CPU0:user_app:(37) 0.000000] [user_app/INFO] Init rank 21 ; local_rank 0
[amour4_CPU1:user_app:(38) 0.000000] [user_app/INFO] Init rank 22 ; local_rank 1
[amour4_CPU2:user_app:(39) 0.000000] [user_app/INFO] Init rank 23 ; local_rank 2
[amour4_CPU3:user_app:(40) 0.000000] [user_app/INFO] Init rank 24 ; local_rank 3
[amour4_CPU4:user_app:(41) 0.000000] [user_app/INFO] Init rank 25 ; local_rank 4
[amour4_CPU5:user_app:(42) 0.000000] [user_app/INFO] Init rank 26 ; local_rank 5
[amour4_CPU6:user_app:(43) 0.000000] [user_app/INFO] Init rank 27 ; local_rank 6
[amour5_CPU0:user_app:(49) 0.000000] [user_app/INFO] Init rank 28 ; local_rank 0
[amour5_CPU1:user_app:(50) 0.000000] [user_app/INFO] Init rank 29 ; local_rank 1
[amour5_CPU2:user_app:(51) 0.000000] [user_app/INFO] Init rank 30 ; local_rank 2
[amour5_CPU3:user_app:(52) 0.000000] [user_app/INFO] Init rank 31 ; local_rank 3
[amour5_CPU4:user_app:(53) 0.000000] [user_app/INFO] Init rank 32 ; local_rank 4
[amour5_CPU5:user_app:(54) 0.000000] [user_app/INFO] Init rank 33 ; local_rank 5
[amour5_CPU6:user_app:(55) 0.000000] [user_app/INFO] Init rank 34 ; local_rank 6
[amour6_CPU0:user_app:(61) 0.000000] [user_app/INFO] Init rank 35 ; local_rank 0
[amour6_CPU1:user_app:(62) 0.000000] [user_app/INFO] Init rank 36 ; local_rank 1
[amour6_CPU2:user_app:(63) 0.000000] [user_app/INFO] Init rank 37 ; local_rank 2
[amour6_CPU3:user_app:(64) 0.000000] [user_app/INFO] Init rank 38 ; local_rank 3
[amour6_CPU4:user_app:(65) 0.000000] [user_app/INFO] Init rank 39 ; local_rank 4
[amour6_CPU5:user_app:(66) 0.000000] [user_app/INFO] Init rank 40 ; local_rank 5
[amour6_CPU6:user_app:(67) 0.000000] [user_app/INFO] Init rank 41 ; local_rank 6
[amour7_CPU0:user_app:(73) 0.000000] [user_app/INFO] Init rank 42 ; local_rank 0
[amour7_CPU1:user_app:(74) 0.000000] [user_app/INFO] Init rank 43 ; local_rank 1
[amour7_CPU2:user_app:(75) 0.000000] [user_app/INFO] Init rank 44 ; local_rank 2
[amour7_CPU3:user_app:(76) 0.000000] [user_app/INFO] Init rank 45 ; local_rank 3
[amour7_CPU4:user_app:(77) 0.000000] [user_app/INFO] Init rank 46 ; local_rank 4
[amour7_CPU5:user_app:(78) 0.000000] [user_app/INFO] Init rank 47 ; local_rank 5
[amour7_CPU6:user_app:(79) 0.000000] [user_app/INFO] Init rank 48 ; local_rank 6
[amour8_CPU0:user_app:(85) 0.000000] [user_app/INFO] Init rank 49 ; local_rank 0
[amour8_CPU1:user_app:(86) 0.000000] [user_app/INFO] Init rank 50 ; local_rank 1
[amour8_CPU2:user_app:(87) 0.000000] [user_app/INFO] Init rank 51 ; local_rank 2
[amour8_CPU3:user_app:(88) 0.000000] [user_app/INFO] Init rank 52 ; local_rank 3
[amour8_CPU4:user_app:(89) 0.000000] [user_app/INFO] Init rank 53 ; local_rank 4
[amour8_CPU5:user_app:(90) 0.000000] [user_app/INFO] Init rank 54 ; local_rank 5
[amour8_CPU6:user_app:(91) 0.000000] [user_app/INFO] Init rank 55 ; local_rank 6
[amour9_CPU0:user_app:(97) 0.000000] [user_app/INFO] Init rank 56 ; local_rank 0
[amour9_CPU1:user_app:(98) 0.000000] [user_app/INFO] Init rank 57 ; local_rank 1
[amour9_CPU2:user_app:(99) 0.000000] [user_app/INFO] Init rank 58 ; local_rank 2
[amour9_CPU3:user_app:(100) 0.000000] [user_app/INFO] Init rank 59 ; local_rank 3
[amour9_CPU4:user_app:(101) 0.000000] [user_app/INFO] Init rank 60 ; local_rank 4
[amour9_CPU5:user_app:(102) 0.000000] [user_app/INFO] Init rank 61 ; local_rank 5
[amour9_CPU6:user_app:(103) 0.000000] [user_app/INFO] Init rank 62 ; local_rank 6
[amour10_CPU0:user_app:(109) 0.000000] [user_app/INFO] Init rank 63 ; local_rank 0
[amour10_CPU1:user_app:(110) 0.000000] [user_app/INFO] Init rank 64 ; local_rank 1
[amour10_CPU2:user_app:(111) 0.000000] [user_app/INFO] Init rank 65 ; local_rank 2
[amour10_CPU3:user_app:(112) 0.000000] [user_app/INFO] Init rank 66 ; local_rank 3
[amour10_CPU4:user_app:(113) 0.000000] [user_app/INFO] Init rank 67 ; local_rank 4
[amour10_CPU5:user_app:(114) 0.000000] [user_app/INFO] Init rank 68 ; local_rank 5
[amour10_CPU6:user_app:(115) 0.000000] [user_app/INFO] Init rank 69 ; local_rank 6
[amour11_CPU0:user_app:(121) 0.000000] [user_app/INFO] Init rank 70 ; local_rank 0
[amour11_CPU1:user_app:(122) 0.000000] [user_app/INFO] Init rank 71 ; local_rank 1
[amour11_CPU2:user_app:(123) 0.000000] [user_app/INFO] Init rank 72 ; local_rank 2
[amour11_CPU3:user_app:(124) 0.000000] [user_app/INFO] Init rank 73 ; local_rank 3
[amour11_CPU4:user_app:(125) 0.000000] [user_app/INFO] Init rank 74 ; local_rank 4
[amour11_CPU5:user_app:(126) 0.000000] [user_app/INFO] Init rank 75 ; local_rank 5
[amour11_CPU6:user_app:(127) 0.000000] [user_app/INFO] Init rank 76 ; local_rank 6
[amour12_CPU0:user_app:(133) 0.000000] [user_app/INFO] Init rank 77 ; local_rank 0
[amour12_CPU1:user_app:(134) 0.000000] [user_app/INFO] Init rank 78 ; local_rank 1
[amour12_CPU2:user_app:(135) 0.000000] [user_app/INFO] Init rank 79 ; local_rank 2
[amour12_CPU3:user_app:(136) 0.000000] [user_app/INFO] Init rank 80 ; local_rank 3
[amour12_CPU4:user_app:(137) 0.000000] [user_app/INFO] Init rank 81 ; local_rank 4
[amour12_CPU5:user_app:(138) 0.000000] [user_app/INFO] Init rank 82 ; local_rank 5
[amour12_CPU6:user_app:(139) 0.000000] [user_app/INFO] Init rank 83 ; local_rank 6
[amour13_CPU0:user_app:(145) 0.000000] [user_app/INFO] Init rank 84 ; local_rank 0
[amour13_CPU1:user_app:(146) 0.000000] [user_app/INFO] Init rank 85 ; local_rank 1
[amour13_CPU2:user_app:(147) 0.000000] [user_app/INFO] Init rank 86 ; local_rank 2
[amour13_CPU3:user_app:(148) 0.000000] [user_app/INFO] Init rank 87 ; local_rank 3
[amour13_CPU4:user_app:(149) 0.000000] [user_app/INFO] Init rank 88 ; local_rank 4
[amour13_CPU5:user_app:(150) 0.000000] [user_app/INFO] Init rank 89 ; local_rank 5
[amour13_CPU6:user_app:(151) 0.000000] [user_app/INFO] Init rank 90 ; local_rank 6
[amour14_CPU0:user_app:(157) 0.000000] [user_app/INFO] Init rank 91 ; local_rank 0
[amour14_CPU1:user_app:(158) 0.000000] [user_app/INFO] Init rank 92 ; local_rank 1
[amour14_CPU2:user_app:(159) 0.000000] [user_app/INFO] Init rank 93 ; local_rank 2
[amour14_CPU3:user_app:(160) 0.000000] [user_app/INFO] Init rank 94 ; local_rank 3
[amour14_CPU4:user_app:(161) 0.000000] [user_app/INFO] Init rank 95 ; local_rank 4
[amour14_CPU5:user_app:(162) 0.000000] [user_app/INFO] Init rank 96 ; local_rank 5
[amour14_CPU6:user_app:(163) 0.000000] [user_app/INFO] Init rank 97 ; local_rank 6
[amour1_NIC:nic_e2e:(12) 0.000000] [s4bxi_nic_e2e/INFO] E2E was configured with timeout = 10.000000 and retries = 5
[amour2_NIC:nic_e2e:(24) 0.000000] [s4bxi_nic_e2e/INFO] E2E was configured with timeout = 10.000000 and retries = 5
[amour3_NIC:nic_e2e:(36) 0.000000] [s4bxi_nic_e2e/INFO] E2E was configured with timeout = 10.000000 and retries = 5
[amour4_NIC:nic_e2e:(48) 0.000000] [s4bxi_nic_e2e/INFO] E2E was configured with timeout = 10.000000 and retries = 5
[amour5_NIC:nic_e2e:(60) 0.000000] [s4bxi_nic_e2e/INFO] E2E was configured with timeout = 10.000000 and retries = 5
[amour6_NIC:nic_e2e:(72) 0.000000] [s4bxi_nic_e2e/INFO] E2E was configured with timeout = 10.000000 and retries = 5
[amour7_NIC:nic_e2e:(84) 0.000000] [s4bxi_nic_e2e/INFO] E2E was configured with timeout = 10.000000 and retries = 5
[amour8_NIC:nic_e2e:(96) 0.000000] [s4bxi_nic_e2e/INFO] E2E was configured with timeout = 10.000000 and retries = 5
[amour9_NIC:nic_e2e:(108) 0.000000] [s4bxi_nic_e2e/INFO] E2E was configured with timeout = 10.000000 and retries = 5
[amour10_NIC:nic_e2e:(120) 0.000000] [s4bxi_nic_e2e/INFO] E2E was configured with timeout = 10.000000 and retries = 5
[amour11_NIC:nic_e2e:(132) 0.000000] [s4bxi_nic_e2e/INFO] E2E was configured with timeout = 10.000000 and retries = 5
[amour12_NIC:nic_e2e:(144) 0.000000] [s4bxi_nic_e2e/INFO] E2E was configured with timeout = 10.000000 and retries = 5
[amour13_NIC:nic_e2e:(156) 0.000000] [s4bxi_nic_e2e/INFO] E2E was configured with timeout = 10.000000 and retries = 5
[amour14_NIC:nic_e2e:(168) 0.000000] [s4bxi_nic_e2e/INFO] E2E was configured with timeout = 10.000000 and retries = 5
[amour1_CPU0:user_app:(1) 0.000000] [user_app/INFO] Extracting symbols from Bull lib 0x245b330 (OGRwXJ0so.40) and SMPI lib 0x7f132e5ae850
[amour1_CPU1:user_app:(2) 0.000000] [user_app/INFO] Extracting symbols from Bull lib 0x245f750 (OGRwXJ1so.40) and SMPI lib 0x7f132e5ae850
[amour1_CPU2:user_app:(3) 0.000000] [user_app/INFO] Extracting symbols from Bull lib 0x2461ff0 (OGRwXJ2so.40) and SMPI lib 0x7f132e5ae850
[amour1_CPU3:user_app:(4) 0.000000] [user_app/INFO] Extracting symbols from Bull lib 0x24647f0 (OGRwXJ3so.40) and SMPI lib 0x7f132e5ae850
[amour1_CPU4:user_app:(5) 0.000000] [user_app/INFO] Extracting symbols from Bull lib 0x24670c0 (OGRwXJ4so.40) and SMPI lib 0x7f132e5ae850
[amour1_CPU5:user_app:(6) 0.000000] [user_app/INFO] Extracting symbols from Bull lib 0x2469900 (OGRwXJ5so.40) and SMPI lib 0x7f132e5ae850
[amour1_CPU6:user_app:(7) 0.000000] [user_app/INFO] Extracting symbols from Bull lib 0x246c140 (OGRwXJ6so.40) and SMPI lib 0x7f132e5ae850
[amour2_CPU0:user_app:(13) 0.000000] [user_app/INFO] Extracting symbols from Bull lib 0x246ea10 (OGRwXJ7so.40) and SMPI lib 0x7f132e5ae850
[amour2_CPU1:user_app:(14) 0.000000] [user_app/INFO] Extracting symbols from Bull lib 0x2471530 (OGRwXJ8so.40) and SMPI lib 0x7f132e5ae850
[amour2_CPU2:user_app:(15) 0.000000] [user_app/INFO] Extracting symbols from Bull lib 0x2473e70 (OGRwXJ9so.40) and SMPI lib 0x7f132e5ae850
[amour2_CPU3:user_app:(16) 0.000000] [user_app/INFO] Extracting symbols from Bull lib 0x2476850 (OGRwX10so.40) and SMPI lib 0x7f132e5ae850
[amour2_CPU4:user_app:(17) 0.000000] [user_app/INFO] Extracting symbols from Bull lib 0x24792c0 (OGRwX11so.40) and SMPI lib 0x7f132e5ae850
[amour2_CPU5:user_app:(18) 0.000000] [user_app/INFO] Extracting symbols from Bull lib 0x247bd30 (OGRwX12so.40) and SMPI lib 0x7f132e5ae850
[amour2_CPU6:user_app:(19) 0.000000] [user_app/INFO] Extracting symbols from Bull lib 0x247e7a0 (OGRwX13so.40) and SMPI lib 0x7f132e5ae850
[amour3_CPU0:user_app:(25) 0.000000] [user_app/INFO] Extracting symbols from Bull lib 0x2481250 (OGRwX14so.40) and SMPI lib 0x7f132e5ae850
[amour3_CPU1:user_app:(26) 0.000000] [user_app/INFO] Extracting symbols from Bull lib 0x2483d40 (OGRwX15so.40) and SMPI lib 0x7f132e5ae850
[amour3_CPU2:user_app:(27) 0.000000] [user_app/INFO] Extracting symbols from Bull lib 0x2486de0 (OGRwX16so.40) and SMPI lib 0x7f132e5ae850
[amour3_CPU3:user_app:(28) 0.000000] [user_app/INFO] Extracting symbols from Bull lib 0x2489850 (OGRwX17so.40) and SMPI lib 0x7f132e5ae850
[amour3_CPU4:user_app:(29) 0.000000] [user_app/INFO] Extracting symbols from Bull lib 0x248c2c0 (OGRwX18so.40) and SMPI lib 0x7f132e5ae850
[amour3_CPU5:user_app:(30) 0.000000] [user_app/INFO] Extracting symbols from Bull lib 0x248ed30 (OGRwX19so.40) and SMPI lib 0x7f132e5ae850
[amour3_CPU6:user_app:(31) 0.000000] [user_app/INFO] Extracting symbols from Bull lib 0x24917a0 (OGRwX20so.40) and SMPI lib 0x7f132e5ae850
[amour4_CPU0:user_app:(37) 0.000000] [user_app/INFO] Extracting symbols from Bull lib 0x2494250 (OGRwX21so.40) and SMPI lib 0x7f132e5ae850
[amour4_CPU1:user_app:(38) 0.000000] [user_app/INFO] Extracting symbols from Bull lib 0x2496cc0 (OGRwX22so.40) and SMPI lib 0x7f132e5ae850
[amour4_CPU2:user_app:(39) 0.000000] [user_app/INFO] Extracting symbols from Bull lib 0x2499730 (OGRwX23so.40) and SMPI lib 0x7f132e5ae850
[amour4_CPU3:user_app:(40) 0.000000] [user_app/INFO] Extracting symbols from Bull lib 0x249c1a0 (OGRwX24so.40) and SMPI lib 0x7f132e5ae850
[amour4_CPU4:user_app:(41) 0.000000] [user_app/INFO] Extracting symbols from Bull lib 0x249ec10 (OGRwX25so.40) and SMPI lib 0x7f132e5ae850
[amour4_CPU5:user_app:(42) 0.000000] [user_app/INFO] Extracting symbols from Bull lib 0x24a1680 (OGRwX26so.40) and SMPI lib 0x7f132e5ae850
[amour4_CPU6:user_app:(43) 0.000000] [user_app/INFO] Extracting symbols from Bull lib 0x24a40f0 (OGRwX27so.40) and SMPI lib 0x7f132e5ae850
[amour5_CPU0:user_app:(49) 0.000000] [user_app/INFO] Extracting symbols from Bull lib 0x24a6ea0 (OGRwX28so.40) and SMPI lib 0x7f132e5ae850
[amour5_CPU1:user_app:(50) 0.000000] [user_app/INFO] Extracting symbols from Bull lib 0x24a9910 (OGRwX29so.40) and SMPI lib 0x7f132e5ae850
[amour5_CPU2:user_app:(51) 0.000000] [user_app/INFO] Extracting symbols from Bull lib 0x24ac380 (OGRwX30so.40) and SMPI lib 0x7f132e5ae850
[amour5_CPU3:user_app:(52) 0.000000] [user_app/INFO] Extracting symbols from Bull lib 0x24af000 (OGRwX31so.40) and SMPI lib 0x7f132e5ae850
[amour5_CPU4:user_app:(53) 0.000000] [user_app/INFO] Extracting symbols from Bull lib 0x24b2290 (OGRwX32so.40) and SMPI lib 0x7f132e5ae850
[amour5_CPU5:user_app:(54) 0.000000] [user_app/INFO] Extracting symbols from Bull lib 0x24b4d00 (OGRwX33so.40) and SMPI lib 0x7f132e5ae850
[amour5_CPU6:user_app:(55) 0.000000] [user_app/INFO] Extracting symbols from Bull lib 0x24b7770 (OGRwX34so.40) and SMPI lib 0x7f132e5ae850
[amour6_CPU0:user_app:(61) 0.000000] [user_app/INFO] Extracting symbols from Bull lib 0x24ba520 (OGRwX35so.40) and SMPI lib 0x7f132e5ae850
[amour6_CPU1:user_app:(62) 0.000000] [user_app/INFO] Extracting symbols from Bull lib 0x24bcf90 (OGRwX36so.40) and SMPI lib 0x7f132e5ae850
[amour6_CPU2:user_app:(63) 0.000000] [user_app/INFO] Extracting symbols from Bull lib 0x24bfa00 (OGRwX37so.40) and SMPI lib 0x7f132e5ae850
[amour6_CPU3:user_app:(64) 0.000000] [user_app/INFO] Extracting symbols from Bull lib 0x24c2470 (OGRwX38so.40) and SMPI lib 0x7f132e5ae850
[amour6_CPU4:user_app:(65) 0.000000] [user_app/INFO] Extracting symbols from Bull lib 0x24c4ee0 (OGRwX39so.40) and SMPI lib 0x7f132e5ae850
[amour6_CPU5:user_app:(66) 0.000000] [user_app/INFO] Extracting symbols from Bull lib 0x24c7950 (OGRwX40so.40) and SMPI lib 0x7f132e5ae850
[amour6_CPU6:user_app:(67) 0.000000] [user_app/INFO] Extracting symbols from Bull lib 0x24ca3c0 (OGRwX41so.40) and SMPI lib 0x7f132e5ae850
[amour7_CPU0:user_app:(73) 0.000000] [user_app/INFO] Extracting symbols from Bull lib 0x24cd170 (OGRwX42so.40) and SMPI lib 0x7f132e5ae850
[amour7_CPU1:user_app:(74) 0.000000] [user_app/INFO] Extracting symbols from Bull lib 0x24cfbe0 (OGRwX43so.40) and SMPI lib 0x7f132e5ae850
[amour7_CPU2:user_app:(75) 0.000000] [user_app/INFO] Extracting symbols from Bull lib 0x24d2650 (OGRwX44so.40) and SMPI lib 0x7f132e5ae850
[amour7_CPU3:user_app:(76) 0.000000] [user_app/INFO] Extracting symbols from Bull lib 0x24d50c0 (OGRwX45so.40) and SMPI lib 0x7f132e5ae850
[amour7_CPU4:user_app:(77) 0.000000] [user_app/INFO] Extracting symbols from Bull lib 0x24d7b30 (OGRwX46so.40) and SMPI lib 0x7f132e5ae850
[amour7_CPU5:user_app:(78) 0.000000] [user_app/INFO] Extracting symbols from Bull lib 0x24da5a0 (OGRwX47so.40) and SMPI lib 0x7f132e5ae850
[amour7_CPU6:user_app:(79) 0.000000] [user_app/INFO] Extracting symbols from Bull lib 0x24dd010 (OGRwX48so.40) and SMPI lib 0x7f132e5ae850
[amour8_CPU0:user_app:(85) 0.000000] [user_app/INFO] Extracting symbols from Bull lib 0x24dfdc0 (OGRwX49so.40) and SMPI lib 0x7f132e5ae850
[amour8_CPU1:user_app:(86) 0.000000] [user_app/INFO] Extracting symbols from Bull lib 0x24e2830 (OGRwX50so.40) and SMPI lib 0x7f132e5ae850
[amour8_CPU2:user_app:(87) 0.000000] [user_app/INFO] Extracting symbols from Bull lib 0x24e52a0 (OGRwX51so.40) and SMPI lib 0x7f132e5ae850
[amour8_CPU3:user_app:(88) 0.000000] [user_app/INFO] Extracting symbols from Bull lib 0x24e7d10 (OGRwX52so.40) and SMPI lib 0x7f132e5ae850
[amour8_CPU4:user_app:(89) 0.000000] [user_app/INFO] Extracting symbols from Bull lib 0x24ea780 (OGRwX53so.40) and SMPI lib 0x7f132e5ae850
[amour8_CPU5:user_app:(90) 0.000000] [user_app/INFO] Extracting symbols from Bull lib 0x24ed1f0 (OGRwX54so.40) and SMPI lib 0x7f132e5ae850
[amour8_CPU6:user_app:(91) 0.000000] [user_app/INFO] Extracting symbols from Bull lib 0x24efc60 (OGRwX55so.40) and SMPI lib 0x7f132e5ae850
[amour9_CPU0:user_app:(97) 0.000000] [user_app/INFO] Extracting symbols from Bull lib 0x24f2a10 (OGRwX56so.40) and SMPI lib 0x7f132e5ae850
[amour9_CPU1:user_app:(98) 0.000000] [user_app/INFO] Extracting symbols from Bull lib 0x24f5480 (OGRwX57so.40) and SMPI lib 0x7f132e5ae850
[amour9_CPU2:user_app:(99) 0.000000] [user_app/INFO] Extracting symbols from Bull lib 0x24f7ef0 (OGRwX58so.40) and SMPI lib 0x7f132e5ae850
[amour9_CPU3:user_app:(100) 0.000000] [user_app/INFO] Extracting symbols from Bull lib 0x24fa960 (OGRwX59so.40) and SMPI lib 0x7f132e5ae850
[amour9_CPU4:user_app:(101) 0.000000] [user_app/INFO] Extracting symbols from Bull lib 0x24fd3d0 (OGRwX60so.40) and SMPI lib 0x7f132e5ae850
[amour9_CPU5:user_app:(102) 0.000000] [user_app/INFO] Extracting symbols from Bull lib 0x24ffe40 (OGRwX61so.40) and SMPI lib 0x7f132e5ae850
[amour9_CPU6:user_app:(103) 0.000000] [user_app/INFO] Extracting symbols from Bull lib 0x25028b0 (OGRwX62so.40) and SMPI lib 0x7f132e5ae850
[amour10_CPU0:user_app:(109) 0.000000] [user_app/INFO] Extracting symbols from Bull lib 0x2505a70 (OGRwX63so.40) and SMPI lib 0x7f132e5ae850
[amour10_CPU1:user_app:(110) 0.000000] [user_app/INFO] Extracting symbols from Bull lib 0x2509d10 (OGRwX64so.40) and SMPI lib 0x7f132e5ae850
[amour10_CPU2:user_app:(111) 0.000000] [user_app/INFO] Extracting symbols from Bull lib 0x250c780 (OGRwX65so.40) and SMPI lib 0x7f132e5ae850
[amour10_CPU3:user_app:(112) 0.000000] [user_app/INFO] Extracting symbols from Bull lib 0x250f1f0 (OGRwX66so.40) and SMPI lib 0x7f132e5ae850
[amour10_CPU4:user_app:(113) 0.000000] [user_app/INFO] Extracting symbols from Bull lib 0x2511c60 (OGRwX67so.40) and SMPI lib 0x7f132e5ae850
[amour10_CPU5:user_app:(114) 0.000000] [user_app/INFO] Extracting symbols from Bull lib 0x25146d0 (OGRwX68so.40) and SMPI lib 0x7f132e5ae850
[amour10_CPU6:user_app:(115) 0.000000] [user_app/INFO] Extracting symbols from Bull lib 0x2517140 (OGRwX69so.40) and SMPI lib 0x7f132e5ae850
[amour11_CPU0:user_app:(121) 0.000000] [user_app/INFO] Extracting symbols from Bull lib 0x2519ef0 (OGRwX70so.40) and SMPI lib 0x7f132e5ae850
[amour11_CPU1:user_app:(122) 0.000000] [user_app/INFO] Extracting symbols from Bull lib 0x251c960 (OGRwX71so.40) and SMPI lib 0x7f132e5ae850
[amour11_CPU2:user_app:(123) 0.000000] [user_app/INFO] Extracting symbols from Bull lib 0x251f3d0 (OGRwX72so.40) and SMPI lib 0x7f132e5ae850
[amour11_CPU3:user_app:(124) 0.000000] [user_app/INFO] Extracting symbols from Bull lib 0x2521e40 (OGRwX73so.40) and SMPI lib 0x7f132e5ae850
[amour11_CPU4:user_app:(125) 0.000000] [user_app/INFO] Extracting symbols from Bull lib 0x25248b0 (OGRwX74so.40) and SMPI lib 0x7f132e5ae850
[amour11_CPU5:user_app:(126) 0.000000] [user_app/INFO] Extracting symbols from Bull lib 0x2527320 (OGRwX75so.40) and SMPI lib 0x7f132e5ae850
[amour11_CPU6:user_app:(127) 0.000000] [user_app/INFO] Extracting symbols from Bull lib 0x2529d90 (OGRwX76so.40) and SMPI lib 0x7f132e5ae850
[amour12_CPU0:user_app:(133) 0.000000] [user_app/INFO] Extracting symbols from Bull lib 0x252cb40 (OGRwX77so.40) and SMPI lib 0x7f132e5ae850
[amour12_CPU1:user_app:(134) 0.000000] [user_app/INFO] Extracting symbols from Bull lib 0x252f5b0 (OGRwX78so.40) and SMPI lib 0x7f132e5ae850
[amour12_CPU2:user_app:(135) 0.000000] [user_app/INFO] Extracting symbols from Bull lib 0x2532020 (OGRwX79so.40) and SMPI lib 0x7f132e5ae850
[amour12_CPU3:user_app:(136) 0.000000] [user_app/INFO] Extracting symbols from Bull lib 0x2534a90 (OGRwX80so.40) and SMPI lib 0x7f132e5ae850
[amour12_CPU4:user_app:(137) 0.000000] [user_app/INFO] Extracting symbols from Bull lib 0x2537500 (OGRwX81so.40) and SMPI lib 0x7f132e5ae850
[amour12_CPU5:user_app:(138) 0.000000] [user_app/INFO] Extracting symbols from Bull lib 0x2539f70 (OGRwX82so.40) and SMPI lib 0x7f132e5ae850
[amour12_CPU6:user_app:(139) 0.000000] [user_app/INFO] Extracting symbols from Bull lib 0x253c9e0 (OGRwX83so.40) and SMPI lib 0x7f132e5ae850
[amour13_CPU0:user_app:(145) 0.000000] [user_app/INFO] Extracting symbols from Bull lib 0x253f790 (OGRwX84so.40) and SMPI lib 0x7f132e5ae850
[amour13_CPU1:user_app:(146) 0.000000] [user_app/INFO] Extracting symbols from Bull lib 0x2542200 (OGRwX85so.40) and SMPI lib 0x7f132e5ae850
[amour13_CPU2:user_app:(147) 0.000000] [user_app/INFO] Extracting symbols from Bull lib 0x2544c70 (OGRwX86so.40) and SMPI lib 0x7f132e5ae850
[amour13_CPU3:user_app:(148) 0.000000] [user_app/INFO] Extracting symbols from Bull lib 0x25476e0 (OGRwX87so.40) and SMPI lib 0x7f132e5ae850
[amour13_CPU4:user_app:(149) 0.000000] [user_app/INFO] Extracting symbols from Bull lib 0x254a150 (OGRwX88so.40) and SMPI lib 0x7f132e5ae850
[amour13_CPU5:user_app:(150) 0.000000] [user_app/INFO] Extracting symbols from Bull lib 0x254cbc0 (OGRwX89so.40) and SMPI lib 0x7f132e5ae850
[amour13_CPU6:user_app:(151) 0.000000] [user_app/INFO] Extracting symbols from Bull lib 0x254f630 (OGRwX90so.40) and SMPI lib 0x7f132e5ae850
[amour14_CPU0:user_app:(157) 0.000000] [user_app/INFO] Extracting symbols from Bull lib 0x25523e0 (OGRwX91so.40) and SMPI lib 0x7f132e5ae850
[amour14_CPU1:user_app:(158) 0.000000] [user_app/INFO] Extracting symbols from Bull lib 0x2554e50 (OGRwX92so.40) and SMPI lib 0x7f132e5ae850
[amour14_CPU2:user_app:(159) 0.000000] [user_app/INFO] Extracting symbols from Bull lib 0x25578c0 (OGRwX93so.40) and SMPI lib 0x7f132e5ae850
[amour14_CPU3:user_app:(160) 0.000000] [user_app/INFO] Extracting symbols from Bull lib 0x255a330 (OGRwX94so.40) and SMPI lib 0x7f132e5ae850
[amour14_CPU4:user_app:(161) 0.000000] [user_app/INFO] Extracting symbols from Bull lib 0x255cda0 (OGRwX95so.40) and SMPI lib 0x7f132e5ae850
[amour14_CPU5:user_app:(162) 0.000000] [user_app/INFO] Extracting symbols from Bull lib 0x255f810 (OGRwX96so.40) and SMPI lib 0x7f132e5ae850
[amour14_CPU6:user_app:(163) 0.000000] [user_app/INFO] Extracting symbols from Bull lib 0x2562280 (OGRwX97so.40) and SMPI lib 0x7f132e5ae850
--------------------------------------------------------------------------
An invalid value was supplied for an enum variable.

  Variable     : btl_vader_single_copy_mechanism
  Value        : xpmem
  Valid values : 1:"cma", 4:"emulated", 3:"none"
--------------------------------------------------------------------------
--------------------------------------------------------------------------
An invalid value was supplied for an enum variable.

  Variable     : btl_vader_single_copy_mechanism
  Value        : xpmem
  Valid values : 1:"cma", 4:"emulated", 3:"none"
--------------------------------------------------------------------------
--------------------------------------------------------------------------
An invalid value was supplied for an enum variable.

  Variable     : btl_vader_single_copy_mechanism
  Value        : xpmem
  Valid values : 1:"cma", 4:"emulated", 3:"none"
--------------------------------------------------------------------------
--------------------------------------------------------------------------
An invalid value was supplied for an enum variable.

  Variable     : btl_vader_single_copy_mechanism
  Value        : xpmem
  Valid values : 1:"cma", 4:"emulated", 3:"none"
--------------------------------------------------------------------------
--------------------------------------------------------------------------
An invalid value was supplied for an enum variable.

  Variable     : btl_vader_single_copy_mechanism
  Value        : xpmem
  Valid values : 1:"cma", 4:"emulated", 3:"none"
--------------------------------------------------------------------------
--------------------------------------------------------------------------
An invalid value was supplied for an enum variable.

  Variable     : btl_vader_single_copy_mechanism
  Value        : xpmem
  Valid values : 1:"cma", 4:"emulated", 3:"none"
--------------------------------------------------------------------------
--------------------------------------------------------------------------
An invalid value was supplied for an enum variable.

  Variable     : btl_vader_single_copy_mechanism
  Value        : xpmem
  Valid values : 1:"cma", 4:"emulated", 3:"none"
--------------------------------------------------------------------------
--------------------------------------------------------------------------
An invalid value was supplied for an enum variable.

  Variable     : btl_vader_single_copy_mechanism
  Value        : xpmem
  Valid values : 1:"cma", 4:"emulated", 3:"none"
--------------------------------------------------------------------------
--------------------------------------------------------------------------
An invalid value was supplied for an enum variable.

  Variable     : btl_vader_single_copy_mechanism
  Value        : xpmem
  Valid values : 1:"cma", 4:"emulated", 3:"none"
--------------------------------------------------------------------------
--------------------------------------------------------------------------
An invalid value was supplied for an enum variable.

  Variable     : btl_vader_single_copy_mechanism
  Value        : xpmem
  Valid values : 1:"cma", 4:"emulated", 3:"none"
--------------------------------------------------------------------------
--------------------------------------------------------------------------
An invalid value was supplied for an enum variable.

  Variable     : btl_vader_single_copy_mechanism
  Value        : xpmem
  Valid values : 1:"cma", 4:"emulated", 3:"none"
--------------------------------------------------------------------------
--------------------------------------------------------------------------
An invalid value was supplied for an enum variable.

  Variable     : btl_vader_single_copy_mechanism
  Value        : xpmem
  Valid values : 1:"cma", 4:"emulated", 3:"none"
--------------------------------------------------------------------------
--------------------------------------------------------------------------
An invalid value was supplied for an enum variable.

  Variable     : btl_vader_single_copy_mechanism
  Value        : xpmem
  Valid values : 1:"cma", 4:"emulated", 3:"none"
--------------------------------------------------------------------------
--------------------------------------------------------------------------
An invalid value was supplied for an enum variable.

  Variable     : btl_vader_single_copy_mechanism
  Value        : xpmem
  Valid values : 1:"cma", 4:"emulated", 3:"none"
--------------------------------------------------------------------------
--------------------------------------------------------------------------
An invalid value was supplied for an enum variable.

  Variable     : btl_vader_single_copy_mechanism
  Value        : xpmem
  Valid values : 1:"cma", 4:"emulated", 3:"none"
--------------------------------------------------------------------------
--------------------------------------------------------------------------
An invalid value was supplied for an enum variable.

  Variable     : btl_vader_single_copy_mechanism
  Value        : xpmem
  Valid values : 1:"cma", 4:"emulated", 3:"none"
--------------------------------------------------------------------------
--------------------------------------------------------------------------
An invalid value was supplied for an enum variable.

  Variable     : btl_vader_single_copy_mechanism
  Value        : xpmem
  Valid values : 1:"cma", 4:"emulated", 3:"none"
--------------------------------------------------------------------------
--------------------------------------------------------------------------
An invalid value was supplied for an enum variable.

  Variable     : btl_vader_single_copy_mechanism
  Value        : xpmem
  Valid values : 1:"cma", 4:"emulated", 3:"none"
--------------------------------------------------------------------------
--------------------------------------------------------------------------
An invalid value was supplied for an enum variable.

  Variable     : btl_vader_single_copy_mechanism
  Value        : xpmem
  Valid values : 1:"cma", 4:"emulated", 3:"none"
--------------------------------------------------------------------------
--------------------------------------------------------------------------
An invalid value was supplied for an enum variable.

  Variable     : btl_vader_single_copy_mechanism
  Value        : xpmem
  Valid values : 1:"cma", 4:"emulated", 3:"none"
--------------------------------------------------------------------------
--------------------------------------------------------------------------
An invalid value was supplied for an enum variable.

  Variable     : btl_vader_single_copy_mechanism
  Value        : xpmem
  Valid values : 1:"cma", 4:"emulated", 3:"none"
--------------------------------------------------------------------------
--------------------------------------------------------------------------
An invalid value was supplied for an enum variable.

  Variable     : btl_vader_single_copy_mechanism
  Value        : xpmem
  Valid values : 1:"cma", 4:"emulated", 3:"none"
--------------------------------------------------------------------------
--------------------------------------------------------------------------
An invalid value was supplied for an enum variable.

  Variable     : btl_vader_single_copy_mechanism
  Value        : xpmem
  Valid values : 1:"cma", 4:"emulated", 3:"none"
--------------------------------------------------------------------------
--------------------------------------------------------------------------
An invalid value was supplied for an enum variable.

  Variable     : btl_vader_single_copy_mechanism
  Value        : xpmem
  Valid values : 1:"cma", 4:"emulated", 3:"none"
--------------------------------------------------------------------------
--------------------------------------------------------------------------
An invalid value was supplied for an enum variable.

  Variable     : btl_vader_single_copy_mechanism
  Value        : xpmem
  Valid values : 1:"cma", 4:"emulated", 3:"none"
--------------------------------------------------------------------------
--------------------------------------------------------------------------
An invalid value was supplied for an enum variable.

  Variable     : btl_vader_single_copy_mechanism
  Value        : xpmem
  Valid values : 1:"cma", 4:"emulated", 3:"none"
--------------------------------------------------------------------------
--------------------------------------------------------------------------
An invalid value was supplied for an enum variable.

  Variable     : btl_vader_single_copy_mechanism
  Value        : xpmem
  Valid values : 1:"cma", 4:"emulated", 3:"none"
--------------------------------------------------------------------------
--------------------------------------------------------------------------
An invalid value was supplied for an enum variable.

  Variable     : btl_vader_single_copy_mechanism
  Value        : xpmem
  Valid values : 1:"cma", 4:"emulated", 3:"none"
--------------------------------------------------------------------------
--------------------------------------------------------------------------
An invalid value was supplied for an enum variable.

  Variable     : btl_vader_single_copy_mechanism
  Value        : xpmem
  Valid values : 1:"cma", 4:"emulated", 3:"none"
--------------------------------------------------------------------------
--------------------------------------------------------------------------
An invalid value was supplied for an enum variable.

  Variable     : btl_vader_single_copy_mechanism
  Value        : xpmem
  Valid values : 1:"cma", 4:"emulated", 3:"none"
--------------------------------------------------------------------------
--------------------------------------------------------------------------
An invalid value was supplied for an enum variable.

  Variable     : btl_vader_single_copy_mechanism
  Value        : xpmem
  Valid values : 1:"cma", 4:"emulated", 3:"none"
--------------------------------------------------------------------------
--------------------------------------------------------------------------
An invalid value was supplied for an enum variable.

  Variable     : btl_vader_single_copy_mechanism
  Value        : xpmem
  Valid values : 1:"cma", 4:"emulated", 3:"none"
--------------------------------------------------------------------------
--------------------------------------------------------------------------
An invalid value was supplied for an enum variable.

  Variable     : btl_vader_single_copy_mechanism
  Value        : xpmem
  Valid values : 1:"cma", 4:"emulated", 3:"none"
--------------------------------------------------------------------------
--------------------------------------------------------------------------
An invalid value was supplied for an enum variable.

  Variable     : btl_vader_single_copy_mechanism
  Value        : xpmem
  Valid values : 1:"cma", 4:"emulated", 3:"none"
--------------------------------------------------------------------------
--------------------------------------------------------------------------
An invalid value was supplied for an enum variable.

  Variable     : btl_vader_single_copy_mechanism
  Value        : xpmem
  Valid values : 1:"cma", 4:"emulated", 3:"none"
--------------------------------------------------------------------------
--------------------------------------------------------------------------
An invalid value was supplied for an enum variable.

  Variable     : btl_vader_single_copy_mechanism
  Value        : xpmem
  Valid values : 1:"cma", 4:"emulated", 3:"none"
--------------------------------------------------------------------------
--------------------------------------------------------------------------
An invalid value was supplied for an enum variable.

  Variable     : btl_vader_single_copy_mechanism
  Value        : xpmem
  Valid values : 1:"cma", 4:"emulated", 3:"none"
--------------------------------------------------------------------------
--------------------------------------------------------------------------
An invalid value was supplied for an enum variable.

  Variable     : btl_vader_single_copy_mechanism
  Value        : xpmem
  Valid values : 1:"cma", 4:"emulated", 3:"none"
--------------------------------------------------------------------------
--------------------------------------------------------------------------
An invalid value was supplied for an enum variable.

  Variable     : btl_vader_single_copy_mechanism
  Value        : xpmem
  Valid values : 1:"cma", 4:"emulated", 3:"none"
--------------------------------------------------------------------------
--------------------------------------------------------------------------
An invalid value was supplied for an enum variable.

  Variable     : btl_vader_single_copy_mechanism
  Value        : xpmem
  Valid values : 1:"cma", 4:"emulated", 3:"none"
--------------------------------------------------------------------------
--------------------------------------------------------------------------
An invalid value was supplied for an enum variable.

  Variable     : btl_vader_single_copy_mechanism
  Value        : xpmem
  Valid values : 1:"cma", 4:"emulated", 3:"none"
--------------------------------------------------------------------------
--------------------------------------------------------------------------
An invalid value was supplied for an enum variable.

  Variable     : btl_vader_single_copy_mechanism
  Value        : xpmem
  Valid values : 1:"cma", 4:"emulated", 3:"none"
--------------------------------------------------------------------------
--------------------------------------------------------------------------
An invalid value was supplied for an enum variable.

  Variable     : btl_vader_single_copy_mechanism
  Value        : xpmem
  Valid values : 1:"cma", 4:"emulated", 3:"none"
--------------------------------------------------------------------------
--------------------------------------------------------------------------
An invalid value was supplied for an enum variable.

  Variable     : btl_vader_single_copy_mechanism
  Value        : xpmem
  Valid values : 1:"cma", 4:"emulated", 3:"none"
--------------------------------------------------------------------------
--------------------------------------------------------------------------
An invalid value was supplied for an enum variable.

  Variable     : btl_vader_single_copy_mechanism
  Value        : xpmem
  Valid values : 1:"cma", 4:"emulated", 3:"none"
--------------------------------------------------------------------------
--------------------------------------------------------------------------
An invalid value was supplied for an enum variable.

  Variable     : btl_vader_single_copy_mechanism
  Value        : xpmem
  Valid values : 1:"cma", 4:"emulated", 3:"none"
--------------------------------------------------------------------------
--------------------------------------------------------------------------
An invalid value was supplied for an enum variable.

  Variable     : btl_vader_single_copy_mechanism
  Value        : xpmem
  Valid values : 1:"cma", 4:"emulated", 3:"none"
--------------------------------------------------------------------------
--------------------------------------------------------------------------
An invalid value was supplied for an enum variable.

  Variable     : btl_vader_single_copy_mechanism
  Value        : xpmem
  Valid values : 1:"cma", 4:"emulated", 3:"none"
--------------------------------------------------------------------------
--------------------------------------------------------------------------
An invalid value was supplied for an enum variable.

  Variable     : btl_vader_single_copy_mechanism
  Value        : xpmem
  Valid values : 1:"cma", 4:"emulated", 3:"none"
--------------------------------------------------------------------------
--------------------------------------------------------------------------
An invalid value was supplied for an enum variable.

  Variable     : btl_vader_single_copy_mechanism
  Value        : xpmem
  Valid values : 1:"cma", 4:"emulated", 3:"none"
--------------------------------------------------------------------------
--------------------------------------------------------------------------
An invalid value was supplied for an enum variable.

  Variable     : btl_vader_single_copy_mechanism
  Value        : xpmem
  Valid values : 1:"cma", 4:"emulated", 3:"none"
--------------------------------------------------------------------------
--------------------------------------------------------------------------
An invalid value was supplied for an enum variable.

  Variable     : btl_vader_single_copy_mechanism
  Value        : xpmem
  Valid values : 1:"cma", 4:"emulated", 3:"none"
--------------------------------------------------------------------------
--------------------------------------------------------------------------
An invalid value was supplied for an enum variable.

  Variable     : btl_vader_single_copy_mechanism
  Value        : xpmem
  Valid values : 1:"cma", 4:"emulated", 3:"none"
--------------------------------------------------------------------------
--------------------------------------------------------------------------
An invalid value was supplied for an enum variable.

  Variable     : btl_vader_single_copy_mechanism
  Value        : xpmem
  Valid values : 1:"cma", 4:"emulated", 3:"none"
--------------------------------------------------------------------------
--------------------------------------------------------------------------
An invalid value was supplied for an enum variable.

  Variable     : btl_vader_single_copy_mechanism
  Value        : xpmem
  Valid values : 1:"cma", 4:"emulated", 3:"none"
--------------------------------------------------------------------------
--------------------------------------------------------------------------
An invalid value was supplied for an enum variable.

  Variable     : btl_vader_single_copy_mechanism
  Value        : xpmem
  Valid values : 1:"cma", 4:"emulated", 3:"none"
--------------------------------------------------------------------------
--------------------------------------------------------------------------
An invalid value was supplied for an enum variable.

  Variable     : btl_vader_single_copy_mechanism
  Value        : xpmem
  Valid values : 1:"cma", 4:"emulated", 3:"none"
--------------------------------------------------------------------------
--------------------------------------------------------------------------
An invalid value was supplied for an enum variable.

  Variable     : btl_vader_single_copy_mechanism
  Value        : xpmem
  Valid values : 1:"cma", 4:"emulated", 3:"none"
--------------------------------------------------------------------------
--------------------------------------------------------------------------
An invalid value was supplied for an enum variable.

  Variable     : btl_vader_single_copy_mechanism
  Value        : xpmem
  Valid values : 1:"cma", 4:"emulated", 3:"none"
--------------------------------------------------------------------------
--------------------------------------------------------------------------
An invalid value was supplied for an enum variable.

  Variable     : btl_vader_single_copy_mechanism
  Value        : xpmem
  Valid values : 1:"cma", 4:"emulated", 3:"none"
--------------------------------------------------------------------------
--------------------------------------------------------------------------
An invalid value was supplied for an enum variable.

  Variable     : btl_vader_single_copy_mechanism
  Value        : xpmem
  Valid values : 1:"cma", 4:"emulated", 3:"none"
--------------------------------------------------------------------------
--------------------------------------------------------------------------
An invalid value was supplied for an enum variable.

  Variable     : btl_vader_single_copy_mechanism
  Value        : xpmem
  Valid values : 1:"cma", 4:"emulated", 3:"none"
--------------------------------------------------------------------------
--------------------------------------------------------------------------
An invalid value was supplied for an enum variable.

  Variable     : btl_vader_single_copy_mechanism
  Value        : xpmem
  Valid values : 1:"cma", 4:"emulated", 3:"none"
--------------------------------------------------------------------------
--------------------------------------------------------------------------
An invalid value was supplied for an enum variable.

  Variable     : btl_vader_single_copy_mechanism
  Value        : xpmem
  Valid values : 1:"cma", 4:"emulated", 3:"none"
--------------------------------------------------------------------------
--------------------------------------------------------------------------
An invalid value was supplied for an enum variable.

  Variable     : btl_vader_single_copy_mechanism
  Value        : xpmem
  Valid values : 1:"cma", 4:"emulated", 3:"none"
--------------------------------------------------------------------------
--------------------------------------------------------------------------
An invalid value was supplied for an enum variable.

  Variable     : btl_vader_single_copy_mechanism
  Value        : xpmem
  Valid values : 1:"cma", 4:"emulated", 3:"none"
--------------------------------------------------------------------------
--------------------------------------------------------------------------
An invalid value was supplied for an enum variable.

  Variable     : btl_vader_single_copy_mechanism
  Value        : xpmem
  Valid values : 1:"cma", 4:"emulated", 3:"none"
--------------------------------------------------------------------------
--------------------------------------------------------------------------
An invalid value was supplied for an enum variable.

  Variable     : btl_vader_single_copy_mechanism
  Value        : xpmem
  Valid values : 1:"cma", 4:"emulated", 3:"none"
--------------------------------------------------------------------------
--------------------------------------------------------------------------
An invalid value was supplied for an enum variable.

  Variable     : btl_vader_single_copy_mechanism
  Value        : xpmem
  Valid values : 1:"cma", 4:"emulated", 3:"none"
--------------------------------------------------------------------------
--------------------------------------------------------------------------
An invalid value was supplied for an enum variable.

  Variable     : btl_vader_single_copy_mechanism
  Value        : xpmem
  Valid values : 1:"cma", 4:"emulated", 3:"none"
--------------------------------------------------------------------------
--------------------------------------------------------------------------
An invalid value was supplied for an enum variable.

  Variable     : btl_vader_single_copy_mechanism
  Value        : xpmem
  Valid values : 1:"cma", 4:"emulated", 3:"none"
--------------------------------------------------------------------------
--------------------------------------------------------------------------
An invalid value was supplied for an enum variable.

  Variable     : btl_vader_single_copy_mechanism
  Value        : xpmem
  Valid values : 1:"cma", 4:"emulated", 3:"none"
--------------------------------------------------------------------------
--------------------------------------------------------------------------
An invalid value was supplied for an enum variable.

  Variable     : btl_vader_single_copy_mechanism
  Value        : xpmem
  Valid values : 1:"cma", 4:"emulated", 3:"none"
--------------------------------------------------------------------------
--------------------------------------------------------------------------
An invalid value was supplied for an enum variable.

  Variable     : btl_vader_single_copy_mechanism
  Value        : xpmem
  Valid values : 1:"cma", 4:"emulated", 3:"none"
--------------------------------------------------------------------------
--------------------------------------------------------------------------
An invalid value was supplied for an enum variable.

  Variable     : btl_vader_single_copy_mechanism
  Value        : xpmem
  Valid values : 1:"cma", 4:"emulated", 3:"none"
--------------------------------------------------------------------------
--------------------------------------------------------------------------
An invalid value was supplied for an enum variable.

  Variable     : btl_vader_single_copy_mechanism
  Value        : xpmem
  Valid values : 1:"cma", 4:"emulated", 3:"none"
--------------------------------------------------------------------------
--------------------------------------------------------------------------
An invalid value was supplied for an enum variable.

  Variable     : btl_vader_single_copy_mechanism
  Value        : xpmem
  Valid values : 1:"cma", 4:"emulated", 3:"none"
--------------------------------------------------------------------------
--------------------------------------------------------------------------
An invalid value was supplied for an enum variable.

  Variable     : btl_vader_single_copy_mechanism
  Value        : xpmem
  Valid values : 1:"cma", 4:"emulated", 3:"none"
--------------------------------------------------------------------------
--------------------------------------------------------------------------
An invalid value was supplied for an enum variable.

  Variable     : btl_vader_single_copy_mechanism
  Value        : xpmem
  Valid values : 1:"cma", 4:"emulated", 3:"none"
--------------------------------------------------------------------------
--------------------------------------------------------------------------
An invalid value was supplied for an enum variable.

  Variable     : btl_vader_single_copy_mechanism
  Value        : xpmem
  Valid values : 1:"cma", 4:"emulated", 3:"none"
--------------------------------------------------------------------------
--------------------------------------------------------------------------
An invalid value was supplied for an enum variable.

  Variable     : btl_vader_single_copy_mechanism
  Value        : xpmem
  Valid values : 1:"cma", 4:"emulated", 3:"none"
--------------------------------------------------------------------------
--------------------------------------------------------------------------
An invalid value was supplied for an enum variable.

  Variable     : btl_vader_single_copy_mechanism
  Value        : xpmem
  Valid values : 1:"cma", 4:"emulated", 3:"none"
--------------------------------------------------------------------------
--------------------------------------------------------------------------
An invalid value was supplied for an enum variable.

  Variable     : btl_vader_single_copy_mechanism
  Value        : xpmem
  Valid values : 1:"cma", 4:"emulated", 3:"none"
--------------------------------------------------------------------------
--------------------------------------------------------------------------
An invalid value was supplied for an enum variable.

  Variable     : btl_vader_single_copy_mechanism
  Value        : xpmem
  Valid values : 1:"cma", 4:"emulated", 3:"none"
--------------------------------------------------------------------------
--------------------------------------------------------------------------
An invalid value was supplied for an enum variable.

  Variable     : btl_vader_single_copy_mechanism
  Value        : xpmem
  Valid values : 1:"cma", 4:"emulated", 3:"none"
--------------------------------------------------------------------------
--------------------------------------------------------------------------
An invalid value was supplied for an enum variable.

  Variable     : btl_vader_single_copy_mechanism
  Value        : xpmem
  Valid values : 1:"cma", 4:"emulated", 3:"none"
--------------------------------------------------------------------------
--------------------------------------------------------------------------
An invalid value was supplied for an enum variable.

  Variable     : btl_vader_single_copy_mechanism
  Value        : xpmem
  Valid values : 1:"cma", 4:"emulated", 3:"none"
--------------------------------------------------------------------------
--------------------------------------------------------------------------
An invalid value was supplied for an enum variable.

  Variable     : btl_vader_single_copy_mechanism
  Value        : xpmem
  Valid values : 1:"cma", 4:"emulated", 3:"none"
--------------------------------------------------------------------------
--------------------------------------------------------------------------
An invalid value was supplied for an enum variable.

  Variable     : btl_vader_single_copy_mechanism
  Value        : xpmem
  Valid values : 1:"cma", 4:"emulated", 3:"none"
--------------------------------------------------------------------------
--------------------------------------------------------------------------
An invalid value was supplied for an enum variable.

  Variable     : btl_vader_single_copy_mechanism
  Value        : xpmem
  Valid values : 1:"cma", 4:"emulated", 3:"none"
--------------------------------------------------------------------------
--------------------------------------------------------------------------
An invalid value was supplied for an enum variable.

  Variable     : btl_vader_single_copy_mechanism
  Value        : xpmem
  Valid values : 1:"cma", 4:"emulated", 3:"none"
--------------------------------------------------------------------------
--------------------------------------------------------------------------
An invalid value was supplied for an enum variable.

  Variable     : btl_vader_single_copy_mechanism
  Value        : xpmem
  Valid values : 1:"cma", 4:"emulated", 3:"none"
--------------------------------------------------------------------------
--------------------------------------------------------------------------
An invalid value was supplied for an enum variable.

  Variable     : btl_vader_single_copy_mechanism
  Value        : xpmem
  Valid values : 1:"cma", 4:"emulated", 3:"none"
--------------------------------------------------------------------------
--------------------------------------------------------------------------
An invalid value was supplied for an enum variable.

  Variable     : btl_vader_single_copy_mechanism
  Value        : xpmem
  Valid values : 1:"cma", 4:"emulated", 3:"none"
--------------------------------------------------------------------------
--------------------------------------------------------------------------
An invalid value was supplied for an enum variable.

  Variable     : btl_vader_single_copy_mechanism
  Value        : xpmem
  Valid values : 1:"cma", 4:"emulated", 3:"none"
--------------------------------------------------------------------------
--------------------------------------------------------------------------
An invalid value was supplied for an enum variable.

  Variable     : btl_vader_single_copy_mechanism
  Value        : xpmem
  Valid values : 1:"cma", 4:"emulated", 3:"none"
--------------------------------------------------------------------------
--------------------------------------------------------------------------
An invalid value was supplied for an enum variable.

  Variable     : btl_vader_single_copy_mechanism
  Value        : xpmem
  Valid values : 1:"cma", 4:"emulated", 3:"none"
--------------------------------------------------------------------------
--------------------------------------------------------------------------
An invalid value was supplied for an enum variable.

  Variable     : btl_vader_single_copy_mechanism
  Value        : xpmem
  Valid values : 1:"cma", 4:"emulated", 3:"none"
--------------------------------------------------------------------------
Backtrace (displayed in actor user_app):
  ->  0# xbt_backtrace_display_current in /tmp/opt/simgrid/lib64/libsimgrid.so.3.32
  ->  1# 0x00007F132DD2847B in /tmp/opt/simgrid/lib64/libsimgrid.so.3.32
  ->  2# s4bxi_bench_end in /tmp/opt/s4bxi/lib/libportals.so.1
  ->  3# PtlEQGet in /tmp/opt/s4bxi/lib/libportals.so.1
  ->  4# mca_btl_bxi_component_progress in OGRwX97-pal.so.40
  ->  5# opal_progress in OGRwX97-pal.so.40
  ->  6# ompi_request_default_wait in OGRwX97so.40
  ->  7# ompi_coll_base_sendrecv_actual in OGRwX97so.40
  ->  8# ompi_coll_base_allgather_intra_bruck in OGRwX97so.40
  ->  9# ompi_coll_tuned_allgather_intra_dec_fixed in OGRwX97so.40
  ->  10# ompi_comm_split_with_info in OGRwX97so.40
  ->  11# PMPI_Comm_split in OGRwX97so.40
  ->  12# S4BXI_MPI_Comm_split in /tmp/opt/s4bxi/lib/libportals.so.1
  ->  13# HPL_grid_init in ./xhpl_OGRwXJurst_97.so
  ->  14# main in ./xhpl_OGRwXJurst_97.so

[amour14_CPU6:user_app:(163) 0.066615] ../src/smpi/internals/smpi_bench.cpp:126: [root/CRITICAL] Bench end called twice?
[pm0-nod15:315961] *** Process received signal ***
[pm0-nod15:315961] Signal: Aborted (6)
[pm0-nod15:315961] Signal code:  (-6)
[pm0-nod15:315961] [ 0] /lib64/libc.so.6(+0x37400)[0x7f132cb2a400]
[pm0-nod15:315961] [ 1] /lib64/libc.so.6(gsignal+0x10f)[0x7f132cb2a37f]
[pm0-nod15:315961] [ 2] /lib64/libc.so.6(abort+0x127)[0x7f132cb14db5]
[pm0-nod15:315961] [ 3] /tmp/opt/simgrid/lib64/libsimgrid.so.3.32(+0x110efc)[0x7f132dafbefc]
[pm0-nod15:315961] [ 4] /tmp/opt/simgrid/lib64/libsimgrid.so.3.32(+0x33d418)[0x7f132dd28418]
[pm0-nod15:315961] [ 5] /tmp/opt/s4bxi/lib/libportals.so.1(s4bxi_bench_end+0x17)[0x7f132e118067]
[pm0-nod15:315961] [ 6] /tmp/opt/s4bxi/lib/libportals.so.1(PtlEQGet+0x17)[0x7f132e114e67]
[pm0-nod15:315961] [ 7] OGRwX97-pal.so.40(mca_btl_bxi_component_progress+0xf0)[0x7f1274f22fc0]
[pm0-nod15:315961] [ 8] OGRwX97-pal.so.40(opal_progress+0x74)[0x7f1274ec3824]
[pm0-nod15:315961] [ 9] OGRwX97so.40(ompi_request_default_wait+0x45)[0x7f1275749ff5]
[pm0-nod15:315961] [10] OGRwX97so.40(ompi_coll_base_sendrecv_actual+0xab)[0x7f12757b38cb]
[pm0-nod15:315961] [11] OGRwX97so.40(ompi_coll_base_allgather_intra_bruck+0x132)[0x7f12757b1d12]
[pm0-nod15:315961] [12] OGRwX97so.40(ompi_coll_tuned_allgather_intra_dec_fixed+0x4a)[0x7f12757fe3ca]
[pm0-nod15:315961] [13] OGRwX97so.40(ompi_comm_split_with_info+0xbe)[0x7f127572b46e]
[pm0-nod15:315961] [14] OGRwX97so.40(PMPI_Comm_split+0x6f)[0x7f127576c52f]
[pm0-nod15:315961] [15] /tmp/opt/s4bxi/lib/libportals.so.1(S4BXI_MPI_Comm_split+0x53)[0x7f132e13e113]
[pm0-nod15:315961] [16] ./xhpl_OGRwXJurst_97.so(HPL_grid_init+0x1c1)[0x7f1275c372b1]
[pm0-nod15:315961] [17] ./xhpl_OGRwXJurst_97.so(main+0x287)[0x7f1275c2ee87]
[pm0-nod15:315961] [18] /tmp/opt/s4bxi/lib/libportals.so.1(_ZN15BxiUserAppActorclEv+0x184d)[0x7f132e1008dd]
[pm0-nod15:315961] [19] /tmp/opt/s4bxi/lib/libportals.so.1(_ZZZN7simgrid3s4u6Engine14register_actorI15BxiUserAppActorEEvRKNSt7__cxx1112basic_stringIcSt11char_traitsIcESaIcEEEENKUlSt6vectorIS9_SaIS9_EEE_clESE_ENUlvE_clEv+0x21)[0x7f132e106881]
[pm0-nod15:315961] [20] /tmp/opt/simgrid/lib64/libsimgrid.so.3.32(smx_ctx_wrapper+0x1c)[0x7f132db6c0bc]
[pm0-nod15:315961] *** End of error message ***
./s4bxi_run_vanilla.sh: line 91: 315961 Aborted                 (core dumped) s4bximain $PLATFORMDIR/amour/build/libamour.so ./deploy.xml ./xhpl xhpl --cfg=smpi/cpu-threshold:${S4BXI_CPU_THRESHOLD} --cfg=smpi/host-speed:$(bc <<< "10000 * ${S4BXI_CPU_FACTOR}")Mf

real	0m21.519s
user	0m3.796s
sys	0m16.886s
