magic, rank, use_smpi, time, delta, comment
#~#, 1, 0, 0.000001, 0.000001, Set initial model
#~#, 1, 0, 0.097723, 0.097721, After MPI_Init
#~#, 1, 0, 0.098623, 0.000900, After HPL_pdinfo
#~#, 1, 0, 0.099612, 0.000989, After HPL_grid_info
