magic, rank, use_smpi, time, delta, comment
#~#, 8, 0, 0.000001, 0.000001, Set initial model
#~#, 8, 0, 0.098182, 0.098181, After MPI_Init
#~#, 8, 0, 0.098618, 0.000436, After HPL_pdinfo
#~#, 8, 0, 0.099617, 0.001000, After HPL_grid_info
