magic, rank, use_smpi, time, delta, comment
#~#, 13, 0, 0.000001, 0.000001, Set initial model
#~#, 13, 0, 0.100598, 0.100596, After MPI_Init
#~#, 13, 0, 0.102198, 0.001600, After HPL_pdinfo
#~#, 13, 0, 0.103257, 0.001059, After HPL_grid_info
