magic, rank, use_smpi, time, delta, comment
#~#, 1, 0, 0.000001, 0.000001, Set initial model
#~#, 1, 0, 0.111330, 0.111329, After MPI_Init
#~#, 1, 0, 0.113896, 0.002565, After HPL_pdinfo
#~#, 1, 0, 0.114829, 0.000934, After HPL_grid_info
