magic, rank, use_smpi, time, delta, comment
#~#, 15, 0, 0.000001, 0.000001, Set initial model
#~#, 15, 0, 0.110320, 0.110319, After MPI_Init
#~#, 15, 0, 0.113936, 0.003616, After HPL_pdinfo
#~#, 15, 0, 0.114836, 0.000901, After HPL_grid_info
