magic, rank, use_smpi, time, delta, comment
#~#, 8, 0, 0.000002, 0.000002, Set initial model
#~#, 8, 0, 0.112573, 0.112572, After MPI_Init
#~#, 8, 0, 0.113887, 0.001314, After HPL_pdinfo
#~#, 8, 0, 0.114835, 0.000949, After HPL_grid_info
