_#_,480,480,120,1272467
_#_,480,480,120,1258436
_#_,480,480,120,1250806
_#_,480,480,120,1253827
_#_,480,480,120,1254986
_#_,480,480,120,1251026
_#_,480,480,120,1248986
_#_,480,480,120,1253006
_#_,480,480,120,1248986
_#_,480,60,0,9440
_#_,480,30,0,530
_#_,480,16,0,440
_#_,480,8,0,420
_#_,480,4,0,370
_#_,480,2,0,370
_#_,480,2,2,540
_#_,480,4,4,980
_#_,480,2,0,570
_#_,480,2,2,431
_#_,480,8,8,2240
_#_,480,4,0,491
_#_,480,2,0,391
_#_,480,2,2,440
_#_,480,4,4,880
_#_,480,2,0,440
_#_,480,2,2,400
_#_,480,14,16,6110
_#_,480,8,0,490
_#_,480,4,0,380
_#_,480,2,0,370
_#_,480,2,2,410
_#_,480,4,4,850
_#_,480,2,0,430
_#_,480,2,2,410
_#_,480,6,8,1820
_#_,480,4,0,469
_#_,480,2,0,380
_#_,480,2,2,429
_#_,480,2,4,520
_#_,480,30,30,22110
_#_,480,16,0,560
_#_,480,8,0,400
_#_,480,4,0,370
_#_,480,2,0,360
_#_,480,2,2,430
_#_,480,4,4,860
_#_,480,2,0,450
_#_,480,2,2,510
_#_,480,8,8,2140
_#_,480,4,0,470
_#_,480,2,0,380
_#_,480,2,2,400
_#_,480,4,4,831
_#_,480,2,0,440
_#_,480,2,2,400
_#_,480,14,16,6160
_#_,480,8,0,500
_#_,480,4,0,400
_#_,480,2,0,360
_#_,480,2,2,410
_#_,480,4,4,860
_#_,480,2,0,460
_#_,480,2,2,420
_#_,480,6,8,1760
_#_,480,4,0,450
_#_,480,2,0,380
_#_,480,2,2,530
_#_,480,2,4,529
_#_,480,60,60,77990
_#_,480,30,0,770
_#_,480,16,0,420
_#_,480,8,0,380
_#_,480,4,0,370
_#_,480,2,0,370
_#_,480,2,2,430
_#_,480,4,4,890
_#_,480,2,0,480
_#_,480,2,2,420
_#_,480,8,8,2170
_#_,480,4,0,470
_#_,480,2,0,380
_#_,480,2,2,420
_#_,480,4,4,840
_#_,480,2,0,451
_#_,480,2,2,400
_#_,480,14,16,6200
_#_,480,8,0,510
_#_,480,4,0,390
_#_,480,2,0,370
_#_,480,2,2,410
_#_,480,4,4,830
_#_,480,2,0,460
_#_,480,2,2,430
_#_,480,6,8,1750
_#_,480,4,0,460
_#_,480,2,0,380
_#_,480,2,2,400
_#_,480,2,4,491
_#_,480,30,30,21869
_#_,480,16,0,620
_#_,480,8,0,400
_#_,480,4,0,360
_#_,480,2,0,380
_#_,480,2,2,420
_#_,480,4,4,850
_#_,480,2,0,440
_#_,480,2,2,410
_#_,480,8,8,2160
_#_,480,4,0,480
_#_,480,2,0,400
_#_,480,2,2,520
_#_,480,4,4,830
_#_,480,2,0,450
_#_,480,2,2,409
_#_,480,14,16,6169
_#_,480,8,0,509
_#_,480,4,0,389
_#_,480,2,0,380
_#_,480,2,2,410
_#_,480,4,4,840
_#_,480,2,0,500
_#_,480,2,2,410
_#_,480,6,8,1780
_#_,480,4,0,490
_#_,480,2,0,400
_#_,480,2,2,410
_#_,480,2,4,5_#_#_,480,360,120,90955_#__#_,360,360,120,6931_#__#_,360,360,120,6831_#__#_,360,360,120,6833_#__#_,360,360,120,6813_#__#_,360,360,120,688448__#_,360,360,120,698088__#_,360,360,120,693158
_#_,360,360,120,697428
_#_,360,360,120,704668
_#_,360,60,0,1240
_#_,360,30,0,440
_#_,360,16,0,410
_#_,360,8,0,390
_#_,360,4,0,380
_#_,360,2,0,370
_#_,360,2,2,500
_#_,360,4,4,790
_#_,360,2,0,500
_#_,360,2,2,370
_#_,360,8,8,1840
_#_,360,4,0,490
_#_,360,2,0,390
_#_,360,2,2,420
_#_,360,4,4,700
_#_,360,2,0,460
_#_,360,2,2,360
_#_,360,14,16,4650
_#_,360,8,0,490
_#_,360,4,0,400
_#_,360,2,0,380
_#_,360,2,2,360
_#_,360,4,4,690
_#_,360,2,0,470
_#_,360,2,2,360
_#_,360,6,8,1480
_#_,360,4,0,500
_#_,360,2,0,380
_#_,360,2,2,350
_#_,360,2,4,470
_#_,360,30,30,16580
_#_,360,16,0,571
_#_,360,8,0,400
_#_,360,4,0,389
_#_,360,2,0,380
_#_,360,2,2,410
_#_,360,4,4,940
_#_,360,2,0,490
_#_,360,2,2,430
_#_,360,8,8,1710
_#_,360,4,0,470
_#_,360,2,0,380
_#_,360,2,2,370
_#_,360,4,4,690
_#_,360,2,0,470
_#_,360,2,2,350
_#_,360,14,16,4629
_#_,360,8,0,520
_#_,360,4,0,380
_#_,360,2,0,369
_#_,360,2,2,360
_#_,360,4,4,700
_#_,360,2,0,460
_#_,360,2,2,430
_#_,360,6,8,1390
_#_,360,4,0,480
_#_,360,2,0,380
_#_,360,2,2,360
_#_,360,2,4,440
_#_,360,60,60,58880
_#_,360,30,0,740
_#_,360,16,0,399
_#_,360,8,0,380
_#_,360,4,0,360
_#_,360,2,0,380
_#_,360,2,2,409
_#_,360,4,4,710
_#_,360,2,0,490
_#_,360,2,2,360
_#_,360,8,8,1750
_#_,360,4,0,440
_#_,360,2,0,390
_#_,360,2,2,360
_#_,360,4,4,710
_#_,360,2,0,460
_#_,360,2,2,370
_#_,360,14,16,4640
_#_,360,8,0,460
_#_,360,4,0,380
_#_,360,2,0,380
_#_,360,2,2,360
_#_,360,4,4,700
_#_,360,2,0,449
_#_,360,2,2,350
_#_,360,6,8,1400
_#_,360,4,0,460
_#_,360,2,0,390
_#_,360,2,2,430
_#_,360,2,4,430
_#_,360,30,30,16630
_#_,360,16,0,520
_#_,360,8,0,400
_#_,360,4,0,360
_#_,360,2,0,360
_#_,360,2,2,400
_#_,360,4,4,690
_#_,360,2,0,470
_#_,360,2,2,360
_#_,360,8,8,1680
_#_,360,4,0,489
_#_,360,2,0,380
_#_,360,2,2,360
_#_,360,4,4,670
_#_,360,2,0,480
_#_,360,2,2,350
_#_,360,14,16,4740
_#_,360,8,0,480
_#_,360,4,0,380
_#_,360,2,0,370
_#_,360,2,2,360
_#_,360,4,4,690
_#_,360,2,0,460
_#_,360,2,2,350
_#_,360,6,8,1540
_#_,360,4,0,449
_#_,360,2,0,380
_#_,360,2,2,360
_#_,360,2,4,4_#_#_,360,240,120,44263_#__#_,240,240,120,2906_#__#_,240,240,120,2938_#__#_,240,240,120,2920_#__#_,240,240,120,2949_#__#_,240,240,120,289979__#_,240,240,120,289899__#_,240,240,120,290209
_#_,240,240,120,289959
_#_,240,240,120,292149
_#_,240,60,0,1020
_#_,240,30,0,450
_#_,240,16,0,400
_#_,240,8,0,390
_#_,240,4,0,380
_#_,240,2,0,390
_#_,240,2,2,370
_#_,240,4,4,580
_#_,240,2,0,460
_#_,240,2,2,300
_#_,240,8,8,1249
_#_,240,4,0,460
_#_,240,2,0,369
_#_,240,2,2,289
_#_,240,4,4,540
_#_,240,2,0,430
_#_,240,2,2,310
_#_,240,14,16,3250
_#_,240,8,0,470
_#_,240,4,0,380
_#_,240,2,0,360
_#_,240,2,2,280
_#_,240,4,4,580
_#_,240,2,0,460
_#_,240,2,2,280
_#_,240,6,8,1010
_#_,240,4,0,460
_#_,240,2,0,370
_#_,240,2,2,271
_#_,240,2,4,371
_#_,240,30,30,11060
_#_,240,16,0,580
_#_,240,8,0,400
_#_,240,4,0,380
_#_,240,2,0,380
_#_,240,2,2,290
_#_,240,4,4,510
_#_,240,2,0,430
_#_,240,2,2,270
_#_,240,8,8,1210
_#_,240,4,0,450
_#_,240,2,0,380
_#_,240,2,2,320
_#_,240,4,4,640
_#_,240,2,0,430
_#_,240,2,2,320
_#_,240,14,16,3220
_#_,240,8,0,469
_#_,240,4,0,380
_#_,240,2,0,370
_#_,240,2,2,270
_#_,240,4,4,570
_#_,240,2,0,490
_#_,240,2,2,290
_#_,240,6,8,1000
_#_,240,4,0,440
_#_,240,2,0,370
_#_,240,2,2,310
_#_,240,2,4,360
_#_,240,60,60,38829
_#_,240,30,0,631
_#_,240,16,0,420
_#_,240,8,0,371
_#_,240,4,0,360
_#_,240,2,0,371
_#_,240,2,2,300
_#_,240,4,4,510
_#_,240,2,0,470
_#_,240,2,2,330
_#_,240,8,8,1210
_#_,240,4,0,470
_#_,240,2,0,390
_#_,240,2,2,280
_#_,240,4,4,500
_#_,240,2,0,430
_#_,240,2,2,310
_#_,240,14,16,3200
_#_,240,8,0,480
_#_,240,4,0,390
_#_,240,2,0,360
_#_,240,2,2,289
_#_,240,4,4,540
_#_,240,2,0,500
_#_,240,2,2,290
_#_,240,6,8,1070
_#_,240,4,0,450
_#_,240,2,0,380
_#_,240,2,2,270
_#_,240,2,4,360
_#_,240,30,30,11210
_#_,240,16,0,530
_#_,240,8,0,390
_#_,240,4,0,360
_#_,240,2,0,370
_#_,240,2,2,340
_#_,240,4,4,509
_#_,240,2,0,440
_#_,240,2,2,269
_#_,240,8,8,1160
_#_,240,4,0,450
_#_,240,2,0,390
_#_,240,2,2,320
_#_,240,4,4,500
_#_,240,2,0,440
_#_,240,2,2,310
_#_,240,14,16,3210
_#_,240,8,0,490
_#_,240,4,0,390
_#_,240,2,0,380
_#_,240,2,2,270
_#_,240,4,4,500
_#_,240,2,0,450
_#_,240,2,2,320
_#_,240,6,8,1040
_#_,240,4,0,440
_#_,240,2,0,380
_#_,240,2,2,320
_#_,240,2,__#__#_,240,120,120,144__#__#_,120,120,120,73__#__#_#_,120,120,120,__#__#_#_,120,120,120,7_#__#_#_,120,120,120,7_#__#_#_,120,120,120,736__#_#_,120,120,120,7373_#_#_,120,120,120,7352_#_#_,120,120,120,73520
_#_,120,120,120,73640
_#_,120,60,0,1060
_#_,120,30,0,460
_#_,120,16,0,410
_#_,120,8,0,380
_#_,120,4,0,380
_#_,120,2,0,370
_#_,120,2,2,290
_#_,120,4,4,450
_#_,120,2,0,450
_#_,120,2,2,230
_#_,120,8,8,770
_#_,120,4,0,440
_#_,120,2,0,380
_#_,120,2,2,240
_#_,120,4,4,391
_#_,120,2,0,451
_#_,120,2,2,240
_#_,120,14,16,1750
_#_,120,8,0,490
_#_,120,4,0,380
_#_,120,2,0,370
_#_,120,2,2,230
_#_,120,4,4,370
_#_,120,2,0,450
_#_,120,2,2,220
_#_,120,6,8,630
_#_,120,4,0,450
_#_,120,2,0,380
_#_,120,2,2,240
_#_,120,2,4,300
_#_,120,30,30,5689
_#_,120,16,0,529
_#_,120,8,0,411
_#_,120,4,0,380
_#_,120,2,0,371
_#_,120,2,2,230
_#_,120,4,4,380
_#_,120,2,0,440
_#_,120,2,2,230
_#_,120,8,8,800
_#_,120,4,0,460
_#_,120,2,0,380
_#_,120,2,2,230
_#_,120,4,4,360
_#_,120,2,0,430
_#_,120,2,2,230
_#_,120,14,16,1731
_#_,120,8,0,491
_#_,120,4,0,400
_#_,120,2,0,391
_#_,120,2,2,220
_#_,120,4,4,350
_#_,120,2,0,450
_#_,120,2,2,220
_#_,120,6,8,620
_#_,120,4,0,440
_#_,120,2,0,380
_#_,120,2,2,220
_#_,120,2,4,260
_#_,120,60,60,19920
_#_,120,30,0,530
_#_,120,16,0,410
_#_,120,8,0,380
_#_,120,4,0,370
_#_,120,2,0,360
_#_,120,2,2,240
_#_,120,4,4,360
_#_,120,2,0,460
_#_,120,2,2,250
_#_,120,8,8,730
_#_,120,4,0,490
_#_,120,2,0,390
_#_,120,2,2,230
_#_,120,4,4,370
_#_,120,2,0,440
_#_,120,2,2,220
_#_,120,14,16,1740
_#_,120,8,0,480
_#_,120,4,0,390
_#_,120,2,0,370
_#_,120,2,2,240
_#_,120,4,4,360
_#_,120,2,0,469
_#_,120,2,2,231
_#_,120,6,8,600
_#_,120,4,0,470
_#_,120,2,0,380
_#_,120,2,2,240
_#_,120,2,4,280
_#_,120,30,30,5670
_#_,120,16,0,540
_#_,120,8,0,410
_#_,120,4,0,380
_#_,120,2,0,360
_#_,120,2,2,240
_#_,120,4,4,360
_#_,120,2,0,460
_#_,120,2,2,230
_#_,120,8,8,760
_#_,120,4,0,469
_#_,120,2,0,389
_#_,120,2,2,260
_#_,120,4,4,360
_#_,120,2,0,440
_#_,120,2,2,260
_#_,120,14,16,1750
_#_,120,8,0,490
_#_,120,4,0,380
_#_,120
real	0m0.761s

real	0m0.770s
user	0m0.250s
sys	0m0.385s
er	
real	0m0.766s
user	0m0.
real	0m0.773s
user	0m0.230s
sys	0m0.402s
	0
real	0m0.767s
user	0m0.231s
sys	0m0.382s
er	0m0.228s
sys	0m0.391s
420
_#_,0,20,0,320
_#_,0,10,0,320
_#_,0,6,0,330
_#_,0,4,0,320
_#_,0,2,0,310
_#_,0,2,2,370
_#_,0,2,4,380
_#_,0,4,6,380
_#_,0,2,0,329
_#_,0,2,2,360
_#_,0,10,10,390
_#_,0,6,0,330
_#_,0,4,0,330
_#_,0,2,0,320
_#_,0,2,2,360
_#_,0,2,4,370
_#_,0,4,6,370
_#_,0,2,0,340
_#_,0,2,2,370
_#_,0,20,20,370
_#_,0,10,0,330
_#_,0,6,0,320
_#_,0,4,0,320
_#_,0,2,0,310
_#_,0,2,2,370
_#_,0,2,4,380
_#_,0,4,6,369
_#_,0,2,0,340
_#_,0,2,2,369
_#_,0,10,10,380
_#_,0,6,0,330
_#_,0,4,0,330
_#_,0,2,0,310
_#_,0,2,2,370
_#_,0,2,4,370
_#_,0,4,6,370
_#_,0,2,0,330
_#_,0,2,2,370
_#_,0,40,40,380
_#_,0,20,0,340
_#_,0,10,0,320
_#_,0,6,0,320
_#_,0,4,0,320
_#_,0,2,0,310
_#_,0,2,2,360
_#_,0,2,4,360
_#_,0,4,6,371
_#_,0,2,0,329
_#_,0,2,2,370
_#_,0,10,10,350
_#_,0,6,0,330
_#_,0,4,0,330
_#_,0,2,0,300
_#_,0,2,2,360
_#_,0,2,4,360
_#_,0,4,6,360
_#_,0,2,0,340
_#_,0,2,2,360
_#_,0,20,20,370
_#_,0,10,0,340
_#_,0,6,0,310
_#_,0,4,0,320
_#_,0,2,0,320
_#_,0,2,2,360
_#_,0,2,4,380
_#_,0,4,6,360
_#_,0,2,0,330
_#_,0,2,2,370
_#_,0,10,10,390
_#_,0,6,0,330
_#_,0,4,0,310
_#_,0,2,0,320
_#_,0,2,2,360
_#_,0,2,4,360
_#_,0,4,6,360
_#_,0,2,0,330
_#_,0,2,2,360
_#_,0,1,80,320

real	0m0.772s
user	0m0.244s
sys	0m0.391s
4,4,290
_#_,48,2,0,430
_#_,46,2,2,250
_#_,44,14,16,820
_#_,44,8,0,490
_#_,44,4,0,380
_#_,44,2,0,360
_#_,42,2,2,250
_#_,40,4,4,310
_#_,40,2,0,440
_#_,38,2,2,280
_#_,36,6,8,380
_#_,36,4,0,471
_#_,36,2,0,391
_#_,34,2,2,240
_#_,32,2,4,210
_#_,30,30,30,2350
_#_,30,16,0,500
_#_,30,8,0,390
_#_,30,4,0,380
_#_,30,2,0,370
_#_,28,2,2,220
_#_,26,4,4,400
_#_,26,2,0,450
_#_,24,2,2,220
_#_,22,8,8,530
_#_,22,4,0,450
_#_,22,2,0,370
_#_,20,2,2,220
_#_,18,4,4,329
_#_,18,2,0,471
_#_,16,2,2,191
_#_,14,14,16,690
_#_,14,8,0,460
_#_,14,4,0,380
_#_,14,2,0,370
_#_,12,2,2,230
_#_,10,4,4,340
_#_,10,2,0,450
_#_,8,2,2,210
_#_,6,6,8,380
_#_,6,4,0,460
_#_,6,2,0,390
_#_,4,2,2,210
_#_,2,2,4,200

real	0m0.775s
user	0m0.236s
sys	0m0.398s
