magic, rank, use_smpi, time, delta, comment
#~#, 14, 0, 0.000001, 0.000001, Set initial model
#~#, 14, 0, 0.103730, 0.103729, After MPI_Init
#~#, 14, 0, 0.104242, 0.000512, After HPL_pdinfo
#~#, 14, 0, 0.105246, 0.001004, After HPL_grid_info
