magic, rank, use_smpi, time, delta, comment
#~#, 14, 0, 0.000003, 0.000003, Set initial model
#~#, 14, 1, 0.933774, 0.933771, Before pdupdate
#~#, 14, 0, 1.008741, 0.074968, Before pdupdate
#~#, 14, 1, 1.063047, 0.054305, Before pdupdate
#~#, 14, 0, 1.089488, 0.026441, Before pdupdate
