magic, rank, use_smpi, time, delta, comment
#~#, 1, 0, 0.000001, 0.000001, Set initial model
#~#, 1, 0, 0.097461, 0.097459, After MPI_Init
#~#, 1, 0, 0.098855, 0.001395, After HPL_pdinfo
#~#, 1, 0, 0.099794, 0.000939, After HPL_grid_info
