magic, rank, use_smpi, time, delta, comment
#~#, 13, 0, 0.000002, 0.000002, Set initial model
#~#, 13, 0, 0.096093, 0.096092, After MPI_Init
#~#, 13, 0, 0.098866, 0.002773, After HPL_pdinfo
#~#, 13, 0, 0.099796, 0.000930, After HPL_grid_info
