magic, rank, use_smpi, time, delta, comment
#~#, 15, 0, 0.000001, 0.000001, Set initial model
#~#, 15, 0, 0.097403, 0.097403, After MPI_Init
#~#, 15, 0, 0.098859, 0.001455, After HPL_pdinfo
#~#, 15, 0, 0.099801, 0.000942, After HPL_grid_info
