magic, rank, use_smpi, time, delta, comment
#~#, 2, 0, 0.000002, 0.000002, Set initial model
#~#, 2, 0, 0.097430, 0.097428, After MPI_Init
#~#, 2, 0, 0.098860, 0.001430, After HPL_pdinfo
#~#, 2, 0, 0.099796, 0.000936, After HPL_grid_info
