[0.000000] [xbt_cfg/INFO] Configuration change: Set 'smpi/privatization' to '1'
[0.000000] [xbt_cfg/INFO] Configuration change: Set 'smpi/np' to '144'
[0.000000] [xbt_cfg/INFO] Configuration change: Set 'smpi/hostfile' to './hosts.txt'
[0.000000] [xbt_cfg/INFO] Configuration change: Set 'surf/precision' to '1e-9'
[0.000000] [xbt_cfg/INFO] Configuration change: Set 'network/model' to 'SMPI'
[0.000000] [xbt_cfg/INFO] Configuration change: Set 'smpi/privatization' to 'dlopen'
[0.000000] [xbt_cfg/INFO] Configuration change: Set 'smpi/display-timing' to 'yes'
[0.000000] [xbt_cfg/INFO] Configuration change: Set 'smpi/host-speed' to '10000Mf'
[0.000000] [xbt_cfg/INFO] Configuration change: Set 'smpi/tmpdir' to '/tmp'
[0.061062] [smpi_utils/INFO] Simulated time: 0.0610622 seconds. 

The simulation took 1.09467 seconds (after parsing and platform setup)
0.383795 seconds were actual computation of the application

real	0m1.173s
user	0m1.059s
sys	0m0.111s
