[0.000000] [xbt_cfg/INFO] Configuration change: Set 'smpi/cpu-threshold' to '1e-9'
[0.000000] [xbt_cfg/INFO] Configuration change: Set 'smpi/host-speed' to '10000Mf'
[0.000000] [xbt_cfg/INFO] Configuration change: Set 'surf/precision' to '1e-9'
[0.000000] [xbt_cfg/INFO] Configuration change: Set 'network/loopback-lat' to '0'
[0.000000] [xbt_cfg/INFO] Configuration change: Set 'network/loopback-bw' to '999e9'
[0.000000] [xbt_cfg/INFO] Configuration change: Set 'network/model' to 'CM02'
[0.000000] [xbt_cfg/INFO] Configuration change: Set 'smpi/os' to '0:2.2617745265427535e-06:2.703352029721588e-10;392:2.8385604119907807e-06:1.1264760290330328e-10;32712:0.0:0.0;186836:0.0:0.0;1538469:0.0:0.0'
[0.000000] [xbt_cfg/INFO] Configuration change: Set 'smpi/or' to '0:4.879281137093516e-07:2.2618415203462987e-10;392:5.779857092751072e-07:3.8094447278873e-11;32712:0.0:0.0;186836:0.0:0.0;1538469:0.0:0.0'
[0.000000] [xbt_cfg/INFO] Configuration change: Set 'smpi/ois' to '0:5.673519212129521e-07:7.174648137343064e-43;392:5.446695252027938e-07:1.9686168165027744e-11;32712:5.536713106693264e-07:5.082661224033066e-13;186836:5.49289659548938e-07:3.189291810074661e-14;1538469:4.306002121584747e-07:4.21325930847998e-14'
[0.000000] [xbt_cfg/INFO] Configuration change: Set 'smpi/bw-factor' to '0:0.2699228069054274;392:0.7647794357220394;32712:0.9664149337828888;186836:0.9243880418172589;1538469:0.9732858005841204'
[0.000000] [xbt_cfg/INFO] Configuration change: Set 'smpi/lat-factor' to '0:2.7676182391675814;392:3.9432860784637396;32712:10.117401654450653;186836:7.810638891189083;1538469:18.84747638996546'
[0.000000] [xbt_cfg/INFO] Configuration change: Set 'smpi/async-small-thresh' to '32712'
[0.000000] [xbt_cfg/INFO] Configuration change: Set 'smpi/send-is-detached-thresh' to '32712'
[0.000000] [xbt_cfg/INFO] Configuration change: Set 'smpi/iprobe' to '1.9586518031175638e-07'
[0.000000] [xbt_cfg/INFO] Configuration change: Set 'smpi/test' to '1.1523121197560569e-07'
[0.000000] [xbt_cfg/INFO] Configuration change: Set 'smpi/coll-selector' to 'ompi'
[0.000000] [smpi_coll/INFO] Switch to algorithm ompi for collective gather
[0.000000] [smpi_coll/INFO] Switch to algorithm ompi for collective allgather
[0.000000] [smpi_coll/INFO] Switch to algorithm ompi for collective allgatherv
[0.000000] [smpi_coll/INFO] Switch to algorithm ompi for collective allreduce
[0.000000] [smpi_coll/INFO] Switch to algorithm ompi for collective alltoall
[0.000000] [smpi_coll/INFO] Switch to algorithm ompi for collective alltoallv
[0.000000] [smpi_coll/INFO] Switch to algorithm ompi for collective reduce
[0.000000] [smpi_coll/INFO] Switch to algorithm ompi for collective reduce_scatter
[0.000000] [smpi_coll/INFO] Switch to algorithm ompi for collective scatter
[0.000000] [smpi_coll/INFO] Switch to algorithm ompi for collective bcast
[0.000000] [smpi_coll/INFO] Switch to algorithm ompi for collective barrier
[0.000000] [smpi_coll/INFO] Switch to algorithm ompi for collective gather
[0.000000] [smpi_coll/INFO] Switch to algorithm ompi for collective allgather
[0.000000] [smpi_coll/INFO] Switch to algorithm ompi for collective allgatherv
[0.000000] [smpi_coll/INFO] Switch to algorithm ompi for collective allreduce
[0.000000] [smpi_coll/INFO] Switch to algorithm ompi for collective alltoall
[0.000000] [smpi_coll/INFO] Switch to algorithm ompi for collective alltoallv
[0.000000] [smpi_coll/INFO] Switch to algorithm ompi for collective reduce
[0.000000] [smpi_coll/INFO] Switch to algorithm ompi for collective reduce_scatter
[0.000000] [smpi_coll/INFO] Switch to algorithm ompi for collective scatter
[0.000000] [smpi_coll/INFO] Switch to algorithm ompi for collective bcast
[0.000000] [smpi_coll/INFO] Switch to algorithm ompi for collective barrier
[amour1_CPU0:user_app:(1) 0.000000] [s4bxi_main_actor/INFO] Setup with nid = 1, model_pci = 1 ; e2e_off = 0
[amour1_CPU1:user_app:(2) 0.000000] [s4bxi_main_actor/INFO] Setup with nid = 1, model_pci = 1 ; e2e_off = 0
[amour1_CPU2:user_app:(3) 0.000000] [s4bxi_main_actor/INFO] Setup with nid = 1, model_pci = 1 ; e2e_off = 0
[amour1_CPU3:user_app:(4) 0.000000] [s4bxi_main_actor/INFO] Setup with nid = 1, model_pci = 1 ; e2e_off = 0
[amour1_CPU4:user_app:(5) 0.000000] [s4bxi_main_actor/INFO] Setup with nid = 1, model_pci = 1 ; e2e_off = 0
[amour1_CPU5:user_app:(6) 0.000000] [s4bxi_main_actor/INFO] Setup with nid = 1, model_pci = 1 ; e2e_off = 0
[amour1_CPU6:user_app:(7) 0.000000] [s4bxi_main_actor/INFO] Setup with nid = 1, model_pci = 1 ; e2e_off = 0
[amour1_CPU7:user_app:(8) 0.000000] [s4bxi_main_actor/INFO] Setup with nid = 1, model_pci = 1 ; e2e_off = 0
[amour1_CPU8:user_app:(9) 0.000000] [s4bxi_main_actor/INFO] Setup with nid = 1, model_pci = 1 ; e2e_off = 0
[amour1_CPU0:user_app:(1) 0.000000] [user_app/INFO] Init rank 0 ; local_rank 0
[amour1_CPU1:user_app:(2) 0.000000] [user_app/INFO] Init rank 1 ; local_rank 1
[amour1_CPU2:user_app:(3) 0.000000] [user_app/INFO] Init rank 2 ; local_rank 2
[amour1_CPU3:user_app:(4) 0.000000] [user_app/INFO] Init rank 3 ; local_rank 3
[amour1_CPU4:user_app:(5) 0.000000] [user_app/INFO] Init rank 4 ; local_rank 4
[amour1_CPU5:user_app:(6) 0.000000] [user_app/INFO] Init rank 5 ; local_rank 5
[amour1_CPU6:user_app:(7) 0.000000] [user_app/INFO] Init rank 6 ; local_rank 6
[amour1_CPU7:user_app:(8) 0.000000] [user_app/INFO] Init rank 7 ; local_rank 7
[amour1_CPU8:user_app:(9) 0.000000] [user_app/INFO] Init rank 8 ; local_rank 8
[amour1_NIC:nic_e2e:(14) 0.000000] [s4bxi_nic_e2e/INFO] E2E was configured with timeout = 10.000000 and retries = 5
[amour1_CPU0:user_app:(1) 0.000000] [user_app/INFO] Extracting symbols from Bull lib 0x2eb3880 (zJgbVX0so.40) and SMPI lib 0x7f7ded8dc850
[amour1_CPU1:user_app:(2) 0.000000] [user_app/INFO] Extracting symbols from Bull lib 0x2ebefc0 (zJgbVX1so.40) and SMPI lib 0x7f7ded8dc850
[amour1_CPU2:user_app:(3) 0.000000] [user_app/INFO] Extracting symbols from Bull lib 0x2ec1980 (zJgbVX2so.40) and SMPI lib 0x7f7ded8dc850
[amour1_CPU3:user_app:(4) 0.000000] [user_app/INFO] Extracting symbols from Bull lib 0x2ec42a0 (zJgbVX3so.40) and SMPI lib 0x7f7ded8dc850
[amour1_CPU4:user_app:(5) 0.000000] [user_app/INFO] Extracting symbols from Bull lib 0x2ec6db0 (zJgbVX4so.40) and SMPI lib 0x7f7ded8dc850
[amour1_CPU5:user_app:(6) 0.000000] [user_app/INFO] Extracting symbols from Bull lib 0x2ec9710 (zJgbVX5so.40) and SMPI lib 0x7f7ded8dc850
[amour1_CPU6:user_app:(7) 0.000000] [user_app/INFO] Extracting symbols from Bull lib 0x2ecc070 (zJgbVX6so.40) and SMPI lib 0x7f7ded8dc850
[amour1_CPU7:user_app:(8) 0.000000] [user_app/INFO] Extracting symbols from Bull lib 0x2ecea60 (zJgbVX7so.40) and SMPI lib 0x7f7ded8dc850
[amour1_CPU8:user_app:(9) 0.000000] [user_app/INFO] Extracting symbols from Bull lib 0x2ed1680 (zJgbVX8so.40) and SMPI lib 0x7f7ded8dc850
#~#, 8, 0, 0.000001, 0.000001, Set initial model
#~#, 7, 0, 0.000002, 0.000002, Set initial model
#~#, 4, 0, 0.000003, 0.000003, Set initial model
#~#, 2, 0, 0.000003, 0.000003, Set initial model
#~#, 6, 0, 0.000003, 0.000003, Set initial model
#~#, 5, 0, 0.000003, 0.000003, Set initial model
#~#, 1, 0, 0.000003, 0.000003, Set initial model
#~#, 3, 0, 0.000003, 0.000003, Set initial model
#~#, 0, 0, 0.000007, 0.000007, Set initial model
#~#, 8, 0, 0.335513, 0.335512, After MPI_Init
#~#, 7, 0, 0.335691, 0.335689, After MPI_Init
#~#, 4, 0, 0.335875, 0.335872, After MPI_Init
#~#, 2, 0, 0.336055, 0.336052, After MPI_Init
#~#, 6, 0, 0.336239, 0.336236, After MPI_Init
#~#, 5, 0, 0.336431, 0.336429, After MPI_Init
#~#, 1, 0, 0.336617, 0.336614, After MPI_Init
#~#, 3, 0, 0.336807, 0.336805, After MPI_Init
#~#, 0, 0, 0.337002, 0.336994, After MPI_Init
#~#, 8, 0, 0.337301, 0.001788, After HPL_pdinfo
#~#, 7, 0, 0.337315, 0.001624, After HPL_pdinfo
#~#, 6, 0, 0.337315, 0.001076, After HPL_pdinfo
#~#, 1, 0, 0.337316, 0.000699, After HPL_pdinfo
#~#, 5, 0, 0.337317, 0.000885, After HPL_pdinfo
#~#, 4, 0, 0.337317, 0.001443, After HPL_pdinfo
#~#, 3, 0, 0.337318, 0.000510, After HPL_pdinfo
#~#, 2, 0, 0.337318, 0.001263, After HPL_pdinfo
#~#, 0, 0, 0.337377, 0.000376, After HPL_pdinfo
#~#, 1, 0, 0.338016, 0.000700, After HPL_grid_info
#~#, 2, 0, 0.338016, 0.000699, After HPL_grid_info
#~#, 3, 0, 0.338017, 0.000699, After HPL_grid_info
#~#, 4, 0, 0.338017, 0.000700, After HPL_grid_info
#~#, 5, 0, 0.338018, 0.000701, After HPL_grid_info
#~#, 0, 0, 0.338018, 0.000641, After HPL_grid_info
#~#, 6, 0, 0.338019, 0.000703, After HPL_grid_info
#~#, 7, 0, 0.338019, 0.000705, After HPL_grid_info
#~#, 8, 0, 0.338020, 0.000719, After HPL_grid_info
[amour1_CPU7:user_app:(8) 1.434151] [s4bxi_redefine/INFO] User code exited gracefully
[amour1_CPU7:user_app:(8) 1.434151] ../src/xbt/exception.cpp:107: [xbt_exception/ERROR] Received a ForcefulKillException at the top-level exception handler. Maybe a Java->C++ call that is not protected in a try/catch?
[amour1_CPU7:user_app:(8) 1.434151] ../src/xbt/exception.cpp:75: [xbt_exception/CRITICAL] Current backtrace:
  ->  0# 0x00007F7DECE34ED9 in /tmp/opt/simgrid/lib64/libsimgrid.so.3.31.1
  ->  1# 0x00007F7DEC82453C in /lib64/libstdc++.so.6
  ->  2# 0x00007F7DEC823559 in /lib64/libstdc++.so.6
  ->  3# __gxx_personality_v0 in /lib64/libstdc++.so.6
  ->  4# 0x00007F7DEC204B03 in /lib64/libgcc_s.so.1
  ->  5# _Unwind_Resume in /lib64/libgcc_s.so.1
  ->  6# 0x00007F7DECE1F69A in /tmp/opt/simgrid/lib64/libsimgrid.so.3.31.1
  ->  7# s4bxi_exit in /tmp/opt/s4bxi/lib/libportals.so.1
  ->  8# main in ./xhpl_zJgbVXMCNL_7.so

[pm0-nod12:3274102] *** Process received signal ***
[pm0-nod12:3274102] Signal: Aborted (6)
[pm0-nod12:3274102] Signal code:  (-6)
[pm0-nod12:3274102] [ 0] /lib64/libc.so.6(+0x37400)[0x7f7debe66400]
[pm0-nod12:3274102] [ 1] /lib64/libc.so.6(gsignal+0x10f)[0x7f7debe6637f]
[pm0-nod12:3274102] [ 2] /lib64/libc.so.6(abort+0x127)[0x7f7debe50db5]
[pm0-nod12:3274102] [ 3] /tmp/opt/simgrid/lib64/libsimgrid.so.3.31.1(+0x10deab)[0x7f7dece34eab]
[pm0-nod12:3274102] [ 4] /lib64/libstdc++.so.6(+0x9653c)[0x7f7dec82453c]
[pm0-nod12:3274102] [ 5] /lib64/libstdc++.so.6(+0x95559)[0x7f7dec823559]
[pm0-nod12:3274102] [ 6] /lib64/libstdc++.so.6(__gxx_personality_v0+0x2a8)[0x7f7dec823ed8]
[pm0-nod12:3274102] [ 7] /lib64/libgcc_s.so.1(+0x10b03)[0x7f7dec204b03]
[pm0-nod12:3274102] [ 8] /lib64/libgcc_s.so.1(_Unwind_Resume+0x12d)[0x7f7dec20541d]
[pm0-nod12:3274102] [ 9] /tmp/opt/simgrid/lib64/libsimgrid.so.3.31.1(+0xf869a)[0x7f7dece1f69a]
[pm0-nod12:3274102] [10] /tmp/opt/s4bxi/lib/libportals.so.1(s4bxi_exit+0x2e)[0x7f7ded4461fe]
[pm0-nod12:3274102] [11] ./xhpl_zJgbVXMCNL_7.so(main+0x64c)[0x7f7ddc0c42ac]
[pm0-nod12:3274102] [12] /tmp/opt/s4bxi/lib/libportals.so.1(_ZN15BxiUserAppActorclEv+0x184d)[0x7f7ded42fdad]
[pm0-nod12:3274102] [13] /tmp/opt/s4bxi/lib/libportals.so.1(_ZZZN7simgrid3s4u6Engine14register_actorI15BxiUserAppActorEEvRKNSt7__cxx1112basic_stringIcSt11char_traitsIcESaIcEEEENKUlSt6vectorIS9_SaIS9_EEE_clESE_ENUlvE_clEv+0x21)[0x7f7ded435a81]
[pm0-nod12:3274102] [14] /tmp/opt/simgrid/lib64/libsimgrid.so.3.31.1(smx_ctx_wrapper+0x17)[0x7f7dece900f7]
[pm0-nod12:3274102] *** End of error message ***
./s4bxi_run_vanilla.sh: line 90: 3274102 Aborted                 (core dumped) s4bximain $PLATFORMDIR/amour/build/libamour.so ./deploy.xml ./xhpl xhpl --cfg=smpi/cpu-threshold:${S4BXI_CPU_THRESHOLD} --cfg=smpi/host-speed:$(bc <<< "10000 * ${S4BXI_CPU_FACTOR}")Mf

real	0m20.661s
user	0m16.102s
sys	0m3.784s
