Model, N, nodes, ppn, Gflops, WallClockTime
modelChange, 10000, 14, 7, 753.2, 370.381
modelChange, 1250, 14, 7, 16.63, 57.828
modelChange, 15000, 14, 7, 1296, 587.875
modelChange, 1875, 14, 7, 37.53, 81.336
modelChange, 20000, 14, 7, 1759, 859.364
modelChange, 2500, 14, 7, 64.95, 101.152
modelChange, 30000, 14, 7, 2457, 1626.08
modelChange, 3750, 14, 7, 140.3, 140.874
modelChange, 40000, 14, 7, 2859, 2721.267
modelChange, 50000, 14, 7, 3129, 4325.931
modelChange, 5000, 14, 7, 236.8, 180.606
modelChange, 7500, 14, 7, 477.7, 268.766
s4bxi, 10000, 14, 7, 714.2, 431.817
s4bxi, 1250, 14, 7, 16.19, 59.906
s4bxi, 15000, 14, 7, 1231, 713.982
s4bxi, 1875, 14, 7, 35.56, 85.96600000000001
s4bxi, 20000, 14, 7, 1693, 1062.393
s4bxi, 2500, 14, 7, 62.59, 106.17699999999999
s4bxi, 30000, 14, 7, 2402, 1959.519
s4bxi, 3750, 14, 7, 134, 150.813
s4bxi, 40000, 14, 7, 2792, 3305.732
s4bxi, 50000, 14, 7, 3071, 5194.208
s4bxi, 5000, 14, 7, 223.5, 204.434
s4bxi, 7500, 14, 7, 454.8, 313.567
smpi, 10000, 14, 7, 888, 60.512
smpi, 1250, 14, 7, 21.94, 25.677
smpi, 15000, 14, 7, 1476, 113.786
smpi, 1875, 14, 7, 55.05, 26.569
smpi, 20000, 14, 7, 1876, 202.809
smpi, 2500, 14, 7, 84.12, 28.209
smpi, 30000, 14, 7, 2535, 545.308
smpi, 3750, 14, 7, 163.9, 25.964
smpi, 40000, 14, 7, 2850, 1173.18
smpi, 50000, 14, 7, 3052, 2183.064
smpi, 5000, 14, 7, 334.7, 35.47
smpi, 7500, 14, 7, 556.2, 44.896
smpirun, 10000, 14, 7, 889.2, 34.86
smpirun, 1250, 14, 7, 21.56, 1.851
smpirun, 15000, 14, 7, 1468, 86.496
smpirun, 1875, 14, 7, 47.41, 2.956
smpirun, 20000, 14, 7, 1936, 173.664
smpirun, 2500, 14, 7, 81.7, 4.214
smpirun, 30000, 14, 7, 2592, 509.272
smpirun, 3750, 14, 7, 174.9, 7.063
smpirun, 40000, 14, 7, 2897, 1126.95
smpirun, 50000, 14, 7, 3147, 2116.104
smpirun, 5000, 14, 7, 292.5, 10.524
smpirun, 7500, 14, 7, 579.3, 20.329
