Model, N, nodes, ppn, Gflops, WallClockTime
modelChange, 10000, 4, 2, 269.4, 45.578
modelChange, 1250, 4, 2, 39.29, 5.402
modelChange, 15000, 4, 2, 296.9, 109.09100000000001
modelChange, 1875, 4, 2, 72.21, 6.776
modelChange, 20000, 4, 2, 301.1, 235.156
modelChange, 2500, 4, 2, 106.9, 8.086
modelChange, 30000, 4, 2, 317.4, 662.692
modelChange, 3750, 4, 2, 159.1, 11.432
modelChange, 40000, 4, 2, 313.1, 1555.707
modelChange, 50000, 4, 2, 314.9, 3040.233
modelChange, 5000, 4, 2, 197.2, 15.747
modelChange, 7500, 4, 2, 247.5, 27.501
