Model, N, nodes, ppn, Gflops, WallClockTime
smpi, 10000, 14, 7, 937.3, 56.906
smpi, 1250, 14, 7, 18.34, 22.693
smpi, 15000, 14, 7, 1474, 108.684
smpi, 1875, 14, 7, 49.31, 24.14
smpi, 20000, 14, 7, 1862, 195.719
smpi, 2500, 14, 7, 90.74, 25.958
smpi, 30000, 14, 7, 2503, 528.729
smpi, 3750, 14, 7, 176.8, 27.803
smpi, 40000, 14, 7, 2745, 1144.703
smpi, 50000, 14, 7, 3091, 2155.933
smpi, 5000, 14, 7, 302.9, 31.729
smpi, 7500, 14, 7, 628.1, 41.915
