Model, N, nodes, ppn, Gflops, WallClockTime
smpi, 10000, 6, 3, 465.5, 28.571
smpi, 1250, 6, 3, 28.35, 5.988
smpi, 15000, 6, 3, 560.6, 71.818
smpi, 1875, 6, 3, 55.71, 6.431
smpi, 20000, 6, 3, 600.5, 149.341
smpi, 2500, 6, 3, 94.95, 7.498
smpi, 30000, 6, 3, 655, 461.22
smpi, 3750, 6, 3, 174.6, 8.386
smpi, 40000, 6, 3, 667.6, 1043.605
smpi, 50000, 6, 3, 670.3, 2008.878
smpi, 5000, 6, 3, 251.2, 10.42
smpi, 7500, 6, 3, 373.8, 17.406
