Model, N, nodes, ppn, Gflops, WallClockTime
smpi, 10000, 12, 6, 831.7, 48.175
smpi, 1250, 12, 6, 23.21, 17.149
smpi, 15000, 12, 6, 1314, 97.289
smpi, 1875, 12, 6, 47.64, 18.2
smpi, 20000, 12, 6, 1602, 181.979
smpi, 2500, 12, 6, 97.83, 19.525
smpi, 30000, 12, 6, 2036, 514.855
smpi, 3750, 12, 6, 176, 22.165
smpi, 40000, 12, 6, 2185, 1118.688
smpi, 50000, 12, 6, 2300, 2110.053
smpi, 5000, 12, 6, 311.6, 24.908
smpi, 7500, 12, 6, 598.1, 34.698
