[0.000000] [xbt_cfg/INFO] Configuration change: Set 'smpi/cpu-threshold' to '1e-8'
[0.000000] [xbt_cfg/INFO] Configuration change: Set 'smpi/host-speed' to '10000Mf'
[0.000000] [xbt_cfg/INFO] Configuration change: Set 'surf/precision' to '1e-9'
[0.000000] [xbt_cfg/INFO] Configuration change: Set 'network/loopback-lat' to '0'
[0.000000] [xbt_cfg/INFO] Configuration change: Set 'network/loopback-bw' to '999e9'
[0.000000] [xbt_cfg/INFO] Configuration change: Set 'network/model' to 'CM02'
[0.000000] [xbt_cfg/INFO] Configuration change: Set 'smpi/coll-selector' to 'ompi'
[0.000000] [xbt_cfg/INFO] Configuration change: Set 'smpi/host-speed' to '10000.000000Mf'
[0.000000] [xbt_cfg/INFO] Configuration change: Set 'smpi/cpu-threshold' to '0.000000'
[0.000000] [xbt_cfg/INFO] Configuration change: Set 'smpi/simulate-computation' to 'yes'
[0.000000] [smpi_coll/INFO] Switch to algorithm ompi for collective gather
[0.000000] [smpi_coll/INFO] Switch to algorithm ompi for collective allgather
[0.000000] [smpi_coll/INFO] Switch to algorithm ompi for collective allgatherv
[0.000000] [smpi_coll/INFO] Switch to algorithm ompi for collective allreduce
[0.000000] [smpi_coll/INFO] Switch to algorithm ompi for collective alltoall
[0.000000] [smpi_coll/INFO] Switch to algorithm ompi for collective alltoallv
[0.000000] [smpi_coll/INFO] Switch to algorithm ompi for collective reduce
[0.000000] [smpi_coll/INFO] Switch to algorithm ompi for collective reduce_scatter
[0.000000] [smpi_coll/INFO] Switch to algorithm ompi for collective scatter
[0.000000] [smpi_coll/INFO] Switch to algorithm ompi for collective bcast
[0.000000] [smpi_coll/INFO] Switch to algorithm ompi for collective barrier
[0.000000] [smpi_coll/INFO] Switch to algorithm ompi for collective gather
[0.000000] [smpi_coll/INFO] Switch to algorithm ompi for collective allgather
[0.000000] [smpi_coll/INFO] Switch to algorithm ompi for collective allgatherv
[0.000000] [smpi_coll/INFO] Switch to algorithm ompi for collective allreduce
[0.000000] [smpi_coll/INFO] Switch to algorithm ompi for collective alltoall
[0.000000] [smpi_coll/INFO] Switch to algorithm ompi for collective alltoallv
[0.000000] [smpi_coll/INFO] Switch to algorithm ompi for collective reduce
[0.000000] [smpi_coll/INFO] Switch to algorithm ompi for collective reduce_scatter
[0.000000] [smpi_coll/INFO] Switch to algorithm ompi for collective scatter
[0.000000] [smpi_coll/INFO] Switch to algorithm ompi for collective bcast
[0.000000] [smpi_coll/INFO] Switch to algorithm ompi for collective barrier
[amour1_CPU0:user_app:(1) 0.000000] [s4bxi_main_actor/INFO] Setup with nid = 1, model_pci = 1 ; e2e_off = 0
[amour1_CPU1:user_app:(2) 0.000000] [s4bxi_main_actor/INFO] Setup with nid = 1, model_pci = 1 ; e2e_off = 0
[amour1_CPU2:user_app:(3) 0.000000] [s4bxi_main_actor/INFO] Setup with nid = 1, model_pci = 1 ; e2e_off = 0
[amour1_CPU3:user_app:(4) 0.000000] [s4bxi_main_actor/INFO] Setup with nid = 1, model_pci = 1 ; e2e_off = 0
[amour2_CPU0:user_app:(10) 0.000000] [s4bxi_main_actor/INFO] Setup with nid = 2, model_pci = 1 ; e2e_off = 0
[amour2_CPU1:user_app:(11) 0.000000] [s4bxi_main_actor/INFO] Setup with nid = 2, model_pci = 1 ; e2e_off = 0
[amour2_CPU2:user_app:(12) 0.000000] [s4bxi_main_actor/INFO] Setup with nid = 2, model_pci = 1 ; e2e_off = 0
[amour2_CPU3:user_app:(13) 0.000000] [s4bxi_main_actor/INFO] Setup with nid = 2, model_pci = 1 ; e2e_off = 0
[amour3_CPU0:user_app:(19) 0.000000] [s4bxi_main_actor/INFO] Setup with nid = 3, model_pci = 1 ; e2e_off = 0
[amour3_CPU1:user_app:(20) 0.000000] [s4bxi_main_actor/INFO] Setup with nid = 3, model_pci = 1 ; e2e_off = 0
[amour3_CPU2:user_app:(21) 0.000000] [s4bxi_main_actor/INFO] Setup with nid = 3, model_pci = 1 ; e2e_off = 0
[amour3_CPU3:user_app:(22) 0.000000] [s4bxi_main_actor/INFO] Setup with nid = 3, model_pci = 1 ; e2e_off = 0
[amour4_CPU0:user_app:(28) 0.000000] [s4bxi_main_actor/INFO] Setup with nid = 4, model_pci = 1 ; e2e_off = 0
[amour4_CPU1:user_app:(29) 0.000000] [s4bxi_main_actor/INFO] Setup with nid = 4, model_pci = 1 ; e2e_off = 0
[amour4_CPU2:user_app:(30) 0.000000] [s4bxi_main_actor/INFO] Setup with nid = 4, model_pci = 1 ; e2e_off = 0
[amour4_CPU3:user_app:(31) 0.000000] [s4bxi_main_actor/INFO] Setup with nid = 4, model_pci = 1 ; e2e_off = 0
[amour5_CPU0:user_app:(37) 0.000000] [s4bxi_main_actor/INFO] Setup with nid = 5, model_pci = 1 ; e2e_off = 0
[amour5_CPU1:user_app:(38) 0.000000] [s4bxi_main_actor/INFO] Setup with nid = 5, model_pci = 1 ; e2e_off = 0
[amour5_CPU2:user_app:(39) 0.000000] [s4bxi_main_actor/INFO] Setup with nid = 5, model_pci = 1 ; e2e_off = 0
[amour5_CPU3:user_app:(40) 0.000000] [s4bxi_main_actor/INFO] Setup with nid = 5, model_pci = 1 ; e2e_off = 0
[amour6_CPU0:user_app:(46) 0.000000] [s4bxi_main_actor/INFO] Setup with nid = 6, model_pci = 1 ; e2e_off = 0
[amour6_CPU1:user_app:(47) 0.000000] [s4bxi_main_actor/INFO] Setup with nid = 6, model_pci = 1 ; e2e_off = 0
[amour6_CPU2:user_app:(48) 0.000000] [s4bxi_main_actor/INFO] Setup with nid = 6, model_pci = 1 ; e2e_off = 0
[amour6_CPU3:user_app:(49) 0.000000] [s4bxi_main_actor/INFO] Setup with nid = 6, model_pci = 1 ; e2e_off = 0
[amour7_CPU0:user_app:(55) 0.000000] [s4bxi_main_actor/INFO] Setup with nid = 7, model_pci = 1 ; e2e_off = 0
[amour7_CPU1:user_app:(56) 0.000000] [s4bxi_main_actor/INFO] Setup with nid = 7, model_pci = 1 ; e2e_off = 0
[amour7_CPU2:user_app:(57) 0.000000] [s4bxi_main_actor/INFO] Setup with nid = 7, model_pci = 1 ; e2e_off = 0
[amour7_CPU3:user_app:(58) 0.000000] [s4bxi_main_actor/INFO] Setup with nid = 7, model_pci = 1 ; e2e_off = 0
[amour8_CPU0:user_app:(64) 0.000000] [s4bxi_main_actor/INFO] Setup with nid = 8, model_pci = 1 ; e2e_off = 0
[amour8_CPU1:user_app:(65) 0.000000] [s4bxi_main_actor/INFO] Setup with nid = 8, model_pci = 1 ; e2e_off = 0
[amour8_CPU2:user_app:(66) 0.000000] [s4bxi_main_actor/INFO] Setup with nid = 8, model_pci = 1 ; e2e_off = 0
[amour8_CPU3:user_app:(67) 0.000000] [s4bxi_main_actor/INFO] Setup with nid = 8, model_pci = 1 ; e2e_off = 0
[amour1_CPU0:user_app:(1) 0.000000] [user_app/INFO] Init rank 0 ; local_rank 0
[amour1_CPU1:user_app:(2) 0.000000] [user_app/INFO] Init rank 1 ; local_rank 1
[amour1_CPU2:user_app:(3) 0.000000] [user_app/INFO] Init rank 2 ; local_rank 2
[amour1_CPU3:user_app:(4) 0.000000] [user_app/INFO] Init rank 3 ; local_rank 3
[amour2_CPU0:user_app:(10) 0.000000] [user_app/INFO] Init rank 4 ; local_rank 0
[amour2_CPU1:user_app:(11) 0.000000] [user_app/INFO] Init rank 5 ; local_rank 1
[amour2_CPU2:user_app:(12) 0.000000] [user_app/INFO] Init rank 6 ; local_rank 2
[amour2_CPU3:user_app:(13) 0.000000] [user_app/INFO] Init rank 7 ; local_rank 3
[amour3_CPU0:user_app:(19) 0.000000] [user_app/INFO] Init rank 8 ; local_rank 0
[amour3_CPU1:user_app:(20) 0.000000] [user_app/INFO] Init rank 9 ; local_rank 1
[amour3_CPU2:user_app:(21) 0.000000] [user_app/INFO] Init rank 10 ; local_rank 2
[amour3_CPU3:user_app:(22) 0.000000] [user_app/INFO] Init rank 11 ; local_rank 3
[amour4_CPU0:user_app:(28) 0.000000] [user_app/INFO] Init rank 12 ; local_rank 0
[amour4_CPU1:user_app:(29) 0.000000] [user_app/INFO] Init rank 13 ; local_rank 1
[amour4_CPU2:user_app:(30) 0.000000] [user_app/INFO] Init rank 14 ; local_rank 2
[amour4_CPU3:user_app:(31) 0.000000] [user_app/INFO] Init rank 15 ; local_rank 3
[amour5_CPU0:user_app:(37) 0.000000] [user_app/INFO] Init rank 16 ; local_rank 0
[amour5_CPU1:user_app:(38) 0.000000] [user_app/INFO] Init rank 17 ; local_rank 1
[amour5_CPU2:user_app:(39) 0.000000] [user_app/INFO] Init rank 18 ; local_rank 2
[amour5_CPU3:user_app:(40) 0.000000] [user_app/INFO] Init rank 19 ; local_rank 3
[amour6_CPU0:user_app:(46) 0.000000] [user_app/INFO] Init rank 20 ; local_rank 0
[amour6_CPU1:user_app:(47) 0.000000] [user_app/INFO] Init rank 21 ; local_rank 1
[amour6_CPU2:user_app:(48) 0.000000] [user_app/INFO] Init rank 22 ; local_rank 2
[amour6_CPU3:user_app:(49) 0.000000] [user_app/INFO] Init rank 23 ; local_rank 3
[amour7_CPU0:user_app:(55) 0.000000] [user_app/INFO] Init rank 24 ; local_rank 0
[amour7_CPU1:user_app:(56) 0.000000] [user_app/INFO] Init rank 25 ; local_rank 1
[amour7_CPU2:user_app:(57) 0.000000] [user_app/INFO] Init rank 26 ; local_rank 2
[amour7_CPU3:user_app:(58) 0.000000] [user_app/INFO] Init rank 27 ; local_rank 3
[amour8_CPU0:user_app:(64) 0.000000] [user_app/INFO] Init rank 28 ; local_rank 0
[amour8_CPU1:user_app:(65) 0.000000] [user_app/INFO] Init rank 29 ; local_rank 1
[amour8_CPU2:user_app:(66) 0.000000] [user_app/INFO] Init rank 30 ; local_rank 2
[amour8_CPU3:user_app:(67) 0.000000] [user_app/INFO] Init rank 31 ; local_rank 3
[amour1_NIC:nic_e2e:(9) 0.000000] [s4bxi_nic_e2e/INFO] E2E was configured with timeout = 10.000000 and retries = 5
[amour2_NIC:nic_e2e:(18) 0.000000] [s4bxi_nic_e2e/INFO] E2E was configured with timeout = 10.000000 and retries = 5
[amour3_NIC:nic_e2e:(27) 0.000000] [s4bxi_nic_e2e/INFO] E2E was configured with timeout = 10.000000 and retries = 5
[amour4_NIC:nic_e2e:(36) 0.000000] [s4bxi_nic_e2e/INFO] E2E was configured with timeout = 10.000000 and retries = 5
[amour5_NIC:nic_e2e:(45) 0.000000] [s4bxi_nic_e2e/INFO] E2E was configured with timeout = 10.000000 and retries = 5
[amour6_NIC:nic_e2e:(54) 0.000000] [s4bxi_nic_e2e/INFO] E2E was configured with timeout = 10.000000 and retries = 5
[amour7_NIC:nic_e2e:(63) 0.000000] [s4bxi_nic_e2e/INFO] E2E was configured with timeout = 10.000000 and retries = 5
[amour8_NIC:nic_e2e:(72) 0.000000] [s4bxi_nic_e2e/INFO] E2E was configured with timeout = 10.000000 and retries = 5
[amour1_CPU0:user_app:(1) 0.000000] [user_app/INFO] Extracting symbols from Bull lib 0x27ffbf0 (dKkSYn0so.40) and SMPI lib 0x7fb657929850
[amour1_CPU1:user_app:(2) 0.000000] [user_app/INFO] Extracting symbols from Bull lib 0x2804010 (dKkSYn1so.40) and SMPI lib 0x7fb657929850
[amour1_CPU2:user_app:(3) 0.000000] [user_app/INFO] Extracting symbols from Bull lib 0x28068f0 (dKkSYn2so.40) and SMPI lib 0x7fb657929850
[amour1_CPU3:user_app:(4) 0.000000] [user_app/INFO] Extracting symbols from Bull lib 0x2809210 (dKkSYn3so.40) and SMPI lib 0x7fb657929850
[amour2_CPU0:user_app:(10) 0.000000] [user_app/INFO] Extracting symbols from Bull lib 0x280bcd0 (dKkSYn4so.40) and SMPI lib 0x7fb657929850
[amour2_CPU1:user_app:(11) 0.000000] [user_app/INFO] Extracting symbols from Bull lib 0x280e630 (dKkSYn5so.40) and SMPI lib 0x7fb657929850
[amour2_CPU2:user_app:(12) 0.000000] [user_app/INFO] Extracting symbols from Bull lib 0x2810f90 (dKkSYn6so.40) and SMPI lib 0x7fb657929850
[amour2_CPU3:user_app:(13) 0.000000] [user_app/INFO] Extracting symbols from Bull lib 0x2813980 (dKkSYn7so.40) and SMPI lib 0x7fb657929850
[amour3_CPU0:user_app:(19) 0.000000] [user_app/INFO] Extracting symbols from Bull lib 0x28165e0 (dKkSYn8so.40) and SMPI lib 0x7fb657929850
[amour3_CPU1:user_app:(20) 0.000000] [user_app/INFO] Extracting symbols from Bull lib 0x2818fc0 (dKkSYn9so.40) and SMPI lib 0x7fb657929850
[amour3_CPU2:user_app:(21) 0.000000] [user_app/INFO] Extracting symbols from Bull lib 0x281b9a0 (dKkSY10so.40) and SMPI lib 0x7fb657929850
[amour3_CPU3:user_app:(22) 0.000000] [user_app/INFO] Extracting symbols from Bull lib 0x281e410 (dKkSY11so.40) and SMPI lib 0x7fb657929850
[amour4_CPU0:user_app:(28) 0.000000] [user_app/INFO] Extracting symbols from Bull lib 0x2820ec0 (dKkSY12so.40) and SMPI lib 0x7fb657929850
[amour4_CPU1:user_app:(29) 0.000000] [user_app/INFO] Extracting symbols from Bull lib 0x2823930 (dKkSY13so.40) and SMPI lib 0x7fb657929850
[amour4_CPU2:user_app:(30) 0.000000] [user_app/INFO] Extracting symbols from Bull lib 0x28263a0 (dKkSY14so.40) and SMPI lib 0x7fb657929850
[amour4_CPU3:user_app:(31) 0.000000] [user_app/INFO] Extracting symbols from Bull lib 0x2828e90 (dKkSY15so.40) and SMPI lib 0x7fb657929850
[amour5_CPU0:user_app:(37) 0.000000] [user_app/INFO] Extracting symbols from Bull lib 0x282c270 (dKkSY16so.40) and SMPI lib 0x7fb657929850
[amour5_CPU1:user_app:(38) 0.000000] [user_app/INFO] Extracting symbols from Bull lib 0x282ece0 (dKkSY17so.40) and SMPI lib 0x7fb657929850
[amour5_CPU2:user_app:(39) 0.000000] [user_app/INFO] Extracting symbols from Bull lib 0x2831750 (dKkSY18so.40) and SMPI lib 0x7fb657929850
[amour5_CPU3:user_app:(40) 0.000000] [user_app/INFO] Extracting symbols from Bull lib 0x28341c0 (dKkSY19so.40) and SMPI lib 0x7fb657929850
[amour6_CPU0:user_app:(46) 0.000000] [user_app/INFO] Extracting symbols from Bull lib 0x2836f70 (dKkSY20so.40) and SMPI lib 0x7fb657929850
[amour6_CPU1:user_app:(47) 0.000000] [user_app/INFO] Extracting symbols from Bull lib 0x28399e0 (dKkSY21so.40) and SMPI lib 0x7fb657929850
[amour6_CPU2:user_app:(48) 0.000000] [user_app/INFO] Extracting symbols from Bull lib 0x283c450 (dKkSY22so.40) and SMPI lib 0x7fb657929850
[amour6_CPU3:user_app:(49) 0.000000] [user_app/INFO] Extracting symbols from Bull lib 0x283eec0 (dKkSY23so.40) and SMPI lib 0x7fb657929850
[amour7_CPU0:user_app:(55) 0.000000] [user_app/INFO] Extracting symbols from Bull lib 0x2841c70 (dKkSY24so.40) and SMPI lib 0x7fb657929850
[amour7_CPU1:user_app:(56) 0.000000] [user_app/INFO] Extracting symbols from Bull lib 0x28446e0 (dKkSY25so.40) and SMPI lib 0x7fb657929850
[amour7_CPU2:user_app:(57) 0.000000] [user_app/INFO] Extracting symbols from Bull lib 0x2847150 (dKkSY26so.40) and SMPI lib 0x7fb657929850
[amour7_CPU3:user_app:(58) 0.000000] [user_app/INFO] Extracting symbols from Bull lib 0x2849bc0 (dKkSY27so.40) and SMPI lib 0x7fb657929850
[amour8_CPU0:user_app:(64) 0.000000] [user_app/INFO] Extracting symbols from Bull lib 0x284c970 (dKkSY28so.40) and SMPI lib 0x7fb657929850
[amour8_CPU1:user_app:(65) 0.000000] [user_app/INFO] Extracting symbols from Bull lib 0x284f3e0 (dKkSY29so.40) and SMPI lib 0x7fb657929850
[amour8_CPU2:user_app:(66) 0.000000] [user_app/INFO] Extracting symbols from Bull lib 0x2851e50 (dKkSY30so.40) and SMPI lib 0x7fb657929850
[amour8_CPU3:user_app:(67) 0.000000] [user_app/INFO] Extracting symbols from Bull lib 0x2854ad0 (dKkSY31so.40) and SMPI lib 0x7fb657929850
[amour1_CPU2:user_app:(3) 0.124205] [s4bxi_redefine/INFO] User code exited gracefully
[amour1_CPU2:user_app:(3) 0.124205] ../src/xbt/exception.cpp:107: [xbt_exception/ERROR] Received a ForcefulKillException at the top-level exception handler. Maybe a Java->C++ call that is not protected in a try/catch?
[amour1_CPU2:user_app:(3) 0.124205] ../src/xbt/exception.cpp:75: [xbt_exception/CRITICAL] Current backtrace:
  ->  0# 0x00007FB656E76535 in /dev/shm/opt/simgrid/lib64/libsimgrid.so.3.32
  ->  1# 0x00007FB65686353C in /lib64/libstdc++.so.6
  ->  2# 0x00007FB656862559 in /lib64/libstdc++.so.6
  ->  3# __gxx_personality_v0 in /lib64/libstdc++.so.6
  ->  4# 0x00007FB656243B03 in /lib64/libgcc_s.so.1
  ->  5# _Unwind_Resume in /lib64/libgcc_s.so.1
  ->  6# 0x00007FB656E5FCB2 in /dev/shm/opt/simgrid/lib64/libsimgrid.so.3.32
  ->  7# s4bxi_exit in /dev/shm/opt/s4bxi/lib/libportals.so.1
  ->  8# main in ./xhpl_dKkSYnevFy_2.so

[pm0-nod11:580536] *** Process received signal ***
[pm0-nod11:580536] Signal: Aborted (6)
[pm0-nod11:580536] Signal code:  (-6)
[pm0-nod11:580536] [ 0] /lib64/libc.so.6(+0x37400)[0x7fb655ea5400]
[pm0-nod11:580536] [ 1] /lib64/libc.so.6(gsignal+0x10f)[0x7fb655ea537f]
[pm0-nod11:580536] [ 2] /lib64/libc.so.6(abort+0x127)[0x7fb655e8fdb5]
[pm0-nod11:580536] [ 3] /dev/shm/opt/simgrid/lib64/libsimgrid.so.3.32(+0x110507)[0x7fb656e76507]
[pm0-nod11:580536] [ 4] /lib64/libstdc++.so.6(+0x9653c)[0x7fb65686353c]
[pm0-nod11:580536] [ 5] /lib64/libstdc++.so.6(+0x95559)[0x7fb656862559]
[pm0-nod11:580536] [ 6] /lib64/libstdc++.so.6(__gxx_personality_v0+0x2a8)[0x7fb656862ed8]
[pm0-nod11:580536] [ 7] /lib64/libgcc_s.so.1(+0x10b03)[0x7fb656243b03]
[pm0-nod11:580536] [ 8] /lib64/libgcc_s.so.1(_Unwind_Resume+0x12d)[0x7fb65624441d]
[pm0-nod11:580536] [ 9] /dev/shm/opt/simgrid/lib64/libsimgrid.so.3.32(+0xf9cb2)[0x7fb656e5fcb2]
[pm0-nod11:580536] [10] /dev/shm/opt/s4bxi/lib/libportals.so.1(s4bxi_exit+0x2e)[0x7fb6574913be]
[pm0-nod11:580536] [11] ./xhpl_dKkSYnevFy_2.so(main+0x5ff)[0x7fb62e00c1ff]
[pm0-nod11:580536] [12] /dev/shm/opt/s4bxi/lib/libportals.so.1(_ZN15BxiUserAppActorclEv+0x184d)[0x7fb65747b8ed]
[pm0-nod11:580536] [13] /dev/shm/opt/s4bxi/lib/libportals.so.1(_ZZZN7simgrid3s4u6Engine14register_actorI15BxiUserAppActorEEvRKNSt7__cxx1112basic_stringIcSt11char_traitsIcESaIcEEEENKUlSt6vectorIS9_SaIS9_EEE_clESE_ENUlvE_clEv+0x21)[0x7fb657481891]
[pm0-nod11:580536] [14] /dev/shm/opt/simgrid/lib64/libsimgrid.so.3.32(smx_ctx_wrapper+0x1c)[0x7fb656ee70bc]
[pm0-nod11:580536] *** End of error message ***
./s4bxi_run_vanilla.sh: line 91: 580536 Aborted                 (core dumped) s4bximain $PLATFORMDIR/amour/build/libamour.so ./deploy.xml ./xhpl xhpl --cfg=smpi/cpu-threshold:${S4BXI_CPU_THRESHOLD} --cfg=smpi/host-speed:$(bc <<< "10000 * ${S4BXI_CPU_FACTOR}")Mf

real	0m10.212s
user	0m2.482s
sys	0m6.927s
