================================================================================
HPLinpack 2.2  --  High-Performance Linpack benchmark  --   February 24, 2016
Written by A. Petitet and R. Clint Whaley,  Innovative Computing Laboratory, UTK
Modified by Piotr Luszczek, Innovative Computing Laboratory, UTK
Modified by Julien Langou, University of Colorado Denver
================================================================================

An explanation of the input/output parameters follows:
T/V    : Wall time / encoded variant.
N      : The order of the coefficient matrix A.
NB     : The partitioning blocking factor.
P      : The number of process rows.
Q      : The number of process columns.
Time   : Time in seconds to solve the linear system.
Gflops : Rate of execution for solving the linear system.

The following parameter values will be used:

N      :    1875 
NB     :     120 
PMAP   : Row-major process mapping
P      :       4 
Q      :       4 
PFACT  :    Left    Crout    Right 
NBMIN  :       2        4 
NDIV   :       2 
RFACT  :    Left    Crout    Right 
BCAST  :   1ring 
DEPTH  :       0 
SWAP   : Mix (threshold = 64)
L1     : transposed form
U      : transposed form
EQUIL  : yes
ALIGN  : 8 double precision words

--------------------------------------------------------------------------------

- The matrix A is randomly generated for each test.
- The following scaled residual check will be computed:
      ||Ax-b||_oo / ( eps * ( || x ||_oo * || A ||_oo + || b ||_oo ) * N )
- The relative machine precision (eps) is taken to be               1.110223e-16
- Computational tests pass if scaled residuals are less than                16.0

================================================================================
T/V                N    NB     P     Q               Time                 Gflops
--------------------------------------------------------------------------------
WR00L2L2        1875   120     4     4               0.04              1.239e+02
HPL_pdgesv() start time Tue Jun  7 18:19:33 2022

HPL_pdgesv() end time   Tue Jun  7 18:19:33 2022

--------------------------------------------------------------------------------
||Ax-b||_oo/(eps*(||A||_oo*||x||_oo+||b||_oo)*N)=        0.0050312 ...... PASSED
================================================================================
T/V                N    NB     P     Q               Time                 Gflops
--------------------------------------------------------------------------------
WR00L2L4        1875   120     4     4               0.03              1.322e+02
HPL_pdgesv() start time Tue Jun  7 18:19:33 2022

HPL_pdgesv() end time   Tue Jun  7 18:19:33 2022

--------------------------------------------------------------------------------
||Ax-b||_oo/(eps*(||A||_oo*||x||_oo+||b||_oo)*N)=        0.0050341 ...... PASSED
================================================================================
T/V                N    NB     P     Q               Time                 Gflops
--------------------------------------------------------------------------------
WR00L2C2        1875   120     4     4               0.03              1.524e+02
HPL_pdgesv() start time Tue Jun  7 18:19:33 2022

HPL_pdgesv() end time   Tue Jun  7 18:19:33 2022

--------------------------------------------------------------------------------
||Ax-b||_oo/(eps*(||A||_oo*||x||_oo+||b||_oo)*N)=        0.0050312 ...... PASSED
================================================================================
T/V                N    NB     P     Q               Time                 Gflops
--------------------------------------------------------------------------------
WR00L2C4        1875   120     4     4               0.03              1.551e+02
HPL_pdgesv() start time Tue Jun  7 18:19:33 2022

HPL_pdgesv() end time   Tue Jun  7 18:19:33 2022

--------------------------------------------------------------------------------
||Ax-b||_oo/(eps*(||A||_oo*||x||_oo+||b||_oo)*N)=        0.0053011 ...... PASSED
================================================================================
T/V                N    NB     P     Q               Time                 Gflops
--------------------------------------------------------------------------------
WR00L2R2        1875   120     4     4               0.03              1.515e+02
HPL_pdgesv() start time Tue Jun  7 18:19:33 2022

HPL_pdgesv() end time   Tue Jun  7 18:19:33 2022

--------------------------------------------------------------------------------
||Ax-b||_oo/(eps*(||A||_oo*||x||_oo+||b||_oo)*N)=        0.0050312 ...... PASSED
================================================================================
T/V                N    NB     P     Q               Time                 Gflops
--------------------------------------------------------------------------------
WR00L2R4        1875   120     4     4               0.03              1.543e+02
HPL_pdgesv() start time Tue Jun  7 18:19:33 2022

HPL_pdgesv() end time   Tue Jun  7 18:19:33 2022

--------------------------------------------------------------------------------
||Ax-b||_oo/(eps*(||A||_oo*||x||_oo+||b||_oo)*N)=        0.0055372 ...... PASSED
================================================================================
T/V                N    NB     P     Q               Time                 Gflops
--------------------------------------------------------------------------------
WR00C2L2        1875   120     4     4               0.03              1.518e+02
HPL_pdgesv() start time Tue Jun  7 18:19:33 2022

HPL_pdgesv() end time   Tue Jun  7 18:19:33 2022

--------------------------------------------------------------------------------
||Ax-b||_oo/(eps*(||A||_oo*||x||_oo+||b||_oo)*N)=        0.0050312 ...... PASSED
================================================================================
T/V                N    NB     P     Q               Time                 Gflops
--------------------------------------------------------------------------------
WR00C2L4        1875   120     4     4               0.03              1.543e+02
HPL_pdgesv() start time Tue Jun  7 18:19:33 2022

HPL_pdgesv() end time   Tue Jun  7 18:19:33 2022

--------------------------------------------------------------------------------
||Ax-b||_oo/(eps*(||A||_oo*||x||_oo+||b||_oo)*N)=        0.0050341 ...... PASSED
================================================================================
T/V                N    NB     P     Q               Time                 Gflops
--------------------------------------------------------------------------------
WR00C2C2        1875   120     4     4               0.03              1.526e+02
HPL_pdgesv() start time Tue Jun  7 18:19:33 2022

HPL_pdgesv() end time   Tue Jun  7 18:19:33 2022

--------------------------------------------------------------------------------
||Ax-b||_oo/(eps*(||A||_oo*||x||_oo+||b||_oo)*N)=        0.0050312 ...... PASSED
================================================================================
T/V                N    NB     P     Q               Time                 Gflops
--------------------------------------------------------------------------------
WR00C2C4        1875   120     4     4               0.03              1.549e+02
HPL_pdgesv() start time Tue Jun  7 18:19:33 2022

HPL_pdgesv() end time   Tue Jun  7 18:19:34 2022

--------------------------------------------------------------------------------
||Ax-b||_oo/(eps*(||A||_oo*||x||_oo+||b||_oo)*N)=        0.0053011 ...... PASSED
================================================================================
T/V                N    NB     P     Q               Time                 Gflops
--------------------------------------------------------------------------------
WR00C2R2        1875   120     4     4               0.03              1.518e+02
HPL_pdgesv() start time Tue Jun  7 18:19:34 2022

HPL_pdgesv() end time   Tue Jun  7 18:19:34 2022

--------------------------------------------------------------------------------
||Ax-b||_oo/(eps*(||A||_oo*||x||_oo+||b||_oo)*N)=        0.0050312 ...... PASSED
================================================================================
T/V                N    NB     P     Q               Time                 Gflops
--------------------------------------------------------------------------------
WR00C2R4        1875   120     4     4               0.03              1.549e+02
HPL_pdgesv() start time Tue Jun  7 18:19:34 2022

HPL_pdgesv() end time   Tue Jun  7 18:19:34 2022

--------------------------------------------------------------------------------
||Ax-b||_oo/(eps*(||A||_oo*||x||_oo+||b||_oo)*N)=        0.0055372 ...... PASSED
================================================================================
T/V                N    NB     P     Q               Time                 Gflops
--------------------------------------------------------------------------------
WR00R2L2        1875   120     4     4               0.03              1.526e+02
HPL_pdgesv() start time Tue Jun  7 18:19:34 2022

HPL_pdgesv() end time   Tue Jun  7 18:19:34 2022

--------------------------------------------------------------------------------
||Ax-b||_oo/(eps*(||A||_oo*||x||_oo+||b||_oo)*N)=        0.0050312 ...... PASSED
================================================================================
T/V                N    NB     P     Q               Time                 Gflops
--------------------------------------------------------------------------------
WR00R2L4        1875   120     4     4               0.03              1.545e+02
HPL_pdgesv() start time Tue Jun  7 18:19:34 2022

HPL_pdgesv() end time   Tue Jun  7 18:19:34 2022

--------------------------------------------------------------------------------
||Ax-b||_oo/(eps*(||A||_oo*||x||_oo+||b||_oo)*N)=        0.0050341 ...... PASSED
================================================================================
T/V                N    NB     P     Q               Time                 Gflops
--------------------------------------------------------------------------------
WR00R2C2        1875   120     4     4               0.03              1.546e+02
HPL_pdgesv() start time Tue Jun  7 18:19:34 2022

HPL_pdgesv() end time   Tue Jun  7 18:19:34 2022

--------------------------------------------------------------------------------
||Ax-b||_oo/(eps*(||A||_oo*||x||_oo+||b||_oo)*N)=        0.0050312 ...... PASSED
================================================================================
T/V                N    NB     P     Q               Time                 Gflops
--------------------------------------------------------------------------------
WR00R2C4        1875   120     4     4               0.03              1.551e+02
HPL_pdgesv() start time Tue Jun  7 18:19:34 2022

HPL_pdgesv() end time   Tue Jun  7 18:19:34 2022

--------------------------------------------------------------------------------
||Ax-b||_oo/(eps*(||A||_oo*||x||_oo+||b||_oo)*N)=        0.0053011 ...... PASSED
================================================================================
T/V                N    NB     P     Q               Time                 Gflops
--------------------------------------------------------------------------------
WR00R2R2        1875   120     4     4               0.03              1.542e+02
HPL_pdgesv() start time Tue Jun  7 18:19:34 2022

HPL_pdgesv() end time   Tue Jun  7 18:19:34 2022

--------------------------------------------------------------------------------
||Ax-b||_oo/(eps*(||A||_oo*||x||_oo+||b||_oo)*N)=        0.0050312 ...... PASSED
================================================================================
T/V                N    NB     P     Q               Time                 Gflops
--------------------------------------------------------------------------------
WR00R2R4        1875   120     4     4               0.03              1.556e+02
HPL_pdgesv() start time Tue Jun  7 18:19:34 2022

HPL_pdgesv() end time   Tue Jun  7 18:19:34 2022

--------------------------------------------------------------------------------
||Ax-b||_oo/(eps*(||A||_oo*||x||_oo+||b||_oo)*N)=        0.0055372 ...... PASSED
================================================================================

Finished     18 tests with the following results:
             18 tests completed and passed residual checks,
              0 tests completed and failed residual checks,
              0 tests skipped because of illegal input values.
--------------------------------------------------------------------------------

End of Tests.
================================================================================
