_#_,800,840,120,3490362
_#_,800,801,120,3691922
_#_,800,801,120,3743042
_#_,800,801,120,3785082
_#_,800,801,120,3665252
_#_,800,60,0,17290
_#_,800,30,0,600
_#_,800,16,0,410
_#_,800,8,0,360
_#_,800,4,0,360
_#_,800,2,0,350
_#_,798,2,2,1710
_#_,796,4,4,1580
_#_,796,2,0,530
_#_,794,2,2,930
_#_,792,8,8,4020
_#_,792,4,0,480
_#_,792,2,0,370
_#_,790,2,2,760
_#_,788,4,4,1340
_#_,788,2,0,440
_#_,786,2,2,670
_#_,784,14,16,10650
_#_,784,8,0,510
_#_,784,4,0,380
_#_,784,2,0,370
_#_,782,2,2,730
_#_,780,4,4,1210
_#_,780,2,0,460
_#_,778,2,2,710
_#_,776,6,8,2710
_#_,776,4,0,480
_#_,776,2,0,350
_#_,774,2,2,750
_#_,772,2,4,710
_#_,770,30,30,42370
_#_,770,16,0,660
_#_,770,8,0,390
_#_,770,4,0,350
_#_,770,2,0,340
_#_,768,2,2,620
_#_,766,4,4,1590
_#_,766,2,0,450
_#_,764,2,2,590
_#_,762,8,8,3630
_#_,762,4,0,460
_#_,762,2,0,370
_#_,760,2,2,580
_#_,758,4,4,1380
_#_,758,2,0,440
_#_,756,2,2,550
_#_,754,14,16,9630
_#_,754,8,0,520
_#_,754,4,0,371
_#_,754,2,0,351
_#_,752,2,2,560
_#_,750,4,4,1380
_#_,750,2,0,449
_#_,748,2,2,549
_#_,746,6,8,2780
_#_,746,4,0,500
_#_,746,2,0,360
_#_,744,2,2,540
_#_,742,2,4,809
_#_,740,60,60,111740
_#_,740,30,0,751
_#_,740,16,0,400
_#_,740,8,0,360
_#_,740,4,0,349
_#_,740,2,0,360
_#_,738,2,2,730
_#_,736,4,4,1110
_#_,736,2,0,480
_#_,734,2,2,690
_#_,732,8,8,3120
_#_,732,4,0,500
_#_,732,2,0,360
_#_,730,2,2,680
_#_,728,4,4,1240
_#_,728,2,0,460
_#_,726,2,2,660
_#_,724,14,16,8540
_#_,724,8,0,540
_#_,724,4,0,390
_#_,724,2,0,350
_#_,722,2,2,660
_#_,720,4,4,1090
_#_,720,2,0,440
_#_,718,2,2,690
_#_,716,6,8,2420
_#_,716,4,0,480
_#_,716,2,0,370
_#_,714,2,2,660
_#_,712,2,4,690
_#_,710,30,30,31330
_#_,710,16,0,640
_#_,710,8,0,380
_#_,710,4,0,350
_#_,710,2,0,350
_#_,708,2,2,600
_#_,706,4,4,1370
_#_,706,2,0,480
_#_,704,2,2,510
_#_,702,8,8,3390
_#_,702,4,0,480
_#_,702,2,0,370
_#_,700,2,2,560
_#_,698,4,4,1440
_#_,698,2,0,470
_#_,696,2,2,550
_#_,694,14,16,8840
_#_,694,8,0,590
_#_,694,4,0,390
_#_,694,2,0,360
_#_,692,2,2,520
_#_,690,4,4,1310
_#_,690,2,0,450
_#_,688,2,2,500
_#_,686,6,8,2540
_#_,686,4,0,490
_#_,686,2,0,360
_#_,684,2,2,510
_#_,682,2,4,790__#_#_,680,720,120,25662__#_#_,680,720,120,25293__#_#_,680,720,120,250891_#_#_,680,720,120,250477_#_#_,680,720,120,251250_#_,680,681,120,2352881
_#_,680,60,0,2109
_#_,680,30,0,491
_#_,680,16,0,460
_#_,680,8,0,431
_#_,680,4,0,420
_#_,680,2,0,409
_#_,678,2,2,1360
_#_,676,4,4,1311
_#_,676,2,0,500
_#_,674,2,2,650
_#_,672,8,8,2940
_#_,672,4,0,450
_#_,672,2,0,350
_#_,670,2,2,690
_#_,668,4,4,1160
_#_,668,2,0,450
_#_,666,2,2,650
_#_,664,14,16,7990
_#_,664,8,0,540
_#_,664,4,0,370
_#_,664,2,0,340
_#_,662,2,2,640
_#_,660,4,4,1050
_#_,660,2,0,460
_#_,658,2,2,600
_#_,656,6,8,2310
_#_,656,4,0,450
_#_,656,2,0,360
_#_,654,2,2,600
_#_,652,2,4,650
_#_,650,30,30,29240
_#_,650,16,0,640
_#_,650,8,0,390
_#_,650,4,0,350
_#_,650,2,0,350
_#_,648,2,2,540
_#_,646,4,4,1300
_#_,646,2,0,490
_#_,644,2,2,520
_#_,642,8,8,3040
_#_,642,4,0,470
_#_,642,2,0,360
_#_,640,2,2,520
_#_,638,4,4,1230
_#_,638,2,0,430
_#_,636,2,2,510
_#_,634,14,16,8050
_#_,634,8,0,520
_#_,634,4,0,380
_#_,634,2,0,360
_#_,632,2,2,540
_#_,630,4,4,1250
_#_,630,2,0,430
_#_,628,2,2,520
_#_,626,6,8,2290
_#_,626,4,0,530
_#_,626,2,0,380
_#_,624,2,2,490
_#_,622,2,4,730
_#_,620,60,60,92880
_#_,620,30,0,740
_#_,620,16,0,400
_#_,620,8,0,370
_#_,620,4,0,380
_#_,620,2,0,370
_#_,618,2,2,630
_#_,616,4,4,1040
_#_,616,2,0,450
_#_,614,2,2,600
_#_,612,8,8,2700
_#_,612,4,0,460
_#_,612,2,0,370
_#_,610,2,2,570
_#_,608,4,4,940
_#_,608,2,0,470
_#_,606,2,2,570
_#_,604,14,16,7180
_#_,604,8,0,520
_#_,604,4,0,380
_#_,604,2,0,360
_#_,602,2,2,610
_#_,600,4,4,990
_#_,600,2,0,470
_#_,598,2,2,600
_#_,596,6,8,2080
_#_,596,4,0,490
_#_,596,2,0,370
_#_,594,2,2,560
_#_,592,2,4,570
_#_,590,30,30,25649
_#_,590,16,0,629
_#_,590,8,0,380
_#_,590,4,0,349
_#_,590,2,0,349
_#_,588,2,2,500
_#_,586,4,4,1140
_#_,586,2,0,449
_#_,584,2,2,460
_#_,582,8,8,2829
_#_,582,4,0,469
_#_,582,2,0,380
_#_,580,2,2,529
_#_,578,4,4,1140
_#_,578,2,0,440
_#_,576,2,2,469
_#_,574,14,16,7289
_#_,574,8,0,549
_#_,574,4,0,369
_#_,574,2,0,360
_#_,572,2,2,469
_#_,570,4,4,1109
_#_,570,2,0,449
_#_,568,2,2,500
_#_,566,6,8,3610
_#_,566,4,0,490
_#_,566,2,0,370
_#_,564,2,2,470
_#_,562,2,4,630
___#_,560,600,120,169514_#_#__#_,560,600,120,168_#_#__#_,560,600,120,172_#_#__#_,560,600,120,170_#_,5_#_,560,600,120,172_#_,560,561,120,1570261
_#_,560,60,0,1310
_#_,560,30,0,420
_#_,560,16,0,390
_#_,560,8,0,380
_#_,560,4,0,350
_#_,560,2,0,340
_#_,558,2,2,1320
_#_,556,4,4,1200
_#_,556,2,0,470
_#_,554,2,2,700
_#_,552,8,8,2550
_#_,552,4,0,470
_#_,552,2,0,370
_#_,550,2,2,550
_#_,548,4,4,950
_#_,548,2,0,450
_#_,546,2,2,520
_#_,544,14,16,6480
_#_,544,8,0,530
_#_,544,4,0,370
_#_,544,2,0,330
_#_,542,2,2,560
_#_,540,4,4,880
_#_,540,2,0,440
_#_,538,2,2,560
_#_,536,6,8,1990
_#_,536,4,0,460
_#_,536,2,0,360
_#_,534,2,2,550
_#_,532,2,4,570
_#_,530,30,30,23640
_#_,530,16,0,580
_#_,530,8,0,380
_#_,530,4,0,350
_#_,530,2,0,350
_#_,528,2,2,450
_#_,526,4,4,1160
_#_,526,2,0,470
_#_,524,2,2,440
_#_,522,8,8,2610
_#_,522,4,0,480
_#_,522,2,0,350
_#_,520,2,2,460
_#_,518,4,4,1050
_#_,518,2,0,430
_#_,516,2,2,420
_#_,514,14,16,6570
_#_,514,8,0,460
_#_,514,4,0,370
_#_,514,2,0,340
_#_,512,2,2,410
_#_,510,4,4,1060
_#_,510,2,0,430
_#_,508,2,2,470
_#_,506,6,8,1969
_#_,506,4,0,471
_#_,506,2,0,351
_#_,504,2,2,460
_#_,502,2,4,620
_#_,500,60,60,75060
_#_,500,30,0,700
_#_,500,16,0,391
_#_,500,8,0,360
_#_,500,4,0,351
_#_,500,2,0,351
_#_,498,2,2,540
_#_,496,4,4,820
_#_,496,2,0,451
_#_,494,2,2,500
_#_,492,8,8,2240
_#_,492,4,0,431
_#_,492,2,0,360
_#_,490,2,2,520
_#_,488,4,4,871
_#_,488,2,0,460
_#_,486,2,2,510
_#_,484,14,16,5870
_#_,484,8,0,550
_#_,484,4,0,380
_#_,484,2,0,350
_#_,482,2,2,470
_#_,480,4,4,840
_#_,480,2,0,440
_#_,478,2,2,510
_#_,476,6,8,1760
_#_,476,4,0,470
_#_,476,2,0,360
_#_,474,2,2,530
_#_,472,2,4,530
_#_,470,30,30,20990
_#_,470,16,0,580
_#_,470,8,0,370
_#_,470,4,0,340
_#_,470,2,0,350
_#_,468,2,2,430
_#_,466,4,4,1040
_#_,466,2,0,480
_#_,464,2,2,410
_#_,462,8,8,2290
_#_,462,4,0,440
_#_,462,2,0,360
_#_,460,2,2,400
_#_,458,4,4,990
_#_,458,2,0,440
_#_,456,2,2,430
_#_,454,14,16,5850
_#_,454,8,0,510
_#_,454,4,0,380
_#_,454,2,0,360
_#_,452,2,2,410
_#_,450,4,4,900
_#_,450,2,0,430
_#_,448,2,2,390
_#_,446,6,8,1750
_#_,446,4,0,460
_#_,446,2,0,360
_#_,444,2,2,420
_#_,442,2,4,__#_#_,440,480,120,10927__#_#_,440,480,120,10616__#_#_,440,480,120,107252_#_#_,440,480,120,10661_#__#_,440,480,120,1067_#_,440,441,120,956181
_#_,440,60,0,1040
_#_,440,30,0,430
_#_,440,16,0,380
_#_,440,8,0,410
_#_,440,4,0,340
_#_,440,2,0,360
_#_,438,2,2,660
_#_,436,4,4,910
_#_,436,2,0,480
_#_,434,2,2,470
_#_,432,8,8,1970
_#_,432,4,0,470
_#_,432,2,0,360
_#_,430,2,2,530
_#_,428,4,4,770
_#_,428,2,0,460
_#_,426,2,2,490
_#_,424,14,16,5170
_#_,424,8,0,530
_#_,424,4,0,370
_#_,424,2,0,360
_#_,422,2,2,500
_#_,420,4,4,770
_#_,420,2,0,420
_#_,418,2,2,430
_#_,416,6,8,1600
_#_,416,4,0,450
_#_,416,2,0,360
_#_,414,2,2,500
_#_,412,2,4,520
_#_,410,30,30,18270
_#_,410,16,0,610
_#_,410,8,0,390
_#_,410,4,0,370
_#_,410,2,0,350
_#_,408,2,2,410
_#_,406,4,4,920
_#_,406,2,0,450
_#_,404,2,2,390
_#_,402,8,8,2080
_#_,402,4,0,450
_#_,402,2,0,360
_#_,400,2,2,390
_#_,398,4,4,860
_#_,398,2,0,430
_#_,396,2,2,390
_#_,394,14,16,5150
_#_,394,8,0,500
_#_,394,4,0,370
_#_,394,2,0,350
_#_,392,2,2,370
_#_,390,4,4,930
_#_,390,2,0,440
_#_,388,2,2,370
_#_,386,6,8,1550
_#_,386,4,0,490
_#_,386,2,0,360
_#_,384,2,2,370
_#_,382,2,4,530
_#_,380,60,60,56560
_#_,380,30,0,700
_#_,380,16,0,390
_#_,380,8,0,360
_#_,380,4,0,350
_#_,380,2,0,340
_#_,378,2,2,500
_#_,376,4,4,710
_#_,376,2,0,410
_#_,374,2,2,470
_#_,372,8,8,1680
_#_,372,4,0,470
_#_,372,2,0,350
_#_,370,2,2,440
_#_,368,4,4,700
_#_,368,2,0,450
_#_,366,2,2,470
_#_,364,14,16,4390
_#_,364,8,0,510
_#_,364,4,0,370
_#_,364,2,0,340
_#_,362,2,2,450
_#_,360,4,4,660
_#_,360,2,0,440
_#_,358,2,2,440
_#_,356,6,8,1310
_#_,356,4,0,470
_#_,356,2,0,350
_#_,354,2,2,420
_#_,352,2,4,429
_#_,350,30,30,15731
_#_,350,16,0,600
_#_,350,8,0,380
_#_,350,4,0,351
_#_,350,2,0,349
_#_,348,2,2,360
_#_,346,4,4,809
_#_,346,2,0,449
_#_,344,2,2,400
_#_,342,8,8,1909
_#_,342,4,0,489
_#_,342,2,0,360
_#_,340,2,2,391
_#_,338,4,4,840
_#_,338,2,0,471
_#_,336,2,2,389
_#_,334,14,16,4451
_#_,334,8,0,500
_#_,334,4,0,371
_#_,334,2,0,340
_#_,332,2,2,331
_#_,330,4,4,740
_#_,330,2,0,451
_#_,328,2,2,369
_#_,326,6,8,1400
_#_,326,4,0,471
_#_,326,2,0,351
_#_,324,2,2,371
_#_,322,2,4,450_#_,3_#_,320,360,120,61___#__#_,320,360,120,55__#_,_#_,320,360,120,560__#__#_,320,360,120,558_#_,_#_,320,360,120,550_#_,320,321,120,482580
_#_,320,60,0,960
_#_,320,30,0,410
_#_,320,16,0,380
_#_,320,8,0,410
_#_,320,4,0,410
_#_,320,2,0,360
_#_,318,2,2,560
_#_,316,4,4,740
_#_,316,2,0,470
_#_,314,2,2,450
_#_,312,8,8,1520
_#_,312,4,0,460
_#_,312,2,0,360
_#_,310,2,2,400
_#_,308,4,4,660
_#_,308,2,0,420
_#_,306,2,2,360
_#_,304,14,16,3710
_#_,304,8,0,450
_#_,304,4,0,360
_#_,304,2,0,340
_#_,302,2,2,400
_#_,300,4,4,560
_#_,300,2,0,420
_#_,298,2,2,410
_#_,296,6,8,1170
_#_,296,4,0,430
_#_,296,2,0,360
_#_,294,2,2,380
_#_,292,2,4,370
_#_,290,30,30,13200
_#_,290,16,0,540
_#_,290,8,0,380
_#_,290,4,0,350
_#_,290,2,0,340
_#_,288,2,2,330
_#_,286,4,4,710
_#_,286,2,0,450
_#_,284,2,2,340
_#_,282,8,8,1570
_#_,282,4,0,440
_#_,282,2,0,350
_#_,280,2,2,350
_#_,278,4,4,690
_#_,278,2,0,460
_#_,276,2,2,310
_#_,274,14,16,3740
_#_,274,8,0,490
_#_,274,4,0,350
_#_,274,2,0,350
_#_,272,2,2,309
_#_,270,4,4,651
_#_,270,2,0,420
_#_,268,2,2,320
_#_,266,6,8,1229
_#_,266,4,0,420
_#_,266,2,0,349
_#_,264,2,2,320
_#_,262,2,4,440
_#_,260,60,60,39400
_#_,260,30,0,731
_#_,260,16,0,389
_#_,260,8,0,380
_#_,260,4,0,360
_#_,260,2,0,349
_#_,258,2,2,371
_#_,256,4,4,509
_#_,256,2,0,420
_#_,254,2,2,400
_#_,252,8,8,1240
_#_,252,4,0,420
_#_,252,2,0,349
_#_,250,2,2,360
_#_,248,4,4,580
_#_,248,2,0,420
_#_,246,2,2,360
_#_,244,14,16,3090
_#_,244,8,0,500
_#_,244,4,0,360
_#_,244,2,0,340
_#_,242,2,2,360
_#_,240,4,4,500
_#_,240,2,0,440
_#_,238,2,2,390
_#_,236,6,8,970
_#_,236,4,0,450
_#_,236,2,0,350
_#_,234,2,2,350
_#_,232,2,4,350
_#_,230,30,30,10640
_#_,230,16,0,560
_#_,230,8,0,360
_#_,230,4,0,340
_#_,230,2,0,340
_#_,228,2,2,300
_#_,226,4,4,620
_#_,226,2,0,430
_#_,224,2,2,290
_#_,222,8,8,1340
_#_,222,4,0,450
_#_,222,2,0,360
_#_,220,2,2,300
_#_,218,4,4,600
_#_,218,2,0,420
_#_,216,2,2,300
_#_,214,14,16,3100
_#_,214,8,0,470
_#_,214,4,0,360
_#_,214,2,0,340
_#_,212,2,2,260
_#_,210,4,4,560
_#_,210,2,0,430
_#_,208,2,2,280
_#_,206,6,8,990
_#_,206,4,0,450
_#_,206,2,0,350
_#_,204,2,2,300
_#_,202,2,4,390
_#_#_#_,200,240,120,228_#_#_#__#_,200,240,120,_#_,_#__#_,200,240,120,_#_,_#__#_,200,240,120,_#_,200_#_,200,240,120,_#_,200,201,120,188430
_#_,200,60,0,1040
_#_,200,30,0,430
_#_,200,16,0,380
_#_,200,8,0,350
_#_,200,4,0,350
_#_,200,2,0,350
_#_,198,2,2,450
_#_,196,4,4,520
_#_,196,2,0,450
_#_,194,2,2,320
_#_,192,8,8,1010
_#_,192,4,0,470
_#_,192,2,0,360
_#_,190,2,2,380
_#_,188,4,4,480
_#_,188,2,0,450
_#_,186,2,2,340
_#_,184,14,16,2400
_#_,184,8,0,490
_#_,184,4,0,360
_#_,184,2,0,360
_#_,182,2,2,290
_#_,180,4,4,440
_#_,180,2,0,450
_#_,178,2,2,300
_#_,176,6,8,810
_#_,176,4,0,440
_#_,176,2,0,360
_#_,174,2,2,300
_#_,172,2,4,350
_#_,170,30,30,8010
_#_,170,16,0,520
_#_,170,8,0,370
_#_,170,4,0,360
_#_,170,2,0,350
_#_,168,2,2,280
_#_,166,4,4,590
_#_,166,2,0,440
_#_,164,2,2,260
_#_,162,8,8,1040
_#_,162,4,0,450
_#_,162,2,0,370
_#_,160,2,2,250
_#_,158,4,4,500
_#_,158,2,0,420
_#_,156,2,2,290
_#_,154,14,16,2360
_#_,154,8,0,490
_#_,154,4,0,370
_#_,154,2,0,370
_#_,152,2,2,260
_#_,150,4,4,530
_#_,150,2,0,450
_#_,148,2,2,270
_#_,146,6,8,770
_#_,146,4,0,500
_#_,146,2,0,350
_#_,144,2,2,240
_#_,142,2,4,350
_#_,140,60,60,20860
_#_,140,30,0,570
_#_,140,16,0,390
_#_,140,8,0,350
_#_,140,4,0,340
_#_,140,2,0,340
_#_,138,2,2,330
_#_,136,4,4,460
_#_,136,2,0,440
_#_,134,2,2,320
_#_,132,8,8,790
_#_,132,4,0,440
_#_,132,2,0,360
_#_,130,2,2,270
_#_,128,4,4,380
_#_,128,2,0,410
_#_,126,2,2,280
_#_,124,14,16,1700
_#_,124,8,0,470
_#_,124,4,0,390
_#_,124,2,0,350
_#_,122,2,2,290
_#_,120,4,4,410
_#_,120,2,0,450
_#_,118,2,2,330
_#_,116,6,8,570
_#_,116,4,0,460
_#_,116,2,0,350
_#_,114,2,2,280
_#_,112,2,4,270
_#_,110,30,30,5500
_#_,110,16,0,510
_#_,110,8,0,370
_#_,110,4,0,350
_#_,110,2,0,350
_#_,108,2,2,260
_#_,106,4,4,450
_#_,106,2,0,440
_#_,104,2,2,250
_#_,102,8,8,770
_#_,102,4,0,470
_#_,102,2,0,370
_#_,100,2,2,230
_#_,98,4,4,410
_#_,98,2,0,430
_#_,96,2,2,230
_#_,94,14,16,1551
_#_,94,8,0,471
_#_,94,4,0,371
_#_,94,2,0,340
_#_,92,2,2,260
_#_,90,4,4,411
_#_,90,2,0,420
_#_,88,2,2,229
_#_,86,6,8,580
_#_,86,4,0,460
_#_,86,2,0,369
_#_,84,2,2,249
_#_,82,2,4,289
_#_,80,81,120,308_#__#_,80,81,120,3067_#_#_,80,81,120,30700__#_,80,81,120,30620
_#_,80,81,120,30660
_#_,80,81,120,30750
_#_,80,40,0,890
_#_,80,20,0,420
_#_,80,10,0,380
_#_,80,6,0,360
_#_,80,4,0,350
_#_,80,2,0,350
_#_,78,2,2,360
_#_,76,2,4,230
_#_,74,4,6,650
_#_,74,2,0,430
_#_,72,2,2,270
_#_,70,10,10,980
_#_,70,6,0,410
_#_,70,4,0,350
_#_,70,2,0,340
_#_,68,2,2,210
_#_,66,2,4,250
_#_,64,4,6,320
_#_,64,2,0,440
_#_,62,2,2,230
_#_,60,20,20,1440
_#_,60,10,0,470
_#_,60,6,0,360
_#_,60,4,0,350
_#_,60,2,0,330
_#_,58,2,2,270
_#_,56,2,4,210
_#_,54,4,6,490
_#_,54,2,0,440
_#_,52,2,2,200
_#_,50,10,10,700
_#_,50,6,0,450
_#_,50,4,0,370
_#_,50,2,0,350
_#_,48,2,2,170
_#_,46,2,4,270
_#_,44,4,6,330
_#_,44,2,0,440
_#_,42,2,2,240
_#_,40,40,40,3180
_#_,40,20,0,480
_#_,40,10,0,380
_#_,40,6,0,360
_#_,40,4,0,340
_#_,40,2,0,340
_#_,38,2,2,210
_#_,36,2,4,200
_#_,34,4,6,360
_#_,34,2,0,460
_#_,32,2,2,170
_#_,30,10,10,600
_#_,30,6,0,440
_#_,30,4,0,370
_#_,30,2,0,340
_#_,28,2,2,210
_#_,26,2,4,240
_#_,24,4,6,280
_#_,24,2,0,420
_#_,22,2,2,210
_#_,20,20,20,750
_#_,20,10,0,480
_#_,20,6,0,350
_#_,20,4,0,350
_#_,20,2,0,340
_#_,18,2,2,200
_#_,16,2,4,170
_#_,14,4,6,350
_#_,14,2,0,450
_#_,12,2,2,169
_#_,10,10,10,469
_#_,10,6,0,431
_#_,10,4,0,360
_#_,10,2,0,340
_#_,8,2,2,160
_#_,6,2,4,249
_#_,4,4,6,240
_#_,4,2,0,420
_#_,2,2,2,189
_#_,0,1,80,271

real	0m0.508s
user	0m0.253s
sys	0m0.162s
_,80,4,4,271
_#_,80,2,0,431
_#_,80,2,2,190
_#_,80,6,8,420
_#_,80,4,0,440
_#_,80,2,0,360
_#_,80,2,2,200
_#_,80,2,4,220
_#_,80,30,30,3500
_#_,80,16,0,510
_#_,80,8,0,380
_#_,80,4,0,340
_#_,80,2,0,330
_#_,80,2,2,190
_#_,80,4,4,270
_#_,80,2,0,410
_#_,80,2,2,180
_#_,80,8,8,500
_#_,80,4,0,420
_#_,80,2,0,350
_#_,80,2,2,200
_#_,80,4,4,270
_#_,80,2,0,420
_#_,80,2,2,190
_#_,80,14,16,1090
_#_,80,8,0,460
_#_,80,4,0,350
_#_,80,2,0,330
_#_,80,2,2,190
_#_,80,4,4,280
_#_,80,2,0,420
_#_,80,2
real	0m0.504s
user
real	0m0.509s
user	0m0.249s
sys	0m0.177s

real	0m0.501s
user	0
real	0m0.506s
user	0m0.240s
sys	0m0.182s
