magic, rank, use_smpi, time, delta, comment
#~#, 7, 1, 0.000001, 0.000001, Set initial model
#~#, 7, 1, 0.111003, 0.111002, After MPI_Init
#~#, 7, 1, 0.112378, 0.001375, After HPL_pdinfo
#~#, 7, 1, 0.113394, 0.001016, After HPL_grid_info
