Model, N, nodes, ppn, Gflops, WallClockTime
pm0-nod09, 40000, 2, 1, 95.52, 467.713
pm0-nod09, 50000, 2, 1, 80.9, 1062.768
pm0-nod15, 10000, 2, 1, 81.5, 9.64
pm0-nod15, 1250, 2, 1, 18.36, 0.295
pm0-nod15, 15000, 2, 1, 90.55, 27.946
pm0-nod15, 1875, 2, 1, 60.68, 0.254
pm0-nod15, 20000, 2, 1, 93.89, 62.164
pm0-nod15, 2500, 2, 1, 72.8, 0.36
pm0-nod15, 30000, 2, 1, 94.88, 201.572
pm0-nod15, 3750, 2, 1, 68.91, 0.83
pm0-nod15, 5000, 2, 1, 82.9, 1.479
pm0-nod15, 7500, 2, 1, 85.03, 4.184
