Model, N, nodes, ppn, Gflops, WallClockTime
pm0-nod09, 10000, 14, 7, 1270, 0.823
pm0-nod09, 1250, 14, 7, 24.13, 0.336
pm0-nod09, 15000, 14, 7, 1849, 1.539
pm0-nod09, 1875, 14, 7, 92.59, 0.3
pm0-nod09, 20000, 14, 7, 2274, 2.727
pm0-nod09, 2500, 14, 7, 158.6, 0.321
pm0-nod09, 30000, 14, 7, 2826, 6.901
pm0-nod09, 3750, 14, 7, 315.4, 0.376
pm0-nod09, 40000, 14, 7, 2956, 15.2
pm0-nod09, 50000, 14, 7, 3195, 27.088
pm0-nod09, 5000, 14, 7, 499.5, 0.434
pm0-nod09, 7500, 14, 7, 878, 0.583
