[0.000000] [xbt_cfg/INFO] Configuration change: Set 'smpi/cpu-threshold' to '1e-9'
[0.000000] [xbt_cfg/INFO] Configuration change: Set 'smpi/host-speed' to '10000Mf'
[0.000000] [xbt_cfg/INFO] Configuration change: Set 'smpi/shared-malloc-blocksize' to '524288.0000'
[0.000000] [xbt_cfg/INFO] Configuration change: Set 'smpi/display-timing' to 'yes'
[0.000000] [xbt_cfg/INFO] Configuration change: Set 'surf/precision' to '1e-9'
[0.000000] [xbt_cfg/INFO] Configuration change: Set 'network/loopback-lat' to '0'
[0.000000] [xbt_cfg/INFO] Configuration change: Set 'network/loopback-bw' to '999e9'
[0.000000] [xbt_cfg/INFO] Configuration change: Set 'network/model' to 'CM02'
[0.000000] [xbt_cfg/INFO] Configuration change: Set 'smpi/os' to '0:2.2617745265427535e-06:2.703352029721588e-10;392:2.8385604119907807e-06:1.1264760290330328e-10;32712:0.0:0.0;186836:0.0:0.0;1538469:0.0:0.0'
[0.000000] [xbt_cfg/INFO] Configuration change: Set 'smpi/or' to '0:4.879281137093516e-07:2.2618415203462987e-10;392:5.779857092751072e-07:3.8094447278873e-11;32712:0.0:0.0;186836:0.0:0.0;1538469:0.0:0.0'
[0.000000] [xbt_cfg/INFO] Configuration change: Set 'smpi/ois' to '0:5.673519212129521e-07:7.174648137343064e-43;392:5.446695252027938e-07:1.9686168165027744e-11;32712:5.536713106693264e-07:5.082661224033066e-13;186836:5.49289659548938e-07:3.189291810074661e-14;1538469:4.306002121584747e-07:4.21325930847998e-14'
[0.000000] [xbt_cfg/INFO] Configuration change: Set 'smpi/bw-factor' to '0:0.2699228069054274;392:0.7647794357220394;32712:0.9664149337828888;186836:0.9243880418172589;1538469:0.9732858005841204'
[0.000000] [xbt_cfg/INFO] Configuration change: Set 'smpi/lat-factor' to '0:2.7676182391675814;392:3.9432860784637396;32712:10.117401654450653;186836:7.810638891189083;1538469:18.84747638996546'
[0.000000] [xbt_cfg/INFO] Configuration change: Set 'smpi/async-small-thresh' to '32712'
[0.000000] [xbt_cfg/INFO] Configuration change: Set 'smpi/send-is-detached-thresh' to '32712'
[0.000000] [xbt_cfg/INFO] Configuration change: Set 'smpi/iprobe' to '1.9586518031175638e-07'
[0.000000] [xbt_cfg/INFO] Configuration change: Set 'smpi/test' to '1.1523121197560569e-07'
[0.000000] [xbt_cfg/INFO] Configuration change: Set 'smpi/coll-selector' to 'ompi'
[0.000000] [smpi_coll/INFO] Switch to algorithm ompi for collective gather
[0.000000] [smpi_coll/INFO] Switch to algorithm ompi for collective allgather
[0.000000] [smpi_coll/INFO] Switch to algorithm ompi for collective allgatherv
[0.000000] [smpi_coll/INFO] Switch to algorithm ompi for collective allreduce
[0.000000] [smpi_coll/INFO] Switch to algorithm ompi for collective alltoall
[0.000000] [smpi_coll/INFO] Switch to algorithm ompi for collective alltoallv
[0.000000] [smpi_coll/INFO] Switch to algorithm ompi for collective reduce
[0.000000] [smpi_coll/INFO] Switch to algorithm ompi for collective reduce_scatter
[0.000000] [smpi_coll/INFO] Switch to algorithm ompi for collective scatter
[0.000000] [smpi_coll/INFO] Switch to algorithm ompi for collective bcast
[0.000000] [smpi_coll/INFO] Switch to algorithm ompi for collective barrier
[0.000000] [smpi_coll/INFO] Switch to algorithm ompi for collective gather
[0.000000] [smpi_coll/INFO] Switch to algorithm ompi for collective allgather
[0.000000] [smpi_coll/INFO] Switch to algorithm ompi for collective allgatherv
[0.000000] [smpi_coll/INFO] Switch to algorithm ompi for collective allreduce
[0.000000] [smpi_coll/INFO] Switch to algorithm ompi for collective alltoall
[0.000000] [smpi_coll/INFO] Switch to algorithm ompi for collective alltoallv
[0.000000] [smpi_coll/INFO] Switch to algorithm ompi for collective reduce
[0.000000] [smpi_coll/INFO] Switch to algorithm ompi for collective reduce_scatter
[0.000000] [smpi_coll/INFO] Switch to algorithm ompi for collective scatter
[0.000000] [smpi_coll/INFO] Switch to algorithm ompi for collective bcast
[0.000000] [smpi_coll/INFO] Switch to algorithm ompi for collective barrier
[amour1_CPU0:user_app:(1) 0.000000] [s4bxi_main_actor/INFO] Setup with nid = 1, model_pci = 1 ; e2e_off = 0
[amour1_CPU1:user_app:(2) 0.000000] [s4bxi_main_actor/INFO] Setup with nid = 1, model_pci = 1 ; e2e_off = 0
[amour1_CPU2:user_app:(3) 0.000000] [s4bxi_main_actor/INFO] Setup with nid = 1, model_pci = 1 ; e2e_off = 0
[amour1_CPU3:user_app:(4) 0.000000] [s4bxi_main_actor/INFO] Setup with nid = 1, model_pci = 1 ; e2e_off = 0
[amour2_CPU0:user_app:(10) 0.000000] [s4bxi_main_actor/INFO] Setup with nid = 2, model_pci = 1 ; e2e_off = 0
[amour2_CPU1:user_app:(11) 0.000000] [s4bxi_main_actor/INFO] Setup with nid = 2, model_pci = 1 ; e2e_off = 0
[amour2_CPU2:user_app:(12) 0.000000] [s4bxi_main_actor/INFO] Setup with nid = 2, model_pci = 1 ; e2e_off = 0
[amour2_CPU3:user_app:(13) 0.000000] [s4bxi_main_actor/INFO] Setup with nid = 2, model_pci = 1 ; e2e_off = 0
[amour3_CPU0:user_app:(19) 0.000000] [s4bxi_main_actor/INFO] Setup with nid = 3, model_pci = 1 ; e2e_off = 0
[amour3_CPU1:user_app:(20) 0.000000] [s4bxi_main_actor/INFO] Setup with nid = 3, model_pci = 1 ; e2e_off = 0
[amour3_CPU2:user_app:(21) 0.000000] [s4bxi_main_actor/INFO] Setup with nid = 3, model_pci = 1 ; e2e_off = 0
[amour3_CPU3:user_app:(22) 0.000000] [s4bxi_main_actor/INFO] Setup with nid = 3, model_pci = 1 ; e2e_off = 0
[amour4_CPU0:user_app:(28) 0.000000] [s4bxi_main_actor/INFO] Setup with nid = 4, model_pci = 1 ; e2e_off = 0
[amour4_CPU1:user_app:(29) 0.000000] [s4bxi_main_actor/INFO] Setup with nid = 4, model_pci = 1 ; e2e_off = 0
[amour4_CPU2:user_app:(30) 0.000000] [s4bxi_main_actor/INFO] Setup with nid = 4, model_pci = 1 ; e2e_off = 0
[amour4_CPU3:user_app:(31) 0.000000] [s4bxi_main_actor/INFO] Setup with nid = 4, model_pci = 1 ; e2e_off = 0
[amour1_CPU0:user_app:(1) 0.000000] [user_app/INFO] Init rank 0 ; local_rank 0
[amour1_CPU1:user_app:(2) 0.000000] [user_app/INFO] Init rank 1 ; local_rank 1
[amour1_CPU2:user_app:(3) 0.000000] [user_app/INFO] Init rank 2 ; local_rank 2
[amour1_CPU3:user_app:(4) 0.000000] [user_app/INFO] Init rank 3 ; local_rank 3
[amour2_CPU0:user_app:(10) 0.000000] [user_app/INFO] Init rank 4 ; local_rank 0
[amour2_CPU1:user_app:(11) 0.000000] [user_app/INFO] Init rank 5 ; local_rank 1
[amour2_CPU2:user_app:(12) 0.000000] [user_app/INFO] Init rank 6 ; local_rank 2
[amour2_CPU3:user_app:(13) 0.000000] [user_app/INFO] Init rank 7 ; local_rank 3
[amour3_CPU0:user_app:(19) 0.000000] [user_app/INFO] Init rank 8 ; local_rank 0
[amour3_CPU1:user_app:(20) 0.000000] [user_app/INFO] Init rank 9 ; local_rank 1
[amour3_CPU2:user_app:(21) 0.000000] [user_app/INFO] Init rank 10 ; local_rank 2
[amour3_CPU3:user_app:(22) 0.000000] [user_app/INFO] Init rank 11 ; local_rank 3
[amour4_CPU0:user_app:(28) 0.000000] [user_app/INFO] Init rank 12 ; local_rank 0
[amour4_CPU1:user_app:(29) 0.000000] [user_app/INFO] Init rank 13 ; local_rank 1
[amour4_CPU2:user_app:(30) 0.000000] [user_app/INFO] Init rank 14 ; local_rank 2
[amour4_CPU3:user_app:(31) 0.000000] [user_app/INFO] Init rank 15 ; local_rank 3
[amour1_NIC:nic_e2e:(9) 0.000000] [s4bxi_nic_e2e/INFO] E2E was configured with timeout = 10.000000 and retries = 5
[amour2_NIC:nic_e2e:(18) 0.000000] [s4bxi_nic_e2e/INFO] E2E was configured with timeout = 10.000000 and retries = 5
[amour3_NIC:nic_e2e:(27) 0.000000] [s4bxi_nic_e2e/INFO] E2E was configured with timeout = 10.000000 and retries = 5
[amour4_NIC:nic_e2e:(36) 0.000000] [s4bxi_nic_e2e/INFO] E2E was configured with timeout = 10.000000 and retries = 5
[amour1_CPU0:user_app:(1) 0.000000] [user_app/INFO] Extracting symbols from Bull lib 0x12550e0 (gyXQjw0so.40) and SMPI lib 0x7f2dee3c5850
[amour1_CPU1:user_app:(2) 0.000000] [user_app/INFO] Extracting symbols from Bull lib 0x1259630 (gyXQjw1so.40) and SMPI lib 0x7f2dee3c5850
[amour1_CPU2:user_app:(3) 0.000000] [user_app/INFO] Extracting symbols from Bull lib 0x125bf60 (gyXQjw2so.40) and SMPI lib 0x7f2dee3c5850
[amour1_CPU3:user_app:(4) 0.000000] [user_app/INFO] Extracting symbols from Bull lib 0x125e890 (gyXQjw3so.40) and SMPI lib 0x7f2dee3c5850
[amour2_CPU0:user_app:(10) 0.000000] [user_app/INFO] Extracting symbols from Bull lib 0x1261360 (gyXQjw4so.40) and SMPI lib 0x7f2dee3c5850
[amour2_CPU1:user_app:(11) 0.000000] [user_app/INFO] Extracting symbols from Bull lib 0x1263cd0 (gyXQjw5so.40) and SMPI lib 0x7f2dee3c5850
[amour2_CPU2:user_app:(12) 0.000000] [user_app/INFO] Extracting symbols from Bull lib 0x1266640 (gyXQjw6so.40) and SMPI lib 0x7f2dee3c5850
[amour2_CPU3:user_app:(13) 0.000000] [user_app/INFO] Extracting symbols from Bull lib 0x1269040 (gyXQjw7so.40) and SMPI lib 0x7f2dee3c5850
[amour3_CPU0:user_app:(19) 0.000000] [user_app/INFO] Extracting symbols from Bull lib 0x126bcb0 (gyXQjw8so.40) and SMPI lib 0x7f2dee3c5850
[amour3_CPU1:user_app:(20) 0.000000] [user_app/INFO] Extracting symbols from Bull lib 0x126e6a0 (gyXQjw9so.40) and SMPI lib 0x7f2dee3c5850
[amour3_CPU2:user_app:(21) 0.000000] [user_app/INFO] Extracting symbols from Bull lib 0x1271090 (gyXQj10so.40) and SMPI lib 0x7f2dee3c5850
[amour3_CPU3:user_app:(22) 0.000000] [user_app/INFO] Extracting symbols from Bull lib 0x1273b10 (gyXQj11so.40) and SMPI lib 0x7f2dee3c5850
[amour4_CPU0:user_app:(28) 0.000000] [user_app/INFO] Extracting symbols from Bull lib 0x12765d0 (gyXQj12so.40) and SMPI lib 0x7f2dee3c5850
[amour4_CPU1:user_app:(29) 0.000000] [user_app/INFO] Extracting symbols from Bull lib 0x1279050 (gyXQj13so.40) and SMPI lib 0x7f2dee3c5850
[amour4_CPU2:user_app:(30) 0.000000] [user_app/INFO] Extracting symbols from Bull lib 0x127bad0 (gyXQj14so.40) and SMPI lib 0x7f2dee3c5850
[amour4_CPU3:user_app:(31) 0.000000] [user_app/INFO] Extracting symbols from Bull lib 0x127e5d0 (gyXQj15so.40) and SMPI lib 0x7f2dee3c5850
[amour1_NIC:nic_e2e:(9) 1.106732] [s4bxi_nic_e2e/INFO] Retried 0 times, gave up 0 times
[amour2_NIC:nic_e2e:(18) 1.106732] [s4bxi_nic_e2e/INFO] Retried 0 times, gave up 0 times
[amour3_NIC:nic_e2e:(27) 1.106732] [s4bxi_nic_e2e/INFO] Retried 0 times, gave up 0 times
[amour4_NIC:nic_e2e:(36) 1.106732] [s4bxi_nic_e2e/INFO] Retried 0 times, gave up 0 times
[1.106732] [user_app/INFO] Spent 0.260003s initializing and 4.637657s in user application

real	0m6.169s
user	0m3.960s
sys	0m2.181s
