magic, rank, use_smpi, time, delta, comment
#~#, 10, 0, 0.000001, 0.000001, Set initial model
#~#, 10, 0, 0.137728, 0.137727, After MPI_Init
#~#, 10, 0, 0.138104, 0.000376, After HPL_pdinfo
#~#, 10, 0, 0.139123, 0.001020, After HPL_grid_info
