magic, rank, use_smpi, time, delta, comment
#~#, 11, 1, 0.000002, 0.000002, Set initial model
#~#, 11, 1, 0.096056, 0.096055, After MPI_Init
#~#, 11, 1, 0.098358, 0.002302, After HPL_pdinfo
#~#, 11, 1, 0.099359, 0.001001, After HPL_grid_info
