[0.000000] [xbt_cfg/INFO] Configuration change: Set 'smpi/cpu-threshold' to '1e-9'
[0.000000] [xbt_cfg/INFO] Configuration change: Set 'smpi/host-speed' to '10000Mf'
[0.000000] [xbt_cfg/INFO] Configuration change: Set 'surf/precision' to '1e-9'
[0.000000] [xbt_cfg/INFO] Configuration change: Set 'network/loopback-lat' to '0'
[0.000000] [xbt_cfg/INFO] Configuration change: Set 'network/loopback-bw' to '999e9'
[0.000000] [xbt_cfg/INFO] Configuration change: Set 'network/model' to 'CM02'
[0.000000] [xbt_cfg/INFO] Configuration change: Set 'smpi/os' to '0:2.2617745265427535e-06:2.703352029721588e-10;392:2.8385604119907807e-06:1.1264760290330328e-10;32712:0.0:0.0;186836:0.0:0.0;1538469:0.0:0.0'
[0.000000] [xbt_cfg/INFO] Configuration change: Set 'smpi/or' to '0:4.879281137093516e-07:2.2618415203462987e-10;392:5.779857092751072e-07:3.8094447278873e-11;32712:0.0:0.0;186836:0.0:0.0;1538469:0.0:0.0'
[0.000000] [xbt_cfg/INFO] Configuration change: Set 'smpi/ois' to '0:5.673519212129521e-07:7.174648137343064e-43;392:5.446695252027938e-07:1.9686168165027744e-11;32712:5.536713106693264e-07:5.082661224033066e-13;186836:5.49289659548938e-07:3.189291810074661e-14;1538469:4.306002121584747e-07:4.21325930847998e-14'
[0.000000] [xbt_cfg/INFO] Configuration change: Set 'smpi/bw-factor' to '0:0.2699228069054274;392:0.7647794357220394;32712:0.9664149337828888;186836:0.9243880418172589;1538469:0.9732858005841204'
[0.000000] [xbt_cfg/INFO] Configuration change: Set 'smpi/lat-factor' to '0:2.7676182391675814;392:3.9432860784637396;32712:10.117401654450653;186836:7.810638891189083;1538469:18.84747638996546'
[0.000000] [xbt_cfg/INFO] Configuration change: Set 'smpi/async-small-thresh' to '32712'
[0.000000] [xbt_cfg/INFO] Configuration change: Set 'smpi/send-is-detached-thresh' to '32712'
[0.000000] [xbt_cfg/INFO] Configuration change: Set 'smpi/iprobe' to '1.9586518031175638e-07'
[0.000000] [xbt_cfg/INFO] Configuration change: Set 'smpi/test' to '1.1523121197560569e-07'
[0.000000] [xbt_cfg/INFO] Configuration change: Set 'smpi/coll-selector' to 'ompi'
[0.000000] [smpi_coll/INFO] Switch to algorithm ompi for collective gather
[0.000000] [smpi_coll/INFO] Switch to algorithm ompi for collective allgather
[0.000000] [smpi_coll/INFO] Switch to algorithm ompi for collective allgatherv
[0.000000] [smpi_coll/INFO] Switch to algorithm ompi for collective allreduce
[0.000000] [smpi_coll/INFO] Switch to algorithm ompi for collective alltoall
[0.000000] [smpi_coll/INFO] Switch to algorithm ompi for collective alltoallv
[0.000000] [smpi_coll/INFO] Switch to algorithm ompi for collective reduce
[0.000000] [smpi_coll/INFO] Switch to algorithm ompi for collective reduce_scatter
[0.000000] [smpi_coll/INFO] Switch to algorithm ompi for collective scatter
[0.000000] [smpi_coll/INFO] Switch to algorithm ompi for collective bcast
[0.000000] [smpi_coll/INFO] Switch to algorithm ompi for collective barrier
[0.000000] [smpi_coll/INFO] Switch to algorithm ompi for collective gather
[0.000000] [smpi_coll/INFO] Switch to algorithm ompi for collective allgather
[0.000000] [smpi_coll/INFO] Switch to algorithm ompi for collective allgatherv
[0.000000] [smpi_coll/INFO] Switch to algorithm ompi for collective allreduce
[0.000000] [smpi_coll/INFO] Switch to algorithm ompi for collective alltoall
[0.000000] [smpi_coll/INFO] Switch to algorithm ompi for collective alltoallv
[0.000000] [smpi_coll/INFO] Switch to algorithm ompi for collective reduce
[0.000000] [smpi_coll/INFO] Switch to algorithm ompi for collective reduce_scatter
[0.000000] [smpi_coll/INFO] Switch to algorithm ompi for collective scatter
[0.000000] [smpi_coll/INFO] Switch to algorithm ompi for collective bcast
[0.000000] [smpi_coll/INFO] Switch to algorithm ompi for collective barrier
[amour1_CPU0:user_app:(1) 0.000000] [s4bxi_main_actor/INFO] Setup with nid = 1, model_pci = 1 ; e2e_off = 0
[amour2_CPU0:user_app:(7) 0.000000] [s4bxi_main_actor/INFO] Setup with nid = 2, model_pci = 1 ; e2e_off = 0
[amour3_CPU0:user_app:(13) 0.000000] [s4bxi_main_actor/INFO] Setup with nid = 3, model_pci = 1 ; e2e_off = 0
[amour1_CPU0:user_app:(1) 0.000000] [user_app/INFO] Init rank 0 ; local_rank 0
[amour2_CPU0:user_app:(7) 0.000000] [user_app/INFO] Init rank 1 ; local_rank 0
[amour3_CPU0:user_app:(13) 0.000000] [user_app/INFO] Init rank 2 ; local_rank 0
[amour1_NIC:nic_e2e:(6) 0.000000] [s4bxi_nic_e2e/INFO] E2E was configured with timeout = 10.000000 and retries = 5
[amour2_NIC:nic_e2e:(12) 0.000000] [s4bxi_nic_e2e/INFO] E2E was configured with timeout = 10.000000 and retries = 5
[amour3_NIC:nic_e2e:(18) 0.000000] [s4bxi_nic_e2e/INFO] E2E was configured with timeout = 10.000000 and retries = 5
[amour1_CPU0:user_app:(1) 0.000000] [user_app/INFO] Extracting symbols from Bull lib 0x2da7cb0 (TbeGjL0so.40) and SMPI lib 0x7fb81b09f850
[amour2_CPU0:user_app:(7) 0.000000] [user_app/INFO] Extracting symbols from Bull lib 0x2dac2b0 (TbeGjL1so.40) and SMPI lib 0x7fb81b09f850
[amour3_CPU0:user_app:(13) 0.000000] [user_app/INFO] Extracting symbols from Bull lib 0x2daecb0 (TbeGjL2so.40) and SMPI lib 0x7fb81b09f850
#~#, 2, 0, 0.000001, 0.000001, Set initial model
#~#, 1, 0, 0.000003, 0.000003, Set initial model
#~#, 0, 0, 0.000006, 0.000006, Set initial model
#~#, 2, 0, 0.108877, 0.108876, After MPI_Init
#~#, 1, 0, 0.109049, 0.109045, After MPI_Init
#~#, 0, 0, 0.109251, 0.109245, After MPI_Init
#~#, 2, 0, 0.109549, 0.000672, After HPL_pdinfo
#~#, 1, 0, 0.109555, 0.000507, After HPL_pdinfo
#~#, 0, 0, 0.109615, 0.000363, After HPL_pdinfo
#~#, 0, 0, 0.109951, 0.000336, After HPL_grid_info
#~#, 1, 0, 0.109953, 0.000398, After HPL_grid_info
#~#, 2, 0, 0.109954, 0.000405, After HPL_grid_info
[amour1_CPU0:user_app:(1) 3.333428] [s4bxi_redefine/INFO] User code exited gracefully
[amour1_CPU0:user_app:(1) 3.333428] ../src/xbt/exception.cpp:107: [xbt_exception/ERROR] Received a ForcefulKillException at the top-level exception handler. Maybe a Java->C++ call that is not protected in a try/catch?
[amour1_CPU0:user_app:(1) 3.333428] ../src/xbt/exception.cpp:75: [xbt_exception/CRITICAL] Current backtrace:
  ->  0# 0x00007FB81A5F7ED9 in /tmp/opt/simgrid/lib64/libsimgrid.so.3.31.1
  ->  1# 0x00007FB819FE753C in /lib64/libstdc++.so.6
  ->  2# 0x00007FB819FE6559 in /lib64/libstdc++.so.6
  ->  3# __gxx_personality_v0 in /lib64/libstdc++.so.6
  ->  4# 0x00007FB8199C7B03 in /lib64/libgcc_s.so.1
  ->  5# _Unwind_Resume in /lib64/libgcc_s.so.1
  ->  6# 0x00007FB81A5E269A in /tmp/opt/simgrid/lib64/libsimgrid.so.3.31.1
  ->  7# s4bxi_exit in /tmp/opt/s4bxi/lib/libportals.so.1
  ->  8# main in ./xhpl_TbeGjLpLUZ_0.so

[pm0-nod12:3113641] *** Process received signal ***
[pm0-nod12:3113641] Signal: Aborted (6)
[pm0-nod12:3113641] Signal code:  (-6)
[pm0-nod12:3113641] [ 0] /lib64/libc.so.6(+0x37400)[0x7fb819629400]
[pm0-nod12:3113641] [ 1] /lib64/libc.so.6(gsignal+0x10f)[0x7fb81962937f]
[pm0-nod12:3113641] [ 2] /lib64/libc.so.6(abort+0x127)[0x7fb819613db5]
[pm0-nod12:3113641] [ 3] /tmp/opt/simgrid/lib64/libsimgrid.so.3.31.1(+0x10deab)[0x7fb81a5f7eab]
[pm0-nod12:3113641] [ 4] /lib64/libstdc++.so.6(+0x9653c)[0x7fb819fe753c]
[pm0-nod12:3113641] [ 5] /lib64/libstdc++.so.6(+0x95559)[0x7fb819fe6559]
[pm0-nod12:3113641] [ 6] /lib64/libstdc++.so.6(__gxx_personality_v0+0x2a8)[0x7fb819fe6ed8]
[pm0-nod12:3113641] [ 7] /lib64/libgcc_s.so.1(+0x10b03)[0x7fb8199c7b03]
[pm0-nod12:3113641] [ 8] /lib64/libgcc_s.so.1(_Unwind_Resume+0x12d)[0x7fb8199c841d]
[pm0-nod12:3113641] [ 9] /tmp/opt/simgrid/lib64/libsimgrid.so.3.31.1(+0xf869a)[0x7fb81a5e269a]
[pm0-nod12:3113641] [10] /tmp/opt/s4bxi/lib/libportals.so.1(s4bxi_exit+0x2e)[0x7fb81ac091fe]
[pm0-nod12:3113641] [11] ./xhpl_TbeGjLpLUZ_0.so(main+0x64c)[0x7fb80f4882ac]
[pm0-nod12:3113641] [12] /tmp/opt/s4bxi/lib/libportals.so.1(_ZN15BxiUserAppActorclEv+0x184d)[0x7fb81abf2dad]
[pm0-nod12:3113641] [13] /tmp/opt/s4bxi/lib/libportals.so.1(_ZZZN7simgrid3s4u6Engine14register_actorI15BxiUserAppActorEEvRKNSt7__cxx1112basic_stringIcSt11char_traitsIcESaIcEEEENKUlSt6vectorIS9_SaIS9_EEE_clESE_ENUlvE_clEv+0x21)[0x7fb81abf8a81]
[pm0-nod12:3113641] [14] /tmp/opt/simgrid/lib64/libsimgrid.so.3.31.1(smx_ctx_wrapper+0x17)[0x7fb81a6530f7]
[pm0-nod12:3113641] *** End of error message ***
./s4bxi_run_vanilla.sh: line 90: 3113641 Aborted                 (core dumped) s4bximain $PLATFORMDIR/amour/build/libamour.so ./deploy.xml ./xhpl xhpl --cfg=smpi/cpu-threshold:${S4BXI_CPU_THRESHOLD} --cfg=smpi/host-speed:$(bc <<< "10000 * ${S4BXI_CPU_FACTOR}")Mf

real	0m25.021s
user	0m22.440s
sys	0m2.391s
