magic, rank, use_smpi, time, delta, comment
#~#, 1, 0, 0.000001, 0.000001, Set initial model
#~#, 1, 0, 0.100364, 0.100363, After MPI_Init
#~#, 1, 0, 0.103307, 0.002943, After HPL_pdinfo
#~#, 1, 0, 0.104290, 0.000984, After HPL_grid_info
