magic, rank, use_smpi, time, delta, comment
#~#, 6, 0, 0.000001, 0.000001, Set initial model
#~#, 6, 0, 0.100630, 0.100628, After MPI_Init
#~#, 6, 0, 0.103310, 0.002680, After HPL_pdinfo
#~#, 6, 0, 0.104293, 0.000983, After HPL_grid_info
