magic, rank, use_smpi, time, delta, comment
#~#, 8, 0, 0.000001, 0.000001, Set initial model
#~#, 8, 0, 0.099185, 0.099184, After MPI_Init
#~#, 8, 0, 0.103300, 0.004115, After HPL_pdinfo
#~#, 8, 0, 0.104296, 0.000996, After HPL_grid_info
