Model, N, nodes, ppn, Gflops, WallClockTime
modelChange, 10000, 12, 12, 651.3, 276.421
modelChange, 1250, 12, 12, 13.81, 57.568
modelChange, 15000, 12, 12, 1197, 452.104
modelChange, 1875, 12, 12, 30.33, 68.605
modelChange, 20000, 12, 12, 1738, 675.309
modelChange, 2500, 12, 12, 53.06, 81.363
modelChange, 30000, 12, 12, 2706, 1301.68
modelChange, 3750, 12, 12, 116.4, 106.524
modelChange, 40000, 12, 12, 3292, 2266.868
modelChange, 5000, 12, 12, 198.2, 135.337
modelChange, 7500, 12, 12, 407.7, 201.291
s4bxi, 10000, 12, 12, 646.8, 286.709
s4bxi, 1250, 12, 12, 13.73, 56.854
s4bxi, 15000, 12, 12, 1201, 457.898
s4bxi, 1875, 12, 12, 30.5, 68.283
s4bxi, 20000, 12, 12, 1741, 678.28
s4bxi, 2500, 12, 12, 53.43, 82.3
s4bxi, 30000, 12, 12, 2700, 1301.327
s4bxi, 3750, 12, 12, 113.9, 112.088
s4bxi, 40000, 12, 12, 2758, 2538.22
s4bxi, 5000, 12, 12, 199.6, 136.801
s4bxi, 7500, 12, 12, 390.5, 213.107
smpi, 10000, 12, 12, 1174, 81.851
smpi, 1250, 12, 12, 27.37, 39.183
smpi, 15000, 12, 12, 2001, 137.489
smpi, 1875, 12, 12, 59.52, 40.801
smpi, 20000, 12, 12, 2685, 233.20600000000002
smpi, 2500, 12, 12, 104.2, 42.15
smpi, 30000, 12, 12, 3675, 584.909
smpi, 3750, 12, 12, 222.5, 47.127
smpi, 40000, 12, 12, 4204, 1229.813
smpi, 5000, 12, 12, 375.3, 51.459
smpi, 7500, 12, 12, 753.2, 63.711
smpirun, 10000, 12, 12, 1083, 30.191
smpirun, 1250, 12, 12, 21.56, 1.172
smpirun, 15000, 12, 12, 1832, 77.963
smpirun, 1875, 12, 12, 51.22, 1.901
smpirun, 20000, 12, 12, 2455, 162.767
smpirun, 2500, 12, 12, 87.99, 2.768
smpirun, 30000, 12, 12, 3372, 496.161
smpirun, 3750, 12, 12, 212.5, 4.883
smpirun, 40000, 12, 12, 3904, 1118.648
smpirun, 5000, 12, 12, 342.9, 7.871
smpirun, 7500, 12, 12, 710.5, 16.667
