Model, N, nodes, ppn, Gflops, WallClockTime
modelChange, 10000, 6, 1, 191.5, 75.182
modelChange, 1250, 6, 1, 24.28, 7.158
modelChange, 15000, 6, 1, 218.1, 165.74
modelChange, 1875, 6, 1, 46.16, 9.181
modelChange, 20000, 6, 1, 224.2, 329.452
modelChange, 2500, 6, 1, 67.11, 11.672
modelChange, 30000, 6, 1, 234.7, 901.285
modelChange, 3750, 6, 1, 104.8, 18.069
modelChange, 40000, 6, 1, 237.3, 2009.109
modelChange, 5000, 6, 1, 134.2, 24.741
modelChange, 7500, 6, 1, 171.6, 45.989
s4bxi, 10000, 6, 1, 191.4, 74.437
s4bxi, 1250, 6, 1, 24.4, 6.766
s4bxi, 15000, 6, 1, 217, 171.911
s4bxi, 1875, 6, 1, 45.65, 9.241
s4bxi, 20000, 6, 1, 224.2, 329.632
s4bxi, 2500, 6, 1, 66.84, 11.544
s4bxi, 30000, 6, 1, 234.7, 905.818
s4bxi, 3750, 6, 1, 105.3, 17.666
s4bxi, 40000, 6, 1, 237.7, 2006.417
s4bxi, 5000, 6, 1, 133.2, 24.517
s4bxi, 7500, 6, 1, 171, 45.354
smpi, 10000, 6, 1, 200.3, 27.365
smpi, 1250, 6, 1, 31.09, 4.365
smpi, 15000, 6, 1, 224.2, 69.94
smpi, 1875, 6, 1, 56.36, 5.3
smpi, 20000, 6, 1, 227.9, 151.36599999999999
smpi, 2500, 6, 1, 79.71, 5.874
smpi, 30000, 6, 1, 236.2, 466.831
smpi, 3750, 6, 1, 119.3, 6.835
smpi, 40000, 6, 1, 239.3, 1069.629
smpi, 5000, 6, 1, 148.1, 8.591
smpi, 7500, 6, 1, 182.2, 15.917
smpirun, 10000, 6, 1, 207.3, 21.677
smpirun, 1250, 6, 1, 49.21, 0.411
smpirun, 15000, 6, 1, 225.9, 63.368
smpirun, 1875, 6, 1, 80.7, 0.674
smpirun, 20000, 6, 1, 230.2, 143.587
smpirun, 2500, 6, 1, 105.2, 1.049
smpirun, 30000, 6, 1, 238.7, 455.604
smpirun, 3750, 6, 1, 141, 2.204
smpirun, 40000, 6, 1, 239.7, 1057.776
smpirun, 5000, 6, 1, 165.2, 3.987
smpirun, 7500, 6, 1, 194, 10.325
