Model, N, nodes, ppn, Gflops, WallClockTime
modelChange, 10000, 8, 1, 240, 92.648
modelChange, 1250, 8, 1, 25.68, 8.426
modelChange, 15000, 8, 1, 260.6, 226.322
modelChange, 1875, 8, 1, 49.37, 10.813
modelChange, 20000, 8, 1, 296.1, 370.397
modelChange, 2500, 8, 1, 73.43, 14.542
modelChange, 30000, 8, 1, 284.5, 1463.578
modelChange, 3750, 8, 1, 116.1, 21.346
modelChange, 40000, 8, 1, 314.9, 2095.657
modelChange, 5000, 8, 1, 153.9, 32.135
modelChange, 7500, 8, 1, 198.5, 59.639
s4bxi, 10000, 8, 1, 239.6, 92.447
s4bxi, 1250, 8, 1, 25.86, 9.184
s4bxi, 15000, 8, 1, 261.1, 223.231
s4bxi, 1875, 8, 1, 48.77, 11.347
s4bxi, 20000, 8, 1, 295.6, 369.908
s4bxi, 2500, 8, 1, 73.93, 14.989
s4bxi, 30000, 8, 1, 284.3, 1463.526
s4bxi, 3750, 8, 1, 117.3, 21.855
s4bxi, 40000, 8, 1, 314.8, 2097.291
s4bxi, 5000, 8, 1, 154.8, 33.055
s4bxi, 7500, 8, 1, 199.6, 57.569
smpi, 10000, 8, 1, 256, 31.692
smpi, 1250, 8, 1, 35.71, 5.049
smpi, 15000, 8, 1, 269.5, 79.008
smpi, 1875, 8, 1, 65.51, 5.737
smpi, 20000, 8, 1, 303.3, 157.653
smpi, 2500, 8, 1, 93.58, 7.398
smpi, 30000, 8, 1, 288.8, 482.467
smpi, 3750, 8, 1, 137.8, 9.219
smpi, 40000, 8, 1, 318.5, 1086.806
smpi, 5000, 8, 1, 177.9, 11.025
smpi, 7500, 8, 1, 216.6, 19.418
smpirun, 10000, 8, 1, 264.2, 22.905
smpirun, 1250, 8, 1, 54.16, 0.567
smpirun, 15000, 8, 1, 274.3, 68.021
smpirun, 1875, 8, 1, 88.97, 0.915
smpirun, 20000, 8, 1, 307.3, 143.969
smpirun, 2500, 8, 1, 118.8, 1.372
smpirun, 30000, 8, 1, 289.6, 463.641
smpirun, 3750, 8, 1, 161.2, 2.756
smpirun, 40000, 8, 1, 318.4, 1066.325
smpirun, 5000, 8, 1, 196.3, 4.697
smpirun, 7500, 8, 1, 229.7, 11.782
