Model, N, nodes, ppn, Gflops, WallClockTime
modelChange, 10000, 5, 5, 538.7, 87.502
modelChange, 1250, 5, 5, 24.93, 14.022
modelChange, 15000, 5, 5, 702.1, 175.252
modelChange, 1875, 5, 5, 52.88, 15.838
modelChange, 20000, 5, 5, 786.6, 326.619
modelChange, 2500, 5, 5, 87.39, 18.53
modelChange, 30000, 5, 5, 882, 841.015
modelChange, 3750, 5, 5, 171.3, 25.822
modelChange, 40000, 5, 5, 910.9, 1823.148
modelChange, 5000, 5, 5, 256.1, 33.457
modelChange, 7500, 5, 5, 423.7, 56.013
s4bxi, 10000, 5, 5, 538.8, 84.614
s4bxi, 1250, 5, 5, 25.22, 12.75
s4bxi, 15000, 5, 5, 701.6, 175.088
s4bxi, 1875, 5, 5, 52.11, 15.873
s4bxi, 20000, 5, 5, 791.8, 328.392
s4bxi, 2500, 5, 5, 87.8, 19.697
s4bxi, 30000, 5, 5, 882.4, 837.179
s4bxi, 3750, 5, 5, 169.7, 25.923
s4bxi, 40000, 5, 5, 913.2, 1812.423
s4bxi, 5000, 5, 5, 264, 33.893
s4bxi, 7500, 5, 5, 420.6, 55.749
smpi, 10000, 5, 5, 609.6, 32.08
smpi, 1250, 5, 5, 35.21, 8.733
smpi, 15000, 5, 5, 755.2, 77.202
smpi, 1875, 5, 5, 73.18, 9.12
smpi, 20000, 5, 5, 827.3, 158.54
smpi, 2500, 5, 5, 119.6, 9.429
smpi, 30000, 5, 5, 902.2, 479.813
smpi, 3750, 5, 5, 222, 11.051
smpi, 40000, 5, 5, 926.5, 1090.025
smpi, 5000, 5, 5, 326.7, 12.963
smpi, 7500, 5, 5, 494, 20.089
smpirun, 10000, 5, 5, 544.3, 21.835
smpirun, 1250, 5, 5, 30.04, 0.412
smpirun, 15000, 5, 5, 704.6, 64.827
smpirun, 1875, 5, 5, 58.95, 0.674
smpirun, 20000, 5, 5, 786, 144.653
smpirun, 2500, 5, 5, 96.85, 1.052
smpirun, 30000, 5, 5, 875.5, 462.38
smpirun, 3750, 5, 5, 181.7, 2.192
smpirun, 40000, 5, 5, 906.1, 1068.536
smpirun, 5000, 5, 5, 274.2, 3.951
smpirun, 7500, 5, 5, 433.3, 10.319
