magic, rank, use_smpi, time, delta, comment
#~#, 11, 0, 0.000002, 0.000002, Set initial model
#~#, 11, 0, 0.104552, 0.104551, After MPI_Init
#~#, 11, 0, 0.105920, 0.001368, After HPL_pdinfo
#~#, 11, 0, 0.106858, 0.000938, After HPL_grid_info
