magic, rank, use_smpi, time, delta, comment
#~#, 13, 0, 0.000001, 0.000001, Set initial model
#~#, 13, 0, 0.095867, 0.095866, After MPI_Init
#~#, 13, 0, 0.100128, 0.004261, After HPL_pdinfo
#~#, 13, 0, 0.101107, 0.000979, After HPL_grid_info
