magic, rank, use_smpi, time, delta, comment
#~#, 10, 1, 0.000001, 0.000001, Set initial model
#~#, 10, 1, 0.096732, 0.096731, After MPI_Init
#~#, 10, 1, 0.097963, 0.001231, After HPL_pdinfo
#~#, 10, 1, 0.098974, 0.001010, After HPL_grid_info
