magic, rank, use_smpi, time, delta, comment
#~#, 2, 1, 0.000001, 0.000001, Set initial model
#~#, 2, 1, 0.095956, 0.095954, After MPI_Init
#~#, 2, 1, 0.097962, 0.002006, After HPL_pdinfo
#~#, 2, 1, 0.098972, 0.001010, After HPL_grid_info
