magic, rank, use_smpi, time, delta, comment
#~#, 4, 1, 0.000001, 0.000001, Set initial model
#~#, 4, 1, 0.094808, 0.094806, After MPI_Init
#~#, 4, 1, 0.097962, 0.003154, After HPL_pdinfo
#~#, 4, 1, 0.098976, 0.001014, After HPL_grid_info
