magic, rank, use_smpi, time, delta, comment
#~#, 8, 1, 0.000001, 0.000001, Set initial model
#~#, 8, 1, 0.095013, 0.095012, After MPI_Init
#~#, 8, 1, 0.097962, 0.002948, After HPL_pdinfo
#~#, 8, 1, 0.098976, 0.001015, After HPL_grid_info
