magic, rank, use_smpi, time, delta, comment
#~#, 10, 0, 0.000001, 0.000001, Set initial model
#~#, 10, 0, 0.098401, 0.098399, After MPI_Init
#~#, 10, 0, 0.100669, 0.002268, After HPL_pdinfo
#~#, 10, 0, 0.101700, 0.001031, After HPL_grid_info
