magic, rank, use_smpi, time, delta, comment
#~#, 12, 0, 0.000001, 0.000001, Set initial model
#~#, 12, 0, 0.098310, 0.098309, After MPI_Init
#~#, 12, 0, 0.100656, 0.002346, After HPL_pdinfo
#~#, 12, 0, 0.101705, 0.001048, After HPL_grid_info
