magic, rank, use_smpi, time, delta, comment
#~#, 10, 0, 0.000001, 0.000001, Set initial model
#~#, 10, 0, 0.100920, 0.100918, After MPI_Init
#~#, 10, 0, 0.104125, 0.003205, After HPL_pdinfo
#~#, 10, 0, 0.105109, 0.000985, After HPL_grid_info
