magic, rank, use_smpi, time, delta, comment
#~#, 11, 0, 0.000001, 0.000001, Set initial model
#~#, 11, 0, 0.103688, 0.103687, After MPI_Init
#~#, 11, 0, 0.104128, 0.000440, After HPL_pdinfo
#~#, 11, 0, 0.105112, 0.000984, After HPL_grid_info
