magic, rank, use_smpi, time, delta, comment
#~#, 12, 0, 0.000001, 0.000001, Set initial model
#~#, 12, 0, 0.100435, 0.100434, After MPI_Init
#~#, 12, 0, 0.104120, 0.003685, After HPL_pdinfo
#~#, 12, 0, 0.105113, 0.000993, After HPL_grid_info
