magic, rank, use_smpi, time, delta, comment
#~#, 9, 0, 0.000002, 0.000002, Set initial model
#~#, 9, 0, 0.103721, 0.103719, After MPI_Init
#~#, 9, 0, 0.104127, 0.000406, After HPL_pdinfo
#~#, 9, 0, 0.105107, 0.000980, After HPL_grid_info
