magic, rank, use_smpi, time, delta, comment
#~#, 13, 0, 0.000002, 0.000002, Set initial model
#~#, 13, 0, 0.095687, 0.095685, After MPI_Init
#~#, 13, 0, 0.097206, 0.001519, After HPL_pdinfo
#~#, 13, 0, 0.098150, 0.000944, After HPL_grid_info
