magic, rank, use_smpi, time, delta, comment
#~#, 12, 0, 0.000001, 0.000001, Set initial model
#~#, 12, 0, 0.098337, 0.098335, After MPI_Init
#~#, 12, 0, 0.100756, 0.002419, After HPL_pdinfo
#~#, 12, 0, 0.101761, 0.001005, After HPL_grid_info
