magic, rank, use_smpi, time, delta, comment
#~#, 6, 0, 0.000001, 0.000001, Set initial model
#~#, 6, 0, 0.098327, 0.098326, After MPI_Init
#~#, 6, 0, 0.100771, 0.002444, After HPL_pdinfo
#~#, 6, 0, 0.101756, 0.000985, After HPL_grid_info
