magic, rank, use_smpi, time, delta, comment
#~#, 7, 1, 0.000001, 0.000001, Set initial model
#~#, 7, 1, 0.097833, 0.097831, After MPI_Init
#~#, 7, 1, 0.098096, 0.000263, After HPL_pdinfo
#~#, 7, 1, 0.099111, 0.001015, After HPL_grid_info
