magic, rank, use_smpi, time, delta, comment
#~#, 15, 0, 0.000001, 0.000001, Set initial model
#~#, 15, 0, 0.095747, 0.095746, After MPI_Init
#~#, 15, 0, 0.097995, 0.002248, After HPL_pdinfo
#~#, 15, 0, 0.098958, 0.000963, After HPL_grid_info
