magic, rank, use_smpi, time, delta, comment
#~#, 13, 0, 0.000001, 0.000001, Set initial model
#~#, 13, 0, 0.099580, 0.099579, After MPI_Init
#~#, 13, 0, 0.101820, 0.002240, After HPL_pdinfo
#~#, 13, 0, 0.102938, 0.001117, After HPL_grid_info
