magic, rank, use_smpi, time, delta, comment
#~#, 2, 0, 0.000002, 0.000002, Set initial model
#~#, 2, 0, 0.100878, 0.100876, After MPI_Init
#~#, 2, 0, 0.101813, 0.000935, After HPL_pdinfo
#~#, 2, 0, 0.102937, 0.001124, After HPL_grid_info
