magic, rank, use_smpi, time, delta, comment
#~#, 10, 0, 0.000001, 0.000001, Set initial model
#~#, 10, 0, 0.095627, 0.095626, After MPI_Init
#~#, 10, 0, 0.099250, 0.003623, After HPL_pdinfo
#~#, 10, 0, 0.100220, 0.000970, After HPL_grid_info
