magic, rank, use_smpi, time, delta, comment
#~#, 10, 0, 0.000001, 0.000001, Set initial model
#~#, 10, 0, 0.096751, 0.096750, After MPI_Init
#~#, 10, 0, 0.100391, 0.003640, After HPL_pdinfo
#~#, 10, 0, 0.101378, 0.000987, After HPL_grid_info
