magic, rank, use_smpi, time, delta, comment
#~#, 13, 0, 0.000001, 0.000001, Set initial model
#~#, 13, 0, 0.097968, 0.097967, After MPI_Init
#~#, 13, 0, 0.100386, 0.002418, After HPL_pdinfo
#~#, 13, 0, 0.101377, 0.000992, After HPL_grid_info
