magic, rank, use_smpi, time, delta, comment
#~#, 15, 0, 0.000001, 0.000001, Set initial model
#~#, 15, 0, 0.097991, 0.097990, After MPI_Init
#~#, 15, 0, 0.100399, 0.002408, After HPL_pdinfo
#~#, 15, 0, 0.101382, 0.000983, After HPL_grid_info
