[0.000000] [xbt_cfg/INFO] Configuration change: Set 'smpi/privatization' to '1'
[0.000000] [xbt_cfg/INFO] Configuration change: Set 'smpi/np' to '6'
[0.000000] [xbt_cfg/INFO] Configuration change: Set 'smpi/hostfile' to './hosts.txt'
[0.000000] [xbt_cfg/INFO] Configuration change: Set 'surf/precision' to '1e-9'
[0.000000] [xbt_cfg/INFO] Configuration change: Set 'network/model' to 'SMPI'
[0.000000] [xbt_cfg/INFO] Configuration change: Set 'smpi/privatization' to 'dlopen'
[0.000000] [xbt_cfg/INFO] Configuration change: Set 'smpi/display-timing' to 'yes'
[0.000000] [xbt_cfg/INFO] Configuration change: Set 'smpi/host-speed' to '10000Mf'
[0.000000] [xbt_cfg/INFO] Configuration change: Set 'smpi/tmpdir' to '/tmp'
[185.531828] [smpi_utils/INFO] Simulated time: 185.532 seconds. 

The simulation took 1057.71 seconds (after parsing and platform setup)
1044.52 seconds were actual computation of the application
[185.531828] [smpi_utils/INFO] More than 75% of the time was spent inside the application code.
You may want to use sampling functions or trace replay to reduce this.

real	17m37.776s
user	17m31.405s
sys	0m4.823s
