magic, rank, use_smpi, time, delta, comment
#~#, 5, 0, 0.000002, 0.000002, Set initial model
#~#, 5, 0, 0.120998, 0.120997, After MPI_Init
#~#, 5, 0, 0.121394, 0.000396, After HPL_pdinfo
#~#, 5, 0, 0.122525, 0.001131, After HPL_grid_info
