Model, N, nodes, ppn, Gflops, WallClockTime
model, 10000, 4, 4, 308.1, 38.054
model, 1250, 4, 4, 32.64, 7.392
model, 15000, 4, 4, 332.7, 88.252
model, 1875, 4, 4, 64.52, 8.046
model, 20000, 4, 4, 339, 178.019
model, 2500, 4, 4, 97.06, 8.541
model, 3750, 4, 4, 162.5, 10.951
model, 5000, 4, 4, 214.2, 13.951
model, 7500, 4, 4, 280.1, 23.123
s4bxi, 10000, 4, 4, 426.7, 43.942
s4bxi, 1250, 4, 4, 35.73, 6.86
s4bxi, 15000, 4, 4, 492.1, 98.125
s4bxi, 1875, 4, 4, 71.91, 8.519
s4bxi, 20000, 4, 4, 497.3, 194.463
s4bxi, 2500, 4, 4, 112.2, 9.876
s4bxi, 3750, 4, 4, 190.8, 12.624
s4bxi, 5000, 4, 4, 260.4, 16.412
s4bxi, 7500, 4, 4, 364, 27.651
smpi, 10000, 4, 4, 492.2, 27.208
smpi, 1250, 4, 4, 52.69, 5.961
smpi, 15000, 4, 4, 557.2, 69.613
smpi, 1875, 4, 4, 101.3, 6.202
smpi, 20000, 4, 4, 567.4, 149.023
smpi, 2500, 4, 4, 154.2, 6.538
smpi, 3750, 4, 4, 249.2, 7.606
smpi, 5000, 4, 4, 328.1, 9.46
smpi, 7500, 4, 4, 432, 16.013
smpirun, 10000, 4, 4, 451.8, 20.341
smpirun, 1250, 4, 4, 36.33, 0.33
smpirun, 15000, 4, 4, 531.9, 61.14
smpirun, 1875, 4, 4, 74.3, 0.549
smpirun, 20000, 4, 4, 543.9, 139.275
smpirun, 2500, 4, 4, 121.4, 0.88
smpirun, 3750, 4, 4, 196.7, 1.908
smpirun, 5000, 4, 4, 277.2, 3.557
smpirun, 7500, 4, 4, 385.5, 9.479
