magic, rank, use_smpi, time, delta, comment
#~#, 10, 1, 0.000001, 0.000001, Set initial model
#~#, 10, 1, 0.114057, 0.114056, After MPI_Init
#~#, 10, 1, 0.115048, 0.000991, After HPL_pdinfo
#~#, 10, 1, 0.116119, 0.001071, After HPL_grid_info
