magic, rank, use_smpi, time, delta, comment
#~#, 12, 1, 0.000001, 0.000001, Set initial model
#~#, 12, 1, 0.114261, 0.114259, After MPI_Init
#~#, 12, 1, 0.115048, 0.000787, After HPL_pdinfo
#~#, 12, 1, 0.116123, 0.001075, After HPL_grid_info
