magic, rank, use_smpi, time, delta, comment
#~#, 3, 1, 0.000002, 0.000002, Set initial model
#~#, 3, 1, 0.114772, 0.114770, After MPI_Init
#~#, 3, 1, 0.115047, 0.000276, After HPL_pdinfo
#~#, 3, 1, 0.116120, 0.001072, After HPL_grid_info
