magic, rank, use_smpi, time, delta, comment
#~#, 7, 1, 0.000001, 0.000001, Set initial model
#~#, 7, 1, 0.111756, 0.111755, After MPI_Init
#~#, 7, 1, 0.115049, 0.003293, After HPL_pdinfo
#~#, 7, 1, 0.116121, 0.001072, After HPL_grid_info
