Model, N, nodes, ppn, Gflops, WallClockTime
pm0-nod09, 10000, 1, 12, 259, 3.453
pm0-nod09, 1250, 1, 12, 97.32, 0.589
pm0-nod09, 15000, 1, 12, 271.2, 9.579
pm0-nod09, 1875, 1, 12, 147.1, 0.61
pm0-nod09, 20000, 1, 12, 286.5, 20.431
pm0-nod09, 2500, 1, 12, 184.2, 0.635
pm0-nod09, 30000, 1, 12, 303, 62.761
pm0-nod09, 3750, 1, 12, 217.7, 0.773
pm0-nod09, 40000, 1, 12, 309.5, 143.442
pm0-nod09, 5000, 1, 12, 233.4, 1.007
pm0-nod09, 7500, 1, 12, 245.1, 1.907
