Model, N, nodes, ppn, Gflops, WallClockTime
pm0-nod09, 10000, 2, 1, 81.03, 9.791
pm0-nod09, 1250, 2, 1, 46.48, 0.231
pm0-nod09, 15000, 2, 1, 84.99, 29.761
pm0-nod09, 1875, 2, 1, 60.61, 0.304
pm0-nod09, 20000, 2, 1, 88.65, 65.832
pm0-nod09, 2500, 2, 1, 68.34, 0.42
pm0-nod09, 30000, 2, 1, 89.53, 213.52
pm0-nod09, 3750, 2, 1, 70.81, 0.894
pm0-nod09, 40000, 2, 1, 90.23, 494.906
pm0-nod09, 5000, 2, 1, 77.82, 1.603
pm0-nod09, 7500, 2, 1, 82.54, 4.371
