Model, N, nodes, ppn, Gflops, WallClockTime
pm0-nod09, 10000, 1, 3, 127.6, 6.388
pm0-nod09, 1250, 1, 3, 70.34, 0.24
pm0-nod09, 15000, 1, 3, 131, 19.509
pm0-nod09, 1875, 1, 3, 88.43, 0.293
pm0-nod09, 20000, 1, 3, 134.6, 43.613
pm0-nod09, 2500, 1, 3, 100.8, 0.371
pm0-nod09, 30000, 1, 3, 136.1, 141.03
pm0-nod09, 3750, 1, 3, 108.3, 0.672
pm0-nod09, 40000, 1, 3, 135, 331.445
pm0-nod09, 5000, 1, 3, 116.3, 1.165
pm0-nod09, 7500, 1, 3, 123.5, 3.021
