Model, N, nodes, ppn, Gflops, WallClockTime
pm0-nod09, 10000, 1, 4, 158.9, 5.156
pm0-nod09, 1250, 1, 4, 76.38, 0.263
pm0-nod09, 15000, 1, 4, 166, 15.42
pm0-nod09, 1875, 1, 4, 104.2, 0.297
pm0-nod09, 20000, 1, 4, 171.5, 34.298
pm0-nod09, 2500, 1, 4, 124, 0.368
pm0-nod09, 30000, 1, 4, 172.5, 111.13300000000001
pm0-nod09, 3750, 1, 4, 131.4, 0.614
pm0-nod09, 40000, 1, 4, 175.1, 255.394
pm0-nod09, 5000, 1, 4, 146.6, 0.987
pm0-nod09, 7500, 1, 4, 152.4, 2.485
