Model, N, nodes, ppn, Gflops, WallClockTime
pm0-nod11, 10000, 4, 4, 247.4, 3.234
pm0-nod11, 1250, 4, 4, 46.7, 0.263
pm0-nod11, 15000, 4, 4, 261.5, 9.557
pm0-nod11, 1875, 4, 4, 86.17, 0.307
pm0-nod11, 20000, 4, 4, 271.3, 21.149
pm0-nod11, 2500, 4, 4, 122.9, 0.341
pm0-nod11, 3750, 4, 4, 172.2, 0.486
pm0-nod11, 5000, 4, 4, 203.7, 0.741
pm0-nod11, 7500, 4, 4, 224.9, 1.66
pm0-nod11, 10000, 4, 4, 246.9, 3.239
pm0-nod11, 1250, 4, 4, 46.32, 0.278
pm0-nod11, 15000, 4, 4, 261, 16.624
pm0-nod11, 1875, 4, 4, 85.09, 0.305
pm0-nod11, 20000, 4, 4, 271.1, 21.151
pm0-nod11, 2500, 4, 4, 120.6, 0.349
pm0-nod11, 3750, 4, 4, 171.8, 0.472
pm0-nod11, 5000, 4, 4, 204.2, 0.727
pm0-nod11, 7500, 4, 4, 225.1, 1.675
pm0-nod11, 10000, 4, 4, 247.4, 3.242
pm0-nod11, 1250, 4, 4, 47.21, 0.271
pm0-nod11, 15000, 4, 4, 260.6, 9.588
pm0-nod11, 1875, 4, 4, 85.28, 0.29
pm0-nod11, 20000, 4, 4, 270.6, 21.197
pm0-nod11, 2500, 4, 4, 123, 0.334
pm0-nod11, 3750, 4, 4, 169.3, 0.479
pm0-nod11, 5000, 4, 4, 201.2, 0.724
pm0-nod11, 7500, 4, 4, 226, 1.652
pm0-nod11, 10000, 4, 4, 248.2, 3.222
pm0-nod11, 1250, 4, 4, 46.39, 0.262
pm0-nod11, 15000, 4, 4, 260.6, 9.58
pm0-nod11, 1875, 4, 4, 85.56, 0.301
pm0-nod11, 20000, 4, 4, 270.6, 21.207
pm0-nod11, 2500, 4, 4, 121.7, 0.351
pm0-nod11, 3750, 4, 4, 170.8, 0.475
pm0-nod11, 5000, 4, 4, 203.7, 0.723
pm0-nod11, 7500, 4, 4, 225, 1.663
pm0-nod11, 10000, 4, 4, 247.6, 3.241
pm0-nod11, 1250, 4, 4, 46.33, 0.261
pm0-nod11, 15000, 4, 4, 260.5, 9.602
pm0-nod11, 1875, 4, 4, 84.57, 0.312
pm0-nod11, 20000, 4, 4, 271, 21.166
pm0-nod11, 2500, 4, 4, 121.1, 0.347
pm0-nod11, 3750, 4, 4, 173.1, 0.483
pm0-nod11, 5000, 4, 4, 202.1, 0.734
pm0-nod11, 7500, 4, 4, 225.1, 1.657
