_#_,480,480,120,1236263
_#_,360,391,120,700641
_#_,360,391,120,1202593__#_,360,391,120,710922_#_,360,480,120,895053
_#_,360,480,120,882052
__#_,360,391,120,689452
_#_,360,60,0,8970
_#_,360,30,0,550
_#_,360,16,0,380
_#_,360,8,0,380
_#_,360,4,0,370
_#_,360,2,0,350
_#_,360,2,2,560
_#_,360,4,4,750
_#_,360,2,0,470
_#_,360,2,2,400
_#_,360,8,8,1760
_#_,360,4,0,480
_#_,360,2,0,351
_#_,360,2,2,420
_#_,360,4,4,680
_#_,360,2,0,410
_#_,360,2,2,330
_#_,360,14,16,4410
_#_,360,8,0,490
_#_,360,4,0,370
_#_,360,2,0,340
_#_,360,2,2,330
_#_,360,4,4,700
_#_,360,2,0,400
_#_,360,2,2,350
_#_,360,6,8,1340
_#_,360,4,0,440
_#_,360,2,0,350
_#_,360,2,2,330
_#_,360,2,4,460
_#_,360,30,30,15180
_#_,360,16,0,490
_#_,360,8,0,350
_#_,360,4,0,340
_#_,360,2,0,340
_#_,360,2,2,350
_#_,360,4,4,711
_#_,360,2,0,411
_#_,360,2,2,400
_#_,360,8,8,1680
_#_,360,4,0,531
_#_,360,2,0,389
_#_,360,2,2,340
_#_,360,4,4,640
_#_,360,2,0,390
_#_,360,2,2,340
_#_,360,14,16,4340
_#_,360,8,0,420
_#_,360,4,0,340
_#_,360,2,0,340
_#_,360,2,2,320
_#_,360,4,4,680
_#_,360,2,0,430
_#_,360,2,2,340
_#_,360,6,8,1340
_#_,360,4,0,430
_#_,360,2,0,360
_#_,360,2,2,340
_#_,360,2,4,430
_#_,360,60,60,53851
_#_,360,30,0,591
_#_,360,16,0,380
_#_,360,8,0,360
_#_,360,4,0,371
_#_,360,2,0,360
_#_,360,2,2,349
_#_,360,4,4,710
_#_,360,2,0,380
_#_,360,2,2,340
_#_,360,8,8,1620
_#_,360,4,0,360
_#_,360,2,0,340
_#_,360,2,2,350
_#_,360,4,4,690
_#_,360,2,0,400
_#_,360,2,2,370
_#_,360,14,16,4350
_#_,360,8,0,410
_#_,360,4,0,340
_#_,360,2,0,340
_#_,360,2,2,330
_#_,360,4,4,650
_#_,360,2,0,410
_#_,360,2,2,340
_#_,360,6,8,1290
_#_,360,4,0,440
_#_,360,2,0,360
_#_,360,2,2,350
_#_,360,2,4,420
_#_,360,30,30,15240
_#_,360,16,0,460
_#_,360,8,0,349
_#_,360,4,0,349
_#_,360,2,0,340
_#_,360,2,2,360
_#_,360,4,4,660
_#_,360,2,0,390
_#_,360,2,2,340
_#_,360,8,8,1570
_#_,360,4,0,400
_#_,360,2,0,340
_#_,360,2,2,340
_#_,360,4,4,650
_#_,360,2,0,410
_#_,360,2,2,350
_#_,360,14,16,5370
_#_,360,8,0,730
_#_,360,4,0,600
_#_,360,2,0,600
_#_,360,2,2,610
_#_,360,4,4,660
_#_,360,2,0,510
_#_,360,2,2,340
_#_,360,6,8,1300
_#_,360,4,0,420
_#_,360,2,0,360
_#_,360,2,2,350
_#_,360,2,4,411__#_,360,360,120,621791_#_,360,360,120,622142
_#_,240,360,120,430101
_#_,240,360,120,406101
_#_,240,360,120,420471
_#_,240,360,120,411821
_#_,240,360,120,416461
__#_,240,271,120,311990
_#_,240,60,0,1480
_#_,240,30,0,489
_#_,240,16,0,400
_#_,240,8,0,369
_#_,240,4,0,371
_#_,240,2,0,351
_#_,240,2,2,570
_#_,240,4,4,580
_#_,240,2,0,530
_#_,240,2,2,300
_#_,240,8,8,1160
_#_,240,4,0,430
_#_,240,2,0,340
_#_,240,2,2,280
_#_,240,4,4,470
_#_,240,2,0,370
_#_,240,2,2,280
_#_,240,14,16,2960
_#_,240,8,0,420
_#_,240,4,0,340
_#_,240,2,0,350
_#_,240,2,2,330
_#_,240,4,4,530
_#_,240,2,0,410
_#_,240,2,2,270
_#_,240,6,8,940
_#_,240,4,0,370
_#_,240,2,0,340
_#_,240,2,2,269
_#_,240,2,4,331
_#_,240,30,30,10180
_#_,240,16,0,470
_#_,240,8,0,350
_#_,240,4,0,340
_#_,240,2,0,340
_#_,240,2,2,270
_#_,240,4,4,490
_#_,240,2,0,430
_#_,240,2,2,270
_#_,240,8,8,1130
_#_,240,4,0,430
_#_,240,2,0,360
_#_,240,2,2,270
_#_,240,4,4,500
_#_,240,2,0,390
_#_,240,2,2,260
_#_,240,14,16,2990
_#_,240,8,0,420
_#_,240,4,0,350
_#_,240,2,0,330
_#_,240,2,2,240
_#_,240,4,4,530
_#_,240,2,0,390
_#_,240,2,2,270
_#_,240,6,8,950
_#_,240,4,0,390
_#_,240,2,0,330
_#_,240,2,2,260
_#_,240,2,4,331
_#_,240,60,60,35431
_#_,240,30,0,500
_#_,240,16,0,370
_#_,240,8,0,340
_#_,240,4,0,340
_#_,240,2,0,340
_#_,240,2,2,280
_#_,240,4,4,510
_#_,240,2,0,360
_#_,240,2,2,240
_#_,240,8,8,1110
_#_,240,4,0,370
_#_,240,2,0,330
_#_,240,2,2,270
_#_,240,4,4,460
_#_,240,2,0,380
_#_,240,2,2,510
_#_,240,14,16,2990
_#_,240,8,0,540
_#_,240,4,0,360
_#_,240,2,0,350
_#_,240,2,2,270
_#_,240,4,4,500
_#_,240,2,0,370
_#_,240,2,2,251
_#_,240,6,8,940
_#_,240,4,0,400
_#_,240,2,0,340
_#_,240,2,2,271
_#_,240,2,4,311
_#_,240,30,30,10080
_#_,240,16,0,470
_#_,240,8,0,360
_#_,240,4,0,360
_#_,240,2,0,340
_#_,240,2,2,250
_#_,240,4,4,480
_#_,240,2,0,360
_#_,240,2,2,250
_#_,240,8,8,1140
_#_,240,4,0,430
_#_,240,2,0,350
_#_,240,2,2,270
_#_,240,4,4,500
_#_,240,2,0,370
_#_,240,2,2,260
_#_,240,14,16,2880
_#_,240,8,0,380
_#_,240,4,0,350
_#_,240,2,0,340
_#_,240,2,2,260
_#_,240,4,4,520
_#_,240,2,0,420
_#_,240,2,2,280
_#_,240,6,8,931
_#_,240,4,0,400
_#_,240,2,0,340
_#_,240,2,2,269
_#_,240,2,4,300__#_,240,240,120,268521__#_,240,240,120,267421__#_,120,240,120,140550__#_,120,240,120,14237___#_,120,240,120,1377_#__#_,120,240,120,136_#_,_#_,120,240,120,13_#_,120,151,120,87080
_#_,120,60,0,1360
_#_,120,30,0,410
_#_,120,16,0,380
_#_,120,8,0,350
_#_,120,4,0,370
_#_,120,2,0,350
_#_,120,2,2,340
_#_,120,4,4,420
_#_,120,2,0,371
_#_,120,2,2,229
_#_,120,8,8,760
_#_,120,4,0,400
_#_,120,2,0,330
_#_,120,2,2,250
_#_,120,4,4,350
_#_,120,2,0,390
_#_,120,2,2,230
_#_,120,14,16,1720
_#_,120,8,0,560
_#_,120,4,0,390
_#_,120,2,0,330
_#_,120,2,2,230
_#_,120,4,4,360
_#_,120,2,0,430
_#_,120,2,2,230
_#_,120,6,8,630
_#_,120,4,0,390
_#_,120,2,0,350
_#_,120,2,2,210
_#_,120,2,4,270
_#_,120,30,30,5260
_#_,120,16,0,460
_#_,120,8,0,349
_#_,120,4,0,360
_#_,120,2,0,351
_#_,120,2,2,220
_#_,120,4,4,351
_#_,120,2,0,400
_#_,120,2,2,230
_#_,120,8,8,710
_#_,120,4,0,400
_#_,120,2,0,330
_#_,120,2,2,230
_#_,120,4,4,350
_#_,120,2,0,380
_#_,120,2,2,230
_#_,120,14,16,1600
_#_,120,8,0,390
_#_,120,4,0,340
_#_,120,2,0,330
_#_,120,2,2,230
_#_,120,4,4,350
_#_,120,2,0,380
_#_,120,2,2,220
_#_,120,6,8,560
_#_,120,4,0,410
_#_,120,2,0,340
_#_,120,2,2,210
_#_,120,2,4,230
_#_,120,60,60,18211
_#_,120,30,0,491
_#_,120,16,0,380
_#_,120,8,0,351
_#_,120,4,0,349
_#_,120,2,0,340
_#_,120,2,2,220
_#_,120,4,4,351
_#_,120,2,0,369
_#_,120,2,2,210
_#_,120,8,8,680
_#_,120,4,0,390
_#_,120,2,0,340
_#_,120,2,2,230
_#_,120,4,4,350
_#_,120,2,0,380
_#_,120,2,2,220
_#_,120,14,16,1630
_#_,120,8,0,420
_#_,120,4,0,350
_#_,120,2,0,340
_#_,120,2,2,200
_#_,120,4,4,350
_#_,120,2,0,380
_#_,120,2,2,220
_#_,120,6,8,590
_#_,120,4,0,400
_#_,120,2,0,340
_#_,120,2,2,220
_#_,120,2,4,250
_#_,120,30,30,5200
_#_,120,16,0,429
_#_,120,8,0,360
_#_,120,4,0,351
_#_,120,2,0,360
_#_,120,2,2,460
_#_,120,4,4,680
_#_,120,2,0,771
_#_,120,2,2,390
_#_,120,8,8,990
_#_,120,4,0,680
_#_,120,2,0,590
_#_,120,2,2,240
_#_,120,4,4,360
_#_,120,2,0,430
_#_,120,2,2,220
_#_,120,14,16,1660
_#_,120,8,0,440
_#_,120,4,0,340
_#_,120,2,0,340
_#_,120,2,2,220
_#_,120,4,4,340
_#_,120,2,0,400
_#_,120,2,2,210
_#_,120,6,8,560
_#_,120,4,0,390
_#_,120,2,0,340
_#_,120,2,2,200
_#_,120,2,4,250
____#_,120,120,120,67_#____#_,120,120,120,_#_____#_,0,120,1_#_,0_#_#_,0,120,_#_,0,3__#_,0,120_#_,0,31__#_,0,12_#_,0,31,1_#_,0,1_#_,0,31,120,560
_#_,0,16,0,371
_#_,0,8,0,320
_#_,0,4,0,300
_#_,0,2,0,300
_#_,0,2,2,349
_#_,0,4,4,340
_#_,0,2,0,320
_#_,0,2,2,330
_#_,0,8,8,330
_#_,0,4,0,300
_#_,0,2,0,310
_#_,0,2,2,330
_#_,0,4,4,330
_#_,0,2,0,320
_#_,0,2,2,320
_#_,0,14,16,330
_#_,0,8,0,290
_#_,0,4,0,310
_#_,0,2,0,300
_#_,0,2,2,330
_#_,0,4,4,350
_#_,0,2,0,310
_#_,0,2,2,320
_#_,0,6,8,300
_#_,0,4,0,290
_#_,0,2,0,300
_#_,0,2,2,320
_#_,0,2,4,330
_#_,0,1,30,270

real	0m0.509s
user	0m0.138s
sys	0m0.248s
_,0,8,0,300
_#_,0,4,0,291
_#_,0,2,0,289
_#_,0,2,2,309
_#_,0,4,4,311
_#_,0,2,0,309
_#_,0,2,2,330
_#_,0,8,8,340
_#_,0,4,0,320
_#_,0,2,0,320
_#_,0,2,2,320
_#_,0,4,4,310
_#_,0,2,0,320
_#_,0,2,2,340
_#_,0,14,16,340
_#_,0,8,0,320
_#_,0,4,0,300
_#_,0,2,0,310
_#_,0,2,2,320
_#_,0,4,4,320
_#_,0,2,0,320
_#_,0,2,2,340
_#_,0,6,8,330
_#_,0,4,0,320
_#_,0,2,0,310
_#_,0,2,2,310
_#_,0,2,4,330
_#_,0,60,60,340
_#_,0,30,0,320
_#_,0,16,0,320
_#_,0,8,0,310
_#_,0,4,0,289
_#_,0,2,0,291
_#_,0,2,2,309
_#_,0,4,4,340
_#_,0,2,0,320
_#_,0,2,2,330
_#_,0,8,8,330
_#_,0,4,0,300
_#_,0,2,0,290
_#_,0,2,2,330
_#_,0,4,4,330
_#_,0,2,0,320
_#_,0,2,2,320
_#_,0,14,16,310
_#_,0,8,0,300
_#_,0,4,0,290
_#_,0,2,0,290
_#_,0,2,2,340
_#_,0,4,4,340
_#_,0,2,0,320
_#_,0,2,2,320
_#_,0,6,8,320
_#_,0,4,0,300
_#_,0,2,0,300
_#_,0,2,2,330
_#_,0,2,4,340
_#_,0,30,30,320
_#_,0,16,0,300
_#_,0,8,0,300
_#_,0,4,0,290
_#_,0,2,0,300
_#_,0,2,2,340
_#_,0,4,4,340
_#_,0,2,0,320
_#_,0,2,2,320
_#_,0,8,8,320
_#_,0,4,0,290
_#_,0,2,0,300
_#_,0,2,2,310
_#_,0,4,4,320
_#_,0,2,0,320
_#_,0,2,2,330
_#_,0,14,16,350
_#_,0,8,0,310
_#_,0,4,0,290
_#_,0,2,0,290
_#_,0,2,2,310
_#_,0,4,4,360
_#_,0,2,0,320
_#_,0,2,2
real	0m0.495s
user
real	0m0.507s
user	0m0.145s
sys	0m0.252s
	0m0.502s
user
real	0m0.503s
user	0m0.145s
sys	0m0.246s
_#_,2,2,4,220

real	0m0.506s
user	0m0.149s
sys	0m0.246s
0,2,0,350
_#_,120,2,2,200
_#_,120,2,4,240

real	0m0.510s
user	0m0.157s
sys	0m0.238s
