magic, rank, use_smpi, time, delta, comment
#~#, 2, 1, 0.000002, 0.000002, Set initial model
#~#, 2, 1, 0.099100, 0.099098, After MPI_Init
#~#, 2, 1, 0.099998, 0.000898, After HPL_pdinfo
#~#, 2, 1, 0.101065, 0.001068, After HPL_grid_info
