magic, rank, use_smpi, time, delta, comment
#~#, 9, 0, 0.000002, 0.000002, Set initial model
#~#, 9, 0, 0.096851, 0.096849, After MPI_Init
#~#, 9, 0, 0.100083, 0.003232, After HPL_pdinfo
#~#, 9, 0, 0.101075, 0.000992, After HPL_grid_info
